"01.12.08","1","077353","1089","110","Engineering ","","0","","7:00","16:00","8","60",
"02.12.08","2","077353","1089","110","Engineering ","","0","Driverseat lock test spec creation","7:00","16:00","8","60",
"03.12.08","3","077353","1259","140","Test","","0","Retesting of pcm2mmi","7:00","16:00","8","60",
"04.12.08","4","077353","1259","140","Test","","0","Retesting of pcm2mmi","7:00","16:00","8","60",
"05.12.08","5","077353","1089","110","Engineering ","","0","ZDC test - retested test against simulation","7:00","16:00","8","60",
