DATE;NAME;1;2;3;4;5;6;7;8;9;10;11;12;13;14;15;16;17;18;19;20;21;22;23;24;
26.10.08;Nico Claassen;
26.10.08;Malcolm Vorster;
26.10.08;Graham Meyer;
26.10.08;Michael Preller;
26.10.08;Andre Esterhuyse;
26.10.08;Ludumo Sankobe;
26.10.08;Paul Helliwell;
26.10.08;Stuart John Todd;
26.10.08;Michael Wells;
26.10.08;Pierre Jansen;
26.10.08;Brendan van Zyl;
26.10.08;Jason Smith;
26.10.08;Justin Jansen Van Vuuren;
27.10.08;Nico Claassen;077353-1077-110;077472-536-110;077472-536-110;077472-536-110;077472-536-110;00000-000-100;077353-1082-110;077353-1082-110;077353-1082-110;
27.10.08;Malcolm Vorster;00000-000-103;077353-1223-140;077353-1223-140;077353-1192-110;077353-1192-110;00000-000-100;077353-1192-110;077353-1192-110;077353-1192-110;
27.10.08;Graham Meyer;077353-1719-120;00000-000-103;00000-000-103;00000-000-105;00000-000-105;00000-000-100;00000-000-105;00000-000-105;00000-000-105;
27.10.08;Michael Preller;077353-1896-110;077353-1232-120;077353-1232-120;077353-1232-120;077353-1232-120;00000-000-100;077353-1232-120;077353-1340-120;077353-1340-120;
27.10.08;Andre Esterhuyse;077353-1292-120;077353-1292-120;077353-1292-120;077353-1292-120;077353-1292-120;00000-000-100;077353-1292-120;077353-1196-120;077353-1196-120;
27.10.08;Ludumo Sankobe;077353-1087-110;077353-1087-110;077353-1087-110;077353-1087-110;077353-1087-110;077353-1087-110;077353-1087-110;077353-1087-110;
27.10.08;Paul Helliwell;077353-1276-110;077353-1276-110;077353-1276-110;077353-1276-110;077353-1276-110;00000-000-100;077353-1276-110;077353-1276-110;077353-1088-110;
27.10.08;Stuart John Todd;077353-1089-110;077353-1089-110;077353-1089-110;077353-1089-110;077353-1089-110;00000-000-100;077353-1089-110;077353-1089-110;077353-1089-110;
27.10.08;Michael Wells;077353-1918-110;077472-789-110;077472-789-110;077472-789-110;077472-789-110;00000-000-100;077472-789-110;077472-789-110;077472-789-110;
27.10.08;Pierre Jansen;
27.10.08;Brendan van Zyl;
27.10.08;Jason Smith;
27.10.08;Justin Jansen Van Vuuren;
28.10.08;Nico Claassen;077353-1077-110;077353-1077-110;077353-1077-110;077353-1082-110;077353-1082-110;00000-000-100;077353-1082-110;077353-1082-110;00000-000-106;
28.10.08;Malcolm Vorster;077353-1223-140;077353-1223-140;077353-1223-140;077353-1223-140;077353-1223-140;00000-000-100;077353-1223-140;00000-000-104;00000-000-104;
28.10.08;Graham Meyer;077353-1084-110;077353-1084-110;077353-1084-110;077353-1084-110;077353-1084-110;00000-000-100;077353-1084-110;077353-1084-110;077353-1084-110;
28.10.08;Michael Preller;077353-1896-110;077353-1232-120;077353-1232-120;077353-1232-120;077353-1232-120;00000-000-100;077353-1232-120;077353-1232-120;077353-1232-120;
28.10.08;Andre Esterhuyse;077353-1196-120;077353-1196-120;077353-1196-120;077353-1196-120;077353-1196-120;00000-000-100;077353-1196-120;077353-1196-120;077353-1196-120;
28.10.08;Ludumo Sankobe;077353-1714-110;077353-1714-110;077353-1714-110;077353-1714-110;077353-1714-110;077353-1714-110;077353-1714-110;077353-1714-110;
28.10.08;Paul Helliwell;077353-1276-110;077353-1276-110;077353-1276-110;077353-1276-110;077353-1276-110;00000-000-100;077353-1276-110;077353-1276-110;077353-1276-110;
28.10.08;Stuart John Todd;077353-1089-110;077353-1089-110;077353-1089-110;077353-1089-110;077353-1089-110;00000-000-100;077353-1089-110;077353-1089-110;077353-1089-110;
28.10.08;Michael Wells;077472-789-110;077472-789-110;077472-789-110;077472-789-110;077472-789-110;00000-000-100;077598-0-920;077598-0-920;077598-0-920;
28.10.08;Pierre Jansen;
28.10.08;Brendan van Zyl;
28.10.08;Jason Smith;
28.10.08;Justin Jansen Van Vuuren;
29.10.08;Nico Claassen;077353-1797-110;077353-1797-110;077472-536-110;077472-536-110;077472-536-110;00000-000-100;077472-536-110;077353-1077-110;077353-1082-110;
29.10.08;Malcolm Vorster;077353-1223-140;00000-000-103;00000-000-103;00000-000-103;00000-000-103;00000-000-100;00000-000-104;00000-000-104;00000-000-104;
29.10.08;Graham Meyer;077353-1084-110;00000-000-104;00000-000-104;00000-000-104;00000-000-104;00000-000-100;00000-000-105;00000-000-105;00000-000-105;
29.10.08;Michael Preller;077353-1896-110;077353-1232-120;077353-1232-120;077353-1232-120;077353-1340-120;00000-000-100;077353-1340-120;077353-1356-185;077353-1356-185;
29.10.08;Andre Esterhuyse;077353-1196-120;077353-1196-120;077353-1196-120;077353-1196-120;077353-1196-120;00000-000-100;077353-1196-120;077353-1196-120;077353-1196-120;
29.10.08;Ludumo Sankobe;077472-786-110;077472-786-110;077472-786-110;077472-786-110;077472-786-110;077472-786-110;077472-786-110;077472-786-110;
29.10.08;Paul Helliwell;077353-1228-110;077353-1228-110;077353-1228-110;077353-1228-110;077353-1228-110;00000-000-100;077353-1228-110;077353-1228-110;077353-1228-110;
29.10.08;Stuart John Todd;077353-1089-110;077353-1089-110;077353-1089-110;077353-1089-110;077353-1089-110;00000-000-100;077353-1089-110;077353-1089-110;077353-1089-110;
29.10.08;Michael Wells;
29.10.08;Pierre Jansen;
29.10.08;Brendan van Zyl;
29.10.08;Jason Smith;
29.10.08;Justin Jansen Van Vuuren;
30.10.08;Nico Claassen;077353-1077-110;077472-781-110;077472-781-110;077353-1082-110;077353-1082-110;00000-000-100;077353-1082-110;077353-1082-110;077353-1082-110;
30.10.08;Malcolm Vorster;00000-000-104;00000-000-104;00000-000-104;00000-000-104;00000-000-104;00000-000-100;00000-000-103;00000-000-103;077353-1192-110;
30.10.08;Graham Meyer;00000-000-104;00000-000-104;00000-000-104;00000-000-104;00000-000-104;00000-000-100;00000-000-104;00000-000-104;00000-000-104;
30.10.08;Michael Preller;077353-1896-110;077353-1356-185;077353-1356-185;077353-1356-185;077353-1340-120;00000-000-100;077353-1340-120;077353-1232-120;077353-1232-120;
30.10.08;Andre Esterhuyse;077353-1196-120;077353-1196-120;077353-1196-120;077353-1196-120;077353-1196-120;00000-000-100;077353-1196-120;077353-1196-120;077353-1196-120;
30.10.08;Ludumo Sankobe;077353-1304-120;077353-1304-120;077353-1304-120;077353-1304-120;077353-1304-120;077353-1304-120;077353-1304-120;077353-1304-120;
30.10.08;Paul Helliwell;077353-1228-110;077353-1228-110;077353-1228-110;077353-1228-110;077353-1228-110;00000-000-100;077353-1228-110;077353-1088-110;077353-1088-110;
30.10.08;Stuart John Todd;077353-1089-110;077353-1089-110;077353-1089-110;077353-1089-110;077353-1089-110;00000-000-100;077353-1089-110;077353-1089-110;077353-1089-110;
30.10.08;Michael Wells;077472-854-110;077472-854-110;077472-855-110;077472-855-110;077472-789-110;00000-000-100;077472-789-110;077472-789-110;077472-789-110;
30.10.08;Pierre Jansen;
30.10.08;Brendan van Zyl;
30.10.08;Jason Smith;
30.10.08;Justin Jansen Van Vuuren;
31.10.08;Nico Claassen;077353-1077-110;077353-1082-110;077353-1082-110;077353-1082-110;077353-1082-110;077472-781-110;077472-781-110;077472-781-110;077472-781-110;
31.10.08;Malcolm Vorster;
31.10.08;Graham Meyer;077472-783-110;077472-783-110;077472-783-110;077472-783-110;077472-783-110;00000-000-100;077472-783-110;077472-783-110;077472-783-110;
31.10.08;Michael Preller;077353-1896-110;077353-1232-120;077353-1232-120;077353-1232-120;077353-1232-120;00000-000-100;077353-1340-120;077353-1340-120;077353-1340-120;
31.10.08;Andre Esterhuyse;077353-1196-120;077353-1196-120;077353-1196-120;077353-1196-120;077353-1196-120;00000-000-100;077353-1196-120;077353-1196-120;077353-1196-120;
31.10.08;Ludumo Sankobe;077353-1087-110;077353-1087-110;077353-1087-110;077353-1087-110;077353-1087-110;077353-1087-110;077353-1087-110;077353-1087-110;
31.10.08;Paul Helliwell;077353-1228-110;077353-1228-110;077353-1228-110;077353-1228-110;077353-1228-110;00000-000-100;077353-1228-110;077353-1228-110;077353-1228-110;
31.10.08;Stuart John Todd;077353-1089-110;077353-1089-110;077353-1089-110;077353-1089-110;077353-1089-110;00000-000-100;077353-1089-110;077353-1089-110;077353-1089-110;
31.10.08;Michael Wells;077472-789-110;077472-789-110;077472-789-110;077353-1883-140;077353-1883-140;00000-000-100;077353-1883-140;077353-1883-140;077353-1883-140;
31.10.08;Pierre Jansen;
31.10.08;Brendan van Zyl;
31.10.08;Jason Smith;
31.10.08;Justin Jansen Van Vuuren;
01.11.08;Nico Claassen;
01.11.08;Malcolm Vorster;
01.11.08;Graham Meyer;
01.11.08;Michael Preller;
01.11.08;Andre Esterhuyse;
01.11.08;Ludumo Sankobe;
01.11.08;Paul Helliwell;
01.11.08;Stuart John Todd;
01.11.08;Michael Wells;
01.11.08;Pierre Jansen;
01.11.08;Brendan van Zyl;
01.11.08;Jason Smith;
01.11.08;Justin Jansen Van Vuuren;
02.11.08;Nico Claassen;
02.11.08;Malcolm Vorster;
02.11.08;Graham Meyer;
02.11.08;Michael Preller;
02.11.08;Andre Esterhuyse;
02.11.08;Ludumo Sankobe;
02.11.08;Paul Helliwell;
02.11.08;Stuart John Todd;
02.11.08;Michael Wells;
02.11.08;Pierre Jansen;
02.11.08;Brendan van Zyl;
02.11.08;Jason Smith;
02.11.08;Justin Jansen Van Vuuren;
03.11.08;Nico Claassen;077353-1077-110;077353-1077-110;077353-1077-110;077353-1082-110;077353-1082-110;00000-000-100;077353-1082-110;077353-1082-110;077353-1082-110;
03.11.08;Malcolm Vorster;077353-1083-110;077353-1083-110;077353-1083-110;077353-1083-110;077353-1083-110;00000-000-100;077353-1083-110;00000-000-103;00000-000-103;
03.11.08;Graham Meyer;077472-783-110;077472-783-110;00000-000-105;00000-000-105;00000-000-105;00000-000-100;00000-000-105;00000-000-105;00000-000-105;
03.11.08;Michael Preller;077353-1896-110;077353-1340-120;077353-1340-120;077353-1340-120;077353-1340-120;00000-000-100;077353-1340-120;00000-000-106;00000-000-106;
03.11.08;Andre Esterhuyse;077353-1196-120;077353-1196-120;077353-1196-120;077353-1196-120;077353-1196-120;00000-000-100;00000-000-106;00000-000-106;00000-000-106;
03.11.08;Ludumo Sankobe;077353-1295-140;077353-1295-140;077353-1295-140;077353-1295-140;077353-1295-140;00000-000-100;077353-1295-140;077353-1295-140;077353-1295-140;
03.11.08;Paul Helliwell;077353-1288-110;077353-1288-110;077353-1300-110;077353-1300-110;077353-1300-110;00000-000-100;077353-1300-110;077353-1300-110;077353-1300-110;
03.11.08;Stuart John Todd;077353-1249-140;077353-1249-140;077353-1249-140;077353-1249-140;077353-1249-140;00000-000-100;077353-1249-140;077353-1249-140;077353-1249-140;
03.11.08;Michael Wells;077353-1224-185;077353-1224-185;077353-1224-185;077353-1918-110;077353-1212-185;077353-1212-185;077353-1212-185;00000-000-105;00000-000-105;
03.11.08;Pierre Jansen;
03.11.08;Brendan van Zyl;
03.11.08;Jason Smith;
03.11.08;Justin Jansen Van Vuuren;
04.11.08;Nico Claassen;077353-1077-110;077353-1077-110;077353-1077-110;077353-1082-110;077353-1082-110;077472-781-110;077472-781-110;077472-781-110;077472-781-110;
04.11.08;Malcolm Vorster;00000-000-106;00000-000-106;00000-000-106;00000-000-103;00000-000-103;00000-000-100;00000-000-103;00000-000-103;00000-000-103;
04.11.08;Graham Meyer;00000-000-105;00000-000-105;00000-000-105;00000-000-105;00000-000-105;00000-000-100;00000-000-105;00000-000-105;00000-000-105;
04.11.08;Michael Preller;077353-1896-110;00000-000-103;00000-000-103;077353-1340-120;077353-1340-120;00000-000-100;077353-1340-120;077353-1340-120;077353-1340-120;
04.11.08;Andre Esterhuyse;077353-1296-185;077353-1296-185;077353-1296-185;077353-1196-120;077353-1196-120;00000-000-100;077353-1196-120;077353-1196-120;077353-1196-120;
04.11.08;Ludumo Sankobe;077353-1297-140;077353-1297-140;077353-1297-140;077353-1297-140;077353-1297-140;00000-000-100;077353-1297-140;077353-1297-140;077353-1297-140;077353-1087-110;077353-1087-110;077353-1087-110;077353-1087-110;
04.11.08;Paul Helliwell;077353-1276-110;077353-1276-110;077353-1276-110;077353-1276-110;077353-1276-110;00000-000-100;077353-1276-110;077353-1276-110;077353-1276-110;
04.11.08;Stuart John Todd;077353-1249-140;077353-1249-140;077353-1249-140;077353-1249-140;077353-1249-140;00000-000-100;077353-1249-140;077353-1249-140;077353-1249-140;
04.11.08;Michael Wells;077353-1918-110;077353-1918-110;077353-1212-185;077353-1212-185;077353-1212-185;00000-000-100;077353-1212-185;077353-1212-185;077353-1212-185;
04.11.08;Pierre Jansen;
04.11.08;Brendan van Zyl;
04.11.08;Jason Smith;
04.11.08;Justin Jansen Van Vuuren;
05.11.08;Nico Claassen;077353-1082-110;077353-1082-110;077353-1082-110;077353-1082-110;077472-781-110;077472-781-110;077472-781-110;077472-781-110;077472-781-110;
05.11.08;Malcolm Vorster;077353-1083-110;077353-1083-110;077353-1083-110;077353-1083-110;077353-1211-140;00000-000-100;077353-1211-140;077353-1211-140;00000-000-103;
05.11.08;Graham Meyer;077353-1084-110;077353-1084-110;00000-000-105;00000-000-105;00000-000-105;00000-000-100;00000-000-105;00000-000-105;00000-000-105;
05.11.08;Michael Preller;077353-1896-110;077353-1085-110;00000-000-103;077353-1340-120;077353-1340-120;00000-000-100;077353-1340-120;077353-1340-120;077353-1340-120;
05.11.08;Andre Esterhuyse;077353-1086-110;077353-1086-110;077353-1086-110;077353-1154-110;077353-1154-110;00000-000-100;077353-1196-120;077353-1196-120;077353-1196-120;
05.11.08;Ludumo Sankobe;077353-1308-185;077353-1308-185;077353-1308-185;077353-1308-185;077353-1308-185;00000-000-100;077353-1308-185;077353-1308-185;077353-1087-110;077353-1087-110;
05.11.08;Paul Helliwell;077353-1228-110;077353-1228-110;077353-1228-110;077353-1228-110;077353-1228-110;00000-000-100;077353-1228-110;077353-1228-110;077353-1088-110;
05.11.08;Stuart John Todd;077353-1249-140;077353-1249-140;077353-1249-140;077353-1249-140;00000-000-107;00000-000-107;00000-000-107;00000-000-107;00000-000-107;
05.11.08;Michael Wells;077353-1918-110;077353-1918-110;077353-1918-110;077353-1212-185;077353-1212-185;00000-000-100;077353-1176-185;077353-1176-185;077353-1176-185;
05.11.08;Pierre Jansen;
05.11.08;Brendan van Zyl;
05.11.08;Jason Smith;
05.11.08;Justin Jansen Van Vuuren;
06.11.08;Nico Claassen;077353-1082-110;077353-1082-110;077353-1082-110;077353-1082-110;077353-1082-110;00000-000-100;077353-1077-110;077472-781-110;077472-781-110;
06.11.08;Malcolm Vorster;00000-000-103;00000-000-103;00000-000-103;00000-000-103;077353-1914-110;
06.11.08;Graham Meyer;077353-1084-110;077353-1084-110;077353-1084-110;077353-1084-110;077353-1084-110;00000-000-100;077353-1084-110;077353-1084-110;077353-1084-110;
06.11.08;Michael Preller;00000-000-103;00000-000-103;077353-1896-110;077353-1340-120;077353-1340-120;00000-000-100;077353-1340-120;077353-1340-120;077353-1340-120;
06.11.08;Andre Esterhuyse;077353-1086-110;077353-1086-110;077353-1086-110;077353-1154-110;077353-1154-110;00000-000-100;077353-1154-110;077353-1154-110;077353-1154-110;
06.11.08;Ludumo Sankobe;077353-1252-110;077353-1252-110;077353-1252-110;077353-1252-110;077353-1252-110;00000-000-100;077353-1252-110;077353-1252-110;077353-1252-110;
06.11.08;Paul Helliwell;077353-1228-110;077353-1228-110;077353-1228-110;077353-1228-110;077353-1228-110;00000-000-100;00000-000-101;
06.11.08;Stuart John Todd;077353-1249-140;077353-1249-140;077353-1249-140;077353-1249-140;00000-000-107;00000-000-107;00000-000-107;00000-000-107;00000-000-107;
06.11.08;Michael Wells;077353-1163-185;077353-1163-185;077353-1163-185;077353-1163-185;077353-1163-185;00000-000-100;077353-1163-185;077353-1163-185;077353-1918-110;
06.11.08;Pierre Jansen;
06.11.08;Brendan van Zyl;
06.11.08;Jason Smith;
06.11.08;Justin Jansen Van Vuuren;
07.11.08;Nico Claassen;077353-1077-110;077353-1077-110;077353-1077-110;077353-1077-110;077353-1082-110;077353-1082-110;077353-1082-110;077353-1082-110;077353-1082-110;
07.11.08;Malcolm Vorster;077353-1235-140;077353-1235-140;077353-1235-140;077353-1235-140;077353-1235-140;00000-000-100;077353-1235-140;00000-000-105;00000-000-105;
07.11.08;Graham Meyer;077353-1084-110;077353-1084-110;077353-1084-110;077353-1084-110;077353-1084-110;00000-000-100;077353-1084-110;077353-1084-110;077353-1084-110;
07.11.08;Michael Preller;00000-000-106;077353-1896-110;077353-1232-120;077353-1232-120;077353-1340-120;00000-000-100;077353-1340-120;077353-1340-120;077353-1340-120;
07.11.08;Andre Esterhuyse;00000-000-106;077353-1154-110;077353-1154-110;077353-1154-110;077353-1154-110;00000-000-100;077353-1156-120;077353-1156-120;077353-1156-120;
07.11.08;Ludumo Sankobe;077353-1297-140;077353-1297-140;077353-1297-140;077353-1297-140;077353-1297-140;00000-000-100;077353-1297-140;077353-1297-140;077353-1297-140;
07.11.08;Paul Helliwell;077615-189-170;077615-189-170;077615-189-170;077615-189-170;077615-189-170;00000-000-100;077615-189-170;077615-189-170;077615-189-170;
07.11.08;Stuart John Todd;077353-1249-140;077353-1249-140;077353-1249-140;077353-1249-140;077353-1249-140;00000-000-100;077353-1249-140;077353-1249-140;077353-1249-140;
07.11.08;Michael Wells;077353-1163-185;077353-1163-185;077353-1163-185;077353-1163-185;077353-1163-185;00000-000-100;077353-1163-185;077353-1163-185;077353-1918-110;
07.11.08;Pierre Jansen;
07.11.08;Brendan van Zyl;077615-184-170;077615-184-170;077615-185-170;077615-185-170;077615-185-170;00000-000-100;077615-186-170;077615-186-170;077615-186-170;
07.11.08;Jason Smith;077615-194-170;077615-194-170;077615-196-170;077615-196-170;077615-196-170;00000-000-100;077615-198-170;077615-198-170;077615-198-170;
07.11.08;Justin Jansen Van Vuuren;
08.11.08;Nico Claassen;
08.11.08;Malcolm Vorster;
08.11.08;Graham Meyer;
08.11.08;Michael Preller;
08.11.08;Andre Esterhuyse;
08.11.08;Ludumo Sankobe;
08.11.08;Paul Helliwell;
08.11.08;Stuart John Todd;
08.11.08;Michael Wells;
08.11.08;Pierre Jansen;
08.11.08;Brendan van Zyl;
08.11.08;Jason Smith;
08.11.08;Justin Jansen Van Vuuren;
09.11.08;Nico Claassen;
09.11.08;Malcolm Vorster;
09.11.08;Graham Meyer;
09.11.08;Michael Preller;
09.11.08;Andre Esterhuyse;
09.11.08;Ludumo Sankobe;
09.11.08;Paul Helliwell;
09.11.08;Stuart John Todd;
09.11.08;Michael Wells;
09.11.08;Pierre Jansen;
09.11.08;Brendan van Zyl;
09.11.08;Jason Smith;
09.11.08;Justin Jansen Van Vuuren;
10.11.08;Nico Claassen;077472-781-110;077472-781-110;077472-781-110;077472-781-110;077353-1077-110;00000-000-100;077353-1077-110;077353-1082-110;077353-1082-110;
10.11.08;Malcolm Vorster;077353-1319-140;077353-1319-140;077353-1319-140;077353-1319-140;077353-1319-140;00000-000-100;077353-1319-140;077353-1235-140;077353-1235-140;
10.11.08;Graham Meyer;077353-1084-110;077353-1084-110;077353-1084-110;077353-1084-110;077353-1084-110;00000-000-100;077353-1084-110;077353-1084-110;077353-1084-110;
10.11.08;Michael Preller;077353-1896-110;00000-000-103;077353-1232-120;077353-1232-120;077353-1232-120;00000-000-100;077353-1085-110;077353-1085-110;077353-1085-110;
10.11.08;Andre Esterhuyse;00000-000-103;00000-000-103;00000-000-103;077353-1154-110;077353-1154-110;00000-000-100;077353-1154-110;077353-1156-120;077353-1156-120;
10.11.08;Ludumo Sankobe;077353-1297-140;077353-1297-140;077353-1297-140;077353-1297-140;077353-1297-140;00000-000-100;077353-1297-140;077353-1297-140;077353-1297-140;
10.11.08;Paul Helliwell;077353-1088-110;077353-1088-110;077353-1088-110;077353-1088-110;077353-1088-110;00000-000-100;077353-1088-110;077353-1088-110;077353-1088-110;
10.11.08;Stuart John Todd;077353-1249-140;077353-1249-140;077353-1249-140;077353-1249-140;077353-1249-140;00000-000-100;077353-1249-140;077353-1249-140;077353-1249-140;
10.11.08;Michael Wells;077353-1224-185;077353-1224-185;077353-1224-185;077353-1918-110;077353-1163-185;00000-000-100;077353-1163-185;077353-1212-185;077353-1212-185;
10.11.08;Pierre Jansen;
10.11.08;Brendan van Zyl;077472-859-110;077472-859-110;077472-859-110;077472-859-110;077472-859-110;00000-000-100;077472-859-110;077472-859-110;077472-859-110;
10.11.08;Jason Smith;077615-198-170;077615-198-170;077615-198-170;077615-198-170;077615-198-170;00000-000-100;077615-196-170;077615-196-170;077615-196-170;
10.11.08;Justin Jansen Van Vuuren;
11.11.08;Nico Claassen;077353-1077-110;077353-1077-110;077353-1077-110;077353-1077-110;077353-1077-110;00000-000-100;077353-1077-110;077353-1077-110;077472-781-110;
11.11.08;Malcolm Vorster;077353-1235-140;077353-1235-140;077353-1235-140;077353-1235-140;077353-1235-140;00000-000-100;077353-1319-140;00000-000-103;00000-000-103;
11.11.08;Graham Meyer;077353-1810-185;077353-1810-185;077353-1810-185;077353-1810-185;077353-1810-185;00000-000-100;077353-1810-185;077353-1810-185;077353-1915-110;
11.11.08;Michael Preller;077353-1896-110;077472-784-110;077472-784-110;077472-784-110;077353-1232-120;00000-000-100;077353-1232-120;077353-1232-120;077353-1232-120;
11.11.08;Andre Esterhuyse;077353-1260-185;077353-1260-185;077353-1260-185;077353-1196-120;077353-1196-120;00000-000-100;077353-1196-120;077353-1196-120;077353-1196-120;
11.11.08;Ludumo Sankobe;077353-1309-140;077353-1309-140;077353-1309-140;077353-1309-140;077353-1309-140;00000-000-100;077353-1309-140;077353-1309-140;077353-1309-140;
11.11.08;Paul Helliwell;077353-1088-110;077353-1088-110;077353-1088-110;077353-1088-110;077353-1088-110;00000-000-100;077353-1088-110;077353-1088-110;077353-1088-110;
11.11.08;Stuart John Todd;077353-1249-140;077353-1249-140;077353-1249-140;077353-1249-140;077353-1249-140;00000-000-100;077353-1249-140;077353-1249-140;077353-1249-140;
11.11.08;Michael Wells;077353-1163-185;077353-1163-185;077353-1918-110;077472-854-110;077472-854-110;00000-000-100;077472-855-110;077472-855-110;077472-855-110;
11.11.08;Pierre Jansen;
11.11.08;Brendan van Zyl;077472-859-110;077472-859-110;077472-859-110;077472-859-110;077472-859-110;00000-000-100;077472-859-110;077472-859-110;077472-859-110;
11.11.08;Jason Smith;077615-198-170;077615-198-170;077615-198-170;077615-198-170;077615-198-170;00000-000-100;077615-196-170;077615-196-170;077615-196-170;
11.11.08;Justin Jansen Van Vuuren;
12.11.08;Nico Claassen;077353-1082-110;077353-1082-110;077353-1082-110;077353-1082-110;077353-1082-110;00000-000-100;077353-1082-110;077353-1077-110;077353-1077-110;
12.11.08;Malcolm Vorster;077353-1321-140;077353-1321-140;077353-1321-140;077353-1321-140;077353-1321-140;00000-000-100;077353-1083-110;077353-1083-110;077353-1083-110;
12.11.08;Graham Meyer;077353-1810-185;077353-1810-185;077353-1810-185;077353-1810-185;077353-1810-185;00000-000-100;077353-1719-120;077353-1719-120;077353-1915-110;
12.11.08;Michael Preller;077353-1896-110;077353-1896-110;077353-1085-110;077353-1085-110;077353-1232-120;00000-000-100;077353-1232-120;077353-1232-120;077353-1232-120;
12.11.08;Andre Esterhuyse;077353-1260-185;077353-1260-185;077353-1196-120;077353-1196-120;077353-1196-120;00000-000-100;077353-1196-120;077353-1897-110;077353-1897-110;
12.11.08;Ludumo Sankobe;077353-1309-140;077353-1309-140;077353-1309-140;077353-1309-140;077353-1309-140;00000-000-100;077353-1309-140;077353-1309-140;077353-1309-140;
12.11.08;Paul Helliwell;077353-1088-110;077353-1088-110;077353-1088-110;077353-1088-110;077353-1088-110;00000-000-100;077353-1088-110;077353-1088-110;077353-1088-110;
12.11.08;Stuart John Todd;077353-1249-140;077353-1249-140;077353-1249-140;077353-1249-140;077353-1249-140;00000-000-100;077353-1321-140;077353-1321-140;077353-1321-140;
12.11.08;Michael Wells;077353-1163-185;077353-1212-185;077353-1212-185;077353-1918-110;077472-854-110;00000-000-100;077472-855-110;00000-000-103;00000-000-105;
12.11.08;Pierre Jansen;
12.11.08;Brendan van Zyl;077472-859-110;077472-859-110;077472-859-110;077472-859-110;077472-859-110;00000-000-100;077472-859-110;077472-859-110;077472-859-110;
12.11.08;Jason Smith;077615-196-170;077615-196-170;077615-196-170;077615-198-170;077615-198-170;00000-000-100;077615-198-170;077615-198-170;077615-198-170;
12.11.08;Justin Jansen Van Vuuren;
13.11.08;Nico Claassen;077353-1355-140;077353-1355-140;077353-1355-140;077353-1357-140;077353-1357-140;077353-1357-140;077353-1357-140;077353-1962-130;077472-781-110;
13.11.08;Malcolm Vorster;
13.11.08;Graham Meyer;077353-1719-120;077353-1719-120;077353-1719-120;077353-1719-120;077353-1719-120;00000-000-100;077353-1719-120;077353-1719-120;077353-1915-110;
13.11.08;Michael Preller;00000-000-103;077353-1232-120;077353-2040-120;077353-2040-120;077353-2040-120;00000-000-100;077353-2040-120;077353-2040-120;077353-1896-110;
13.11.08;Andre Esterhuyse;077353-1154-110;077353-1154-110;077353-1154-110;077353-1156-120;077353-1156-120;00000-000-100;00000-000-103;077353-1260-185;077353-1260-185;
13.11.08;Ludumo Sankobe;00000-000-108;00000-000-108;00000-000-108;00000-000-108;00000-000-108;00000-000-108;00000-000-108;00000-000-108;00000-000-108;
13.11.08;Paul Helliwell;077353-1088-110;077353-1088-110;077353-1088-110;077353-1088-110;077353-1088-110;00000-000-100;077353-1088-110;077353-1088-110;077353-1088-110;
13.11.08;Stuart John Todd;077353-1321-140;077353-1321-140;077353-1321-140;077353-1321-140;077353-1321-140;00000-000-100;077353-1321-140;077353-1321-140;00000-000-104;
13.11.08;Michael Wells;077353-1212-185;077353-1212-185;077353-1163-185;077353-1163-185;077353-1918-110;00000-000-100;077472-854-110;077353-1090-110;00000-000-103;
13.11.08;Pierre Jansen;
13.11.08;Brendan van Zyl;077472-859-110;077472-859-110;077472-859-110;077472-859-110;077472-859-110;00000-000-100;077472-859-110;077472-859-110;077472-859-110;
13.11.08;Jason Smith;077472-860-110;077472-860-110;077472-860-110;077472-860-110;077472-860-110;00000-000-100;077472-860-110;077472-860-110;077472-860-110;
13.11.08;Justin Jansen Van Vuuren;
14.11.08;Nico Claassen;077472-536-110;077472-536-110;077472-536-110;077353-1077-110;077353-2035-110;077353-2035-110;077353-2035-110;077353-1082-110;077472-781-110;
14.11.08;Malcolm Vorster;077598-0-910;077598-0-910;077598-0-910;077598-0-910;077598-0-910;077598-0-910;077598-0-910;077598-0-910;077598-0-910;
14.11.08;Graham Meyer;077353-1719-120;077353-1719-120;077353-1719-120;077353-1719-120;077353-1719-120;00000-000-100;077353-1719-120;077353-1719-120;077353-1915-110;
14.11.08;Michael Preller;077353-1896-110;077353-2040-120;077353-2040-120;077353-2040-120;077353-2040-120;00000-000-100;077353-2040-120;077353-2040-120;077353-2040-120;
14.11.08;Andre Esterhuyse;077353-1260-185;077353-1260-185;077353-1260-185;077353-1086-110;077353-1086-110;00000-000-100;077353-1086-110;077353-1086-110;077353-1086-110;
14.11.08;Ludumo Sankobe;077353-1714-110;077353-1714-110;077353-1714-110;077353-1714-110;077353-1714-110;00000-000-100;077353-1714-110;077353-1714-110;077353-1714-110;
14.11.08;Paul Helliwell;077353-1088-110;077353-1088-110;077353-1088-110;077353-1088-110;077353-1088-110;00000-000-100;077353-1088-110;077353-1088-110;077353-1088-110;
14.11.08;Stuart John Todd;077353-1259-140;077353-1259-140;077353-1259-140;077353-1259-140;077353-1259-140;00000-000-100;077353-1259-140;077353-1259-140;077353-1259-140;
14.11.08;Michael Wells;077472-854-110;077472-854-110;077472-855-110;077472-855-110;077353-1163-185;00000-000-100;077353-1163-185;077353-1918-110;00000-000-103;
14.11.08;Pierre Jansen;
14.11.08;Brendan van Zyl;077472-859-110;077472-859-110;077472-859-110;077472-859-110;077472-859-110;00000-000-100;077472-859-110;077472-859-110;077472-859-110;
14.11.08;Jason Smith;077472-860-110;077472-860-110;077472-860-110;077472-860-110;077472-860-110;00000-000-100;077472-860-110;077472-860-110;077472-860-110;
14.11.08;Justin Jansen Van Vuuren;
15.11.08;Nico Claassen;
15.11.08;Malcolm Vorster;
15.11.08;Graham Meyer;
15.11.08;Michael Preller;
15.11.08;Andre Esterhuyse;
15.11.08;Ludumo Sankobe;077353-1308-185;077353-1308-185;077353-1308-185;077353-1308-185;077353-1308-185;00000-000-100;077353-1308-185;077353-1308-185;077353-1087-110;
15.11.08;Paul Helliwell;
15.11.08;Stuart John Todd;
15.11.08;Michael Wells;
15.11.08;Pierre Jansen;
15.11.08;Brendan van Zyl;
15.11.08;Jason Smith;
15.11.08;Justin Jansen Van Vuuren;
16.11.08;Nico Claassen;
16.11.08;Malcolm Vorster;
16.11.08;Graham Meyer;
16.11.08;Michael Preller;
16.11.08;Andre Esterhuyse;
16.11.08;Ludumo Sankobe;
16.11.08;Paul Helliwell;
16.11.08;Stuart John Todd;
16.11.08;Michael Wells;
16.11.08;Pierre Jansen;
16.11.08;Brendan van Zyl;
16.11.08;Jason Smith;
16.11.08;Justin Jansen Van Vuuren;
17.11.08;Nico Claassen;077353-1205-120;077472-781-110;077353-1077-110;077353-1077-110;077353-1082-110;077353-1082-110;077353-1082-110;077353-1082-110;077353-1082-110;
17.11.08;Malcolm Vorster;077598-0-910;077598-0-910;077598-0-910;077598-0-910;077598-0-910;077598-0-910;077598-0-910;077598-0-910;077598-0-910;
17.11.08;Graham Meyer;077353-1719-120;077353-1719-120;077353-1719-120;077353-1719-120;077353-1719-120;00000-000-100;077353-1915-110;077353-1084-110;077353-1084-110;
17.11.08;Michael Preller;077353-1896-110;077353-1232-120;077353-1232-120;077353-1340-120;077353-1340-120;00000-000-100;077353-2040-120;077353-2040-120;077353-2040-120;
17.11.08;Andre Esterhuyse;077353-1260-185;077353-1260-185;077353-1154-110;077353-1154-110;077353-1154-110;00000-000-100;077353-1156-120;077353-1156-120;077353-1156-120;
17.11.08;Ludumo Sankobe;077353-1714-110;077353-1714-110;077353-1714-110;077353-1714-110;077353-1714-110;00000-000-100;077353-1714-110;077353-1714-110;077353-1714-110;
17.11.08;Paul Helliwell;077353-1088-110;077353-1088-110;077353-1088-110;077353-1088-110;077353-1088-110;00000-000-100;077353-1088-110;077353-1088-110;077353-1088-110;
17.11.08;Stuart John Todd;077353-1259-140;077353-1259-140;077353-1259-140;077353-1259-140;077353-1259-140;00000-000-100;077353-1259-140;077353-1259-140;077353-1259-140;
17.11.08;Michael Wells;077353-1224-185;077353-1224-185;077353-1224-185;077353-1224-185;077353-1224-185;00000-000-100;077353-1212-185;077353-1212-185;077353-1163-185;
17.11.08;Pierre Jansen;
17.11.08;Brendan van Zyl;077472-859-110;077472-859-110;077472-859-110;077472-859-110;077472-859-110;00000-000-100;077472-859-110;077472-859-110;077472-859-110;
17.11.08;Jason Smith;077472-860-110;077472-860-110;077472-860-110;077472-860-110;077472-860-110;00000-000-100;077472-860-110;077472-860-110;077472-860-110;
17.11.08;Justin Jansen Van Vuuren;
18.11.08;Nico Claassen;077353-1801-110;077353-1801-110;077353-1801-110;077353-1801-110;077353-1077-110;077353-1077-110;077353-1082-110;077353-1082-110;077353-1082-110;
18.11.08;Malcolm Vorster;077353-1223-140;077353-1162-140;077353-1162-140;077353-1162-140;077353-1162-140;00000-000-100;077353-1914-110;
18.11.08;Graham Meyer;077353-1149-140;077353-1149-140;077353-1149-140;077353-1149-140;077353-1149-140;00000-000-100;077353-1915-110;077472-783-110;077472-783-110;
18.11.08;Michael Preller;077353-1896-110;077353-1340-120;077353-1232-120;00000-000-103;077353-2040-120;00000-000-100;077353-2040-120;077353-2040-120;077353-2040-120;
18.11.08;Andre Esterhuyse;077353-1260-185;077353-1260-185;077353-1260-185;077353-1260-185;077353-1260-185;00000-000-100;077353-1260-185;077353-1156-120;077353-1156-120;
18.11.08;Ludumo Sankobe;077353-1235-140;077353-1235-140;077353-1235-140;077353-1235-140;077353-1714-110;00000-000-100;077353-1714-110;077353-1714-110;077353-1714-110;
18.11.08;Paul Helliwell;077353-1088-110;077353-1088-110;077353-1088-110;077353-1088-110;077353-1718-110;00000-000-100;077353-1718-110;077353-1718-110;077353-1718-110;077353-1718-110;
18.11.08;Stuart John Todd;077353-1259-140;077353-1259-140;077353-1259-140;077353-1259-140;077353-1259-140;00000-000-100;077353-1259-140;077353-1336-110;077353-1336-110;
18.11.08;Michael Wells;077353-1163-185;077353-1163-185;077353-1163-185;077353-1163-185;077353-1918-110;00000-000-100;077353-1918-110;077353-1212-185;077353-1212-185;
18.11.08;Pierre Jansen;
18.11.08;Brendan van Zyl;077472-560-120;077472-560-120;077472-560-120;077472-560-120;077472-560-120;00000-000-100;077472-560-120;077472-560-120;077472-560-120;
18.11.08;Jason Smith;077472-1079-120;077472-1079-120;077472-1079-120;077472-1078-185;077472-1081-140;00000-000-100;077472-1081-140;077472-1080-120;077472-860-110;
18.11.08;Justin Jansen Van Vuuren;
19.11.08;Nico Claassen;077353-1082-110;077353-1082-110;077353-1082-110;077353-1077-110;077353-2035-110;077353-2035-110;077353-2035-110;077353-2035-110;077353-2035-110;
19.11.08;Malcolm Vorster;077353-1162-140;077353-1162-140;077353-1162-140;077353-1162-140;077353-1162-140;00000-000-100;077353-1162-140;077353-1162-140;077353-1083-110;
19.11.08;Graham Meyer;077353-1915-110;077353-1719-120;077353-1719-120;077353-1719-120;077353-1719-120;00000-000-100;077353-1719-120;077353-1719-120;077353-1719-120;
19.11.08;Michael Preller;077353-1085-110;077353-1085-110;077353-1085-110;077353-1085-110;077353-2040-120;00000-000-100;077353-2040-120;077353-2040-120;077353-2040-120;
19.11.08;Andre Esterhuyse;077353-1897-110;077353-1897-110;077353-1086-110;077353-1260-185;077353-1260-185;00000-000-100;077353-1260-185;077353-1260-185;077353-1260-185;
19.11.08;Ludumo Sankobe;077353-1714-110;077353-1714-110;077353-1714-110;077353-1714-110;077353-1714-110;00000-000-100;077353-1714-110;077353-1714-110;077353-1714-110;
19.11.08;Paul Helliwell;077353-1088-110;077353-1088-110;077353-1088-110;077353-1088-110;077353-1718-110;00000-000-100;077353-1718-110;077353-1718-110;077353-1718-110;
19.11.08;Stuart John Todd;077353-1336-110;077353-1336-110;077353-1336-110;077353-1336-110;077353-1336-110;00000-000-100;077353-1336-110;077353-1336-110;077353-1336-110;
19.11.08;Michael Wells;077353-1163-185;077353-1163-185;077353-1918-110;077353-1212-185;077353-1212-185;00000-000-100;077353-1212-185;00000-000-105;00000-000-105;
19.11.08;Pierre Jansen;
19.11.08;Brendan van Zyl;077472-560-120;077472-560-120;077472-560-120;077472-560-120;077472-560-120;00000-000-100;077615-185-170;077615-185-170;077615-185-170;
19.11.08;Jason Smith;077472-1079-120;077472-1079-120;077472-1079-120;077472-1079-120;077472-1079-120;00000-000-100;077472-1079-120;077472-860-110;077615-196-170;
19.11.08;Justin Jansen Van Vuuren;
20.11.08;Nico Claassen;077353-1082-110;077353-1082-110;077353-1082-110;077353-1082-110;077353-1082-110;077353-1082-110;077353-1082-110;077353-1082-110;077353-1082-110;
20.11.08;Malcolm Vorster;077353-1162-140;077353-1162-140;077353-1162-140;077353-1162-140;077353-1162-140;00000-000-100;077353-1162-140;077353-1162-140;077353-1162-140;
20.11.08;Graham Meyer;077353-1084-110;077353-1719-120;077353-1719-120;077353-1719-120;077353-1719-120;00000-000-100;077353-1719-120;077353-1719-120;077353-1915-110;
20.11.08;Michael Preller;077353-1896-110;077353-1340-120;077353-1340-120;077353-2041-120;077353-2041-120;00000-000-100;077353-2041-120;077353-2041-120;077353-2041-120;
20.11.08;Andre Esterhuyse;077353-1260-185;077353-1260-185;077353-1260-185;077353-1260-185;077353-1260-185;00000-000-100;077353-1260-185;077353-1260-185;077353-1897-110;
20.11.08;Ludumo Sankobe;077353-1714-110;077353-1714-110;077353-1714-110;077353-1714-110;077353-1714-110;00000-000-100;077353-1714-110;077353-1714-110;077353-1714-110;
20.11.08;Paul Helliwell;077353-1088-110;077353-1088-110;077353-1088-110;077353-1088-110;077353-1088-110;00000-000-100;077353-1088-110;077353-1088-110;077353-1088-110;
20.11.08;Stuart John Todd;077353-1089-110;077353-1089-110;077353-1089-110;077353-1089-110;077353-1089-110;00000-000-100;077353-1089-110;077353-1089-110;077353-1336-110;
20.11.08;Michael Wells;077353-1918-110;077353-1163-185;077353-1163-185;077472-789-110;077353-1212-185;00000-000-100;077353-1212-185;077353-1212-185;077353-1212-185;
20.11.08;Pierre Jansen;
20.11.08;Brendan van Zyl;077472-557-120;077472-557-120;077472-557-120;077472-557-120;077472-557-120;00000-000-100;077472-557-120;077472-557-120;077472-557-120;
20.11.08;Jason Smith;077472-1080-120;077472-1080-120;077472-1080-120;077472-1081-140;077472-1081-140;00000-000-100;077472-860-110;077472-860-110;077472-860-110;
20.11.08;Justin Jansen Van Vuuren;
21.11.08;Nico Claassen;077353-1082-110;077353-1082-110;077353-1082-110;077353-1082-110;077353-1082-110;077353-1082-110;077353-1077-110;077353-1077-110;077353-1077-110;
21.11.08;Malcolm Vorster;077353-1235-140;077353-1235-140;077353-1235-140;077353-1235-140;077353-1235-140;00000-000-100;077353-1235-140;077353-1235-140;077353-1235-140;
21.11.08;Graham Meyer;077353-1719-120;077353-1719-120;077353-1719-120;077353-1719-120;077353-1719-120;00000-000-100;077353-1719-120;077353-1719-120;077353-1915-110;
21.11.08;Michael Preller;077353-1896-110;077353-2046-185;077353-2046-185;077353-2046-185;077353-2046-185;00000-000-100;077353-1340-120;077353-1340-120;077353-1340-120;
21.11.08;Andre Esterhuyse;077353-1260-185;077353-1196-120;077353-1196-120;077353-1196-120;077353-1196-120;00000-000-100;077353-1196-120;077353-1196-120;077353-1196-120;
21.11.08;Ludumo Sankobe;077353-1714-110;077353-1714-110;077353-1714-110;077353-1714-110;077353-1714-110;00000-000-100;077353-1714-110;077353-1714-110;077353-1714-110;
21.11.08;Paul Helliwell;077353-1088-110;077353-1088-110;077353-1088-110;077353-1088-110;077353-1088-110;00000-000-100;077353-1088-110;077353-1088-110;077353-1088-110;
21.11.08;Stuart John Todd;077353-1336-110;077353-1336-110;077353-1336-110;077353-1336-110;077353-1336-110;00000-000-100;077353-1336-110;077353-1336-110;077353-1336-110;
21.11.08;Michael Wells;077472-856-110;077472-856-110;077353-1918-110;077353-1918-110;077353-1212-185;00000-000-100;077353-1212-185;077353-1163-185;077353-1163-185;
21.11.08;Pierre Jansen;
21.11.08;Brendan van Zyl;077472-557-120;077472-557-120;077472-561-140;077472-561-140;077472-561-140;00000-000-100;077472-561-140;077472-561-140;077472-561-140;
21.11.08;Jason Smith;077472-1081-140;077472-1081-140;077472-1081-140;077472-1081-140;077472-1078-185;00000-000-100;077472-1078-185;077472-1078-185;077472-1078-185;
21.11.08;Justin Jansen Van Vuuren;
22.11.08;Nico Claassen;
22.11.08;Malcolm Vorster;
22.11.08;Graham Meyer;
22.11.08;Michael Preller;
22.11.08;Andre Esterhuyse;
22.11.08;Ludumo Sankobe;
22.11.08;Paul Helliwell;
22.11.08;Stuart John Todd;
22.11.08;Michael Wells;
22.11.08;Pierre Jansen;
22.11.08;Brendan van Zyl;
22.11.08;Jason Smith;
22.11.08;Justin Jansen Van Vuuren;
23.11.08;Nico Claassen;
23.11.08;Malcolm Vorster;
23.11.08;Graham Meyer;
23.11.08;Michael Preller;
23.11.08;Andre Esterhuyse;
23.11.08;Ludumo Sankobe;
23.11.08;Paul Helliwell;
23.11.08;Stuart John Todd;
23.11.08;Michael Wells;
23.11.08;Pierre Jansen;
23.11.08;Brendan van Zyl;
23.11.08;Jason Smith;
23.11.08;Justin Jansen Van Vuuren;