"13.10.08","1","077472","789","110","Engineering ","","0","Implemented generic messgae and service handling for Ferrari","7:00","16:00","8","60",
"14.10.08","2","077472","789","110","Engineering ","","0","Implemented generic message and service handling for Ferrari","7:00","14:00","6","60",
"15.10.08","3","077472","789","110","Engineering ","","0","Implemented generic message and service handling for Ferrari","7:00","11:00","4","0",
"15.10.08","3","077353","1918","110","Engineering ","","0","Task Added","11:00","14:00","2","60",
"16.10.08","4","077472","789","110","Engineering ","","0","Implemented generic message and service handling for Ferrari","7:00","12:00","5","0",
"16.10.08","4","077353","1918","110","Engineering ","","0","","12:00","14:00","1","60",
"17.10.08","5","077472","789","110","Engineering ","","0","Implemented generic message and service handling for Ferrari and How To Doc","7:00","10:00","3","0",
"17.10.08","5","077472","609","110","Engineering ","","0","Creating F149 NAB Airbag Test Spec","10:00","16:00","5","60",
