"01.09.08","1","077353","1748","120","Codierung","","0","Modified script in PAG template & busy with implementation of PCM Cts.","7:00","16:00","8","60",
"02.09.08","2","077353","1748","120","Codierung","","0","Edited and continued working on PCM Cts.","7:00","16:00","8","60",
"03.09.08","3","077353","1085","110","Engineering ","","0","Meeting - Simulation files.","7:00","8:00","1","0",
"03.09.08","3","077353","1748","120","Codierung","","0","Continued working on PCM Cts & started testing/debugging.","8:00","16:00","7","60",
"04.09.08","4","077353","1748","120","Codierung","","0","E1_PCM Cts: Edited and continued working on PCM Cts and continued testing/debugging.","7:00","13:00","6","0",
"04.09.08","4","077353","1085","110","Engineering ","","0","Meeting - Timesheets and work assignment.","13:00","15:00","1","60",
"05.09.08","5","077353","1748","120","Codierung","","0","Task Edited","7:00","16:00","8","60",
