"06.10.08","1","077353","1252","110","Engineering ","","0","E1PCM2 MMI Sollverbauliste: Updating Simulations and Test Specification for PCM2 MMI-CTSSpec Changed","7:00","11:00","4","0",
"07.10.08","2","077353","1252","110","Engineering ","","0","E1PCM2 MMI Sollverbauliste: Updating Simulations and Test Specification for PCM2 MMI-CTSSpec Changed","7:00","15:00","8","0",
"08.10.08","3","077353","1304","120","Codierung","","0","E1 RDK: Implemantation of CTS","7:00","12:00","5","0",
"09.10.08","4","077353","1304","120","Codierung","","0","E1 RDK: Implemantation of CTS","7:00","13:00","6","0",
"10.10.08","5","077353","1304","120","Codierung","","0","E1 RDK: Implemantation of CTS","7:00","14:00","7","0",
