"13.10.08","1","077353","1082","110","Engineering ","","0","GESIC Update for memory handling, Wait time 1","7:00","16:00","8","60",
"14.10.08","2","077353","1077","110","Engineering ","","0","E1 Status document update","7:00","8:00","1","0",
"14.10.08","2","077353","1082","110","Engineering ","","0","GESIC changes memory handling, wait time 1","8:00","16:00","7","60",
"15.10.08","3","077353","1913","110","Engineering ","","0","Total 2 Hours 15 Minutes 48 Seconds","7:00","9:00","2","0",
"15.10.08","3","077353","1082","110","Engineering ","","0","GESIC updates to memory handling, response to memory, requests from memory, testing","9:00","16:00","6","60",
"16.10.08","4","077353","1913","110","Engineering ","","0","Total Time 1 Hours 	4 Minutes 15 Seconds","7:00","8:00","1","0",
"16.10.08","4","077353","1082","110","Engineering ","","0","GESIC external CTS handling, testing","8:00","16:00","7","60",
"17.10.08","5","077353","1077","110","Engineering ","","0","Timesheet generation and checking","7:00","8:00","1","0",
"17.10.08","5","077353","1082","110","Engineering ","","0","Misc. reports and meeting.","8:00","13:00","5","0",
"17.10.08","5","077353","1797","110","Engineering ","","0","GESIC documentation update for memory handling, external CTS testing.","13:00","16:00","2","60",
