"08.12.08","1","077353","2394","190","Optimierung bei bestehenden Sys.","","0","E1: Bugfixing and testspec fixing for RDK CTS.","7:00","10:00","3","0",
"08.12.08","1","077353","2460","140","Test","","0","E1: RDK Regression testing.","10:00","16:00","5","60",
"09.12.08","2","077353","1196","120","Codierung","","0","E1: Heckstg Implementation complete - fixed ignition state issue.","7:00","9:00","2","0",
"09.12.08","2","077353","2460","140","Test","","0","E1: RDK and SWSG Regression testing.","9:00","16:00","6","60",
"10.12.08","3","077353","1086","110","Engineering ","","0","E1: Meeting regarding future operations of CTS implementation","7:00","9:00","2","0",
"10.12.08","3","077353","2460","140","Test","","0","E1: RDK Testing after bugfixing","9:00","12:00","3","0",
"10.12.08","3","077353","2394","190","Optimierung bei bestehenden Sys.","","0","E1: RDK Bugfixing and packaging","12:00","16:00","3","60",
"11.12.08","4","077353","2394","190","Optimierung bei bestehenden Sys.","","0","E1: RDK and PCM2MMI final testing and assist with packaging.","7:00","9:00","2","0",
"11.12.08","4","077353","1897","110","Engineering ","","0","Waiting for authoring to execute and save, etc","9:00","10:00","1","0",
"11.12.08","4","077353","1196","120","Codierung","","0","E1: Assisting with Heck testing using PIDT.","10:00","11:00","1","0",
"11.12.08","4","077353","1086","110","Engineering ","","0","E1: Internationalisation of CTS's. Writing CTS to perform testing of internl. methods.","11:00","16:00","4","60",
"12.12.08","5","077353","1086","110","Engineering ","","0","E1: Internationalisation of CTS's. Discuss the way forward, and implement some scripts.","7:00","13:00","6","0",
"12.12.08","5","077353","1196","120","Codierung","","0","E1: Heckstg bugfixing.","13:00","16:00","2","60",
