"10.11.08","1","077353","1154","110","Engineering ","","0","E1: Airbag Lock Airbag Test spec updates because of changes to CTS spec","7:00","10:00","3","0",
"10.11.08","1","077353","1156","120","Codierung","","0","E1: Airbag Lock Airbag simulation updates because of updates to the runtime.","10:00","13:00","2","60",
"11.11.08","2","077353","1260","185","Service","","0","E1: PCM2MMI: CTS Spec incorrect, was updated. Need to implement latest update.","7:00","10:00","3","0",
"11.11.08","2","077353","1196","120","Codierung","","0","E1: Heckstg CTS Implementation","10:00","16:00","5","60",
"12.11.08","3","077353","1260","185","Service","","0","E1 PCM2MMI: Updated CTS as per latest email regarding ecuConfig, and updated error handling.","7:00","9:00","2","0",
"12.11.08","3","077353","1196","120","Codierung","","0","E1: Heckstg CTS Implementation. Completed basic test running, implemented Vag_Codierung_Write change","9:00","13:00","4","0",
"12.11.08","3","077353","1897","110","Engineering ","","0","Authoring installation issues and waiting for authoring.","13:00","16:00","2","60",
"13.11.08","4","077353","1154","110","Engineering ","","0","E1: Updated test spec after CTS spec changed. More updates to follow tomorrow.","7:00","10:00","3","0",
"13.11.08","4","077353","1156","120","Codierung","","0","E1: Airbag Lock simulation updates after CTS Spec update","10:00","12:00","2","0",
"13.11.08","4","077353","1260","185","Service","","0","E1: PCM2MMI: Updated CTS to finalise error handling, and updated server deliverable.","12:00","15:00","2","60",
"14.11.08","5","077353","1260","185","Service","","0","E1: PCM2MMI CTS Bugfixing (found errors related to runtime changes.)","7:00","10:00","3","0",
"14.11.08","5","077353","1086","110","Engineering ","","0","E1: Kessy Testing against simulation ","10:00","16:00","5","60",
