"17.11.08","1","077353","1719","120","Codierung","","0","Kombi Wartungsint schr: Impl COMPLETE","7:00","12:00","5","0",
"17.11.08","1","077353","1915","110","Engineering ","","0","","12:00","13:00","1","0",
"17.11.08","1","077353","1084","110","Engineering ","","0","Updated ZDC Flashing Script test spec","13:00","16:00","2","60",
"18.11.08","2","077353","1149","140","Test","","0","Airbag AWS anlernen:Test gegen Sim COMPLETE","7:00","12:00","5","0",
"18.11.08","2","077353","1915","110","Engineering ","","0","","12:00","13:00","1","0",
"18.11.08","2","077472","783","110","Engineering ","","0","Trouble Shoot services for NBC ReadProxy Script","13:00","16:00","2","60",
"19.11.08","3","077353","1915","110","Engineering ","","0","Waiting for Authoring","7:00","8:00","1","0",
"19.11.08","3","077353","1719","120","Codierung","","0","Trouble Shooting Sim for testing","8:00","16:00","7","60",
"20.11.08","4","077353","1084","110","Engineering ","","0","Authouring HowTo","7:00","8:00","1","0",
"20.11.08","4","077353","1719","120","Codierung","","0","Kombi Wartungsint schr: Sim","8:00","14:00","6","0",
"20.11.08","4","077353","1915","110","Engineering ","","0","","14:00","16:00","1","60",
"21.11.08","5","077353","1719","120","Codierung","","0","","7:00","14:00","7","0",
"21.11.08","5","077353","1915","110","Engineering ","","0","Waiting for Authoring","14:00","16:00","1","60",
