"10.11.08","1","077353","1319","140","Test","","0","E1 SWSG - Completed testing against Sim, CTS also updated and ready for QF Test.","7:00","13:00","6","0",
"10.11.08","1","077353","1235","140","Test","","0","E1 Verstarker - After CTS rework, began testing against sim from scratch the begining","13:00","16:00","2","60",
"11.11.08","2","077353","1235","140","Test","","0","Completed OK test cases, Re-Work required for Error Handling","7:00","12:00","5","0",
"11.11.08","2","077353","1319","140","Test","","100","Completed the testing against Sim, Ready for QF Testing","12:00","14:00","1","60",
"12.11.08","3","077353","1321","140","Test","","0","E1 SWSG - Compiling QFTest, found service leaving PIDT to be incorrect, trouble shooting","7:00","12:00","5","0",
"12.11.08","3","077353","1083","110","Engineering ","","0","Installing PIDT 2.5 as well as Authoring update","12:00","16:00","3","60",
