DATE;NAME;1;2;3;4;5;6;7;8;9;10;11;12;13;14;15;16;17;18;19;20;21;22;23;24;
30.08.08;Nico Claassen;
30.08.08;Malcolm Vorster;
30.08.08;Graham Meyer;
30.08.08;Michael Preller;
30.08.08;Andre Esterhuyse;
30.08.08;Ludumo Sankobe;
30.08.08;Paul Helliwell;
30.08.08;Stuart John Todd;
30.08.08;Michael Wells;
30.08.08;Pierre Jansen;
31.08.08;Nico Claassen;
31.08.08;Malcolm Vorster;
31.08.08;Graham Meyer;
31.08.08;Michael Preller;
31.08.08;Andre Esterhuyse;
31.08.08;Ludumo Sankobe;
31.08.08;Paul Helliwell;
31.08.08;Stuart John Todd;
31.08.08;Michael Wells;
31.08.08;Pierre Jansen;
01.09.08;Nico Claassen;077472-536-110;077472-536-110;077472-536-110;077472-536-110;077271-627-170;00000-000-100;077271-627-170;077271-627-170;077271-627-170;
01.09.08;Malcolm Vorster;00000-000-104;00000-000-104;00000-000-104;077353-1146-120;077353-1146-120;00000-000-100;077353-1146-120;077353-1146-120;077353-1146-120;
01.09.08;Graham Meyer;077353-1149-140;077353-1149-140;077353-1149-140;077353-1149-140;077353-1149-140;077353-1149-140;077353-1149-140;077353-1149-140;077353-1149-140;
01.09.08;Michael Preller;077353-1748-120;077353-1748-120;077353-1748-120;077353-1748-120;077353-1748-120;00000-000-100;077353-1748-120;077353-1748-120;077353-1748-120;
01.09.08;Andre Esterhuyse;077472-653-140;077472-653-140;077472-653-140;077472-653-140;077472-653-140;00000-000-100;077472-653-140;077472-653-140;077472-653-140;
01.09.08;Ludumo Sankobe;077353-1184-120;077353-1184-120;077353-1184-120;077353-1184-120;077353-1184-120;077353-1184-120;077353-1184-120;077353-1184-120;077353-1184-120;
01.09.08;Paul Helliwell;077598-0-920;077598-0-920;077598-0-920;077598-0-920;077598-0-920;077598-0-920;077598-0-920;077598-0-920;077598-0-920;
01.09.08;Stuart John Todd;
01.09.08;Michael Wells;077472-0-20;077472-0-20;077472-0-20;077472-0-20;077472-0-20;00000-000-100;077472-0-20;077472-0-20;077472-0-20;
01.09.08;Pierre Jansen;077353-1415-120;077353-1415-120;077353-1415-120;077353-1415-120;077353-1415-120;00000-000-100;077353-1415-120;077353-1415-120;077353-1415-120;
02.09.08;Nico Claassen;077353-1077-110;077353-1082-110;077353-1082-110;077353-1082-110;077353-1082-110;00000-000-100;077353-1082-110;077353-1082-110;077353-1082-110;
02.09.08;Malcolm Vorster;077353-1146-120;077353-1146-120;077353-1146-120;077353-1146-120;077353-1146-120;00000-000-100;077353-1146-120;00000-000-101;00000-000-101;
02.09.08;Graham Meyer;077353-1084-110;077353-1172-120;077353-1172-120;077353-1172-120;077353-1172-120;077353-1172-120;077353-1172-120;077353-1172-120;077353-1172-120;
02.09.08;Michael Preller;077353-1748-120;077353-1748-120;077353-1748-120;077353-1748-120;077353-1748-120;00000-000-100;077353-1748-120;077353-1748-120;077353-1748-120;
02.09.08;Andre Esterhuyse;077472-649-110;077472-649-110;077472-649-110;077472-649-110;077472-653-140;00000-000-100;077472-653-140;077472-653-140;077472-653-140;
02.09.08;Ludumo Sankobe;077353-1184-120;077353-1184-120;077353-1184-120;077353-1184-120;077353-1184-120;077353-1184-120;077353-1184-120;077353-1184-120;077353-1184-120;
02.09.08;Paul Helliwell;077598-0-920;077598-0-920;077598-0-920;077598-0-920;077598-0-920;077598-0-920;077598-0-920;077598-0-920;077598-0-920;
02.09.08;Stuart John Todd;
02.09.08;Michael Wells;077472-0-20;077472-0-20;077472-0-20;077472-0-20;077472-0-20;00000-000-100;077472-0-20;077472-0-20;077472-0-20;
02.09.08;Pierre Jansen;077353-1415-120;077353-1415-120;077353-1415-120;077353-1415-120;077353-1415-120;00000-000-100;077353-1415-120;077353-1415-120;077353-1415-120;
03.09.08;Nico Claassen;077353-1082-110;077353-1082-110;077353-1082-110;077353-1082-110;077353-1082-110;00000-000-100;077353-1082-110;077353-1082-110;077353-1077-110;
03.09.08;Malcolm Vorster;077353-1083-110;077353-1146-120;077353-1146-120;077353-1146-120;077353-1146-120;00000-000-100;077353-1146-120;077353-1146-120;077353-1146-120;
03.09.08;Graham Meyer;077353-1084-110;077353-1084-110;077353-1084-110;077353-1172-120;077353-1172-120;077353-1172-120;077353-1172-120;077353-1172-120;077353-1172-120;
03.09.08;Michael Preller;077353-1085-110;077353-1748-120;077353-1748-120;077353-1748-120;077353-1748-120;00000-000-100;077353-1748-120;077353-1748-120;077353-1748-120;
03.09.08;Andre Esterhuyse;077353-1086-110;077472-649-110;077472-649-110;077472-649-110;077472-649-110;00000-000-100;077472-649-110;077472-649-110;077472-649-110;
03.09.08;Ludumo Sankobe;077353-1188-185;077353-1188-185;077353-1188-185;077353-1188-185;077353-1188-185;077353-1188-185;077353-1188-185;077353-1188-185;077353-1188-185;
03.09.08;Paul Helliwell;077353-1411-110;077353-1411-110;077353-1088-110;077353-794-110;077353-794-110;00000-000-100;077353-794-110;077353-794-110;077353-794-110;
03.09.08;Stuart John Todd;
03.09.08;Michael Wells;077472-0-20;077472-0-20;077472-0-20;077472-0-20;077472-0-20;00000-000-100;077472-0-20;077472-0-20;077472-0-20;
03.09.08;Pierre Jansen;077353-1415-120;077353-1415-120;077353-1415-120;077353-1415-120;077353-1415-120;00000-000-100;077353-1415-120;077353-1415-120;00000-000-104;
04.09.08;Nico Claassen;077353-1077-110;077353-1077-110;077353-1077-110;077353-1082-110;077353-1082-110;00000-000-100;077353-1082-110;077353-1082-110;077353-1082-110;
04.09.08;Malcolm Vorster;077353-1146-120;077353-1146-120;077353-1146-120;077353-1146-120;077353-1146-120;00000-000-100;077353-1083-110;077353-1146-120;077353-1146-120;
04.09.08;Graham Meyer;077353-1172-120;077353-1172-120;077353-1172-120;077353-1172-120;077353-1172-120;077353-1172-120;077353-1175-140;077353-1175-140;077353-1175-140;
04.09.08;Michael Preller;077353-1748-120;077353-1748-120;077353-1748-120;077353-1748-120;077353-1748-120;00000-000-100;077353-1748-120;00000-000-103;077353-1085-110;
04.09.08;Andre Esterhuyse;077353-1086-110;077472-649-110;077353-1156-120;077353-1156-120;077353-1156-120;00000-000-100;077353-1156-120;077353-1156-120;077353-1156-120;
04.09.08;Ludumo Sankobe;077353-1188-185;077353-1188-185;077353-1188-185;077353-1188-185;077353-1188-185;077353-1188-185;077353-1188-185;077353-1188-185;077353-1188-185;
04.09.08;Paul Helliwell;077353-794-110;077353-794-110;077353-794-110;077353-794-110;077353-794-110;00000-000-100;077353-1411-110;077353-1411-110;077353-1411-110;
04.09.08;Stuart John Todd;
04.09.08;Michael Wells;
04.09.08;Pierre Jansen;077353-1415-120;077353-1415-120;077353-1415-120;077353-1415-120;00000-000-104;00000-000-100;00000-000-103;00000-000-103;00000-000-103;
05.09.08;Nico Claassen;
05.09.08;Malcolm Vorster;
05.09.08;Graham Meyer;077598-0-910;077598-0-910;077598-0-910;077598-0-910;077598-0-910;077598-0-910;077598-0-910;077598-0-910;077598-0-910;
05.09.08;Michael Preller;077353-1748-120;077353-1748-120;077353-1748-120;077353-1748-120;077353-1748-120;00000-000-100;077353-1748-120;077353-1748-120;077353-1748-120;
05.09.08;Andre Esterhuyse;077353-1154-110;077353-1154-110;077353-1154-110;077353-1154-110;077353-1154-110;00000-000-100;077353-1156-120;077353-1156-120;077353-1156-120;
05.09.08;Ludumo Sankobe;077353-1188-185;077353-1188-185;077353-1188-185;077353-1188-185;077353-1188-185;077353-1188-185;077353-1188-185;077353-1188-185;077353-1188-185;
05.09.08;Paul Helliwell;077353-1348-110;077353-1348-110;077353-1348-110;077353-1348-110;077353-1348-110;00000-000-100;077353-1348-110;077353-1349-120;077353-1349-120;
05.09.08;Stuart John Todd;
05.09.08;Michael Wells;077353-1159-120;077353-1159-120;077353-1159-120;077353-1159-120;077353-1159-120;00000-000-100;077353-1159-120;077353-1159-120;077353-1159-120;
05.09.08;Pierre Jansen;077353-1415-120;077353-1415-120;077353-1415-120;077353-1415-120;077353-1415-120;00000-000-100;077353-1415-120;00000-000-103;00000-000-103;
06.09.08;Nico Claassen;
06.09.08;Malcolm Vorster;
06.09.08;Graham Meyer;
06.09.08;Michael Preller;
06.09.08;Andre Esterhuyse;
06.09.08;Ludumo Sankobe;
06.09.08;Paul Helliwell;
06.09.08;Stuart John Todd;
06.09.08;Michael Wells;
06.09.08;Pierre Jansen;
07.09.08;Nico Claassen;
07.09.08;Malcolm Vorster;
07.09.08;Graham Meyer;
07.09.08;Michael Preller;
07.09.08;Andre Esterhuyse;
07.09.08;Ludumo Sankobe;
07.09.08;Paul Helliwell;
07.09.08;Stuart John Todd;
07.09.08;Michael Wells;
07.09.08;Pierre Jansen;
08.09.08;Nico Claassen;077353-1077-110;077353-1082-110;077353-1082-110;077353-1082-110;077353-1082-110;00000-000-100;077353-1082-110;077353-1082-110;077472-536-110;
08.09.08;Malcolm Vorster;077353-1146-120;077353-1146-120;077353-1146-120;077353-1146-120;077353-1146-120;00000-000-100;077353-1146-120;077353-1146-120;077353-1083-110;
08.09.08;Graham Meyer;077353-1172-120;077353-1172-120;077353-1172-120;077353-1172-120;077353-1172-120;077353-1172-120;077353-1172-120;077353-1172-120;077353-1172-120;
08.09.08;Michael Preller;077353-1748-120;077353-1748-120;077353-1748-120;077353-1748-120;077353-1748-120;00000-000-100;077353-1748-120;077353-1748-120;077353-1748-120;
08.09.08;Andre Esterhuyse;077353-1086-110;077353-1154-110;077353-1154-110;077353-1154-110;077353-1154-110;00000-000-100;077353-1154-110;077353-1154-110;077353-1154-110;
08.09.08;Ludumo Sankobe;077353-1188-185;077353-1188-185;077353-1188-185;077353-1188-185;077353-1188-185;077353-1188-185;077353-1188-185;077353-1188-185;
08.09.08;Paul Helliwell;077353-1411-110;077353-1411-110;077353-1411-110;077353-1411-110;077353-1411-110;00000-000-100;077353-1411-110;077353-1411-110;077353-1411-110;
08.09.08;Stuart John Todd;
08.09.08;Michael Wells;077353-1159-120;077353-1159-120;077353-1159-120;077353-1159-120;077353-1159-120;00000-000-100;077353-1159-120;077353-1159-120;077353-1159-120;
08.09.08;Pierre Jansen;077353-1415-120;077353-1415-120;077353-1415-120;077353-1415-120;00000-000-105;00000-000-100;00000-000-105;00000-000-105;00000-000-106;
09.09.08;Nico Claassen;077353-1077-110;077353-1077-110;077353-1077-110;077353-1082-110;077353-1082-110;00000-000-100;077353-1082-110;077353-1082-110;077353-1082-110;
09.09.08;Malcolm Vorster;077353-1146-120;077353-1146-120;077353-1146-120;077353-1146-120;077353-1146-120;00000-000-100;077353-1083-110;00000-000-104;00000-000-104;
09.09.08;Graham Meyer;077353-1172-120;077353-1172-120;077353-1172-120;077353-1172-120;077353-1172-120;00000-000-100;077353-1172-120;077353-1175-140;077353-1175-140;
09.09.08;Michael Preller;077353-1748-120;077353-1748-120;077353-1748-120;077353-1748-120;077353-1748-120;00000-000-100;077353-1748-120;077353-1748-120;077353-1748-120;
09.09.08;Andre Esterhuyse;077353-1154-110;077353-1156-120;077353-1156-120;077353-1156-120;077353-1156-120;00000-000-100;077353-1156-120;077472-653-140;077472-656-185;
09.09.08;Ludumo Sankobe;077353-1188-185;077353-1188-185;077353-1188-185;077353-1188-185;077353-1188-185;077353-1188-185;077353-1188-185;077353-1188-185;
09.09.08;Paul Helliwell;077353-1411-110;077353-1411-110;077353-1411-110;077353-1411-110;077353-1411-110;00000-000-100;077353-1411-110;077353-1411-110;077353-1411-110;
09.09.08;Stuart John Todd;
09.09.08;Michael Wells;077353-1159-120;077353-1159-120;077353-1159-120;077353-1159-120;077353-1159-120;00000-000-100;077353-1159-120;077353-1159-120;077353-1159-120;
09.09.08;Pierre Jansen;077353-1415-120;077353-1415-120;077353-1415-120;077353-1415-120;077353-1415-120;00000-000-100;077353-1415-120;077353-1415-120;077353-1415-120;
10.09.08;Nico Claassen;077353-1077-110;077353-1082-110;077353-1082-110;077353-1082-110;077353-1082-110;00000-000-100;077353-1082-110;077353-1082-110;077353-1082-110;
10.09.08;Malcolm Vorster;077472-605-140;077472-605-140;077472-605-140;077353-1146-120;077353-1146-120;00000-000-100;00000-000-103;00000-000-103;00000-000-103;
10.09.08;Graham Meyer;077353-1149-140;077472-538-120;077472-538-120;077472-538-120;077472-538-120;00000-000-100;077472-538-120;077472-538-120;077472-538-120;
10.09.08;Michael Preller;077353-1085-110;077353-1085-110;077353-1085-110;077353-1085-110;077353-1085-110;00000-000-100;077353-1085-110;077353-1085-110;077353-1085-110;
10.09.08;Andre Esterhuyse;
10.09.08;Ludumo Sankobe;077353-1188-185;077353-1188-185;077353-1188-185;077353-1188-185;077353-1087-110;077353-1087-110;077353-1087-110;077353-1087-110;
10.09.08;Paul Helliwell;077353-1348-110;077353-1348-110;077353-1348-110;077353-1348-110;077353-1348-110;00000-000-100;077353-1348-110;077353-1348-110;077353-1348-110;
10.09.08;Stuart John Todd;
10.09.08;Michael Wells;077353-1208-120;077353-1208-120;077353-1208-120;077353-1208-120;077353-1208-120;00000-000-100;077353-1208-120;077353-1208-120;077353-1208-120;
10.09.08;Pierre Jansen;077353-1204-110;077353-1204-110;077353-1204-110;077353-1204-110;077353-1204-110;00000-000-100;077353-1204-110;077353-1204-110;077353-1204-110;
11.09.08;Nico Claassen;077472-536-110;077472-536-110;077472-536-110;077472-536-110;077472-536-110;00000-000-100;077353-1082-110;077353-1082-110;077353-1082-110;
11.09.08;Malcolm Vorster;077472-605-140;077472-605-140;077472-605-140;077472-605-140;077472-605-140;00000-000-100;077472-605-140;077353-1083-110;077353-1083-110;
11.09.08;Graham Meyer;077353-1084-110;077353-1149-140;077353-1149-140;077353-1149-140;077353-1149-140;00000-000-100;077472-538-120;077472-538-120;077472-538-120;
11.09.08;Michael Preller;077353-1085-110;077353-1085-110;077353-1085-110;077353-1085-110;00000-000-101;00000-000-100;00000-000-101;00000-000-101;077353-1085-110;
11.09.08;Andre Esterhuyse;077353-1086-110;077353-1086-110;077353-1154-110;077353-1154-110;077353-1154-110;00000-000-100;077353-1154-110;077353-1154-110;077353-1154-110;077353-1086-110;
11.09.08;Ludumo Sankobe;077353-1087-110;077353-1087-110;077353-1087-110;077353-1087-110;077353-1087-110;077353-1087-110;077353-1087-110;077353-1087-110;
11.09.08;Paul Helliwell;077353-1411-110;077353-1411-110;077353-1411-110;077353-1411-110;077353-1411-110;00000-000-100;077353-1411-110;077353-1411-110;077353-1349-120;077353-1349-120;
11.09.08;Stuart John Todd;
11.09.08;Michael Wells;077353-1208-120;077353-1208-120;077353-1208-120;077353-1208-120;077353-1208-120;00000-000-100;077353-1208-120;077353-1208-120;077353-1208-120;
11.09.08;Pierre Jansen;00000-000-104;077353-1204-110;077353-1204-110;077353-1204-110;077353-1204-110;00000-000-100;077353-1204-110;077353-1204-110;077353-1204-110;
12.09.08;Nico Claassen;077353-1077-110;077353-1077-110;077472-536-110;077353-1082-110;077353-1082-110;00000-000-100;077353-1082-110;077353-1205-120;077353-1205-120;
12.09.08;Malcolm Vorster;077472-605-140;077472-605-140;077353-1083-110;077353-1083-110;077353-1083-110;00000-000-100;077353-1083-110;077353-1083-110;077353-1083-110;
12.09.08;Graham Meyer;077472-538-120;077472-538-120;077353-1084-110;077353-1084-110;077353-1084-110;00000-000-100;077353-1084-110;077353-1084-110;077353-1084-110;
12.09.08;Michael Preller;077353-1085-110;077353-1085-110;077353-1085-110;077353-1085-110;077353-1176-185;00000-000-100;077353-1176-185;077353-1176-185;077353-1176-185;
12.09.08;Andre Esterhuyse;077353-1086-110;077353-1086-110;077353-1154-110;077353-1154-110;077353-1154-110;00000-000-100;077353-1154-110;077353-1154-110;077353-1154-110;
12.09.08;Ludumo Sankobe;077353-1087-110;077353-1087-110;077353-1087-110;077353-1087-110;077353-1087-110;077353-1087-110;077353-1087-110;077353-1087-110;
12.09.08;Paul Helliwell;077353-1412-120;077353-1412-120;077353-1349-120;077353-1349-120;077353-1088-110;00000-000-100;077353-1088-110;077353-1088-110;077353-1088-110;
12.09.08;Stuart John Todd;
12.09.08;Michael Wells;077353-1208-120;077353-1208-120;077353-1208-120;077353-1208-120;077353-1208-120;00000-000-100;077353-1208-120;077353-1208-120;077353-1208-120;
12.09.08;Pierre Jansen;077353-1204-110;077353-1204-110;077353-1204-110;077353-1204-110;077353-1204-110;00000-000-100;077353-1204-110;077353-1204-110;077353-1204-110;
13.09.08;Nico Claassen;
13.09.08;Malcolm Vorster;
13.09.08;Graham Meyer;
13.09.08;Michael Preller;
13.09.08;Andre Esterhuyse;
13.09.08;Ludumo Sankobe;
13.09.08;Paul Helliwell;
13.09.08;Stuart John Todd;
13.09.08;Michael Wells;
13.09.08;Pierre Jansen;
14.09.08;Nico Claassen;
14.09.08;Malcolm Vorster;
14.09.08;Graham Meyer;
14.09.08;Michael Preller;
14.09.08;Andre Esterhuyse;
14.09.08;Ludumo Sankobe;
14.09.08;Paul Helliwell;
14.09.08;Stuart John Todd;
14.09.08;Michael Wells;
14.09.08;Pierre Jansen;
15.09.08;Nico Claassen;077353-1082-110;077353-1082-110;077353-1082-110;077353-1082-110;077353-1082-110;00000-000-100;077353-1082-110;077353-1082-110;077353-1082-110;
15.09.08;Malcolm Vorster;077598-0-910;077598-0-910;077598-0-910;077353-1083-110;077353-1083-110;00000-000-100;077353-1083-110;077353-1083-110;077353-1083-110;
15.09.08;Graham Meyer;077353-1084-110;077353-1084-110;077353-1084-110;077353-1084-110;077353-1084-110;00000-000-100;077353-1084-110;077353-1084-110;077353-1084-110;
15.09.08;Michael Preller;077353-1085-110;077353-1085-110;077353-1085-110;077353-1085-110;077353-1085-110;00000-000-100;077353-1085-110;077353-1085-110;077353-1085-110;
15.09.08;Andre Esterhuyse;077353-1086-110;077353-1086-110;077353-1086-110;077353-1086-110;077353-1086-110;00000-000-100;077353-1086-110;077353-1086-110;077353-1086-110;
15.09.08;Ludumo Sankobe;
15.09.08;Paul Helliwell;077353-1088-110;077353-1088-110;077353-1088-110;077353-1088-110;077353-1088-110;00000-000-100;077353-1088-110;077353-1088-110;077353-1088-110;
15.09.08;Stuart John Todd;
15.09.08;Michael Wells;077353-1208-120;077353-1208-120;077353-1208-120;077353-1208-120;077353-1208-120;00000-000-100;077353-1208-120;077353-1208-120;077353-1159-120;
15.09.08;Pierre Jansen;077353-1204-110;077353-1204-110;077353-1204-110;077353-1204-110;077353-1204-110;00000-000-100;077353-1204-110;077353-1204-110;077353-1204-110;
16.09.08;Nico Claassen;077472-536-110;077472-536-110;077472-536-110;077472-536-110;077472-536-110;00000-000-100;077472-536-110;077472-536-110;077353-1077-110;
16.09.08;Malcolm Vorster;077353-1083-110;077353-1083-110;077353-1083-110;077353-1083-110;077472-528-110;00000-000-100;077472-528-110;077472-528-110;077472-528-110;
16.09.08;Graham Meyer;077353-1084-110;077353-1084-110;077353-1084-110;077353-1084-110;077353-1084-110;00000-000-100;077353-1084-110;077353-1084-110;077353-1084-110;
16.09.08;Michael Preller;077353-1085-110;077353-1085-110;077353-1085-110;077353-1085-110;077353-1085-110;00000-000-100;077353-1085-110;077353-1085-110;077353-1085-110;
16.09.08;Andre Esterhuyse;077472-593-110;077472-593-110;077472-593-110;077472-593-110;077472-593-110;00000-000-100;077472-593-110;077472-593-110;077472-593-110;
16.09.08;Ludumo Sankobe;
16.09.08;Paul Helliwell;077472-601-110;077472-601-110;077472-601-110;077472-601-110;077472-601-110;00000-000-100;077472-601-110;077472-601-110;077472-601-110;
16.09.08;Stuart John Todd;
16.09.08;Michael Wells;077472-773-110;077472-773-110;077472-773-110;077472-773-110;077472-773-110;00000-000-100;077472-773-110;077472-773-110;077472-773-110;
16.09.08;Pierre Jansen;
17.09.08;Nico Claassen;077353-1082-110;077353-1082-110;077472-536-110;077472-536-110;077472-536-110;00000-000-100;077472-536-110;077472-536-110;077472-536-110;077353-1077-110;
17.09.08;Malcolm Vorster;077472-528-110;077472-528-110;077472-528-110;077472-528-110;077472-528-110;00000-000-100;077472-528-110;077472-528-110;077472-528-110;
17.09.08;Graham Meyer;077353-1084-110;077353-1084-110;077353-1084-110;077353-1084-110;077353-1084-110;00000-000-100;077353-1084-110;077353-1084-110;077353-1084-110;
17.09.08;Michael Preller;077353-1085-110;077353-1085-110;077353-1085-110;077353-1085-110;077353-1085-110;00000-000-100;077353-1085-110;077353-1085-110;077353-1085-110;
17.09.08;Andre Esterhuyse;077472-566-110;077472-566-110;077472-566-110;077472-566-110;077472-593-110;00000-000-100;077472-593-110;077472-593-110;077472-593-110;
17.09.08;Ludumo Sankobe;
17.09.08;Paul Helliwell;077472-649-110;077472-649-110;077472-649-110;077472-649-110;077472-649-110;00000-000-100;077472-649-110;077472-649-110;077472-649-110;
17.09.08;Stuart John Todd;
17.09.08;Michael Wells;077472-773-110;077472-773-110;077472-773-110;077472-773-110;077472-773-110;00000-000-100;077472-773-110;077472-773-110;077472-773-110;
17.09.08;Pierre Jansen;077353-1204-110;077353-1204-110;077353-1204-110;077353-1204-110;077353-1204-110;00000-000-100;077353-1204-110;077353-1204-110;077353-1204-110;
18.09.08;Nico Claassen;077353-1082-110;077353-1082-110;077353-1082-110;077353-1082-110;077353-1082-110;00000-000-100;077353-1082-110;077353-1082-110;077353-1082-110;
18.09.08;Malcolm Vorster;00000-000-106;00000-000-106;077472-528-110;077472-528-110;077472-528-110;00000-000-100;077472-528-110;077472-528-110;077472-528-110;
18.09.08;Graham Meyer;077353-1084-110;077353-1084-110;077353-1084-110;077353-1084-110;077353-1084-110;00000-000-100;077353-1084-110;077353-1806-120;077353-1806-120;
18.09.08;Michael Preller;077353-1085-110;077353-1085-110;077353-1085-110;077353-1085-110;077353-1085-110;00000-000-100;077353-1085-110;077353-1085-110;077353-1085-110;
18.09.08;Andre Esterhuyse;077472-566-110;077472-566-110;077472-566-110;077472-566-110;077472-566-110;00000-000-100;077472-566-110;077472-566-110;077472-566-110;
18.09.08;Ludumo Sankobe;
18.09.08;Paul Helliwell;077472-601-110;077472-601-110;077472-601-110;077472-601-110;077472-601-110;00000-000-100;077472-601-110;077472-601-110;077472-601-110;
18.09.08;Stuart John Todd;
18.09.08;Michael Wells;077472-773-110;077472-773-110;077472-773-110;077472-773-110;077472-773-110;00000-000-100;077472-773-110;077472-773-110;077472-773-110;
18.09.08;Pierre Jansen;077353-1204-110;077353-1204-110;077353-1204-110;077353-1204-110;077353-1204-110;00000-000-100;077353-1204-110;077353-1204-110;077353-1204-110;
19.09.08;Nico Claassen;077251-502-110;077251-502-110;077251-502-110;077251-502-110;077251-502-110;00000-000-100;077353-1077-110;077353-1077-110;077472-781-110;
19.09.08;Malcolm Vorster;00000-000-106;00000-000-106;077472-528-110;077472-528-110;077472-528-110;00000-000-100;077472-528-110;077472-528-110;077472-528-110;
19.09.08;Graham Meyer;077353-1806-120;077353-1806-120;077353-1806-120;077353-1806-120;077353-1806-120;00000-000-100;077353-1806-120;077353-1806-120;077353-1806-120;
19.09.08;Michael Preller;077353-1232-120;077353-1232-120;077353-1232-120;077353-1244-120;077353-1244-120;00000-000-100;077353-1244-120;077353-1244-120;077353-1244-120;
19.09.08;Andre Esterhuyse;077472-566-110;077472-566-110;077472-593-110;077472-593-110;077472-593-110;00000-000-100;077472-593-110;077472-593-110;077472-593-110;
19.09.08;Ludumo Sankobe;
19.09.08;Paul Helliwell;077472-649-110;077472-649-110;077472-649-110;077472-649-110;077472-649-110;00000-000-100;077472-649-110;077472-649-110;077472-649-110;
19.09.08;Stuart John Todd;
19.09.08;Michael Wells;077472-773-110;077472-773-110;077472-773-110;077472-773-110;077472-773-110;00000-000-100;077472-773-110;077472-773-110;077472-773-110;
19.09.08;Pierre Jansen;077353-1204-110;077353-1204-110;077353-1204-110;077353-1204-110;077353-1204-110;00000-000-100;077353-1204-110;077353-1204-110;
20.09.08;Nico Claassen;
20.09.08;Malcolm Vorster;
20.09.08;Graham Meyer;
20.09.08;Michael Preller;
20.09.08;Andre Esterhuyse;
20.09.08;Ludumo Sankobe;
20.09.08;Paul Helliwell;
20.09.08;Stuart John Todd;
20.09.08;Michael Wells;
20.09.08;Pierre Jansen;
21.09.08;Nico Claassen;
21.09.08;Malcolm Vorster;
21.09.08;Graham Meyer;
21.09.08;Michael Preller;
21.09.08;Andre Esterhuyse;
21.09.08;Ludumo Sankobe;
21.09.08;Paul Helliwell;
21.09.08;Stuart John Todd;
21.09.08;Michael Wells;
21.09.08;Pierre Jansen;
22.09.08;Nico Claassen;077251-502-110;077251-502-110;077353-1082-110;077353-1082-110;077353-1082-110;00000-000-100;077353-1082-110;077353-1082-110;077353-1077-110;
22.09.08;Malcolm Vorster;077353-1083-110;077353-1083-110;077353-1083-110;
22.09.08;Graham Meyer;077353-1806-120;077353-1806-120;077353-1806-120;077353-1084-110;077353-1084-110;00000-000-100;077353-1084-110;077353-1084-110;077353-1084-110;
22.09.08;Michael Preller;077353-1244-120;077353-1244-120;077353-1244-120;077353-1244-120;077353-1244-120;00000-000-100;077353-1244-120;077353-1244-120;077353-1085-110;
22.09.08;Andre Esterhuyse;077353-1086-110;077353-1086-110;077353-1086-110;077353-1086-110;077353-1086-110;00000-000-100;077353-1086-110;077353-1086-110;077353-1086-110;
22.09.08;Ludumo Sankobe;077353-1087-110;077353-1087-110;077353-1087-110;077353-1087-110;077353-1087-110;077353-1087-110;077353-1087-110;077353-1087-110;
22.09.08;Paul Helliwell;077353-1240-110;077353-1240-110;077353-1240-110;077353-1240-110;077353-1240-110;00000-000-100;077353-1240-110;077353-1240-110;077353-1240-110;
22.09.08;Stuart John Todd;
22.09.08;Michael Wells;077472-585-110;077472-585-110;077472-585-110;077472-585-110;077472-585-110;00000-000-100;077472-585-110;077472-585-110;077472-585-110;
22.09.08;Pierre Jansen;00000-000-103;00000-000-103;00000-000-103;00000-000-103;00000-000-104;00000-000-100;00000-000-104;00000-000-104;00000-000-104;
23.09.08;Nico Claassen;077353-1077-110;077353-1082-110;077353-1082-110;077353-1082-110;077353-1082-110;00000-000-100;077472-781-110;077251-502-110;077251-502-110;
23.09.08;Malcolm Vorster;077353-1083-110;077353-1083-110;077353-1083-110;077353-1083-110;077353-1083-110;00000-000-100;077353-1083-110;
23.09.08;Graham Meyer;077353-1806-120;077353-1806-120;077353-1806-120;077353-1806-120;077353-1806-120;00000-000-100;077353-1806-120;077353-1806-120;077353-1806-120;
23.09.08;Michael Preller;077353-1244-120;077353-1244-120;077353-1244-120;077353-1244-120;077353-1244-120;00000-000-100;077353-1244-120;077353-1085-110;077353-1085-110;
23.09.08;Andre Esterhuyse;
23.09.08;Ludumo Sankobe;077353-1087-110;077353-1087-110;077353-1087-110;077353-1087-110;077353-1087-110;077353-1087-110;077353-1087-110;077353-1087-110;
23.09.08;Paul Helliwell;077353-1228-110;077353-1228-110;077353-1228-110;077353-1228-110;077353-1228-110;00000-000-100;077353-1228-110;077353-1088-110;077353-1088-110;
23.09.08;Stuart John Todd;
23.09.08;Michael Wells;077472-585-110;077472-585-110;077472-585-110;077472-585-110;077472-585-110;00000-000-100;077472-585-110;077472-585-110;077472-585-110;
23.09.08;Pierre Jansen;00000-000-103;00000-000-103;00000-000-103;00000-000-103;00000-000-103;00000-000-100;00000-000-103;00000-000-103;00000-000-103;
24.09.08;Nico Claassen;077598-0-910;077598-0-910;077598-0-910;077598-0-910;077598-0-910;077598-0-910;077598-0-910;077598-0-910;077598-0-910;
24.09.08;Malcolm Vorster;
24.09.08;Graham Meyer;
24.09.08;Michael Preller;
24.09.08;Andre Esterhuyse;077353-1086-110;077353-1086-110;077353-1086-110;077353-1086-110;077353-1086-110;00000-000-100;077353-1086-110;077353-1086-110;077353-1086-110;
24.09.08;Ludumo Sankobe;
24.09.08;Paul Helliwell;
24.09.08;Stuart John Todd;
24.09.08;Michael Wells;077598-0-910;077598-0-910;077598-0-910;077598-0-910;077598-0-910;077598-0-910;077598-0-910;077598-0-910;077598-0-910;
24.09.08;Pierre Jansen;
25.09.08;Nico Claassen;077353-1077-110;077353-1077-110;077251-502-110;077251-502-110;077251-502-110;00000-000-100;077251-502-110;077251-502-110;077472-781-110;
25.09.08;Malcolm Vorster;077598-0-920;077598-0-920;077598-0-920;077598-0-920;077598-0-920;077598-0-920;077598-0-920;077598-0-920;077598-0-920;
25.09.08;Graham Meyer;077353-1084-110;077353-1084-110;077353-1084-110;077353-1084-110;077353-1084-110;00000-000-100;077353-1084-110;077353-1084-110;077353-1084-110;
25.09.08;Michael Preller;077353-1085-110;077353-1085-110;077353-1085-110;077353-1085-110;077353-1085-110;00000-000-100;077353-1085-110;077353-1244-120;077353-1244-120;
25.09.08;Andre Esterhuyse;077353-1256-120;077353-1256-120;077353-1256-120;077353-1256-120;077353-1256-120;00000-000-100;077353-1256-120;077353-1256-120;077353-1256-120;
25.09.08;Ludumo Sankobe;077353-1252-110;077353-1252-110;077353-1252-110;077353-1252-110;077353-1252-110;077353-1252-110;077353-1252-110;077353-1252-110;
25.09.08;Paul Helliwell;077353-1088-110;077353-1088-110;077353-1088-110;077353-1088-110;077353-1088-110;00000-000-100;077353-1088-110;077353-1316-120;077353-1316-120;
25.09.08;Stuart John Todd;
25.09.08;Michael Wells;077353-1160-120;077353-1160-120;077353-1160-120;077353-1160-120;077353-1160-120;00000-000-100;077353-1160-120;077353-1160-120;077353-1160-120;
25.09.08;Pierre Jansen;00000-000-104;00000-000-104;00000-000-104;00000-000-104;00000-000-104;00000-000-100;00000-000-104;00000-000-104;00000-000-104;
26.09.08;Nico Claassen;077353-1077-110;077353-1077-110;077251-502-110;077251-502-110;077353-1082-110;077598-0-910;077598-0-910;077598-0-910;077598-0-910;
26.09.08;Malcolm Vorster;077598-0-920;077598-0-920;077598-0-920;077598-0-920;077598-0-920;077598-0-920;077598-0-920;077598-0-920;077598-0-920;
26.09.08;Graham Meyer;
26.09.08;Michael Preller;
26.09.08;Andre Esterhuyse;
26.09.08;Ludumo Sankobe;077353-1252-110;077353-1252-110;077353-1252-110;077353-1252-110;077353-1252-110;077353-1252-110;077353-1252-110;077353-1252-110;
26.09.08;Paul Helliwell;077353-1316-120;077353-1316-120;077353-1316-120;077353-1316-120;077353-1316-120;00000-000-100;077353-1088-110;077353-1088-110;077353-1088-110;
26.09.08;Stuart John Todd;
26.09.08;Michael Wells;
26.09.08;Pierre Jansen;
27.09.08;Nico Claassen;
27.09.08;Malcolm Vorster;
27.09.08;Graham Meyer;
27.09.08;Michael Preller;
27.09.08;Andre Esterhuyse;
27.09.08;Ludumo Sankobe;
27.09.08;Paul Helliwell;
27.09.08;Stuart John Todd;
27.09.08;Michael Wells;
27.09.08;Pierre Jansen;