"27.10.08","1","077353","1089","110","Engineering ","","0","test ignition status","7:00","16:00","8","60",
"28.10.08","2","077353","1089","110","Engineering ","","0","test ignition status","7:00","16:00","8","60",
"29.10.08","3","077353","1089","110","Engineering ","","0","Creating logs for PCM sonderfunction","7:00","9:00","2","0",
"29.10.08","3","077353","1089","110","Engineering ","","0","Creating logs for PCM sonderfunction","9:00","16:00","6","60",
"30.10.08","4","077353","1089","110","Engineering ","","0","Creating autotest for Antenna Diversity tests","7:00","10:00","3","0",
"30.10.08","4","077353","1089","110","Engineering ","","0","Creating autotest for Antenna Diversity tests","10:00","16:00","5","60",
"31.10.08","5","077353","1089","110","Engineering ","","0","Creating auto test for Antenna diversity tests","7:00","16:00","8","60",
