"24.11.08","1","077353","1915","110","Engineering ","","0","Waiting for Authoring","7:00","8:00","1","0",
"24.11.08","1","077353","1719","120","Codierung","","0","E1 Porsche - 1452: E1 M5: Kombi Wartungsint schr: Sim 50%","8:00","13:00","5","0",
"24.11.08","1","077353","1084","110","Engineering ","","0","Update of Webstart Authoring","13:00","16:00","2","60",
"25.11.08","2","077353","1915","110","Engineering ","","0","Waiting for Authoring","7:00","8:00","1","0",
"25.11.08","2","077353","1084","110","Engineering ","","0","Deployed new Authouring WAR files","8:00","10:00","2","0",
"25.11.08","2","077353","1719","120","Codierung","","0","Kombi Wartungsint schr: Sim 75%","10:00","16:00","5","60",
"26.11.08","3","077353","1915","110","Engineering ","","0","Waiting for Authoring","7:00","8:00","1","0",
"26.11.08","3","077353","1084","110","Engineering ","","0","DSA Project General Work: Import and test of new application start","8:00","11:00","3","0",
"26.11.08","3","077353","1719","120","Codierung","","0","Kombi Wartungsint schr: Sim 75%","11:00","16:00","4","60",
"27.11.08","4","077353","1084","110","Engineering ","","0","PDC CTS 2hrs","7:00","9:00","2","0",
"27.11.08","4","077353","1915","110","Engineering ","","0","Waiting for Authoring","9:00","10:00","1","0",
"27.11.08","4","077353","1719","120","Codierung","","0","Kombi Wartungsint schr: Simulations","10:00","16:00","5","60",
"28.11.08","5","077472","783","110","Engineering ","","0","Delpoyed New Ferrari Authoring","7:00","9:00","2","0",
"28.11.08","5","077353","1915","110","Engineering ","","0","Waiting for Authoring","9:00","10:00","1","0",
"28.11.08","5","077353","1280","120","Codierung","","0","PDC parametrieren: Impl","10:00","16:00","5","60",
