"06.04.09","1","077251","0","110","Engineering","","0","CTS Module Developments - Button Handling scripts + BB","07:00","16:00","5","60",
"06.04.09","1","077353","1913","110","Engineering","","0","BB Paramater save problems, Save Variants problems","","","3","0",
"07.04.09","2","077251","0","110","Engineering","","0","CTS Module Development - CTS module for polling services with screenupdate","07:00","16:00","7,5","60",
"07.04.09","2","077353","1913","110","Engineering","","0","Waiting for Authoring","","","0,5","0",
"08.04.09","3","077251","0","110","Engineering","","0","CTS Module Development - CTS module for polling services with screenupdate","07:00","16:00","7,5","60",
"08.04.09","3","077353","1913","110","Engineering","","0","Waiting for Authoring","","","0,5","0",
"09.04.09","4","077353","2929","110","Engineering","","0","timesheet generation + checks","07:00","16:00","0,5","60",
"09.04.09","4","077251","1583","110","Engineering","","100","G1 PDKit FSP Lesen - PH creation","","","3","0",
"09.04.09","4","077251","1581","110","Engineering","","100","G1 DME FSP Lesen - PH creation","","","1","0",
"09.04.09","4","077472","1644","110","Engineering","","50","F141 NCM - Review Test Spec","","","3,5","0",
"10.04.09","5","077598","0","910","Urlaub","","0","Holiday","07:00","16:00","9","0",
