"07.09.09","1","077353","0","110","Engineering","","0","Training on ODX Authoring","07:00","16:00","8","60",
"08.09.09","2","077353","9879","120","Codierung","","90","Implementing a service for read identification (K-Line)","07:00","16:00","8","60",
"09.09.09","3","077353","9879","120","Codierung","","90","Creating ODX runtime and testing in OET","07:00","16:00","6","60",
"09.09.09","3","077353","0","110","Engineering","","0","ODX Test spec training","","","2","0",
"10.09.09","4","077353","0","110","Engineering","","0","Creating simulation for ECU Wischer.","07:00","16:00","8","60",
"11.09.09","5","077353","9872","110","Engineering","","0","Creating test specification and simulation","07:00","16:00","8","60",
