"21.09.09","1","077353","9950","110","Engineering","","99","5562: PDC: Param: Testspec + erw. Sim. Tested simulations and up dated MOTS","07:00","16:00","4","60",
"21.09.09","1","077353","7687","110","Engineering","","0","8501:E1 M5: allg. Projekttätigkeiten Maintained software installed PIDT and Authoring varfied tasks.","","","3","0",
"21.09.09","1","077353","10133","110","Engineering","","99","5862: E1 M5: PCM2-SBS2:Löschen Spracheinträge (GESiC): PH Determined and posted open issues.","","","0,5","0",
"21.09.09","1","077353","10141","110","Engineering","","99","5863: E1 M5: PCM2-SBS2: Mikrofontest (GESiC): PH Determined and posted open issues.","","","0,5","0",
"22.09.09","2","077353","10146","110","Engineering","","20","5863: E1 M5: PCM2-SBS2: Mikrofontest (GESiC): Implementierung: Created the XML configuration file.","07:00","16:00","4","60",
"22.09.09","2","077353","7687","110","Engineering","","0"," 8501: E1 M5: allg. Projekttätigeiten. Maintained software resources, studied GESiC documentation.","","","3","0",
"22.09.09","2","077353","9590","140","Test","","50"," 5488: E1 M5: PDCC: SG-Tausch: Modultest Tested in PIDT.","","","1","0",
"23.09.09","3","077353","10146","110","Engineering","","65"," 5863: E1 M5: PCM2-SBS2: Mikrofontest (GESiC): Implementierung:Created execute service steps in code","07:00","16:00","5","60",
"23.09.09","3","077353","9934","110","Engineering","","100","5542: E1 M5: Lenkradelektronik: SG-Tausch: PH Review. Finished and checked-in.","","","0,4","0",
"23.09.09","3","077353","9904","110","Engineering","","100","5722: E1 M5: AWS: Kalibrier (GESiC): Testspec + erw. Sim. This task is already done by someone.","","","0","0",
"23.09.09","3","077353","10138","110","Engineering","","60"," 5862: E1 M5: PCM2-SBS2: Löschen Spracheinträge (GESiC): Implementierung Open Issue missing service","","","0","0",
"23.09.09","3","077353","10135","110","Engineering","","0","5862: E1 M5: PCM2-SBS2: Löschen Spracheinträge (GESiC): Testspec + erw. Sim: Missing service","","","0","0",
"23.09.09","3","077353","10143","110","Engineering","","80"," 5863: E1 M5: PCM2-SBS2: Mikrofontest (GESiC): Testspec + erw. Sim. Created test cases for services.","","","2","0",
"23.09.09","3","077353","0","110","Engineering","","100","E1 M5: Lenkradelektronik: SG-Tausch: PH. Updated MORS document.","","","0,6","0",
"24.09.09","4","077353","0","910","Urlaub","","0","Public Holiday","07:00","16:00","8","60",
"25.09.09","5","077353","9590","140","Test","","99"," 5488: E1 M5: PDCC: SG-Tausch: Modultest PIDT Testing.","07:00","16:00","2","60",
"25.09.09","5","077353","9950","110","Engineering","","99"," 5562: E1 M5: PDC: Param: Testspec + erw. Sim. needs review.","","","2","0",
"25.09.09","5","077353","10143","110","Engineering","","99","	 5863: E1 M5: PCM2-SBS2: Mikrofontest (GESiC): Testspec + erw. Sim. needs review","","","2","0",
"25.09.09","5","077353","10146","110","Engineering","","70"," 5863: E1 M5: PCM2-SBS2: Mikrofontest (GESiC): Implementierung  Created execute service steps.","","","2","0",
"25.09.09","5","077353","9892","140","Test","","0","	5322: E1 M5: Gateway K-Line: SG-Tausch: Task rested, MOTS needs review.","","","0","0",
