"09.11.09","1","077353","11032","110","Engineering","","100","5405: E1 M5: PCM2-GW: Audiotest autom (GESIC): Testspec + erw. Sim.","07:00","16:00","0","60",
"09.11.09","1","077353","11037","110","Engineering","","100","5405: E1 M5: PCM2-GW: Audiotest manuell: Testspec + erw. Sim.","","","0","0",
"09.11.09","1","077353","11033","120","Codierung","","0","5405: E1 M5: PCM2-GW: Audiotest autom (GESIC): ODX-Bedatung","","","3","0",
"09.11.09","1","077353","11221","110","Engineering","","45","5803: E1 M5: CDR23-GW: SG-Tausch: Testspec + erw. Sim.","","","5","0",
"10.11.09","2","077353","11223","120","Codierung","","80","	 5803: E1 M5: CDR23-GW: SG-Tausch: ODX-Bedatung","07:00","16:00","8","60",
"11.11.09","3","077353","11223","120","Codierung","","100","	 5803: E1 M5: CDR23-GW: SG-Tausch: ODX-Bedatung","07:00","16:00","8","60",
