"03.08.09","1","077353","0","110","Engineering","","0","5368: SWSG: SG-Tausch: PH - Updated PH ''E1_SWSG_EcuReplacement_MORS.doc'' Making review changes.","07:00","16:00","5","60",
"03.08.09","1","077353","7687","110","Engineering","","0"," 8501: E1 M5: allg. Projekttätigkeiten: Studying simulation and test specicification documentation.","","","3","0",
"04.08.09","2","077353","0","110","Engineering","","0","5368: SWSG: SG-Tausch: PH - Updated PH ''E1_SWSG_EcuReplacement_MORS.doc'' Making review changes.","07:00","16:00","2","60",
"04.08.09","2","077353","9235","110","Engineering","","0","5368: E1 M5: SWSG: SG-Tausch: Testspec + erw. Sim:  E1_SWSG_EcuReplacement_MOTS.doc- chapter 1-2","","","4","0",
"04.08.09","2","077353","7687","110","Engineering","","0","8501: E1 M5: allg. Projekttätigkeiten Studying test  specifications documents.","","","2","0",
"05.08.09","3","077353","9235","110","Engineering","","0","5368: E1 M5: SWSG: SG-Tausch: Testspec + erw. Sim:  Wrote chapter 3 -E1_SWSG_EcuReplacement_MOTS.doc","07:00","16:00","6","60",
"05.08.09","3","077353","7687","110","Engineering","","0","8501: E1 M5: allg. Projekttätigkeiten: General up-keep of resources and liaising about tasks.","","","2","0",
"06.08.09","4","077353","9235","110","Engineering","","0","	 5368: E1 M5: SWSG: SG-Tausch: Testspec + erw. Sim: Wrote Chapter 3.2.1 and Simulation files","07:00","16:00","5","60",
"06.08.09","4","077353","7687","110","Engineering","","0"," 8501: E1 M5: allg. Projekttätigkeiten: E1 simulations meeting and general up-keep of  resources.","","","3","0",
"07.08.09","5","077353","9238","120","Codierung","","0","5368: E1 M5: SWSG: SG-Tausch: Implementierung PAG_MIG_E1_SWSG_ECU_Replacement_PRE_WRITE Step 1- 4","07:00","16:00","6","60",
"07.08.09","5","077353","7687","110","Engineering","","0"," 8501: E1 M5: allg. Projekttätigkeiten - Simulation training and general work.","","","2","0",
