"07.09.09","1","077353","9591","181","Fehlerbes. vor Ausl. (Bugzilla)","","0","Rework for new ODA Pidt methods","07:00","16:00","8","60",
"08.09.09","2","077353","9591","181","Fehlerbes. vor Ausl. (Bugzilla)","","0","Rework for new ODA Pidt methods","07:00","16:00","4","60",
"08.09.09","2","077353","0","130","Installation + Konfiguration","","100","Installing and Testing new ODX Authoring","","","4","0",
"09.09.09","3","077353","9821","110","Engineering","","0","Creating test spec for RDK coding","07:00","16:00","3","60",
"09.09.09","3","077353","9591","181","Fehlerbes. vor Ausl. (Bugzilla)","","0","Bugfinxing due to PIDT methods changing","","","5","0",
"10.09.09","4","077353","9821","110","Engineering","","0","5281: E1 M5: RDK: Gen  ODX-Bedat: Kodier: TestSpec +  erw. Sim.","07:00","16:00","8","60",
"11.09.09","5","077353","9821","110","Engineering","","0","	5281: E1 M5: RDK: Gen  ODX-Bedat: Kodier: TestSpec +  erw. Sim.","07:00","16:00","8","60",
