"08.06.09","1","077251","2059","185","Service","","0","(Assisting collegue) Bug 14903 E1_Kombi_0504: WartungsintervallSchreiben Rows are not activated","07:00","16:00","2","60",
"08.06.09","1","077251","2059","185","Service","","0","[Bug 17098] Kombi: Restaurierung Tankgeberabgleichwerte: Start button labeled Weiter","","","2","0",
"08.06.09","1","077251","2059","185","Service","","0","[Bug 16893] Inbetriebnahme - Testabbruch","","","4","0",
"09.06.09","2","077353","6413","190","Optimierung bei bestehenden Sys.","","100","E1 M5: PDCC: Reset (GESiC): Anp CTS-Impl Rework and Test","07:00","16:00","2","60",
"09.06.09","2","077251","2059","185","Service","","0","[Bug 16893] Inbetriebnahme - Testabbruch","","","4","0",
"09.06.09","2","077251","2059","185","Service","","0","Bug 15342 E1_Kombi_0504: WartungsintervallSchreiben: Description text missing updating PH Doucment","","","2","0",
"10.06.09","3","077353","0","110","Engineering","","0","E1 PDCC Ventiltaktung - Reimplementation with Modules","07:00","16:00","4","60",
"10.06.09","3","077353","5463","110","Engineering","","0","E1 M5: Gateway CAN: S/I Konfig: Bugfixing /Modultest","","","2","0",
"10.06.09","3","077353","6342","110","Engineering","","0","E1 M5: Kombi: Wartungsintervall schreiben: Bugfixing","","","2","0",
"11.06.09","4","077353","1088","110","Engineering","","0","S4 Team Meeting","07:00","16:00","1","60",
"11.06.09","4","077353","1","110","Engineering","","0","E1 PDCC Ventiltaktung - Reimplementation with Modules","","","3","0",
"11.06.09","4","077353","4","110","Engineering","","0","Assisting Collegues with Module Implementations","","","2","0",
"11.06.09","4","077353","0","110","Engineering","","0","E1 Kessy Anlernen - Reimplementing  with modules","","","2","0",
"12.06.09","5","077353","1088","110","Engineering","","0","S4 Team Meeting","07:00","16:00","1","60",
"12.06.09","5","077353","2","110","Engineering","","0","E1 SWSG Systemtausch - Reimplementing  with modules","","","5","0",
"12.06.09","5","077353","1","110","Engineering","","0","E1 Kessy Anlernen - Reimplementing  with modules","","","2","0",
