"24.08.09","1","077353","2946","110","Engineering","","0","common project tasks","07:00","16:00","1","60",
"24.08.09","1","077353","9833","110","Engineering","","40","5286: E1 M5: RDK: Komplex Codier: PH","","","7","0",
"25.08.09","2","077353","9833","110","Engineering","","99","5286: E1 M5: RDK: Komplex Codier: PH","07:00","16:00","5","60",
"25.08.09","2","077353","2946","110","Engineering","","0","common project tasks","","","1,5","0",
"25.08.09","2","077353","2946","110","Engineering","","0","Testing to verifiy the fix for bug 18772","","","1,1","0",
"25.08.09","2","077353","6170","110","Engineering","","0","8185: Warten auf Authoring (Performance-Probleme bei Ausführung)","","","0,4","0",
"26.08.09","3","077353","2946","110","Engineering","","0","common project tasks","07:00","16:00","1","60",
"26.08.09","3","077353","10093","110","Engineering","","0","5744: E1 M5: Heckklappe: SG-Tausch: Testspec + erw. Sim.","","","6","0",
"26.08.09","3","077353","2946","110","Engineering","","0","	Assisting collegue with bug fixing a CTS","","","1","0",
"27.08.09","4","077353","10096","120","Codierung","","30","5744: E1 M5: Heckklappe: SG-Tausch: Implementierung","07:00","16:00","5,6","60",
"27.08.09","4","077353","2946","110","Engineering","","0","common project tasks","","","0,4","0",
"27.08.09","4","077353","6170","110","Engineering","","0","8185: Warten auf Authoring (Performance-Probleme bei Ausführung)","","","0,7","0",
"27.08.09","4","09.00052","256","170","Schulung","","0","oda basic training","","","1,3","0",
"28.08.09","5","09.00052","256","170","Schulung","","0","Basic gesic training","07:00","16:00","1,7","60",
"28.08.09","5","077353","10093","110","Engineering","","99","5744: E1 M5: Heckklappe: SG-Tausch: Testspec + erw. Sim.","","","1","0",
"28.08.09","5","077353","9140","140","Test","","0","5310: E1 M5: Gateway CAN: Flashen: Modultest","","","2,6","0",
"28.08.09","5","077353","9142","181","Fehlerbes. vor Ausl. (Bugzilla)","","0","5310: E1 M5: Gateway CAN: Flashen: Bugfix zum Modultest","","","2,7","0",
