"31.08.09","1","077353","9904","110","Engineering","","90"," 5722: E1 M5: AWS: Kalibrier (GESiC): Testspec + erw. Sim. Made 6 test cases and buslogs.","07:00","16:00","4","60",
"31.08.09","1","077353","9591","181","Fehlerbes. vor Ausl. (Bugzilla)","","99","5488: E1 M5: PDCC: SG-Tausch: Bugfixing zum Modultest Tested and fixed new errors.","","","2","0",
"31.08.09","1","077353","7687","110","Engineering","","0","8501: E1 M5: allg. Projekttätigkeiten Read Dynamic Sub document .","","","1","0",
"31.08.09","1","077353","9240","181","Fehlerbes. vor Ausl. (Bugzilla)","","99","5368: E1 M5: SWSG: SG-Tausch: Bugfixing zum Modultest Tested and fixed new errors.","","","1","0",
"01.09.09","2","077353","10591","181","Fehlerbes. vor Ausl. (Bugzilla)","","100","5027: E1 M5: FZGweite Fkt: Bugfixing Abläufe 5.2: BF+Test  I have already done this one.","07:00","16:00","0","60",
"01.09.09","2","077353","9904","110","Engineering","","99","5722: E1 M5: AWS: Kalibrier (GESiC): Testspec + erw. Sim. Created simulation.","","","1","0",
"01.09.09","2","077353","9240","181","Fehlerbes. vor Ausl. (Bugzilla)","","100","5368: E1 M5: SWSG: SG-Tausch: Bugfixing zum Modultest Fixed all bugs.","","","2","0",
"01.09.09","2","077353","9591","181","Fehlerbes. vor Ausl. (Bugzilla)","","100","5488: E1 M5: PDCC: SG-Tausch: Bugfixing zum Modultest: Fixed all bugs.","","","2","0",
"01.09.09","2","077251","3336","110","Engineering","","0","8501: E1 M5: allg. Projekttätigkeiten: Maintained working environment (general updates).","","","1","0",
"01.09.09","2","077353","9694","140","Test","","99"," 5045: E1 M5: MED9.1/ME7.11: SG-Program: FZGdaten lesen/schreiben: Modultest Re-tested all.","","","2","0",
"02.09.09","3","077353","9694","140","Test","","99","5045: E1 M5: MED9.1/ME7.11: SG-Program: FZGdaten lesen/schreiben: Attempted to create buslogs.","07:00","16:00","2","60",
"02.09.09","3","077353","9904","110","Engineering","","99","5722: E1 M5: AWS: Kalibrier (GESiC): Testspec + erw. Sim. Tested simulation.","","","1","0",
"02.09.09","3","077251","3336","110","Engineering","","0","8501: E1 M5: allg. Projekttätigkeiten: Sorted PIDT plug-in and check-in problems.","","","4","0",
"02.09.09","3","077353","9695","181","Fehlerbes. vor Ausl. (Bugzilla)","","99","5045: E1 M5: MED9.1/ME7.11: SG-Program: FZGdaten lesen/schreiben: Bugfixing zum Modultest : All.","","","1","0",
"03.09.09","4","077353","9694","140","Test","","99","5045: E1 M5: MED9.1/ME7.11: SG-Program: FZGdaten lesen/schreiben: Created buslogs.","07:00","16:00","3","60",
"03.09.09","4","077353","9695","181","Fehlerbes. vor Ausl. (Bugzilla)","","99","5045: E1 M5: MED9.1/ME7.11: SG-Prog: FZGdaten lesen/schreiben: Bugfixing Module : Fixed simulations.","","","3","0",
"03.09.09","4","077251","3336","110","Engineering","","0","8501: E1 M5: allg. Projekttätigkeiten: Tested pidt, Read ODX implementation.","","","2","0",
"04.09.09","5","077353","9934","110","Engineering","","80","5542: E1 M5: Lenkradelektronik: SG-Tausch: PH Review Reworked E1_Lenk_EcuReplacement_MORS.doc.","07:00","16:00","2","60",
"04.09.09","5","077353","7687","110","Engineering","","0","8501: E1 M5: allg. Projekttätigkeiten: Updated software and put slosed task on SVN.","","","4","0",
"04.09.09","5","077353","9904","110","Engineering","","99","5722: E1 M5: AWS: Kalibrier (GESiC): Testspec + erw. Sim: Confirmed new open issues.","","","2","0",
