"06.04.09","1","077251","1585","120","Codierung","","70","G1 Einschleifen: Coding the CTS","07:00","16:00","6","60",
"06.04.09","1","077251","0","120","Codierung","","0","Updating the PASM CTS to fix translation issues.","","","2","0",
"07.04.09","2","077251","1585","120","Codierung","","60","G1: Einschleifen CTS coding","07:00","16:00","5","60",
"07.04.09","2","077251","1373","110","Engineering","","0","G1 PASM: Assisted colleagues with getting PASM ready for testing.","","","3","0",
"08.04.09","3","077251","1585","120","Codierung","","65","G1: Einschleifen","07:00","16:00","6","60",
"08.04.09","3","077251","1373","110","Engineering","","0","G1 PASM: Assisted colleagues with getting PASM ready for testing,","","","2","0",
"09.04.09","4","077251","1585","120","Codierung","","75","G1: Working on Einschleifen","07:00","16:00","8","60",
"09.04.09","4","077251","1373","110","Engineering","","0","E1: Assisted colleague with finding fault in RDK 0300.","","","1","0",
"10.04.09","5","077598","0","910","Urlaub","","0","Public Holiday","07:00","16:00","8","60",
