"20.04.09","1","077251","1662","110","Engineering","","100","G1 - BCM_Vorne&hinten: Implemanting BCM _Historienspeicher_DWA_anzeigen_zurücksetzen CTS.","07:00","16:00","8","60",
"21.04.09","2","077353","1087","140","Test","","0","Testing E1_PCM2_MMI: Ablauf MOST Sollverbauliste for Bug# 11977","07:00","16:00","8","60",
"22.04.09","3","077251"," 0","910","Urlaub","","0","Holiday","07:00","16:00","9","0",
"23.04.09","4","077353","1087","140","Test","","0","Testing E1_PCM2_GW: Ablauf ''Feldstaerke Test'' for Bug# 12787","07:00","16:00","8","60",
"24.04.09","5","077353","1087","140","Test","","0","Testing PAG_MIG_E1_PCM2_ExtAmp_AudiotestExecution","07:00","16:00","8","60",
