"31.08.09","1","077353","0","110","Engineering","","0","Assisting colleagues with coding","07:00","16:00","4","60",
"31.08.09","1","077353","1","120","Codierung","","0","Implementing DTC Module","","","4","0",
"01.09.09","2","077353","0","110","Engineering","","0","Assisting colleagues with coding","07:00","16:00","2","60",
"01.09.09","2","077353","1","120","Codierung","","0","Implementation of DTC Module","","","6","0",
"02.09.09","3","077353","0","110","Engineering","","0","Assiting colleagues with coding.","07:00","16:00","1","60",
"02.09.09","3","077353","1","110","Engineering","","0","DTC Module implementation","","","4","0",
"02.09.09","3","077353","9532","120","Codierung","","0","SGTausch implementation","","","3","0",
"03.09.09","4","077353","0","110","Engineering","","0","Assisting colleagues with coding","07:00","16:00","2","60",
"03.09.09","4","077353","1","120","Codierung","","0","DTC Module document and implementation","","","6","0",
"04.09.09","5","077353","0","110","Engineering","","0","Assisting colleagues with coding","07:00","16:00","1","60",
"04.09.09","5","077353","1","120","Codierung","","0","DTC Modules implementation and documentation","","","7","0",
