"12.10.09","1","077353","10372","120","Codierung","","0","Reworking implementation due to errors.","07:00","16:00","0,5","60",
"12.10.09","1","077353","1913","110","Engineering","","0","ODX exports, ODX builds.","","","2","0",
"12.10.09","1","09.00052","253","170","Schulung","","0","ODX training -Table based services in ODX - S49, S51","","","1,5","0",
"12.10.09","1","077353","10137","120","Codierung","","90","5862: E1 M5: PCM2-SBS2: Löschen Spracheinträge (GESiC):  ODX-Bedatung - Taken from jh","","","1,5","0",
"12.10.09","1","077353","2938","110","Engineering","","0","Assising colleagues and general admin","","","2,5","0",
"13.10.09","2","077353","10137","120","Codierung","","100","Tested in ODX 103. Working OK.","07:00","16:00","0,5","60",
"13.10.09","2","077353","0","110","Engineering","","0","5346: Kombi: SG-Tausch: PH - Analysis - Kombi SG-Taush PIWIS source","","","4","0",
"13.10.09","2","077353","10372","120","Codierung","","100","Tested in build 102. OK","","","0,5","0",
"13.10.09","2","077353","2938","110","Engineering","","0","Assisting colleagues, app01 in SA reconfigure network.","","","3","0",
"14.10.09","3","077353","0","110","Engineering","","0","5346: Kombi: SG-Tausch: PH - analysis of PIWIS","07:00","16:00","3","60",
"14.10.09","3","077353","2938","110","Engineering","","0","Restore backups and software installation on laptop returned from repair.","","","5","0",
"15.10.09","4","077353","10013","110","Engineering","","100","5346: E1 M5: Kombi: SG-Tausch: PH - Rework PH document (Task taken from mi)","07:00","16:00","1","60",
"15.10.09","4","077353","0","110","Engineering","","0","5346: Kombi: SG-Tausch: PH - analysis of suitability of option items from kombi.xls","","","3","0",
"15.10.09","4","09.00052","253","170","Schulung","","0","Train + assist S51 with task 077353-10043.","","","2","0",
"15.10.09","4","077353","1913","110","Engineering","","0","ODX builds, problem with computmethod ''bad magic number''","","","2","0",
"16.10.09","5","077353","9172","110","Engineering","","90","5346: E1 M5: Kombi:  SG-Tausch: Testspec + erw.  Sim. - Restarting creating Test Spec - PH change","07:00","16:00","6","0",
"16.10.09","5","077353","1913","110","Engineering","","0","Testing on compumethod ''bad magic number'' problem","","","1","0",
"16.10.09","5","077353","2938","110","Engineering","","0","Timesheets + management meeting","","","2","0",
