"17.08.09","1","077353","8749","120","Codierung","","0","5523: E1 M5: Heck-SG:SG-Tausch: Implementierung","07:00","16:00","5","60",
"17.08.09","1","09.00052","263","170","Schulung","","0","ODX training","","","3","0",
"18.08.09","2","077353","8749","120","Codierung","","0","5523: E1 M5: Heck-SG:SG-Tausch: Implementierung","07:00","16:00","8","60",
"19.08.09","3","077353","7685","110","Engineering","","0"," 8185: Warten auf Authoring - Connection Problems & Reinstallation","07:00","16:00","2","60",
"19.08.09","3","077353","8749","120","Codierung","","0","5523: E1 M5: Heck-SG:SG-Tausch: Implementierung","","","6","0",
"20.08.09","4","077353","7685","110","Engineering","","0","8185: Warten auf Authoring - Kernel Setup issues","07:00","16:00","2","60",
"20.08.09","4","077353","8749","110","Engineering","","0","5523: E1 M5: Heck-SG:SG-Tausch: Implementierung - Problems getting CTS running in Auth. environment","","","6","0",
"21.08.09","5","077353","8749","120","Codierung","","0","5523: E1 M5: Heck-SG:SG-Tausch: Implementierung","07:00","16:00","8","60",
