"19.10.09","1","077353","10069","120","Codierung","","30","5464: E1 M5: Airbag:  SG-Tausch: Implementierung","07:00","16:00","8","60",
"20.10.09","2","077353","10069","120","Codierung","","100","5464: E1 M5: Airbag:  SG-Tausch: Implementierung","07:00","16:00","8","60",
"21.10.09","3","077353","10551","181","Fehlerbes. vor Ausl. (Bugzilla)","","0","Bugfixing - 15147. Took long time due to previously unknown problems","07:00","16:00","8","60",
"22.10.09","4","077353","9928","110","Engineering","","100","5541: E1 M5:  Lenkradelektronik: Gen  ODX-Bedat: Stellglied:  TestSpec + erw. Sim.","07:00","16:00","4","60",
"22.10.09","4","077353","9929","140","Test","","100","5541: E1 M5:  Lenkradelektronik: Gen  ODX-Bedat: Stellglied:  Modultest","","","4","0",
"23.10.09","5","077353","9928","110","Engineering","","100","Editing simulations. Problem with the PIWIS simulation.","07:00","16:00","2","60",
"23.10.09","5","077353","9929","140","Test","","95","5541: E1 M5:  Lenkradelektronik: Gen  ODX-Bedat: Stellglied:  Modultest","","","6","0",
