"20.07.09","1","077353","1","120","Codierung","","0","Updated Wrapper CTS","07:00","16:00","8","60",
"21.07.09","2","077353","1","120","Codierung","","0","Updated Wrapper CTS","07:00","16:00","2","60",
"21.07.09","2","077353","9522","120","Codierung","","0","Rework GESIC Modularize","","","6","0",
"22.07.09","3","077353","9522","120","Codierung","","0","Rework GESIC Modularize","07:00","16:00","8","60",
"23.07.09","4","077353","9522","120","Codierung","","0","Rework GESIC Modularize","07:00","16:00","8","60",
"24.07.09","5","077353","9522","120","Codierung","","0","Rework GESIC Modularize","07:00","16:00","8","60",
