"25.05.09","1","077251","2026","185","Service","","0","G1 Bugfixing E2.1 - Bug 16748 - Data collection and reporting on current status","07:00","16:00","8","60",
"26.05.09","2","09.00065","28","170","Schulung","","0","Get into subject: training new colleges s48 with Service Handler operation in Authoring","07:00","16:00","1","60",
"26.05.09","2","077251","1710","185","Service","","0","G1 Bugfixing E2.1/ae70 - (16748) Re-implementation for PSM Cluster Sensor CTS","","","7","0",
"27.05.09","3","077251","1710","185","Service","","0","G1 Bugfixing E2.1/ae70 - (16748) Re-implementation for PSM Cluster Sensor CTS","07:00","16:00","7","60",
"27.05.09","3","09.00065","28","170","Schulung","","0","Get into subject: training new colleges s48 with Service Handler operation in Authoring","","","1","0",
"28.05.09","4","077251","1710","185","Service","","50","G1 Bugfixing E2.1/ae70 - (16748) Re-implementation for PSM Cluster Sensor CTS","07:00","16:00","8","60",
"29.05.09","5","077251","1710","185","Service","","0","G1 Bugfixing E2.1/ae70 - (16748) Re-implementation for PSM Cluster Sensor CTS","07:00","16:00","8","60",
