DATE;NAME;START;END;LUNCH;1;2;3;4;5;6;7;8;9;10;11;12;13;14;15;16;17;18;19;20;21;22;23;24;
01.11.09;Nico Claassen;
01.11.09;Malcolm Vorster;
01.11.09;Graham Meyer;
01.11.09;Thando Katywa;
01.11.09;Andre Esterhuyse;
01.11.09;Ludumo Sankobe;
01.11.09;Paul Helliwell;
01.11.09;Richard Raymond;
01.11.09;Pierre Jansen;
01.11.09;Johannes Geldenhuys;
01.11.09;Thembela Dokoda;
01.11.09;Gareth Ambrose;
01.11.09;Brendan van Zyl;
01.11.09;Michael Wells;
01.11.09;Jason Smith;
01.11.09;Justin Jansen Van Vuuren;
02.11.09;Nico Claassen;07:00:00;16:00:00;60;077353-10992;077353-10992;077353-2938;077353-2938;077353-11281;077353-11281;077353-11281;077353-11281;
02.11.09;Malcolm Vorster;07:00:00;16:00:00;60;077353-0;077353-0;077353-0;077353-0;077353-0;077353-0;077353-0;077353-0;
02.11.09;Graham Meyer;07:00:00;16:00:00;60;077353-11377;077353-11377;077353-11377;077353-11377;077353-11385;077353-11385;077353-11385;077353-11385;
02.11.09;Thando Katywa;07:00:00;16:00:00;60;077353-2946;077353-2946;077353-0;077353-0;077353-0;077353-0;077353-0;077353-0;
02.11.09;Andre Esterhuyse;07:00:00;16:00:00;60;077353-11037;077353-11037;077353-11037;077353-11037;077353-11037 / 077353-10611;077353-10611;077353-10611 / 09.00052-257;09.00052-257;
02.11.09;Ludumo Sankobe;07:00:00;16:00:00;60;077251-1372;077251-1372;077251-1372;077251-1372;077251-1372;077251-1372;077251-1372;077251-1372;
02.11.09;Paul Helliwell;07:00:00;16:00:00;60;077353-11541;077353-11541;077353-11541;077353-11541;077353-11483;077353-11483;077353-11483;077353-11483;
02.11.09;Richard Raymond;07:00:00;16:00:00;60;09.00052-260;077353-7683;077353-7683;077353-7686;077353-11435;077353-11435;077353-11435;077353-10721;
02.11.09;Pierre Jansen;
02.11.09;Johannes Geldenhuys;07:00:00;16:00:00;60;09.00052-263;09.00052-263;077353-0;077353-0;077353-0;077353-0;077353-0;077353-0;
02.11.09;Thembela Dokoda;
02.11.09;Gareth Ambrose;
02.11.09;Brendan van Zyl;07:00:00;16:00:00;60;077472-859;077472-1893;09.00455-211;09.00455-211;09.00455-211;09.00455-211;09.00455-211;09.00455-211;
02.11.09;Michael Wells;07:00:00;16:00:00;60;077353-11420;077353-11420;077353-0;077353-0;09.00455-0;09.00455-0;09.00455-0;09.00455-0;
02.11.09;Jason Smith;07:00:00;16:00:00;60;09.00455-203;09.00455-203;09.00455-203;09.00455-203;09.00455-202;09.00455-202;09.00455-202;09.00455-202;
02.11.09;Justin Jansen Van Vuuren;07:00:00;16:00:00;60;077353-0;077353-0;077353-0;077353-0;077353-0 / 077353-11247;077353-11247;077353-11247;077353-11247;
03.11.09;Nico Claassen;07:00:00;17:30:00;0;077353-11281;077353-11281;077353-11281;077353-11281;077353-11281;077353-11281;09.00052-253;09.00052-253 / 077353-1913;077353-1913 / 077353-2938;077353-2938;077353-2938;
03.11.09;Malcolm Vorster;07:00:00;16:00:00;60;077353-11299;077353-11299 / 077353-11205;077353-11205;077353-11205;077353-11205;077353-11205;077353-9551;077353-9551;
03.11.09;Graham Meyer;07:00:00;16:00:00;60;077353-11377;077353-11132;077353-11132;077353-11132;077353-11132;077353-11132;077353-11132;077353-11131;
03.11.09;Thando Katywa;07:00:00;16:00:00;60;077353-2946;077353-2946;077353-2946 / 077353-11433;077353-11433;077353-11433;077353-11433;077353-11433;077353-0;
03.11.09;Andre Esterhuyse;07:00:00;16:00:00;60;077353-11032;077353-11032;077353-11032;077353-11032;077353-10611;077353-11037;077353-11037;077353-11037;
03.11.09;Ludumo Sankobe;07:00:00;16:00:00;60;077251-0;077251-0;077251-0;077251-0;077251-0;077251-0;077251-0;077251-0;
03.11.09;Paul Helliwell;07:00:00;16:00:00;60;077353-11483;077353-11483;077353-11483;077353-11483;077353-11483;077353-11483;077353-11483;077353-11483;
03.11.09;Richard Raymond;07:00:00;16:00:00;60;077353-10721;077353-10721;09.00052-260;077353-11435;077353-11435;077353-11435;077353-11435;077353-11435;
03.11.09;Pierre Jansen;
03.11.09;Johannes Geldenhuys;07:00:00;16:00:00;60;09.00052-263;077353-0;077353-0;077353-0;077353-0;077353-0;077353-11086;077353-11086;
03.11.09;Thembela Dokoda;
03.11.09;Gareth Ambrose;
03.11.09;Brendan van Zyl;07:00:00;16:00:00;60;077472-859;077472-859;077472-859;077472-1893;09.00455-211;09.00455-211;09.00455-145;09.00455-145;
03.11.09;Michael Wells;07:00:00;16:00:00;60;09.00455-149;09.00455-149;09.00455-149;09.00455-149;09.00455-149;09.00455-149;09.00455-148;09.00455-148;
03.11.09;Jason Smith;07:00:00;16:00:00;60;09.00455-203;09.00455-203;09.00455-203;09.00455-203;09.00455-203;09.00455-203;09.00455-203;09.00455-203;
03.11.09;Justin Jansen Van Vuuren;07:00:00;16:00:00;60;077353-0;077353-0;09.00052-317;077353-11248;077353-11248;077353-11248;077353-11248;077353-11248;
04.11.09;Nico Claassen;07:00:00;16:00:00;60;077353-11282;077353-11282;077353-11282;077353-11282;077353-11282;077353-11282;077353-11282;077353-2938;
04.11.09;Malcolm Vorster;07:00:00;16:00:00;60;077353-9551;077353-9551;077353-9551;077353-11303;077353-11303;077353-11303;077353-11303;077353-1914;
04.11.09;Graham Meyer;07:00:00;16:00:00;60;077353-11132;077353-11132;077353-11132;077353-11132;077353-11132;077353-11132;077353-11132;09.00052-255;
04.11.09;Thando Katywa;07:00:00;16:00:00;60;077353-2946;077353-2946;077353-2946 / 077353-1;077353-1 / 077353-11433;077353-11433;077353-11433 / 077353-10549;077353-10549 / 09.00052-256;09.00052-256;
04.11.09;Andre Esterhuyse;07:00:00;16:00:00;60;077353-11032;077353-11032;077353-11032;077353-11032;077353-11032;077353-11032;077353-11032;077353-10611;
04.11.09;Ludumo Sankobe;07:00:00;16:00:00;60;077251-0;077251-0;077251-0;077251-0;077251-0;077251-0;077251-0;077251-0;
04.11.09;Paul Helliwell;07:00:00;16:00:00;60;077353-11483;077353-11483;077353-11483;077353-11483;077353-11483;077353-11483;077353-11474;077353-11474;
04.11.09;Richard Raymond;07:00:00;16:00:00;60;077353-11435;077353-11435;077353-11435;077353-11435;077353-10721;077353-10721;077353-7686;077353-7686;
04.11.09;Pierre Jansen;
04.11.09;Johannes Geldenhuys;07:00:00;16:00:00;60;077353-11086;077353-11086;077353-11086;077353-11086;077353-7685;077353-7685;077353-0;077353-0;
04.11.09;Thembela Dokoda;
04.11.09;Gareth Ambrose;
04.11.09;Brendan van Zyl;07:00:00;16:00:00;60;077472-1893;077472-859;09.00455-211;09.00455-211;09.00455-211;09.00455-211;09.00455-145;09.00455-145;
04.11.09;Michael Wells;07:00:00;16:00:00;60;09.00455-149;09.00455-149;09.00455-149;09.00455-149;09.00455-149;09.00455-149;09.00455-149;09.00455-149;
04.11.09;Jason Smith;07:00:00;16:00:00;60;09.00455-203;09.00455-203;09.00455-203;09.00455-203;09.00455-203;09.00455-203;09.00455-203;09.00455-203;
04.11.09;Justin Jansen Van Vuuren;07:00:00;16:00:00;60;077353-10293 / 077353-11245;077353-0;077353-0;077353-0;077353-0;077353-0;077353-11248;077353-11248;
05.11.09;Nico Claassen;07:00:00;16:00:00;60;077353-11282;077353-11282;077353-11282;077353-11282;077353-11282;077353-11282;077353-1913 / 077353-2938;077353-2938;
05.11.09;Malcolm Vorster;07:00:00;16:00:00;60;077353-0;077353-0;077353-0;077353-0;077353-0;077353-0;077353-0;077353-0;
05.11.09;Graham Meyer;07:00:00;16:00:00;60;077353-11132;077353-11132;077353-11132;077353-11132;077353-11132;077353-11416;077353-10867;077353-11131;
05.11.09;Thando Katywa;07:00:00;16:00:00;60;077353-6170;077353-6170;077353-6170;077353-0 / 077353-2946;077353-2946;077353-11238;077353-11238;077353-11238;
05.11.09;Andre Esterhuyse;07:00:00;16:00:00;60;077353-11032;077353-11032;077353-11032;077353-11032;077353-11032;077353-11032;077353-11032;077353-11032;
05.11.09;Ludumo Sankobe;07:00:00;16:00:00;60;077251-0;077251-0;077251-0;077251-0;077251-0;077251-0;077251-0;077251-0;
05.11.09;Paul Helliwell;07:00:00;16:00:00;60;077353-1898;077353-1898;077353-1898;077353-1898;077353-11194;077353-11194;077353-11194;077353-11194;
05.11.09;Richard Raymond;07:00:00;16:00:00;60;077353-11435;077353-11435;077353-11435;077353-11435;077353-11435;077353-7683;077353-7683;077353-7683;
05.11.09;Pierre Jansen;
05.11.09;Johannes Geldenhuys;07:00:00;16:00:00;60;077353-0;077353-0;077353-0;077353-0;077598-0;077598-0;077598-0;077598-0;
05.11.09;Thembela Dokoda;
05.11.09;Gareth Ambrose;
05.11.09;Brendan van Zyl;07:00:00;16:00:00;60;077472-1893;077472-859;09.00455-211;09.00455-211;09.00455-211;09.00455-55;09.00455-55;09.00455-55;
05.11.09;Michael Wells;07:00:00;16:00:00;60;09.00455-1;09.00455-1;09.00455-1;09.00455-1;09.00455-1;09.00455-1;09.00455-1;09.00455-1;
05.11.09;Jason Smith;07:00:00;16:00:00;60;09.00455-203;09.00455-203;09.00455-203;09.00455-203;09.00455-203;09.00455-203;09.00455-202;09.00455-202;
05.11.09;Justin Jansen Van Vuuren;07:00:00;16:00:00;60;077353-11247;077353-11247;077353-11247;077353-11247;077353-0;077353-0;09.00052-317;09.00052-317;
06.11.09;Nico Claassen;07:00:00;16:00:00;60;077353-11117;077353-11117 / 077353-11370;077353-11370;077353-11370;077353-11370 / 077353-11282;077353-11282 / 077353-2938;077353-2938;077353-2938;
06.11.09;Malcolm Vorster;07:00:00;16:00:00;60;077353-9551;077353-9551;077353-11303;077353-11304;077353-11304;077353-11304;077353-11304;077353-1914;
06.11.09;Graham Meyer;07:00:00;16:00:00;60;077353-11120;077353-11120;077353-11120;077353-11120;077353-11416;077353-11416;077353-10867;077353-11131;
06.11.09;Thando Katywa;07:00:00;16:00:00;60;077353-6170;077353-6170;077353-6170;077353-11238;077353-11238;077353-11238;077353-2946;077353-0;
06.11.09;Andre Esterhuyse;07:00:00;16:00:00;60;077353-1897;077353-1897;077353-11224;077353-11224;077353-11224;077353-11223;077353-11223;077353-11223;
06.11.09;Ludumo Sankobe;07:00:00;16:00:00;60;077251-0;077251-0;077251-0;077251-0;077251-0;077251-0;077251-0;077251-0;
06.11.09;Paul Helliwell;07:00:00;16:00:00;60;077353-11194;077353-11194;077353-11194;077353-11194;077353-11326;077353-11326;077353-11329;077353-11330;
06.11.09;Richard Raymond;07:00:00;16:00:00;60;077353-7683;077353-7683;077353-11435;077353-11435;077353-11435;077353-11435;077353-11435;077353-11435;
06.11.09;Pierre Jansen;
06.11.09;Johannes Geldenhuys;07:00:00;16:00:00;60;077591-0;077591-0;077591-0;077591-0;077591-0;077591-0;077591-0;077591-0;
06.11.09;Thembela Dokoda;
06.11.09;Gareth Ambrose;
06.11.09;Brendan van Zyl;07:00:00;16:00:00;60;077472-1893;077472-859;09.00455-55;09.00455-55;09.00455-55;09.00455-210;09.00455-210;09.00455-210;
06.11.09;Michael Wells;07:00:00;16:00:00;60;09.00455-1;09.00455-1;09.00455-1;09.00455-2;09.00455-2;09.00455-2;09.00455-2;09.00455-2;
06.11.09;Jason Smith;07:00:00;16:00:00;60;09.00455-203;09.00455-203;09.00455-203;09.00455-203;09.00455-203;09.00455-203;09.00455-203;09.00455-203;
06.11.09;Justin Jansen Van Vuuren;07:00:00;16:00:00;60;077353-11248;077353-11248;077353-11248;077353-11248;077353-0;077353-11247;
07.11.09;Nico Claassen;
07.11.09;Malcolm Vorster;
07.11.09;Graham Meyer;
07.11.09;Thando Katywa;
07.11.09;Andre Esterhuyse;
07.11.09;Ludumo Sankobe;
07.11.09;Paul Helliwell;
07.11.09;Richard Raymond;
07.11.09;Pierre Jansen;
07.11.09;Johannes Geldenhuys;
07.11.09;Thembela Dokoda;
07.11.09;Gareth Ambrose;
07.11.09;Brendan van Zyl;07:00:00;16:00:00;60;077472-1893;077472-859;077472-859;077472-859;09.00455-211;09.00455-211;09.00455-145;09.00455-145;
07.11.09;Michael Wells;
07.11.09;Jason Smith;
07.11.09;Justin Jansen Van Vuuren;
08.11.09;Nico Claassen;
08.11.09;Malcolm Vorster;
08.11.09;Graham Meyer;
08.11.09;Thando Katywa;
08.11.09;Andre Esterhuyse;
08.11.09;Ludumo Sankobe;
08.11.09;Paul Helliwell;
08.11.09;Richard Raymond;
08.11.09;Pierre Jansen;
08.11.09;Johannes Geldenhuys;
08.11.09;Thembela Dokoda;
08.11.09;Gareth Ambrose;
08.11.09;Brendan van Zyl;
08.11.09;Michael Wells;
08.11.09;Jason Smith;
08.11.09;Justin Jansen Van Vuuren;
09.11.09;Nico Claassen;07:00:00;16:00:00;60;077353-11282;077353-11282;077353-11282;077353-11282;077353-11282;077353-11282;077353-1913 / 077353-2938;077353-2938;
09.11.09;Malcolm Vorster;
09.11.09;Graham Meyer;07:00:00;16:00:00;60;077353-11120;077353-11120;077353-11120;077353-11121;077353-11121;077353-11121;077353-11121;077353-10867;
09.11.09;Thando Katywa;07:00:00;16:00:00;60;077353-11238;077353-11238;077353-11238;077353-11238;077353-6170;077353-0;077353-0;077353-0;
09.11.09;Andre Esterhuyse;07:00:00;16:00:00;60;077353-11033;077353-11033;077353-11033;077353-11221;077353-11221;077353-11221;077353-11221;077353-11221;
09.11.09;Ludumo Sankobe;07:00:00;16:00:00;60;077251-3304;077251-3304;077251-3304;077251-3304;077251-3304;077251-3304;077353-1916;077353-1916;
09.11.09;Paul Helliwell;07:00:00;16:00:00;60;077353-11541;077353-11541;077353-11541;077353-11541;077353-11541;077353-11541;077353-11541;077353-11541;
09.11.09;Richard Raymond;07:00:00;16:00:00;60;077353-10978;077353-10978;077353-10721;077353-10721;077353-11435;077353-11435;077353-11435;077353-11435;
09.11.09;Pierre Jansen;
09.11.09;Johannes Geldenhuys;07:00:00;16:00:00;60;077353-0;077353-0;077353-0;077353-0;077353-0;077353-0;077353-0;077353-0;
09.11.09;Thembela Dokoda;
09.11.09;Gareth Ambrose;
09.11.09;Brendan van Zyl;07:00:00;16:00:00;60;077472-1893;077472-859;09.00455-213;09.00455-214;09.00455-214;09.00455-214;09.00455-145;09.00455-145;
09.11.09;Michael Wells;07:00:00;16:00:00;60;09.00455-0;09.00455-0;09.00455-0;09.00455-0;09.00455-0;09.00455-0;09.00455-149;09.00455-149;
09.11.09;Jason Smith;07:00:00;16:00:00;60;09.00455-203;09.00455-203;09.00455-203;09.00455-203;09.00455-203;09.00455-203;09.00455-203;09.00455-202;
09.11.09;Justin Jansen Van Vuuren;07:00:00;16:00:00;60;077353-11583;077353-11583;077353-11583;077353-11247;077353-11247;077353-11247;077353-11247;077353-11247;
10.11.09;Nico Claassen;07:00:00;17:30:00;60;077353-11322;077353-11337;077353-0;077353-2938;077353-2938;077353-2929;077353-2929;077353-2929;077353-2938;077353-11281;
10.11.09;Malcolm Vorster;07:00:00;16:00:00;60;077353-0;077353-0;077353-0;077353-0;077353-0;077353-0;077353-0;077353-0;
10.11.09;Graham Meyer;07:00:00;16:00:00;60;077353-11385;077353-11385;077353-11385;077353-11416;077353-11416;077353-11416;077353-11416;077353-10867;
10.11.09;Thando Katywa;07:00:00;16:00:00;60;077353-6170;077353-6170 / 077353-2946;077353-2946 / 077353-11238;077353-11238;077353-11238;077353-11238;077353-11238 / 09.00052-256;09.00052-256;
10.11.09;Andre Esterhuyse;07:00:00;16:00:00;60;077353-11223;077353-11223;077353-11223;077353-11223;077353-11223;077353-11223;077353-11223;077353-11223;
10.11.09;Ludumo Sankobe;07:00:00;16:00:00;60;077251-3304;077251-3304;077251-3304;077251-3304;077251-3304;077353-1916;077353-1916;077353-1916;
10.11.09;Paul Helliwell;07:00:00;16:00:00;60;077353-11541;077353-11541;077353-11541;077353-11541;077353-11542;077353-11542;077353-11542;077353-11542;
10.11.09;Richard Raymond;07:00:00;16:00:00;60;077353-10973;077353-10973;077353-7686;077353-7686;077353-7686;077353-7686;077353-7686;077353-7686;
10.11.09;Pierre Jansen;
10.11.09;Johannes Geldenhuys;07:00:00;16:00:00;60;077353-0;077353-0;077353-0;077353-0;077353-0;077353-0;077353-0;077353-0;
10.11.09;Thembela Dokoda;07:00:00;16:00:00;60;077353-10993;077353-10993;077353-10993;077353-10993;077353-10993;077353-10993;077353-10993;077353-10993;
10.11.09;Gareth Ambrose;
10.11.09;Brendan van Zyl;07:00:00;16:00:00;60;077472-1893;077472-859;09.00455-213;09.00455-213;09.00455-213;09.00455-213;09.00455-145;09.00455-145;
10.11.09;Michael Wells;07:00:00;16:00:00;60;09.00455-149;09.00455-149;09.00455-149;09.00455-149;09.00455-149;09.00455-149;09.00455-149;09.00455-149;
10.11.09;Jason Smith;07:00:00;16:00:00;60;09.00455-203;09.00455-203;09.00455-203;09.00455-203;077353-0;077353-0;077353-0;077353-0;
10.11.09;Justin Jansen Van Vuuren;07:00:00;16:00:00;60;077353-11247;077353-11247;077353-11247;077353-11583;077353-11583;077353-11583;077353-11248;077353-11248;
11.11.09;Nico Claassen;07:00:00;16:00:00;60;077353-2929;077353-2929;077353-2929;077353-2938;077353-2938;077353-2938;077353-2938;077353-2938 / 077353-11283;
11.11.09;Malcolm Vorster;07:00:00;16:00:00;60;077353-0;077353-0;077353-0;077353-0;077353-0;077353-0;077353-0;077353-0;
11.11.09;Graham Meyer;07:00:00;16:00:00;60;077353-11429;077353-11429;077353-11429;077353-11429;077353-11429;077353-11429;077353-9560;077353-10867;
11.11.09;Thando Katywa;07:00:00;16:00:00;60;077353-2946	;077353-2946	;077353-11587;077353-11587;077353-11587;077353-11587;077353-11587;077353-11078 / 077353-10502;
11.11.09;Andre Esterhuyse;07:00:00;16:00:00;60;077353-11223;077353-11223;077353-11223;077353-11223;077353-11223;077353-11223;077353-11223;077353-11223;
11.11.09;Ludumo Sankobe;07:00:00;16:00:00;60;077251-3304;077251-3304;077251-3304;077251-3304;077251-3304;077251-3304;077251-1372;077251-1372;
11.11.09;Paul Helliwell;07:00:00;16:00:00;60;077353-11542;077353-11542;077353-11544;077353-11544;077353-11544;077353-11544;077353-1088;077353-1088;
11.11.09;Richard Raymond;07:00:00;16:00:00;60;077353-7686;077353-7686;077353-7686;077353-7686;077353-7686;077353-7686;077353-10721;077353-10721;
11.11.09;Pierre Jansen;
11.11.09;Johannes Geldenhuys;07:00:00;16:00:00;60;077353-0;077353-0;077353-0;077353-0;077353-0;077353-0;077353-0;077353-0;
11.11.09;Thembela Dokoda;07:00:00;16:00:00;60;077353-10994;077353-10994;077353-10994;077353-10994;077353-10995;077353-10995;077353-10995;
11.11.09;Gareth Ambrose;
11.11.09;Brendan van Zyl;07:00:00;16:00:00;60;077472-1893;077472-2313;077472-2313;09.00455-213;09.00455-213;09.00455-214;09.00455-145;09.00455-145;
11.11.09;Michael Wells;07:00:00;16:00:00;60;09.00455-149;09.00455-149;09.00455-149;09.00455-149;09.00455-149;09.00455-149;09.00455-149;09.00455-149;
11.11.09;Jason Smith;07:00:00;16:00:00;60;077353-0;077353-0;077353-0;077353-0;077353-0;09.00455-203;09.00455-203;09.00455-203;
11.11.09;Justin Jansen Van Vuuren;07:00:00;16:00:00;60;09.00052-317;09.00052-317 / 077353-11583;077353-11583;077353-11583;077353-0;077353-11246 / 077353-11248;077353-11248;077353-11248;
12.11.09;Nico Claassen;07:00:00;16:00:00;60;077353-2929;077353-2929;077353-2929;077353-2929;077353-2929;077353-2929;077353-2929;077353-2929;
12.11.09;Malcolm Vorster;07:00:00;16:00:00;60;077353-0;077353-0;077353-0;077353-0;077353-0;077353-0;077353-0;077353-0;
12.11.09;Graham Meyer;07:00:00;16:00:00;60;077353-9560;077353-10867;077353-11054;077353-11054;077353-11054;077353-11054;077353-11054;077353-11054;
12.11.09;Thando Katywa;07:00:00;16:00:00;60;077353-2946;077353-2946 / 077353-10502;077353-10502;077353-10502;077353-10502;077353-10502;077353-10502 / 077353-6170;077353-6170;
12.11.09;Andre Esterhuyse;
12.11.09;Ludumo Sankobe;07:00:00;16:00:00;60;077251-3304;077251-3304;077251-3304;077251-3304;077251-3304;077251-3304;077353-1916;077353-1916;
12.11.09;Paul Helliwell;07:00:00;16:00:00;60;077353-11544;077353-11546;077353-11546;077353-11546;077353-11546;077353-11546;077353-1088;077353-1088;
12.11.09;Richard Raymond;07:00:00;16:00:00;60;077353-7686;077353-7686;077353-7686;077353-7686;077353-7686;077353-7686;077353-7686;077353-7686;
12.11.09;Pierre Jansen;
12.11.09;Johannes Geldenhuys;07:00:00;16:00:00;60;077353-10043;077353-11085;077353-11084;077353-0;077353-0;077353-0;077353-0;077353-0;
12.11.09;Thembela Dokoda;07:00:00;16:00:00;60;077353-10994;077353-10994;077353-10994;077353-10994;077353-10994;077353-0;077353-0;077353-0;
12.11.09;Gareth Ambrose;
12.11.09;Brendan van Zyl;07:00:00;16:00:00;60;077472-859;077472-1893;09.00455-0;09.00455-0;09.00455-0;09.00455-0;09.00455-0;09.00455-0;
12.11.09;Michael Wells;07:00:00;16:00:00;60;09.00455-149;09.00455-149;09.00455-149;09.00455-149;09.00455-149;09.00455-149;09.00455-149;09.00455-149;
12.11.09;Jason Smith;07:00:00;16:00:00;60;09.00455-203;09.00455-203;09.00455-203;09.00455-203;09.00455-204;09.00455-204;09.00455-204;09.00455-204;
12.11.09;Justin Jansen Van Vuuren;07:00:00;16:00:00;60;077353-11583;077353-11583;077353-11583 / 09.00052-317;09.00052-317;09.00052-317;09.00052-317 / 077353-11248;077353-11248;077353-11248;
13.11.09;Nico Claassen;07:00:00;16:00:00;60;077353-2929;077353-2929;077353-2929;077353-2938;077353-2938;077353-2938;077353-11284;077353-11324;
13.11.09;Malcolm Vorster;07:00:00;16:00:00;60;077353-0;077353-0;077353-0;077353-0;077353-0;077353-0;077353-0;077353-0;
13.11.09;Graham Meyer;07:00:00;16:00:00;60;077353-11416;077353-11416;077353-11416;077353-11416;077251-1497;077353-11385;077353-11385;077353-11385;
13.11.09;Thando Katywa;07:00:00;16:00:00;60;077353-2946;077353-2946;077353-6170;077353-6170 / 077353-11477;077353-11477;077353-11477 / 077353-10502;077353-10502;077353-10502;
13.11.09;Andre Esterhuyse;
13.11.09;Ludumo Sankobe;07:00:00;16:00:00;60;077251-3304;077251-3304;077251-3304;077251-3304;077251-3304;077251-3304;077251-1372;077353-1916;
13.11.09;Paul Helliwell;07:00:00;16:00:00;60;077353-11547;077353-11547;077353-11547;077353-11547;077353-11547;077353-11547;077353-11193;077353-11193;
13.11.09;Richard Raymond;07:00:00;16:00:00;60;077353-7686;077353-7686;077353-7686;077353-7686;077353-7686;077353-7686;077353-7686;077353-7686;
13.11.09;Pierre Jansen;
13.11.09;Johannes Geldenhuys;07:00:00;16:00:00;60;077353-0;077353-0;077353-0;077353-0;077353-0;077353-0;077353-0;077353-11086;
13.11.09;Thembela Dokoda;07:00:00;16:00:00;60;077353-11135;077353-11135;077353-11135;077353-10994;077353-10994;077353-10994;077353-0;077353-0;
13.11.09;Gareth Ambrose;
13.11.09;Brendan van Zyl;07:00:00;16:00:00;60;077472-859;077472-1893;09.00455-0;09.00455-0;09.00455-0;09.00455-55;09.00455-55;09.00455-55;
13.11.09;Michael Wells;07:00:00;16:00:00;60;09.00455-149;09.00455-149;09.00455-149;09.00455-149;09.00455-149;09.00455-149;09.00455-149;09.00455-149;
13.11.09;Jason Smith;07:00:00;16:00:00;60;09.00455-204;09.00455-204;09.00455-204;09.00455-204;09.00455-204;09.00455-204;09.00455-204;09.00455-204;
13.11.09;Justin Jansen Van Vuuren;07:00:00;16:00:00;60;077353-11248;077353-11248;077353-11248;077353-10980;077353-10980;077353-10980;077353-10980;077353-10980;
14.11.09;Nico Claassen;
14.11.09;Malcolm Vorster;
14.11.09;Graham Meyer;
14.11.09;Thando Katywa;
14.11.09;Andre Esterhuyse;
14.11.09;Ludumo Sankobe;
14.11.09;Paul Helliwell;
14.11.09;Richard Raymond;
14.11.09;Pierre Jansen;
14.11.09;Johannes Geldenhuys;
14.11.09;Thembela Dokoda;
14.11.09;Gareth Ambrose;
14.11.09;Brendan van Zyl;
14.11.09;Michael Wells;
14.11.09;Jason Smith;
14.11.09;Justin Jansen Van Vuuren;
15.11.09;Nico Claassen;
15.11.09;Malcolm Vorster;
15.11.09;Graham Meyer;
15.11.09;Thando Katywa;
15.11.09;Andre Esterhuyse;
15.11.09;Ludumo Sankobe;
15.11.09;Paul Helliwell;
15.11.09;Richard Raymond;
15.11.09;Pierre Jansen;
15.11.09;Johannes Geldenhuys;
15.11.09;Thembela Dokoda;
15.11.09;Gareth Ambrose;
15.11.09;Brendan van Zyl;
15.11.09;Michael Wells;
15.11.09;Jason Smith;
15.11.09;Justin Jansen Van Vuuren;
16.11.09;Nico Claassen;07:00:00;16:00:00;60;077353-11281 / 077353-2929;077353-2929;077353-2929 / 077353-2938;077353-2938;077353-2938 / 077353-2938;077353-2938;077353-2938;077353-2938;
16.11.09;Malcolm Vorster;07:00:00;16:00:00;60;077353-11231;077353-11231;077353-11231;077353-11231;077353-11231;077353-1914;077353-9551;077353-11228;
16.11.09;Graham Meyer;07:00:00;16:00:00;60;077353-11429;077353-11429;077353-11429;077353-11429;077353-11429;077353-10867;077353-9560;077353-9560;
16.11.09;Thando Katywa;07:00:00;16:00:00;60;077353-2946;077353-2946;077353-6170;077353-6170 / 077353-10502;077353-10502;077353-10502;077353-10502;077353-10502;
16.11.09;Andre Esterhuyse;07:00:00;16:00:00;60;077353-11221;077353-11221;077353-11221;077353-11221;077353-11221;077353-11221;077353-11221;077353-11221;
16.11.09;Ludumo Sankobe;07:00:00;16:00:00;60;077251-1372;077251-1372;077251-1372;077251-1372;077251-1372;077251-1372;077353-1916;077353-1916;
16.11.09;Paul Helliwell;07:00:00;16:00:00;60;077353-1088;077353-1088;077353-1088;077353-11461;077353-11461;077353-11461;077353-11461;077353-11461;
16.11.09;Richard Raymond;07:00:00;16:00:00;60;077353-10721;077353-11435;077353-11435;077353-7683;077353-7683;077353-10973;077353-10973;077353-10973;
16.11.09;Pierre Jansen;
16.11.09;Johannes Geldenhuys;07:00:00;16:00:00;60;077353-11252;077353-11252;077353-11252;077353-11252;077353-11252;077353-11252;077353-11252;077353-11252;
16.11.09;Thembela Dokoda;07:00:00;16:00:00;60;077353-10994;077353-10994;077353-10994;077353-10994;077353-11596;077353-11596;077353-11596;077353-11596;
16.11.09;Gareth Ambrose;
16.11.09;Brendan van Zyl;07:00:00;16:00:00;60;09.00455-246;09.00455-246;09.00455-246;09.00455-246;09.00455-246;09.00455-246;077472-1893;077472-859;
16.11.09;Michael Wells;
16.11.09;Jason Smith;07:00:00;16:00:00;60;09.00455-0;09.00455-0;09.00455-0;09.00455-0;09.00455-0;09.00455-0;077353-10461;077353-10461;
16.11.09;Justin Jansen Van Vuuren;07:00:00;16:00:00;60;077353-11583;077353-11583;077353-11248;077353-11248;077353-11248;077353-11248;077353-11248;077353-11248;
17.11.09;Nico Claassen;07:00:00;16:00:00;60;077353-2938;077353-2938;077353-2938;077353-2938;077353-2938 / 077353-11284;077353-2929 / 077353-2929;077353-2929;077353-2938;
17.11.09;Malcolm Vorster;07:00:00;16:00:00;60;077353-11231;077353-11231;077353-11228;077353-11228;077353-11228;077353-11228;077353-9551;077353-9551;
17.11.09;Graham Meyer;07:00:00;16:00:00;60;077353-9560;077353-10867;077353-10867;077353-11429;077353-11429;077353-11429;077353-11429;077353-11429;
17.11.09;Thando Katywa;07:00:00;16:00:00;60;077353-6170;077353-2946 / 077353-11313;077353-11313;077353-11313;077353-11313;077353-11313;077353-11313;077353-11313;
17.11.09;Andre Esterhuyse;07:00:00;16:00:00;60;077251-3305;077251-3305;077251-3305;077251-3305;077251-3305;077251-3305;077251-3305;077251-3305;
17.11.09;Ludumo Sankobe;07:00:00;16:00:00;60;077251-1372;077251-1372;077251-1372;077251-1372;077251-1372;077251-1372;077353-1916;077353-1916;
17.11.09;Paul Helliwell;07:00:00;16:00:00;60;077353-1088;077353-1088;077353-1088;077353-1088;077353-1088;077353-1088;077353-1088;077353-1088 / 077353-1088;
17.11.09;Richard Raymond;07:00:00;16:00:00;60;077353-7683;077353-7683;077353-10721;077353-10721;077353-10721;077353-10978 / 077353-10973;077353-10973;077353-10973;
17.11.09;Pierre Jansen;
17.11.09;Johannes Geldenhuys;07:00:00;16:00:00;60;077353-11252;077353-11252;077353-11252;077353-11252;077353-11252;077353-11252;077353-11252;077353-11252;
17.11.09;Thembela Dokoda;07:00:00;16:00:00;60;077353-11596;077353-11596;077353-11596;077353-11596;077353-10994;077353-10994;077353-10994;077353-10994;
17.11.09;Gareth Ambrose;
17.11.09;Brendan van Zyl;07:00:00;16:00:00;60;09.00455-246;09.00455-246;09.00455-246;09.00455-246;077472-859;077472-1893;09.00455-247;09.00455-247;
17.11.09;Michael Wells;
17.11.09;Jason Smith;07:00:00;16:00:00;60;077353-10461;077353-10461;077353-10461;09.00455-0;09.00455-0;09.00455-0;09.00455-0;09.00455-0;
17.11.09;Justin Jansen Van Vuuren;07:00:00;16:00:00;60;077353-11247;077353-11247;077353-11247;077353-11248;077353-11248;077353-11248;077353-11248 / 077353-11583;077353-11583;
18.11.09;Nico Claassen;07:00:00;16:00:00;60;077353-11584;077353-2929;077353-2929;077353-2929;077353-2938;077353-2938;077353-2938;077353-2938;
18.11.09;Malcolm Vorster;07:00:00;16:00:00;60;077353-11235;077353-11235;077353-11235;077353-11235;077353-11235;077353-11235;077353-11235;077353-9551;
18.11.09;Graham Meyer;07:00:00;16:00:00;60;077353-11429;077353-11429;077353-11429;077353-11429;077353-11429;077353-11429;077353-10867;077353-10867;
18.11.09;Thando Katywa;07:00:00;16:00:00;60;077353-11313;077353-11313;077353-11313;077353-11313;077353-6170;077353-11587 / 077353-2946;077353-10502;077353-10502;
18.11.09;Andre Esterhuyse;07:00:00;16:00:00;60;077353-11037;077353-11037;077353-11037;077353-11037;077251-3305;077251-3305;077251-3305;077251-3305;
18.11.09;Ludumo Sankobe;07:00:00;16:00:00;60;077251-1372;077251-1372;077251-1372;077251-1372;077251-1372;077251-1372;077251-1372;077251-1372;
18.11.09;Paul Helliwell;07:00:00;16:00:00;60;077353-1088;077353-1088;077353-1088 / 077353-1088;077353-1088 / 077353-11461;077353-11461;077353-11461;077353-11461;077353-11461;
18.11.09;Richard Raymond;07:00:00;16:00:00;60;077353-7683;077353-7683;077353-11435;077353-11435;077353-11435;077353-11435;077353-11435;077353-11435;
18.11.09;Pierre Jansen;
18.11.09;Johannes Geldenhuys;07:00:00;16:00:00;60;077353-11252;077353-11252;077353-11252;077353-11252;077353-11252;077353-11252;077353-11252;077353-11252;
18.11.09;Thembela Dokoda;07:00:00;16:00:00;60;077353-11596;077353-11596;077353-11596;077353-11596;077353-11596;077353-11596;077353-10994;077353-10994;
18.11.09;Gareth Ambrose;
18.11.09;Brendan van Zyl;07:00:00;16:00:00;60;09.00455-216;09.00455-216;09.00455-216;09.00455-216;09.00455-216;09.00455-216;077472-1893;077472-859;
18.11.09;Michael Wells;
18.11.09;Jason Smith;07:00:00;16:00:00;60;09.00455-0;09.00455-0;09.00455-0;09.00455-0;09.00455-0;09.00455-0;09.00455-0;09.00455-0;
18.11.09;Justin Jansen Van Vuuren;07:00:00;16:00:00;60;077353-11248;077353-11248;077353-11248;077353-0;077353-0;077353-0;077353-0;077353-0;
19.11.09;Nico Claassen;07:00:00;16:00:00;60;077353-11370 / 077353-11584;077353-11584 / 077353-2929;077353-2929;077353-2929;077353-2938;077353-2938;077353-2938;077353-2938;
19.11.09;Malcolm Vorster;07:00:00;16:00:00;60;077353-0;077353-0;077353-0;077353-0;077353-0;077353-0;077353-0;077353-0;
19.11.09;Graham Meyer;07:00:00;16:00:00;60;077353-11429;077353-11429;077353-11429;077353-11385;077353-11385;077353-11385;077353-11385;077353-11385;
19.11.09;Thando Katywa;07:00:00;16:00:00;60;077353-2946;077353-2946 / 077353-11078;077353-11078 / 077353-10967;077353-10967;077353-10967;077353-10967;077353-11595;077353-11595;
19.11.09;Andre Esterhuyse;07:00:00;16:00:00;60;077353-11037;077353-11037;077353-11037;077353-11037;077353-11034;077353-11034;077353-11035;077353-11035;
19.11.09;Ludumo Sankobe;07:00:00;16:00:00;60;077251-1372;077251-1372;077251-1372;077251-1372;077353-1916;077353-1916;077353-1916;077251-1372;
19.11.09;Paul Helliwell;07:00:00;16:00:00;60;077353-11461;077353-11461;077353-11461;077353-11461;077353-1088;077353-1088;077353-9528;077353-9825;
19.11.09;Richard Raymond;07:00:00;16:00:00;60;077353-7683;077353-7686;077353-7686;077353-7686;077353-10973;077353-10973;077353-11588;077353-11588;
19.11.09;Pierre Jansen;
19.11.09;Johannes Geldenhuys;07:00:00;16:00:00;60;077353-11252;077353-11252;077353-11252;077353-11252;077353-11252;077353-11252;077353-11252;077353-11252;
19.11.09;Thembela Dokoda;07:00:00;16:00:00;60;077353-11136;077353-11136;077353-11136;077353-11136;077353-11136;077353-11136;077353-11136;077353-11136;
19.11.09;Gareth Ambrose;
19.11.09;Brendan van Zyl;07:00:00;16:00:00;60;09.00455-247;09.00455-247;09.00455-247;077472-859;077472-1893;09.00455-151;09.00455-152;09.00455-152;
19.11.09;Michael Wells;
19.11.09;Jason Smith;07:00:00;16:00:00;60;09.00455-0;09.00455-0;09.00455-0;09.00455-0;09.00455-0;09.00455-0;09.00455-0;09.00455-0;
19.11.09;Justin Jansen Van Vuuren;07:00:00;16:00:00;60;077353-0;077353-0;077353-0;077353-0;077353-0;077353-0;077353-11583;077353-11583;
20.11.09;Nico Claassen;07:00:00;16:00:00;60;077353-2938;077353-2938;077353-2938 / 077353-11281;077353-2929;077353-2929;077353-2929;077353-2929;077353-2929;
20.11.09;Malcolm Vorster;07:00:00;16:00:00;60;077353-11235;077353-11235;077353-11235;077353-11235;077353-11235;077353-11235;077353-11235;077353-9551;
20.11.09;Graham Meyer;07:00:00;16:00:00;60;077353-0;077353-0;077353-0;077353-9560;077353-9560;077353-9560;077353-9560;077353-9560;
20.11.09;Thando Katywa;07:00:00;16:00:00;60;077353-6170;077353-10502;077353-10502;077353-10502;077353-11311;077353-11311;077353-11311;077353-11311 / 077353-2946;
20.11.09;Andre Esterhuyse;07:00:00;16:00:00;60;077353-11041;077353-11041;077353-11041;077353-11041;077353-11042;077353-11042;077353-11042;077353-11042;
20.11.09;Ludumo Sankobe;07:00:00;16:00:00;60;077251-1372;077251-1372;077251-1372;077251-1372;077251-1372;077353-1916;077353-1916;077251-1372;
20.11.09;Paul Helliwell;07:00:00;16:00:00;60;077353-11461;077353-9528;077353-9528;077353-9528;077353-9528;077353-9528;077353-9528;077353-9528;
20.11.09;Richard Raymond;07:00:00;16:00:00;60;077353-10974;077353-10974;077353-10974;077353-10974;077353-10975;077353-10975;077353-10975;077353-10975;
20.11.09;Pierre Jansen;
20.11.09;Johannes Geldenhuys;07:00:00;16:00:00;60;077353-11252;077353-11252;077353-11252;077353-11252;077353-11252;077353-11252;077353-11252;077353-11252;
20.11.09;Thembela Dokoda;07:00:00;16:00:00;60;077353-11135;077353-11136;077353-11136;077353-11136;077353-11270;077353-11270;077353-11270;077353-11270;
20.11.09;Gareth Ambrose;07:00:00;16:00:00;60;
20.11.09;Brendan van Zyl;07:00:00;16:00:00;60;077472-859;077472-1893;09.00455-151;09.00455-151;09.00455-151;09.00455-152;09.00455-152;09.00455-152;
20.11.09;Michael Wells;
20.11.09;Jason Smith;07:00:00;16:00:00;60;09.00455-0;09.00455-0;09.00455-0;09.00455-0;09.00455-0;09.00455-0;09.00455-0;09.00455-0;
20.11.09;Justin Jansen Van Vuuren;07:00:00;16:00:00;60;077353-0;077353-0;077353-0;077353-0;077353-0;077353-0;077353-0;077353-0;
21.11.09;Nico Claassen;
21.11.09;Malcolm Vorster;
21.11.09;Graham Meyer;
21.11.09;Thando Katywa;
21.11.09;Andre Esterhuyse;
21.11.09;Ludumo Sankobe;
21.11.09;Paul Helliwell;
21.11.09;Richard Raymond;
21.11.09;Pierre Jansen;
21.11.09;Johannes Geldenhuys;
21.11.09;Thembela Dokoda;
21.11.09;Gareth Ambrose;
21.11.09;Brendan van Zyl;
21.11.09;Michael Wells;
21.11.09;Jason Smith;
21.11.09;Justin Jansen Van Vuuren;
22.11.09;Nico Claassen;
22.11.09;Malcolm Vorster;
22.11.09;Graham Meyer;
22.11.09;Thando Katywa;
22.11.09;Andre Esterhuyse;
22.11.09;Ludumo Sankobe;
22.11.09;Paul Helliwell;
22.11.09;Richard Raymond;
22.11.09;Pierre Jansen;
22.11.09;Johannes Geldenhuys;
22.11.09;Thembela Dokoda;
22.11.09;Gareth Ambrose;
22.11.09;Brendan van Zyl;
22.11.09;Michael Wells;
22.11.09;Jason Smith;
22.11.09;Justin Jansen Van Vuuren;
23.11.09;Nico Claassen;07:00:00;16:00:00;60;077353-2938;077353-2938;077353-2938;077353-2938;077353-2938;077353-2938;077353-2938;077353-2929;
23.11.09;Malcolm Vorster;07:00:00;16:00:00;60;077353-11756;077353-11745;077353-11745;077353-11745;077353-11745;077353-11745;077353-11746;077353-11746;
23.11.09;Graham Meyer;07:00:00;16:00:00;60;077353-11875;077353-11875;077353-11875;077353-10867;077353-9560;077353-9560;077353-9560;077353-9560;
23.11.09;Thando Katywa;07:00:00;16:00:00;60;077353-11311;077353-11311;077353-11311;077353-11311;077353-11311 / 077353-2946;077353-2946 / 077353-11587;077353-11587;077353-11587;
23.11.09;Andre Esterhuyse;07:00:00;16:00:00;60;077353-11764;077353-11764;077353-11764;077353-11764 / 077353-11755;077353-1897;077353-1897;077353-1897;077353-1897;
23.11.09;Ludumo Sankobe;07:00:00;16:00:00;60;077251-1372;077251-1372;077251-1372;077251-1372;077251-1372;077353-1916;077353-1916;077251-1372;
23.11.09;Paul Helliwell;07:00:00;16:00:00;60;077353-1088;077353-1088;077353-9527;077353-9527;077353-9527;077353-9527;077353-9527;077353-9527;
23.11.09;Richard Raymond;07:00:00;16:00:00;60;077353-7683;077353-7683;077353-11048;077353-11048;077353-11048;077353-11048;077353-11048;077353-11048;
23.11.09;Pierre Jansen;
23.11.09;Johannes Geldenhuys;07:00:00;16:00:00;60;077353-11575;077353-11575;077353-11575;077353-11575;077353-11252;077353-11252;077353-11252;077353-11252;
23.11.09;Thembela Dokoda;07:00:00;16:00:00;60;077353-11785;077353-11785;077353-11785;077353-11785;077353-11785;077353-11785;077353-11785;077353-11785;
23.11.09;Gareth Ambrose;
23.11.09;Brendan van Zyl;07:00:00;16:00:00;60;09.00455-250;09.00455-250;09.00455-151;09.00455-151;09.00455-152;09.00455-152;09.00455-152;09.00455-152;
23.11.09;Michael Wells;
23.11.09;Jason Smith;07:00:00;16:00:00;60;09.00455-204;09.00455-204;09.00455-204;09.00455-204;09.00455-204;09.00455-204;09.00455-204;09.00455-204;
23.11.09;Justin Jansen Van Vuuren;07:00:00;16:00:00;60;077353-11583;077353-11583;077353-0;077353-0;077353-0;077353-0;077353-0;077353-0;
24.11.09;Nico Claassen;07:00:00;16:00:00;60;077353-2929;077353-2929;077353-2929;077353-2929;077353-2938;077353-2938;077353-2938;077353-2938;
24.11.09;Malcolm Vorster;07:00:00;16:00:00;60;077353-11760;077353-11760;077353-11760;077353-11761;077353-11761;077353-9551;077353-9551;077353-11774;
24.11.09;Graham Meyer;07:00:00;16:00:00;60;077353-11875;077353-11875;077353-11875;077353-11875;077353-11875;077353-11875;077353-9560;077353-9560;
24.11.09;Thando Katywa;07:00:00;16:00:00;60;077353-10502;077353-10502;077353-10502;077353-2946;077353-2946 / 077353-11587;077353-11587;077353-11587;077353-11587;
24.11.09;Andre Esterhuyse;07:00:00;16:00:00;60;077353-11753;077353-11753;077353-11753;077353-11753;077353-11221;077353-11221;077353-11221;077353-11221;
24.11.09;Ludumo Sankobe;07:00:00;16:00:00;60;077251-1372;077251-1372;077251-1372;077251-1372;077251-1372;077251-3398;077251-3398;077251-1372;
24.11.09;Paul Helliwell;07:00:00;16:00:00;60;077353-1088;077353-1088;077353-1088 / 077353-9528;077353-9528;077353-9528;077353-9528;077353-9528;077353-9528;
24.11.09;Richard Raymond;07:00:00;16:00:00;60;077353-11610 / 077353-11611;077353-11917;077353-11917;077353-11917;077353-11917;077353-11917;077353-11917;077353-11917;
24.11.09;Pierre Jansen;
24.11.09;Johannes Geldenhuys;07:00:00;16:00:00;60;077353-11252;077353-11252;077353-11252;077353-11252;077353-11252;077353-11252;077353-11252;077353-11252;
24.11.09;Thembela Dokoda;07:00:00;16:00:00;60;077353-11683;077353-11683;077353-11683;077353-11683;077353-0;077353-11684;077353-11684;077353-11684;
24.11.09;Gareth Ambrose;
24.11.09;Brendan van Zyl;07:00:00;16:00:00;60;09.00455-250;09.00455-250;09.00455-151;09.00455-151;09.00455-152;09.00455-152;09.00455-152;09.00455-152;
24.11.09;Michael Wells;
24.11.09;Jason Smith;07:00:00;16:00:00;60;09.00455-0;09.00455-0;09.00455-0;09.00455-0;09.00455-202;09.00455-202;09.00455-202;09.00455-202;
24.11.09;Justin Jansen Van Vuuren;07:00:00;16:00:00;60;077353-11591;077353-0;077353-0;077353-0;077353-0;077353-0;077353-0;077353-0;
25.11.09;Nico Claassen;07:00:00;16:00:00;60;077353-2929;077353-2929;077353-2938;077353-2938;077353-2938;077353-2938;077353-2938;077353-2938;
25.11.09;Malcolm Vorster;07:00:00;16:00:00;60;077353-11766;077353-11766;077353-11766;077353-11766;077353-11767;077353-11767;077353-11767;077353-9551;
25.11.09;Graham Meyer;07:00:00;16:00:00;60;077353-11875;077353-11875;077353-11875;077353-11875;077353-11875;077353-11875;077353-11875;077353-11875;
25.11.09;Thando Katywa;07:00:00;16:00:00;60;077353-2946;077353-2946 / 077353-11587;077353-11587;077353-11587;077353-11587;077353-10502;077353-10502;077353-10502;
25.11.09;Andre Esterhuyse;07:00:00;16:00:00;60;077353-11753;077353-11753;077353-11753;077353-11754;077353-11754;077353-10611;077353-11758;077353-11758;
25.11.09;Ludumo Sankobe;07:00:00;16:00:00;60;077353-1087;077353-1087;077353-1087;077353-1087;077353-1087;077353-1087;077353-1087;077353-1087;
25.11.09;Paul Helliwell;07:00:00;16:00:00;60;077353-1088;077353-1088 / 077353-1088;077353-1088;077353-11953;077353-11953;077353-11953;077353-11953;077353-11953;
25.11.09;Richard Raymond;07:00:00;16:00:00;60;077353-7686;077353-7686;077353-7683;077353-7683;077353-10721;077353-10721;077353-10721;077353-10721;
25.11.09;Pierre Jansen;
25.11.09;Johannes Geldenhuys;07:00:00;16:00:00;60;077353-11252;077353-11252;077353-11252;077353-11252;077353-11252;077353-11252;077353-11252;077353-11252;
25.11.09;Thembela Dokoda;07:00:00;16:00:00;60;077353-11684;077353-11684;077353-11684;077353-11684;077353-11684;077353-11684;
25.11.09;Gareth Ambrose;
25.11.09;Brendan van Zyl;07:00:00;16:00:00;60;09.00455-150;09.00455-150;09.00455-250;09.00455-250;09.00455-151;09.00455-152;09.00455-152;09.00455-152;
25.11.09;Michael Wells;
25.11.09;Jason Smith;07:00:00;16:00:00;60;09.00455-204;09.00455-204;09.00455-204;09.00455-204;09.00455-204;09.00455-204;09.00455-204;09.00455-204;
25.11.09;Justin Jansen Van Vuuren;07:00:00;16:00:00;60;077353-11583;077353-11583;077353-11583;077353-0;077353-0;077353-0;077353-0;077353-0;
26.11.09;Nico Claassen;07:00:00;16:00:00;60;077353-0;077353-0 / 077353-2929;077353-2929;077353-2929;077353-2929;077353-2938;077353-2938;077353-2938;
26.11.09;Malcolm Vorster;07:00:00;16:00:00;60;077353-11849;077353-11849;077353-11849;077353-11849;077353-11849;077353-11849;077353-1914;077353-9551;
26.11.09;Graham Meyer;07:00:00;16:00:00;60;077353-11875;077353-11875;077353-11875;077353-11875;077353-11875;077353-11875;077353-11875;077353-11875;
26.11.09;Thando Katywa;07:00:00;16:00:00;60;077353-2946;077353-6170;077353-11862;077353-11862;077353-11862;077353-11862;077353-11862;077353-10502;
26.11.09;Andre Esterhuyse;07:00:00;16:00:00;60;077353-11753;077353-11753;077353-11753;077353-11754;077353-11754;077353-10611;077353-10611 / 077353-1897;077353-1897;
26.11.09;Ludumo Sankobe;07:00:00;16:00:00;60;077353-1087;077353-1087;077353-1087;077353-1087;077353-1087;077353-1087;077353-1087;077353-1087;
26.11.09;Paul Helliwell;07:00:00;16:00:00;60;077353-11925;077353-11953;077353-11953;077353-11953;077353-11953;077353-1088;077353-1088 / 077353-9528;077353-9528;
26.11.09;Richard Raymond;07:00:00;16:00:00;60;077353-10721;077353-10721;077353-10721;09.00052-260;09.00052-260;077353-11830;077353-11830;077353-7686;
26.11.09;Pierre Jansen;
26.11.09;Johannes Geldenhuys;07:00:00;16:00:00;60;077353-11252;077353-11252;077353-11252;077353-11778;077353-11778;077353-11778;077353-11778;077353-7685;
26.11.09;Thembela Dokoda;07:00:00;16:00:00;60;077353-11683;077353-11683;077353-11683;077353-11683;077353-7683;077353-7683;077353-7683;077353-7683;
26.11.09;Gareth Ambrose;
26.11.09;Brendan van Zyl;07:00:00;16:00:00;60;09.00455-250;09.00455-250;09.00455-150;09.00455-150;09.00455-150;09.00455-152;09.00455-152;09.00455-152;
26.11.09;Michael Wells;
26.11.09;Jason Smith;07:00:00;16:00:00;60;09.00455-0;09.00455-0;09.00455-0;09.00455-0;09.00455-0;09.00455-0;09.00455-0;09.00455-0;
26.11.09;Justin Jansen Van Vuuren;07:00:00;16:00:00;60;077353-0;077353-0;077353-0;077353-0;077353-0;077353-0 / 077353-11591;077353-00773;077353-00773;
27.11.09;Nico Claassen;07:00:00;16:00:00;60;077353-11871 / 077353-2929;077353-2929;077353-2929;077353-2929;077353-2929;077353-2929 / 077353-0;077353-0 / 077353-2938;077353-2938;
27.11.09;Malcolm Vorster;07:00:00;16:00:00;60;077353-11849;077353-11849;077353-11849;077353-11849;077353-11849;077353-11849;077353-11849;077353-9551;
27.11.09;Graham Meyer;07:00:00;16:00:00;60;077353-11872;077353-11872;077353-11872;077353-11872;077353-11872;077353-11872;077353-11872;077353-9560;
27.11.09;Thando Katywa;07:00:00;16:00:00;60;077353-6170;077353-2946;077353-2946;077353-11862;077353-11862;077353-11862;077353-11587;077353-11587;
27.11.09;Andre Esterhuyse;07:00:00;16:00:00;60;077353-11753;077353-11753;077353-11753;077353-11754;077353-11754;077353-11754;077353-1897;077353-10611;
27.11.09;Ludumo Sankobe;07:00:00;16:00:00;60;077353-1087;077353-1087;077353-1087;077353-1087;077353-1087;077353-1087;077353-1087;077353-1087;
27.11.09;Paul Helliwell;07:00:00;16:00:00;60;077353-11929;077353-11929;077353-11929;077353-11929;077353-11929;077353-11929;077353-11929;077353-11929;
27.11.09;Richard Raymond;07:00:00;16:00:00;60;077353-11829;077353-11829;077353-11830;077353-11830;077353-11830;09.00052-260;09.00052-260;09.00052-260;
27.11.09;Pierre Jansen;
27.11.09;Johannes Geldenhuys;07:00:00;16:00:00;60;077353-11778;077353-11778;077353-11778;077353-11778;077353-11778;077353-11778;077353-11778;077353-11778;
27.11.09;Thembela Dokoda;07:00:00;16:00:00;60;077353-11683;077353-11683;077353-11684;077353-11684;077353-11684;077353-11684;077353-11684;077353-11684;
27.11.09;Gareth Ambrose;
27.11.09;Brendan van Zyl;07:00:00;16:00:00;60;09.00455-250;09.00455-250;09.00455-151;09.00455-151;09.00455-152;09.00455-152;09.00455-152;09.00455-152;
27.11.09;Michael Wells;
27.11.09;Jason Smith;
27.11.09;Justin Jansen Van Vuuren;07:00:00;16:00:00;60;077353-0;077353-0;077353-0;077353-0;077353-0;077353-0;077353-11583;077353-11583;
28.11.09;Nico Claassen;
28.11.09;Malcolm Vorster;
28.11.09;Graham Meyer;
28.11.09;Thando Katywa;
28.11.09;Andre Esterhuyse;
28.11.09;Ludumo Sankobe;
28.11.09;Paul Helliwell;
28.11.09;Richard Raymond;
28.11.09;Pierre Jansen;
28.11.09;Johannes Geldenhuys;
28.11.09;Thembela Dokoda;
28.11.09;Gareth Ambrose;
28.11.09;Brendan van Zyl;
28.11.09;Michael Wells;
28.11.09;Jason Smith;
28.11.09;Justin Jansen Van Vuuren;
29.11.09;Nico Claassen;
29.11.09;Malcolm Vorster;
29.11.09;Graham Meyer;
29.11.09;Thando Katywa;
29.11.09;Andre Esterhuyse;
29.11.09;Ludumo Sankobe;
29.11.09;Paul Helliwell;
29.11.09;Richard Raymond;
29.11.09;Pierre Jansen;
29.11.09;Johannes Geldenhuys;
29.11.09;Thembela Dokoda;
29.11.09;Gareth Ambrose;
29.11.09;Brendan van Zyl;
29.11.09;Michael Wells;
29.11.09;Jason Smith;
29.11.09;Justin Jansen Van Vuuren;
30.11.09;Nico Claassen;07:00:00;16:00:00;60;077353-2938;077353-2938;077353-2938;077353-2938;077353-2938;077353-2938;077353-2938;077353-2938;
30.11.09;Malcolm Vorster;07:00:00;16:00:00;60;077353-11849;077353-11849;077353-11849;077353-11849;077353-11849;077353-11849;077353-1914;077353-9551;
30.11.09;Graham Meyer;07:00:00;16:00:00;60;077353-11789;077353-11789;077353-11789;077353-11789;077353-11789;077353-11654;077353-11654;077353-10867;
30.11.09;Thando Katywa;07:00:00;16:00:00;60;077353-2946;077353-11856;077353-11856;077353-11856;077353-11856;077353-10549;077353-10549 / 077353-11587;077353-11587;
30.11.09;Andre Esterhuyse;07:00:00;16:00:00;60;077353-10252;077353-10252;077353-11957;077353-11957;077353-11957;077353-11957;077353-11957;077353-11957;
30.11.09;Ludumo Sankobe;07:00:00;16:00:00;60;09.00090-347;077353-11744;077353-11744;077353-11744;077353-11744;077353-11744;077353-11744;077353-11744;
30.11.09;Paul Helliwell;07:00:00;16:00:00;60;077353-11929;077353-11929;077353-11929;077353-11929;077353-11929;077353-11929;077353-11929;077353-11929;
30.11.09;Richard Raymond;07:00:00;16:00:00;60;077353-11829;077353-11830;077353-11830;077353-11830;077353-11830;077353-11830;077353-10721;077353-10721;
30.11.09;Pierre Jansen;
30.11.09;Johannes Geldenhuys;07:00:00;16:00:00;60;077353-7685;077353-11778;077353-11778;077353-11778;077353-11778;077353-11778;077353-11778;077353-11778;
30.11.09;Thembela Dokoda;07:00:00;16:00:00;60;077353-11684;077353-11684;077353-11684;077353-11684;077353-11684;077353-11684;077353-11684;077353-11684;
30.11.09;Gareth Ambrose;
30.11.09;Brendan van Zyl;07:00:00;16:00:00;60;09.00455-250;09.00455-250;09.00455-151;09.00455-152;09.00455-152;09.00455-152;09.00455-152;09.00455-152;
30.11.09;Michael Wells;
30.11.09;Jason Smith;07:00:00;16:00:00;60;077353-11854;077353-11854;077353-11854;077353-11854;077353-11854;077353-11854;077353-11854;077353-11854;
30.11.09;Justin Jansen Van Vuuren;07:00:00;16:00:00;60;077353-11777;077353-11777;077353-11777;077353-11777;077353-11777;077353-11777;077353-11583;077353-11583;
01.12.09;Nico Claassen;07:00:00;16:00:00;60;077353-2938;077353-2938;077353-2938;077353-2938;077353-2938;077353-2938;077353-2929;077353-2929;
01.12.09;Malcolm Vorster;07:00:00;16:00:00;60;077353-11847;077353-11847;077353-11847;077353-11847;077353-11847;077353-11847 / 077353-9551;077353-9551;077353-1914;
01.12.09;Graham Meyer;07:00:00;16:00:00;60;077353-10867;077353-11789;077353-11789;077353-11789;077353-11789;077353-11789;077353-11789;077353-11789;
01.12.09;Thando Katywa;07:00:00;16:00:00;60;077353-2946;077353-6170;077353-10549;077353-10549;077353-10549;077353-11856;077353-11856;077353-11856;
01.12.09;Andre Esterhuyse;07:00:00;16:00:00;60;077353-9240;077353-9240;077353-9240;077353-9240;077353-9240;077353-1897;077353-10611;077353-10611;
01.12.09;Ludumo Sankobe;07:00:00;16:00:00;60;077353-1087;077353-1087;077353-1087;077353-1087;077353-1087;077353-1087;077353-1087;077353-1087;
01.12.09;Paul Helliwell;07:00:00;16:00:00;60;077353-11929;077353-11929;077353-11929;077353-11929;077353-11929;077353-11929;077353-11929;077353-1088;
01.12.09;Richard Raymond;07:00:00;16:00:00;60;077353-11827;077353-11827;077353-11827;077353-11827;077353-11830;077353-11831;077353-11832;077353-10721;
01.12.09;Pierre Jansen;
01.12.09;Johannes Geldenhuys;07:00:00;16:00:00;60;077353-7685;077353-11778;077353-11778;077353-11778;077353-11778;077353-11778;077353-11778;077353-11778;
01.12.09;Thembela Dokoda;07:00:00;16:00:00;60;077353-11785;077353-11785;077353-11684;077353-11684;077353-11684;077353-11684;077353-11684;077353-11684;
01.12.09;Gareth Ambrose;
01.12.09;Brendan van Zyl;07:00:00;16:00:00;60;09.00455-250;09.00455-250;09.00455-151;09.00455-151;09.00455-152;09.00455-152;09.00455-152;09.00455-152;
01.12.09;Michael Wells;
01.12.09;Jason Smith;07:00:00;16:00:00;60;077353-11854;077353-11854;077353-11854;077353-11854;077353-11854;077353-11854;077353-11854;077353-11854;
01.12.09;Justin Jansen Van Vuuren;07:00:00;16:00:00;60;077353-11331;077353-11331;077353-0;077353-0;077353-0;077353-0;077353-0;077353-0;
02.12.09;Nico Claassen;07:00:00;16:00:00;60;077353-2938;077353-2938;077353-2938;077353-2938;077353-2929;077353-2929;077353-2929;077353-2929;
02.12.09;Malcolm Vorster;07:00:00;16:00:00;60;077353-11847;077353-11847;077353-11847;077353-11847;077353-11847;077353-9551;077353-9551;077353-9551;
02.12.09;Graham Meyer;07:00:00;16:00:00;60;077353-11789;077353-11789;077353-11789;077353-11789;077353-11789;077353-11789;077353-11789;077353-10867;
02.12.09;Thando Katywa;07:00:00;16:00:00;60;077353-2946	;077353-2946	 / 077353-11856;077353-11856;077353-11856;077353-11856;077353-11856;077353-11856;077353-11587;
02.12.09;Andre Esterhuyse;07:00:00;16:00:00;60;077353-9240;077353-9240;077353-9240;077353-9240;077353-9240;077353-9240;077353-11621;077353-11621;
02.12.09;Ludumo Sankobe;07:00:00;16:00:00;60;077251-3398;077251-3398;077251-3398;077353-1087;077353-1087;077353-1087;077353-1087;077353-1087 / 077353-1087;
02.12.09;Paul Helliwell;07:00:00;16:00:00;60;077353-11927;077353-11927;077353-11927;077353-11927;077353-11927;077353-11927;077353-11927;077353-11927;
02.12.09;Richard Raymond;07:00:00;16:00:00;60;077353-11833;077353-11836;077353-11834;077353-11834;077353-11834;077353-11834;077353-11837;077353-11837;
02.12.09;Pierre Jansen;
02.12.09;Johannes Geldenhuys;07:00:00;16:00:00;60;077353-7685	;077353-7685	 / 077353-11778;077353-11778;077353-11778;077353-11778;077353-11778;077353-11778;077353-11778;
02.12.09;Thembela Dokoda;07:00:00;16:00:00;60;077353-7705;077353-7705;077353-0;077353-11785;077353-11785;077353-11785;077353-11785;077353-11785;
02.12.09;Gareth Ambrose;
02.12.09;Brendan van Zyl;07:00:00;16:00:00;60;09.00455-250;09.00455-250;09.00455-250;09.00455-250;09.00455-288;09.00455-288;09.00455-288;09.00455-288;
02.12.09;Michael Wells;
02.12.09;Jason Smith;07:00:00;16:00:00;60;077353-11854;077353-11854;077353-11854;077353-11854;077353-11854;077353-11854;077353-11854;077353-11854;
02.12.09;Justin Jansen Van Vuuren;07:00:00;16:00:00;60;077353-11591 / 077353-0;077353-0;077353-0;077353-0;077353-0 / 077353-11818;077353-11818;077353-11818 / 077353-11788;077353-11788;
03.12.09;Nico Claassen;07:00:00;16:00:00;60;077353-9235;077353-9235;077353-9235;077353-9235;077353-2938;077353-2938;077353-2938;077353-2938;
03.12.09;Malcolm Vorster;07:00:00;16:00:00;60;077353-11588;077353-11588;077353-11588;077353-11746;077353-11304;077353-11663;077353-9637;077353-9551;
03.12.09;Graham Meyer;07:00:00;16:00:00;60;077353-9560;077353-9560;077353-9560;077353-9560;077353-11789;077353-11789;077353-11789;077353-10867;
03.12.09;Thando Katywa;07:00:00;16:00:00;60;077353-11856;077353-11856;077353-11856;077353-11856;077353-11856;077353-11856;077353-2946;077353-10549;
03.12.09;Andre Esterhuyse;07:00:00;16:00:00;60;077353-9240;077353-9240;077353-9240;077353-9240;077353-9240;077353-9240;077353-1897;077353-1897;
03.12.09;Ludumo Sankobe;07:00:00;16:00:00;60;077353-11806;077353-11806;077353-11806;077353-11806;077353-11806 / 077353-11806;077353-11806;077353-11806;077251-3398;
03.12.09;Paul Helliwell;07:00:00;16:00:00;60;077353-11930;077353-11930;077353-11930;077353-11930;077353-11930;077353-11930;077353-11930;077353-1088;
03.12.09;Richard Raymond;07:00:00;16:00:00;60;077353-7686;077353-7686 / 077353-10721;077353-10721;077353-10721 / 077353-9235;077353-9235;077353-9235;077353-10045;077353-10045;
03.12.09;Pierre Jansen;
03.12.09;Johannes Geldenhuys;07:00:00;16:00:00;60;077353-7685;077353-11778;077353-11778;077353-11778;077353-11778;077353-11778;077353-11778;077353-11778;
03.12.09;Thembela Dokoda;07:00:00;16:00:00;60;077353-0;077353-0;077353-0;077353-0;077353-0;077353-0;077353-0;077353-0;
03.12.09;Gareth Ambrose;
03.12.09;Brendan van Zyl;07:00:00;16:00:00;60;09.00455-250;09.00455-250;09.00455-288;09.00455-288;09.00455-288;09.00455-288;09.00455-288;09.00455-288;
03.12.09;Michael Wells;
03.12.09;Jason Smith;07:00:00;16:00:00;60;09.00455-289;09.00455-289;09.00455-289;09.00455-289;09.00455-289;09.00455-289;09.00455-289;09.00455-289;
03.12.09;Justin Jansen Van Vuuren;07:00:00;16:00:00;60;077353-11331;077353-11818;077353-0;077353-11583;077353-11583;077353-11331;077353-11331;077353-11331;
04.12.09;Nico Claassen;07:00:00;16:00:00;0;077353-11586;077353-11586;077353-11586;077353-11586;077353-11585;077353-11585;077353-10144;077353-10144;077353-9240;
04.12.09;Malcolm Vorster;07:00:00;16:00:00;60;077353-11136;077353-11136;077353-11136;077353-11136 / 077353-9551;077353-9551;077353-9551;077353-9551;077353-1914;
04.12.09;Graham Meyer;07:00:00;16:00:00;60;077353-11120;077353-11120;077353-11120;077353-11120;077353-11789;077353-11789;077353-11789;077353-10867;
04.12.09;Thando Katywa;07:00:00;16:00:00;60;077353-11856;077353-11856;077353-11856;077353-11856;077353-11856;077353-11856;077353-11856 / 077353-2946;077353-2946 / 077353-11587;
04.12.09;Andre Esterhuyse;07:00:00;16:00:00;60;077353-9240;077353-9240;077353-9240;077353-9240;077353-9240;077353-11957;077353-11957;077353-11957;
04.12.09;Ludumo Sankobe;07:00:00;16:00:00;60;077353-1087;077353-1087;077353-1087;077353-1087;077353-11806;077353-11806;077353-11806;077353-11806;
04.12.09;Paul Helliwell;07:00:00;16:00:00;60;077353-11931;077353-11931;077353-11931;077353-11931;077353-11931;077353-11931;077353-11931;077353-11931;
04.12.09;Richard Raymond;07:00:00;16:00:00;60;077353-10721;077353-10721;077353-7683;077353-10045;077353-10045;077353-10045;077353-10045;077353-9235;
04.12.09;Pierre Jansen;
04.12.09;Johannes Geldenhuys;07:00:00;16:00:00;60;077353-11778;077353-11778;077353-11778;077353-11778;077353-11778;077353-11778;077353-11778;077353-7685;
04.12.09;Thembela Dokoda;07:00:00;16:00:00;60;077353-11684;077353-0;077353-0;077353-0;077353-0;077353-0;077353-0;077353-0;
04.12.09;Gareth Ambrose;
04.12.09;Brendan van Zyl;07:00:00;16:00:00;60;09.00455-250;09.00455-250;09.00455-288;09.00455-288;09.00455-154;09.00455-154;09.00455-154;09.00455-154;
04.12.09;Michael Wells;
04.12.09;Jason Smith;07:00:00;16:00:00;60;09.00455-265;09.00455-265;09.00455-265;09.00455-265;09.00455-266;09.00455-266;09.00455-266;09.00455-266;
04.12.09;Justin Jansen Van Vuuren;07:00:00;16:00:00;60;077353-11331;077353-11331;077353-11331;077353-11331;077353-11331;077353-11331;077353-11583;077353-11583;
05.12.09;Nico Claassen;
05.12.09;Malcolm Vorster;
05.12.09;Graham Meyer;
05.12.09;Thando Katywa;
05.12.09;Andre Esterhuyse;
05.12.09;Ludumo Sankobe;
05.12.09;Paul Helliwell;
05.12.09;Richard Raymond;
05.12.09;Pierre Jansen;
05.12.09;Johannes Geldenhuys;
05.12.09;Thembela Dokoda;
05.12.09;Gareth Ambrose;
05.12.09;Brendan van Zyl;
05.12.09;Michael Wells;
05.12.09;Jason Smith;
05.12.09;Justin Jansen Van Vuuren;
06.12.09;Nico Claassen;
06.12.09;Malcolm Vorster;
06.12.09;Graham Meyer;
06.12.09;Thando Katywa;
06.12.09;Andre Esterhuyse;
06.12.09;Ludumo Sankobe;
06.12.09;Paul Helliwell;
06.12.09;Richard Raymond;
06.12.09;Pierre Jansen;
06.12.09;Johannes Geldenhuys;
06.12.09;Thembela Dokoda;
06.12.09;Gareth Ambrose;
06.12.09;Brendan van Zyl;
06.12.09;Michael Wells;
06.12.09;Jason Smith;
06.12.09;Justin Jansen Van Vuuren;
07.12.09;Nico Claassen;
07.12.09;Malcolm Vorster;
07.12.09;Graham Meyer;
07.12.09;Thando Katywa;07:00:00;16:00:00;60;077353-11856;077353-11856;077353-11856;077353-11859;077353-11859;077353-11859;077353-11859;077353-2946;
07.12.09;Andre Esterhuyse;
07.12.09;Ludumo Sankobe;
07.12.09;Paul Helliwell;
07.12.09;Richard Raymond;
07.12.09;Pierre Jansen;
07.12.09;Johannes Geldenhuys;
07.12.09;Thembela Dokoda;
07.12.09;Gareth Ambrose;
07.12.09;Brendan van Zyl;
07.12.09;Michael Wells;
07.12.09;Jason Smith;
07.12.09;Justin Jansen Van Vuuren;
08.12.09;Nico Claassen;
08.12.09;Malcolm Vorster;
08.12.09;Graham Meyer;
08.12.09;Thando Katywa;
08.12.09;Andre Esterhuyse;
08.12.09;Ludumo Sankobe;
08.12.09;Paul Helliwell;
08.12.09;Richard Raymond;
08.12.09;Pierre Jansen;
08.12.09;Johannes Geldenhuys;
08.12.09;Thembela Dokoda;
08.12.09;Gareth Ambrose;
08.12.09;Brendan van Zyl;
08.12.09;Michael Wells;
08.12.09;Jason Smith;
08.12.09;Justin Jansen Van Vuuren;
09.12.09;Nico Claassen;
09.12.09;Malcolm Vorster;
09.12.09;Graham Meyer;
09.12.09;Thando Katywa;
09.12.09;Andre Esterhuyse;
09.12.09;Ludumo Sankobe;
09.12.09;Paul Helliwell;
09.12.09;Richard Raymond;
09.12.09;Pierre Jansen;
09.12.09;Johannes Geldenhuys;
09.12.09;Thembela Dokoda;
09.12.09;Gareth Ambrose;
09.12.09;Brendan van Zyl;
09.12.09;Michael Wells;
09.12.09;Jason Smith;
09.12.09;Justin Jansen Van Vuuren;
10.12.09;Nico Claassen;
10.12.09;Malcolm Vorster;
10.12.09;Graham Meyer;
10.12.09;Thando Katywa;
10.12.09;Andre Esterhuyse;
10.12.09;Ludumo Sankobe;
10.12.09;Paul Helliwell;
10.12.09;Richard Raymond;
10.12.09;Pierre Jansen;
10.12.09;Johannes Geldenhuys;
10.12.09;Thembela Dokoda;
10.12.09;Gareth Ambrose;
10.12.09;Brendan van Zyl;
10.12.09;Michael Wells;
10.12.09;Jason Smith;
10.12.09;Justin Jansen Van Vuuren;
11.12.09;Nico Claassen;
11.12.09;Malcolm Vorster;
11.12.09;Graham Meyer;
11.12.09;Thando Katywa;
11.12.09;Andre Esterhuyse;
11.12.09;Ludumo Sankobe;
11.12.09;Paul Helliwell;
11.12.09;Richard Raymond;
11.12.09;Pierre Jansen;
11.12.09;Johannes Geldenhuys;
11.12.09;Thembela Dokoda;
11.12.09;Gareth Ambrose;
11.12.09;Brendan van Zyl;
11.12.09;Michael Wells;
11.12.09;Jason Smith;
11.12.09;Justin Jansen Van Vuuren;
12.12.09;Nico Claassen;
12.12.09;Malcolm Vorster;
12.12.09;Graham Meyer;
12.12.09;Thando Katywa;
12.12.09;Andre Esterhuyse;
12.12.09;Ludumo Sankobe;
12.12.09;Paul Helliwell;
12.12.09;Richard Raymond;
12.12.09;Pierre Jansen;
12.12.09;Johannes Geldenhuys;
12.12.09;Thembela Dokoda;
12.12.09;Gareth Ambrose;
12.12.09;Brendan van Zyl;
12.12.09;Michael Wells;
12.12.09;Jason Smith;
12.12.09;Justin Jansen Van Vuuren;
13.12.09;Nico Claassen;
13.12.09;Malcolm Vorster;
13.12.09;Graham Meyer;
13.12.09;Thando Katywa;
13.12.09;Andre Esterhuyse;
13.12.09;Ludumo Sankobe;
13.12.09;Paul Helliwell;
13.12.09;Richard Raymond;
13.12.09;Pierre Jansen;
13.12.09;Johannes Geldenhuys;
13.12.09;Thembela Dokoda;
13.12.09;Gareth Ambrose;
13.12.09;Brendan van Zyl;
13.12.09;Michael Wells;
13.12.09;Jason Smith;
13.12.09;Justin Jansen Van Vuuren;
14.12.09;Nico Claassen;
14.12.09;Malcolm Vorster;
14.12.09;Graham Meyer;
14.12.09;Thando Katywa;
14.12.09;Andre Esterhuyse;
14.12.09;Ludumo Sankobe;
14.12.09;Paul Helliwell;
14.12.09;Richard Raymond;
14.12.09;Pierre Jansen;
14.12.09;Johannes Geldenhuys;
14.12.09;Thembela Dokoda;
14.12.09;Gareth Ambrose;
14.12.09;Brendan van Zyl;
14.12.09;Michael Wells;
14.12.09;Jason Smith;
14.12.09;Justin Jansen Van Vuuren;
15.12.09;Nico Claassen;
15.12.09;Malcolm Vorster;
15.12.09;Graham Meyer;
15.12.09;Thando Katywa;
15.12.09;Andre Esterhuyse;
15.12.09;Ludumo Sankobe;
15.12.09;Paul Helliwell;
15.12.09;Richard Raymond;
15.12.09;Pierre Jansen;
15.12.09;Johannes Geldenhuys;
15.12.09;Thembela Dokoda;
15.12.09;Gareth Ambrose;
15.12.09;Brendan van Zyl;
15.12.09;Michael Wells;
15.12.09;Jason Smith;
15.12.09;Justin Jansen Van Vuuren;
16.12.09;Nico Claassen;
16.12.09;Malcolm Vorster;
16.12.09;Graham Meyer;
16.12.09;Thando Katywa;
16.12.09;Andre Esterhuyse;
16.12.09;Ludumo Sankobe;
16.12.09;Paul Helliwell;
16.12.09;Richard Raymond;
16.12.09;Pierre Jansen;
16.12.09;Johannes Geldenhuys;
16.12.09;Thembela Dokoda;
16.12.09;Gareth Ambrose;
16.12.09;Brendan van Zyl;
16.12.09;Michael Wells;
16.12.09;Jason Smith;
16.12.09;Justin Jansen Van Vuuren;
17.12.09;Nico Claassen;
17.12.09;Malcolm Vorster;
17.12.09;Graham Meyer;
17.12.09;Thando Katywa;
17.12.09;Andre Esterhuyse;
17.12.09;Ludumo Sankobe;
17.12.09;Paul Helliwell;
17.12.09;Richard Raymond;
17.12.09;Pierre Jansen;
17.12.09;Johannes Geldenhuys;
17.12.09;Thembela Dokoda;
17.12.09;Gareth Ambrose;
17.12.09;Brendan van Zyl;
17.12.09;Michael Wells;
17.12.09;Jason Smith;
17.12.09;Justin Jansen Van Vuuren;
18.12.09;Nico Claassen;
18.12.09;Malcolm Vorster;
18.12.09;Graham Meyer;
18.12.09;Thando Katywa;
18.12.09;Andre Esterhuyse;
18.12.09;Ludumo Sankobe;
18.12.09;Paul Helliwell;
18.12.09;Richard Raymond;
18.12.09;Pierre Jansen;
18.12.09;Johannes Geldenhuys;
18.12.09;Thembela Dokoda;
18.12.09;Gareth Ambrose;
18.12.09;Brendan van Zyl;
18.12.09;Michael Wells;
18.12.09;Jason Smith;
18.12.09;Justin Jansen Van Vuuren;
19.12.09;Nico Claassen;
19.12.09;Malcolm Vorster;
19.12.09;Graham Meyer;
19.12.09;Thando Katywa;
19.12.09;Andre Esterhuyse;
19.12.09;Ludumo Sankobe;
19.12.09;Paul Helliwell;
19.12.09;Richard Raymond;
19.12.09;Pierre Jansen;
19.12.09;Johannes Geldenhuys;
19.12.09;Thembela Dokoda;
19.12.09;Gareth Ambrose;
19.12.09;Brendan van Zyl;
19.12.09;Michael Wells;
19.12.09;Jason Smith;
19.12.09;Justin Jansen Van Vuuren;
20.12.09;Nico Claassen;
20.12.09;Malcolm Vorster;
20.12.09;Graham Meyer;
20.12.09;Thando Katywa;
20.12.09;Andre Esterhuyse;
20.12.09;Ludumo Sankobe;
20.12.09;Paul Helliwell;
20.12.09;Richard Raymond;
20.12.09;Pierre Jansen;
20.12.09;Johannes Geldenhuys;
20.12.09;Thembela Dokoda;
20.12.09;Gareth Ambrose;
20.12.09;Brendan van Zyl;
20.12.09;Michael Wells;
20.12.09;Jason Smith;
20.12.09;Justin Jansen Van Vuuren;
21.12.09;Nico Claassen;
21.12.09;Malcolm Vorster;
21.12.09;Graham Meyer;
21.12.09;Thando Katywa;
21.12.09;Andre Esterhuyse;
21.12.09;Ludumo Sankobe;
21.12.09;Paul Helliwell;
21.12.09;Richard Raymond;
21.12.09;Pierre Jansen;
21.12.09;Johannes Geldenhuys;
21.12.09;Thembela Dokoda;
21.12.09;Gareth Ambrose;
21.12.09;Brendan van Zyl;
21.12.09;Michael Wells;
21.12.09;Jason Smith;
21.12.09;Justin Jansen Van Vuuren;
22.12.09;Nico Claassen;
22.12.09;Malcolm Vorster;
22.12.09;Graham Meyer;
22.12.09;Thando Katywa;
22.12.09;Andre Esterhuyse;
22.12.09;Ludumo Sankobe;
22.12.09;Paul Helliwell;
22.12.09;Richard Raymond;
22.12.09;Pierre Jansen;
22.12.09;Johannes Geldenhuys;
22.12.09;Thembela Dokoda;
22.12.09;Gareth Ambrose;
22.12.09;Brendan van Zyl;
22.12.09;Michael Wells;
22.12.09;Jason Smith;
22.12.09;Justin Jansen Van Vuuren;
23.12.09;Nico Claassen;
23.12.09;Malcolm Vorster;
23.12.09;Graham Meyer;
23.12.09;Thando Katywa;
23.12.09;Andre Esterhuyse;
23.12.09;Ludumo Sankobe;
23.12.09;Paul Helliwell;
23.12.09;Richard Raymond;
23.12.09;Pierre Jansen;
23.12.09;Johannes Geldenhuys;
23.12.09;Thembela Dokoda;
23.12.09;Gareth Ambrose;
23.12.09;Brendan van Zyl;
23.12.09;Michael Wells;
23.12.09;Jason Smith;
23.12.09;Justin Jansen Van Vuuren;
24.12.09;Nico Claassen;
24.12.09;Malcolm Vorster;
24.12.09;Graham Meyer;
24.12.09;Thando Katywa;
24.12.09;Andre Esterhuyse;
24.12.09;Ludumo Sankobe;
24.12.09;Paul Helliwell;
24.12.09;Richard Raymond;
24.12.09;Pierre Jansen;
24.12.09;Johannes Geldenhuys;
24.12.09;Thembela Dokoda;
24.12.09;Gareth Ambrose;
24.12.09;Brendan van Zyl;
24.12.09;Michael Wells;
24.12.09;Jason Smith;
24.12.09;Justin Jansen Van Vuuren;
25.12.09;Nico Claassen;
25.12.09;Malcolm Vorster;
25.12.09;Graham Meyer;
25.12.09;Thando Katywa;
25.12.09;Andre Esterhuyse;
25.12.09;Ludumo Sankobe;
25.12.09;Paul Helliwell;
25.12.09;Richard Raymond;
25.12.09;Pierre Jansen;
25.12.09;Johannes Geldenhuys;
25.12.09;Thembela Dokoda;
25.12.09;Gareth Ambrose;
25.12.09;Brendan van Zyl;
25.12.09;Michael Wells;
25.12.09;Jason Smith;
25.12.09;Justin Jansen Van Vuuren;
26.12.09;Nico Claassen;
26.12.09;Malcolm Vorster;
26.12.09;Graham Meyer;
26.12.09;Thando Katywa;
26.12.09;Andre Esterhuyse;
26.12.09;Ludumo Sankobe;
26.12.09;Paul Helliwell;
26.12.09;Richard Raymond;
26.12.09;Pierre Jansen;
26.12.09;Johannes Geldenhuys;
26.12.09;Thembela Dokoda;
26.12.09;Gareth Ambrose;
26.12.09;Brendan van Zyl;
26.12.09;Michael Wells;
26.12.09;Jason Smith;
26.12.09;Justin Jansen Van Vuuren;
27.12.09;Nico Claassen;
27.12.09;Malcolm Vorster;
27.12.09;Graham Meyer;
27.12.09;Thando Katywa;
27.12.09;Andre Esterhuyse;
27.12.09;Ludumo Sankobe;
27.12.09;Paul Helliwell;
27.12.09;Richard Raymond;
27.12.09;Pierre Jansen;
27.12.09;Johannes Geldenhuys;
27.12.09;Thembela Dokoda;
27.12.09;Gareth Ambrose;
27.12.09;Brendan van Zyl;
27.12.09;Michael Wells;
27.12.09;Jason Smith;
27.12.09;Justin Jansen Van Vuuren;
28.12.09;Nico Claassen;
28.12.09;Malcolm Vorster;
28.12.09;Graham Meyer;
28.12.09;Thando Katywa;
28.12.09;Andre Esterhuyse;
28.12.09;Ludumo Sankobe;
28.12.09;Paul Helliwell;
28.12.09;Richard Raymond;
28.12.09;Pierre Jansen;
28.12.09;Johannes Geldenhuys;
28.12.09;Thembela Dokoda;
28.12.09;Gareth Ambrose;
28.12.09;Brendan van Zyl;
28.12.09;Michael Wells;
28.12.09;Jason Smith;
28.12.09;Justin Jansen Van Vuuren;
29.12.09;Nico Claassen;
29.12.09;Malcolm Vorster;
29.12.09;Graham Meyer;
29.12.09;Thando Katywa;
29.12.09;Andre Esterhuyse;
29.12.09;Ludumo Sankobe;
29.12.09;Paul Helliwell;
29.12.09;Richard Raymond;
29.12.09;Pierre Jansen;
29.12.09;Johannes Geldenhuys;
29.12.09;Thembela Dokoda;
29.12.09;Gareth Ambrose;
29.12.09;Brendan van Zyl;
29.12.09;Michael Wells;
29.12.09;Jason Smith;
29.12.09;Justin Jansen Van Vuuren;
30.12.09;Nico Claassen;
30.12.09;Malcolm Vorster;
30.12.09;Graham Meyer;
30.12.09;Thando Katywa;
30.12.09;Andre Esterhuyse;
30.12.09;Ludumo Sankobe;
30.12.09;Paul Helliwell;
30.12.09;Richard Raymond;
30.12.09;Pierre Jansen;
30.12.09;Johannes Geldenhuys;
30.12.09;Thembela Dokoda;
30.12.09;Gareth Ambrose;
30.12.09;Brendan van Zyl;
30.12.09;Michael Wells;
30.12.09;Jason Smith;
30.12.09;Justin Jansen Van Vuuren;