"03.08.09","1","077472","1952","185","Service, Telefon-Support","","0","F141 NCR Getriebe: Bugfixing nach Test /Sim B45.4/ae17","07:00","16:00","7","60",
"03.08.09","1","077472","859","110","Engineering","","0","Allg. Projekttätigkeiten A1.6/ae15","","","0,5","0",
"03.08.09","1","077472","1893","110","Engineering","","0","Waiting for Authoring","","","0,5","0",
"04.08.09","2","077472","1893","110","Engineering","","0","Waiting for Authoring","07:00","16:00","0,5","60",
"04.08.09","2","077472","859","110","Engineering","","0","Allg. Projekttätigkeiten A1.6/ae15","","","0,5","0",
"04.08.09","2","077472","1952","185","Service, Telefon-Support","","100","F141 NCR Getriebe: Bugfixing nach Test /Sim B45.4/ae17","","","3","0",
"04.08.09","2","077472","1719","110","Engineering","","100","F141 NCR Getriebe: TestSpec B45.1/ae17","","","0","0",
"04.08.09","2","077472","1720","120","Codierung","","100","F141 NCR Getriebe:Anpassung Impl. Teilabläufe","","","0","0",
"04.08.09","2","077472","1951","110","Engineering","","100","F141 NCR Getriebe:Anpassung Impl. Teilabläufe Sim","","","1","0",
"04.08.09","2","077472","0","120","Codierung","","0","F141 NCM MY07 Impl","","","3","0",
"05.08.09","3","077472","859","110","Engineering","","0","Allg. Projekttätigkeiten A1.6/ae15","07:00","16:00","0,5","60",
"05.08.09","3","077472","1893","110","Engineering","","0","Waiting for Authoring","","","0,5","0",
"05.08.09","3","077472","0","120","Codierung","","0","F141 NCM MY07 Impl","","","4","0",
"05.08.09","3","077472","0","110","Engineering","","0","F141 NCM MY07 Sim","","","3","0",
"06.08.09","4","077472","1893","110","Engineering","","0","Waiting for Authoring","07:00","16:00","0,5","60",
"06.08.09","4","077472","859","110","Engineering","","0","Allg. Projekttätigkeiten A1.6/ae15","","","1,5","0",
"06.08.09","4","077472","0","110","Engineering","","0","F141 NCM MY07 Sim","","","6","0",
"07.08.09","5","077472","1893","110","Engineering","","0","Waiting for Authoring","07:00","16:00","0,5","60",
"07.08.09","5","077472","859","110","Engineering","","0","Allg. Projekttätigkeiten A1.6/ae15","","","1,5","0",
"07.08.09","5","077472","0","110","Engineering","","0","F141 NCM MY07 Sim","","","2","0",
"07.08.09","5","077472","0","120","Codierung","","0","F141 NCM MY07 Impl","","","4","0",
