"02.11.09","1","09.00052","263","170","Schulung","","100","Sim train + Actuator","07:00","16:00","2","60",
"02.11.09","1","077353","0","120","Codierung","","40","SWSG Post Coding Job Implementation","","","6","0",
"03.11.09","2","09.00052","263","170","Schulung","","100","Protocol Training","07:00","16:00","1","60",
"03.11.09","2","077353","0","120","Codierung","","20","SWSG Post Coding Job Implementation","","","5","0",
"03.11.09","2","077353","11086","181","Fehlerbes. vor Ausl. (Bugzilla)","","90","5361: E1 M5: SWSG: Gen ODX-Bedat: Kodier: Bugfixing","","","2","0",
"04.11.09","3","077353","11086","181","Fehlerbes. vor Ausl. (Bugzilla)","","95","5361: E1 M5: SWSG: Gen ODX-Bedat: Kodier: Bugfixing","07:00","16:00","4","60",
"04.11.09","3","077353","7685","110","Engineering","","100","	8185: Warten auf Authoring ODX - Waiting long times for exports/saving/enherit","","","2","0",
"04.11.09","3","077353","0","120","Codierung","","30","SWSG Post Coding Job Implementation","","","2","0",
"05.11.09","4","077353","0","120","Codierung","","40","	SWSG Post Coding Job Implementation","07:00","16:00","4","60",
"05.11.09","4","077598","0","910","Urlaub","","100","Time Off - Sick","","","4","0",
"06.11.09","5","077591","0","910","Urlaub","","100","Leave","07:00","16:00","8","60",
