"07.09.09","1","077353","7685","110","Engineering","","0","8185: Warten auf Authoring","07:00","16:00","1","60",
"07.09.09","1","077353","8749","120","Codierung","","0","5523: E1 M5: Heck-SG:SG-Tausch: Implementierung - CTS Start problems","","","2","0",
"07.09.09","1","077353","7685","120","Codierung","","0","5523: E1 M5: Heck-SG:SG-Tausch: Implementierung","","","5","0",
"08.09.09","2","077353","7685","110","Engineering","","0","8185: Warten auf Authoring - Had to Start Restart a few times","07:00","16:00","1","60",
"08.09.09","2","077353","8749","120","Codierung","","0","5523: E1 M5: Heck-SG:SG-Tausch: Implementierung","","","7","0",
"09.09.09","3","09.00052","263","170","Schulung","","0","ODX Codierung training","07:00","16:00","1,5","60",
"09.09.09","3","077353","7685","110","Engineering","","0","8185: Warten auf Authoring - Application Server","","","2,5","0",
"09.09.09","3","077353","8749","110","Engineering","","0","5523: E1 M5: Heck-SG:SG-Tausch: Implementierung","","","4","0",
"10.09.09","4","077353","9636","140","Test","","0","5523: E1 M5: Heck-SG: SG-Tausch: Modultest - Problems with Calling CTS freeze Authoring/PC","07:00","16:00","1","60",
"10.09.09","4","077353","8749","120","Codierung","","0"," 5523: E1 M5: Heck-SG: SG-Tausch: Implementierung","","","6","0",
"10.09.09","4","077353","7685","110","Engineering","","0","8185: Warten auf Authoring (Performance-Probleme bei Ausführung)","","","1","0",
"11.09.09","5","077353","9636","140","Test","","0","5523: E1 M5: Heck-SG: SG-Tausch: Modultest - Changed Simulation","07:00","16:00","1","60",
"11.09.09","5","077353","7685","110","Engineering","","0","8185: Warten auf Authoring (Performance-Probleme bei Ausführung)","","","3","0",
"11.09.09","5","077353","9740","120","Codierung","","0","5083: E1 M5: Tiptronic: SG-Tausch: Implementierung","","","4","0",
