"20.07.09","1","077472","859","110","Engineering","","0","Allg. Projekttätigkeiten A1.6/ae15","07:00","16:00","0,5","60",
"20.07.09","1","077472","1951","110","Engineering","","0","NCR Getriebe:Anpassung Impl. Teilabläufe Sim","","","1,5","0",
"20.07.09","1","077472","1719","110","Engineering","","0","F141 NCR Getriebe: TestSpec B45.1/ae17","","","6","0",
"21.07.09","2","077472","1719","110","Engineering","","0","F141 NCR Getriebe: TestSpec B45.1/ae17","07:00","16:00","8","60",
"22.07.09","3","077472","1893","110","Engineering","","0","Waiting for Authoring","07:00","16:00","1","60",
"22.07.09","3","077472","1951","110","Engineering","","0","Allg. Projekttätigkeiten A1.6/ae15","","","1","0",
"22.07.09","3","077472","1720","120","Codierung","","0","F141 NCR Getriebe:Anpassung Impl. Teilabläufe","","","6","0",
"23.07.09","4","077472","1893","110","Engineering","","0","Waiting for Authoring","07:00","16:00","0,5","60",
"23.07.09","4","077472","859","110","Engineering","","0","Allg. Projekttätigkeiten A1.6/ae15","","","0,5","0",
"23.07.09","4","077472","1720","120","Codierung","","0","F141 NCR Getriebe:Anpassung Impl. Teilabläufe","","","2","0",
"23.07.09","4","077472","1719","110","Engineering","","0","F141 NCR Getriebe: TestSpec B45.1/ae17","","","5","0",
"24.07.09","5","077472","859","110","Engineering","","0","Allg. Projekttätigkeiten A1.6/ae15","07:00","16:00","1","60",
"24.07.09","5","077472","1893","110","Engineering","","0","Waiting for Authoring","","","1","0",
"24.07.09","5","077472","1720","120","Codierung","","0","F141 NCR Getriebe:Anpassung Impl. Teilabläufe","","","3","0",
"24.07.09","5","077472","1719","110","Engineering","","0","F141 NCR Getriebe: TestSpec B45.1/ae17","","","3","0",
