"16.11.09","1","077353","10721","170","Schulung","","0","8501: E1 M5: Assisting colleagues","07:00","16:00","1","60",
"16.11.09","1","077353","11435","181","Fehlerbes. vor Ausl. (Bugzilla)","","0","5027: E1 M5: FZGweite Fkt: Bugfixing Abläufe 5.3: BF+Test (Various meetings)","","","2","0",
"16.11.09","1","077353","7683","110","Engineering","","0","8185: Warten auf Authoring (Performance-Probleme bei Ausführung+Installations of new versions)","","","2","0",
"16.11.09","1","077353","10973","110","Engineering","","80","	 5307: E1 M5: Gateway CAN: Wakeup Guardian: Implementierung","","","3","0",
"17.11.09","2","077353","7683","110","Engineering","","0","8185: Warten auf Authoring (Performance-Probleme bei Ausführung)","07:00","16:00","2","60",
"17.11.09","2","077353","10721","170","Schulung","","0","8501: E1 M5: Assisting colleagues (Finding issues in service handler candidate )","","","3","0",
"17.11.09","2","077353","10978","120","Codierung","","100","	 5309: E1 M5: Gateway CAN: SG-Tausch: Implementierung (Closing task)","","","0,5","0",
"17.11.09","2","077353","10973","110","Engineering","","85","5307: E1 M5: Gateway CAN: Wakeup Guardian: Implementierung (Multiple issues regarding new module)","","","2,5","0",
"18.11.09","3","077353","7683","110","Engineering","","0","8185: Warten auf Authoring (Performance-Probleme bei Ausführung)","07:00","16:00","2","60",
"18.11.09","3","077353","11435","181","Fehlerbes. vor Ausl. (Bugzilla)","","0","5027: FZGweite Fkt: Bugfixing(Working with mp on service_module_candidate for GW-CAN_WUG)","","","6","0",
"19.11.09","4","077353","7683","110","Engineering","","0","8185: Warten auf Authoring (Performance-Probleme bei Ausführung)","07:00","16:00","1","60",
"19.11.09","4","077353","7686","110","Engineering","","0","8501: E1 M5: allg. Projekttätigkeiten (Working with mp on service handler candidate)","","","3","0",
"19.11.09","4","077353","10973","110","Engineering","","100","5307: E1 M5: Gateway CAN: Wakeup Guardian: Implementierung (Known issue with new service handler)","","","2","0",
"19.11.09","4","077353","11588","181","Fehlerbes. vor Ausl. (Bugzilla)","","95","	 5464: E1 M5: Airbag: SG-Tausch: Bugfixing zum Modultest (Waiting for PTTD attributation)","","","2","0",
"20.11.09","5","077353","10974","140","Test","","95"," 5307: E1 M5: Gateway CAN: Wakeup Guardian: Modultest (HAve to work around service handler bugs)","07:00","16:00","4","60",
"20.11.09","5","077353","10975","181","Fehlerbes. vor Ausl. (Bugzilla)","","95","5307: E1 M5: Gateway CAN: Wakeup Guardian: Bugfixing zum Modultest","","","4","0",
