"17.08.09","1","077472","1657","120","Codierung","","45","F141 NCM 06/07 implementation","07:00","16:00","7,15","60",
"17.08.09","1","077472","1895","110","Engineering","","0","Waiting for Authoring.","","","0,85","0",
"18.08.09","2","077472","1895","110","Engineering","","0","Waiting for Authoring.","07:00","16:00","0,5","60",
"18.08.09","2","077472","1657","120","Codierung","","50","F141 NCM 06/07 implementation","","","7,5","0",
"19.08.09","3","077472","1658","140","Test","","10","F141 NCM 06/07 test vs simulation","07:00","16:00","8","60",
"20.08.09","4","077472","1658","140","Test","","15","F141 NCM 06/07 test vs simulation","07:00","16:00","8","60",
"21.08.09","5","077472","1658","140","Test","","20","F141 NCM 06/07 test vs simulation","07:00","16:00","8","60",
