"24.08.09","1","077251"," 0","910","Urlaub","","0","leave","07:00","16:00","8","60",
"25.08.09","2","077251","0","110","Engineering","","0","Installing Authoring,OET,PIDT and other softwares in my new laptop","07:00","16:00","8","60",
"26.08.09","3","077251"," 0","110","Engineering","","0","Installing Authoring,OET","07:00","16:00","2","60",
"26.08.09","3","077251","3261","110","Engineering","","100","Updating ODA Basics","","","2","0",
"26.08.09","3","077251","3263","110","Engineering","","100","Updating ODA Basics","","","2","0",
"26.08.09","3","077251","3266","110","Engineering","","100","Updating ODA Basics","","","2","0",
"27.08.09","4","077251","3262","110","Engineering","","100","Updating ODA Basics","07:00","16:00","2","60",
"27.08.09","4","077251","3267","110","Engineering","","100","Updating ODA Basics","","","2","0",
"27.08.09","4","077251","3265","110","Engineering","","100","Updating ODA Basics","","","2","0",
"27.08.09","4","077251","3264","110","Engineering","","100","Updating ODA Basics","","","2","0",
"28.08.09","5","077472","786","110","Engineering","","0","Gesic Training by s43","07:00","16:00","1","60",
"28.08.09","5","077251","1372","110","Engineering","","0","Fixing bug # 17984","","","2","0",
"28.08.09","5","077251","1372","110","Engineering","","0","Fixing bug # 17982","","","2","0",
"28.08.09","5","077251","1372","110","Engineering","","0","Fixing bug # 18762","","","3","0",
