"23.11.09","1","077353","11583","170","Schulung","","0","Assisting colleagues. Helping Thembela","07:00","16:00","2","60",
"23.11.09","1","077353","0","181","Fehlerbes. vor Ausl. (Bugzilla)","","0","Bugfixing (no bug priolist task). bug #14965, #14826, #14842","","","6","0",
"24.11.09","2","077353","11591","110","Engineering","","0","Meeting (No general task). Discussed documentation issues as well as previous code freeze results.","07:00","16:00","1","60",
"24.11.09","2","077353","0","181","Fehlerbes. vor Ausl. (Bugzilla)","","0","Bugfixing (no bug priolist task). Bugs #14841, 14973, #14826, #14965, #20165","","","7","0",
"25.11.09","3","077353","11583","170","Schulung","","0","Assisting colleagues. Assisting Thembela and Ludumo","07:00","16:00","3","60",
"25.11.09","3","077353","0","181","Fehlerbes. vor Ausl. (Bugzilla)","","0","Bugfixing (no bug priolist task). Bug #19976, 19980, 14832, 14833, 14971, 14743","","","5","0",
"26.11.09","4","077353","0","181","Fehlerbes. vor Ausl. (Bugzilla)","","0","Bugfixing (no bug priolist task). Bug #14743, 14750","07:00","16:00","5,5","60",
"26.11.09","4","077353","11591","110","Engineering","","0","Meeting (No general task). Discussed e-mailing.","","","0,5","0",
"26.11.09","4","077353","00773","170","Schulung","","0","Assisting colleagues. Thembela and Ludumo","","","2","0",
"27.11.09","5","077353","0","181","Fehlerbes. vor Ausl. (Bugzilla)","","0","Bugfixing (no bug priolist task). Bug #14743, #14750","07:00","16:00","6","60",
"27.11.09","5","077353","11583","170","Schulung","","0","Assisting colleagues. Thembela and Ludumo","","","2","0",
