"27.07.09","1","077472","2113","120","Codierung","","0","NCM Carb. Impl.","07:00","16:00","8","60",
"29.07.09","3","077472","1723","185","Service, Telefon-Support","","0","F141 NCR Testing and bugfixing","07:00","18:00","10","60",
"30.07.09","4","077472","1723","185","Service, Telefon-Support","","0","F141 NCR Testing and Bugfixing","07:00","18:00","10","60",
"31.07.09","5","077472","1723","185","Service, Telefon-Support","","0","Testing and bugfixing","07:00","16:00","8","60",
