"12.01.09","1","077472","860","110","Engineering ","","0","Bugfixing NPG CTS","7:00","16:00","8","60",
"13.01.09","2","077472","860","110","Engineering ","","0","Created NCP Sim file and started implementation","7:00","16:00","8","60",
"14.01.09","3","077472","860","110","Engineering ","","0","Continued NCP implementation UC 1, started on UC2","7:00","16:00","8","60",
"15.01.09","4","077472","860","110","Engineering ","","0","Implementing UC2 of NCP, started implementing UC3","7:00","16:00","8","60",
"16.01.09","5","077472","860","110","Engineering ","","0","Continued implementing UC3 of NCP","7:00","16:00","8","60",
