"10.11.09","2","077353","10993","120","Codierung","","100","ODX-Bedatung for SG-Tausch","07:00","16:00","8","60",
"11.11.09","3","077353","10994","140","Test","","35","Modultest for Gateway K-Line SG-Tausch","07:00","16:00","4","60",
"11.11.09","3","077353","10995","181","Fehlerbes. vor Ausl. (Bugzilla)","","30","Bugfixing zum Modultest","","","3","0",
"12.11.09","4","077353","10994","140","Test","","50","Test : Changes that I made to the CTS","07:00","16:00","5","60",
"12.11.09","4","077353","0","181","Fehlerbes. vor Ausl. (Bugzilla)","","50","Bugfixing SG-Tausch Gateway K-Line","","","3","0",
"13.11.09","5","077353","11135","140","Test","","40","Modultest forPCM2-SBS2 SG-Tausch","07:00","16:00","3","60",
"13.11.09","5","077353","10994","140","Test","","0","Modultest for Gateway K-Line SG-Tausch","","","3","0",
"13.11.09","5","077353","0","181","Fehlerbes. vor Ausl. (Bugzilla)","","0","Bugfixing Gateway Sg-Tausch","","","2","0",
