"25.05.09","1","077472","1943","120","Codierung","","100","F141 AWS Gewicht Airbag: Impl B22.6/ae15 (Zusatz)","07:00","16:00","7","60",
"25.05.09","1","077472","1893","110","Engineering","","0","Waiting for Authoring","","","1","0",
"26.05.09","2","077472","1893","110","Engineering","","0","Waiting for Authoring","07:00","16:00","0,5","60",
"26.05.09","2","077472","859","110","Engineering","","0","Allg. Projekttätigkeiten A1.6/ae15","","","0,5","0",
"26.05.09","2","077472","1917","185","Service","","0","F149: CTS Bugs f2","","","7","0",
"27.05.09","3","077472","859","110","Engineering","","0","Allg. Projekttätigkeiten A1.6/ae15","07:00","16:00","1","60",
"27.05.09","3","077472","0","110","Engineering","","75","F141 NBC Body Computer: rework CTS PH SYDG","","","7","0",
"28.05.09","4","077472","0","110","Engineering","","95","F141 NBC Body Computer: rework CTS PH SYDG","07:00","16:00","4","60",
"28.05.09","4","077472","1712","110","Engineering","","25","F141 NBC Body Computer: TestSpec B44.1/ae17","","","4","0",
"29.05.09","5","077472","859","110","Engineering","","0","Allg. Projekttätigkeiten A1.6/ae15","07:00","16:00","0,5","60",
"29.05.09","5","077472","1712","110","Engineering","","50","F141 NBC Body Computer: TestSpec B44.1/ae17","","","7,5","0",
