"21.09.09","1","077598","0","910","Urlaub","","0","Time Off - Sick","07:00","16:00","8","60",
"22.09.09","2","077598","0","910","Urlaub","","0","Time Off - Sick","07:00","16:00","8","60",
"23.09.09","3","077598","0","910","Urlaub","","0","Time Off - Sick","07:00","16:00","8","60",
"24.09.09","4","077598","0","910","Urlaub","","0","Public","07:00","16:00","8","60",
"25.09.09","5","077353","9639","140","Test","","0","5523: E1 M5: Heck-SG: SG-Tausch: Modultest","07:00","16:00","8","60",
