"10.08.09","1","077598","0","910","Urlaub","","0","Public holiday","07:00","16:00","8","60",
"11.08.09","2","077353","1","181","Fehlerbes. vor Ausl. (Bugzilla)","","0","Bugfixing item 18466 and 18469","07:00","16:00","4","60",
"11.08.09","2","09.00052","257","170","Schulung","","0","Training colleague with simlations","","","4","0",
"12.08.09","3","09.00052","257","170","Schulung","","0","Training colleague with simlations","07:00","16:00","4","60",
"12.08.09","3","077353","1086","181","Fehlerbes. vor Ausl. (Bugzilla)","","0","Bugfixing item 18466 and 18469","","","4","0",
"13.08.09","4","077353","1086","110","Engineering","","0","Document for DTC Module Proposal","07:00","16:00","8","60",
"14.08.09","5","077353","1086","110","Engineering","","0","Document for DTC Module Proposal","07:00","16:00","4","60",
"14.08.09","5","09.00052","257","170","Schulung","","0","ODX Training","","","2","0",
"14.08.09","5","077353","0","110","Engineering","","0","Assisting colleagues with simulations and other work","","","2","0",
