"16.11.09","1","077353","1088","110","Engineering","","0","8501: E1 M5: allg. Projekttätigkeiten(Assisting Collegue with CTS, ODX-E and simulation)","07:00","16:00","3","60",
"16.11.09","1","077353","11461","110","Engineering","","30","	 6015: E1 M5: Airbag verriegeln (24.100): PH","","","5","0",
"17.11.09","2","077353","1088","110","Engineering","","0","8501: E1 M5: allg. Projekttätigkeiten(compilling List of open bugs and status for report)","07:00","16:00","4","60",
"17.11.09","2","077353","1088","110","Engineering","","0","8501: E1 M5: allg. Projekttätigkeiten(Assisting collegues with open bugs and reassigning fixed bugs)","","","3,5","0",
"17.11.09","2","077353","1088","110","Engineering","","0","8501: E1 M5: allg. Projekttätigkeiten(Meeting)","","","0,5","0",
"18.11.09","3","077353","1088","110","Engineering","","0","8501: E1 M5: allg. Projekttätigkeiten A1.15/ae15(Assiting collegue with Actual Value Mux bug)","07:00","16:00","2","60",
"18.11.09","3","077353","1088","110","Engineering","","0","8501: E1 M5: allg. Projekttätigkeiten A1.15/ae15(Assiting collegue with Simulation/Xmodify training)","","","0,5","0",
"18.11.09","3","077353","1088","110","Engineering","","0","8501: E1 M5: allg. Projekttätigkeiten A1.15/ae15(PIWIS machine and KTS520 VCI problems)","","","1","0",
"18.11.09","3","077353","11461","110","Engineering","","50","6015: E1 M5: Airbag verriegeln (24.100): PH","","","4,5","0",
"19.11.09","4","077353","11461","110","Engineering","","80","6015: E1 M5: Airbag verriegeln (24.100): PH","07:00","16:00","4","60",
"19.11.09","4","077353","1088","110","Engineering","","0","8501: E1 M5: allg. Projekttätigkeiten(Assisting Collegeue with option item bug)","","","1","0",
"19.11.09","4","077353","1088","110","Engineering","","0","8501: E1 M5: allg. Projekttätigkeiten(Analysing and fixing of ODX Test Spec folder for hd&ac)","","","1","0",
"19.11.09","4","077353","9528","120","Codierung","","10","7001: E1: Rework Spec Generator: Impl B2.2/ae20","","","1","0",
"19.11.09","4","077353","9825","181","Fehlerbes. vor Ausl. (Bugzilla)","","100","5281: E1 M5: RDK: Gen ODX-Bedat: Kodier: Bugfixing - Bug 15147 - Fix and test (from f3)	","","","1","0",
"20.11.09","5","077353","11461","110","Engineering","","90","	 6015: E1 M5: Airbag verriegeln (24.100): PH","07:00","16:00","1","60",
"20.11.09","5","077353","9528","120","Codierung","","50","7001: E1: Rework Spec Generator: Impl B2.2/ae20","","","7","0",
