"02.02.09","1","077472","1309","120","Codierung","","0","Making simulation file for NCL","7:00","11:00","4","0",
"02.02.09","1","077472","1312","120","Codierung","","0","Continued implementation ,UC2 and UC3 of NCL, moving on to UC4","11:00","16:00","4","60",
"03.02.09","2","077472","1312","120","Codierung","","0","Continued NCP implementation, UC4(Check Fan). Moving on to UC6(Check Airflow)","7:00","16:00","8","60",
"04.02.09","3","077472","1312","120","Codierung","","0","Continued NCL implementation, UC6(Check Airflow). Moved on to UC7 (Cold Test).","7:00","16:00","8","60",
"05.02.09","4","077472","1312","120","Codierung","","0","Continued NCL Implementation, UC7(Cold Test), UC8(Hot Test)","7:00","16:00","8","60",
"06.02.09","5","077472","1312","120","Codierung","","0","Continued NCL Implementation, finalizing UC8, constructing main test sequence","7:00","16:00","8","60",
