"22.06.09","1","077472","1715","185","Service","","0","Reworking F141 NBC CTS","07:00","16:00","8","60",
"23.06.09","2","077472","1742","185","Service","","0","Reworking F141 NQS CTS","07:00","16:00","8","60",
"24.06.09","3","077472","1742","185","Service","","0","Reworking F141 NQS CTS","07:00","16:00","8","60",
"25.06.09","4","077472","1742","185","Service","","0","Reworking F141 NQS CTS","07:00","16:00","8","60",
