DATE;NAME;START;END;LUNCH;1;2;3;4;5;6;7;8;9;10;11;12;13;14;15;16;17;18;19;20;21;22;23;24;
01.04.09;Nico Claassen;07:00:00;16:00:00;60;077251-0 / 077251-1545;077251-1545;077251-1545;077251-1545;077251-1545;077251-1545 / 077251-1545;077251-1545;077251-1545;
01.04.09;Malcolm Vorster;07:00:00;16:00:00;60;077472-0;077472-0;077472-0;077472-0;077472-0;077472-0;077472-0;077472-0;
01.04.09;Graham Meyer;07:00:00;16:00:00;60;077251-0;077251-0;077251-0;077251-0 / 077251-1497;077251-0;077251-0;077251-0;077251-0;
01.04.09;Andre Esterhuyse;07:00:00;16:00:00;60;077251-1585;077251-1585;077251-1585;077251-1585;077251-1585;077251-1585;077251-1585;077251-1585;
01.04.09;Ludumo Sankobe;07:00:00;16:00:00;60;077251-0;077251-0;077251-0;077251-0;077251-0;077251-0;077251-0;077251-0;
01.04.09;Paul Helliwell;07:00:00;16:00:00;60;077353-0;077353-0;077353-0;077353-0;077353-0;077353-0;077353-0;077353-0;
01.04.09;Michael Wells;07:00:00;16:00:00;60;077353-2770;077353-2770 / 077353-0;077353-0;077353-0 / 077353-0;077353-0;077353-0;077353-0 / 077353-0;077353-0;
01.04.09;Pierre Jansen;
01.04.09;Brendan van Zyl;07:00:00;16:00:00;60;077472-1324;077472-1324;077472-1324;077472-1324;077472-1324;077472-1324;077472-1324;077472-0;
01.04.09;Jason Smith;07:00:00;16:00:00;60;077472-1322;077472-1322;077472-1322;077472-1322;077472-1322;077472-1322;077472-1322;077472-1322 / 077472-1322;
01.04.09;Justin Jansen Van Vuuren;07:00:00;16:00:00;60;077472-0;077472-0 / 077472-1518;077472-1518;077472-1518;077472-1518;077472-1518;077472-1518;077472-1518;
01.04.09;Thando Katywa;07:00:00;16:00:00;60;077251-0 / 077251-0;077251-0;077251-0;077251-0;077251-0;077251-0 / 077353-3481;077353-3481;077353-3481;
02.04.09;Nico Claassen;07:00:00;16:00:00;60;077251-1545;077251-1545;077251-1545;077353-2929;077353-2929;077353-2929;077353-2929;077353-2929;
02.04.09;Malcolm Vorster;07:00:00;16:00:00;60;077472-0;077472-0;077472-0;077472-0;077472-0;077472-0;077472-0;077472-0;
02.04.09;Graham Meyer;07:00:00;16:00:00;60;077251-0;077251-0;077251-0;077251-0;077251-0;077251-0;077251-0;077251-0 / 077251-1497;
02.04.09;Andre Esterhuyse;07:00:00;16:00:00;60;077251-1585;077251-1585;077251-1585;077251-1585;077251-1585;077251-1585;077251-1585;077251-1585;
02.04.09;Ludumo Sankobe;07:00:00;16:00:00;60;077251- 0;077251- 0;077251- 0;077251- 0;077251- 0;077251- 0;077251- 0;077251- 0;
02.04.09;Paul Helliwell;07:00:00;16:00:00;60;077353-0;077353-0;077353-0;077353-0;077353-0;077353-0;077353-0;077251-0;
02.04.09;Michael Wells;07:00:00;16:00:00;60;077353-0;077353-0;077353-0;077353-0;077353-0;077353-0;077353-0;077353-0;
02.04.09;Pierre Jansen;
02.04.09;Brendan van Zyl;07:00:00;16:00:00;60;077472-1324;077472-1324;077472-1324;077472-1324;077472-1324;077472-1324;077472-1324 / 077472-0;077472-0 / 077472-859;
02.04.09;Jason Smith;07:00:00;16:00:00;60;077472-1322;077472-1322;077472-1322;077472-1322;077472-1322;077472-1322;077472-1322 / 077472-1322;077472-860;
02.04.09;Justin Jansen Van Vuuren;07:00:00;16:00:00;60;077472-0;077472-0 / 077472-1518;077472-1518;077472-1518;077472-1518;077472-1518;077472-1518;077472-1518;
02.04.09;Thando Katywa;07:00:00;16:00:00;60;077353-3481;077353-3481;077353-3481;077353-3481;077353-3481;077353-3481;077353-3481;077353-3481 / 077353-0;
03.04.09;Nico Claassen;07:00:00;16:00:00;60;077353-2929;077353-2929;077353-2929 / 077251-1545;077251-1545;077251-1545;077251-1545;077251-1545;077251-1545;
03.04.09;Malcolm Vorster;07:00:00;16:00:00;0;077598-0;077598-0;077598-0;077598-0;077598-0;077598-0;077598-0;077598-0;077598-0;
03.04.09;Graham Meyer;07:00:00;16:00:00;60;077251-0;077251-0;077251-0;077251-0;077251-1497 / 077251-0;077251-0;077251-0;077251-0;
03.04.09;Andre Esterhuyse;07:00:00;16:00:00;60;077251-0;077251-0;077251-0;077251-0;077251-0;077251-1585;077251-1585;077251-1585;
03.04.09;Ludumo Sankobe;07:00:00;16:00:00;60;077251- 0;077251- 0;077251- 0;077251- 0;077251- 0;077251- 0;077251- 0;077251- 0;
03.04.09;Paul Helliwell;07:00:00;16:00:00;60;077251-1374;077251-1374;077251-0;077251-0;077251-0;077251-0;077251-0;077251-0;
03.04.09;Michael Wells;07:00:00;16:00:00;60;077353-0;077353-0;077353-0;077353-0;077353-0;077353-0;077353-0;077353-0;
03.04.09;Pierre Jansen;
03.04.09;Brendan van Zyl;07:00:00;16:00:00;60;077472-0;077472-1324;077472-1324;077472-1324;077472-1324;077472-1324;077472-1324;077472-1324;
03.04.09;Jason Smith;07:00:00;16:00:00;60;077472-860;077472-860;077472-860;077472-860;077472-860;077472-860;077472-860;077472-860;
03.04.09;Justin Jansen Van Vuuren;07:00:00;16:00:00;60;077472-0 / 077472-861;077472-861;077472-861;077472-861;077472-861;077472-861;077472-861;077472-861;
03.04.09;Thando Katywa;07:00:00;16:00:00;60;077353-3481;077353-3481;077353-3481;077353-3481;077353-3481;077353-3481;077353-3481;077353-3481 / 077353-0;
04.04.09;Nico Claassen;
04.04.09;Malcolm Vorster;
04.04.09;Graham Meyer;
04.04.09;Andre Esterhuyse;
04.04.09;Ludumo Sankobe;
04.04.09;Paul Helliwell;
04.04.09;Michael Wells;
04.04.09;Pierre Jansen;
04.04.09;Brendan van Zyl;
04.04.09;Jason Smith;
04.04.09;Justin Jansen Van Vuuren;
04.04.09;Thando Katywa;
05.04.09;Nico Claassen;
05.04.09;Malcolm Vorster;
05.04.09;Graham Meyer;
05.04.09;Andre Esterhuyse;
05.04.09;Ludumo Sankobe;
05.04.09;Paul Helliwell;
05.04.09;Michael Wells;
05.04.09;Pierre Jansen;
05.04.09;Brendan van Zyl;
05.04.09;Jason Smith;
05.04.09;Justin Jansen Van Vuuren;
05.04.09;Thando Katywa;
06.04.09;Nico Claassen;07:00:00;16:00:00;60;077251-0;077251-0;077251-0;077251-0;077251-0;077353-1913;077353-1913;077353-1913;
06.04.09;Malcolm Vorster;07:00:00;16:00:00;0;077598-0;077598-0;077598-0;077598-0;077598-0;077598-0;077598-0;077598-0;077598-0;
06.04.09;Graham Meyer;07:00:00;16:00:00;60;077353-3;077353-3;077353-3;077353-3;077353-3;077353-3;077353-3;077353-3;
06.04.09;Andre Esterhuyse;07:00:00;16:00:00;60;077251-1585;077251-1585;077251-1585;077251-1585;077251-1585;077251-1585;077251-0;077251-0;
06.04.09;Ludumo Sankobe;07:00:00;16:00:00;60;077251- 0;077251- 0;077251- 0;077251- 0;077251- 0;077251- 0;077251- 0;077251- 0;
06.04.09;Paul Helliwell;07:00:00;16:00:00;60;077353-0;077353-0;077353-0;077353-0;077353-0;077353-0;077353-0;077251-1374;
06.04.09;Michael Wells;07:00:00;16:00:00;60;077353-0;077353-0;077353-0;077353-1;077353-1;077353-2;077353-2;077353-2;
06.04.09;Pierre Jansen;
06.04.09;Brendan van Zyl;07:00:00;16:00:00;60;077472-1893;077472-1640;077472-1640;077472-1640;077472-1640;077472-1640;077472-1640;077472-1640;
06.04.09;Jason Smith;07:00:00;16:00:00;60;077472-1566;077472-1566;077472-1566;077472-1566;077472-1566;077472-1566;077472-1566;077472-1566 / 077472-860;
06.04.09;Justin Jansen Van Vuuren;07:00:00;16:00:00;60;077472-1895;077472-1895 / 077472-1586;077472-1586;077472-1586;077472-1586;077472-1586;077472-1586;077472-1586;
06.04.09;Thando Katywa;07:00:00;16:00:00;60;077353-3481;077353-3481;077353-3481;077353-3481;077353-3481;077353-3481;077353-3481;077353-3481 / 077353-0;
07.04.09;Nico Claassen;07:00:00;16:00:00;60;077251-0;077251-0;077251-0;077251-0;077251-0;077251-0;077251-0;077251-0 / 077353-1913;
07.04.09;Malcolm Vorster;07:00:00;16:00:00;60;077251-0;077251-0;077251-0;077251-0;077251-0;077251-0;077251-0;077251-0;
07.04.09;Graham Meyer;07:00:00;16:00:00;60;077353-1;077353-1;077353-1;077353-1;077353-2;077353-2;077353-2;077353-2;
07.04.09;Andre Esterhuyse;07:00:00;16:00:00;60;077251-1585;077251-1585;077251-1585;077251-1585;077251-1585;077251-1373;077251-1373;077251-1373;
07.04.09;Ludumo Sankobe;07:00:00;16:00:00;60;077251- 0;077251- 0;077251- 0;077251- 0;077251- 0;077251- 0;077251- 0;077251- 0;
07.04.09;Paul Helliwell;07:00:00;16:00:00;60;077251-0;077251-0;077251-0;077251-0;077251-0;077251-0;077251-0;077251-1374;
07.04.09;Michael Wells;07:00:00;16:00:00;60;077353-3;077353-3;077353-0;077353-2;077353-4;077353-4;077353-4;077353-4;
07.04.09;Pierre Jansen;
07.04.09;Brendan van Zyl;07:00:00;16:00:00;60;077472-1893;077472-1640;077472-1640;077472-1640;077472-1640;077472-1640;077472-1640;077472-1640;
07.04.09;Jason Smith;07:00:00;16:00:00;60;077472-1566;077472-1566;077472-1566;077472-1566;077472-1566;077472-1566;077472-1566 / 077472-1566;077472-1566;
07.04.09;Justin Jansen Van Vuuren;07:00:00;16:00:00;60;077472-1895;077472-1895 / 077472-1586;077472-1586;077472-1586;077472-1586;077472-1586;077472-1586;077472-1586;
07.04.09;Thando Katywa;07:00:00;16:00:00;60;077353-3481;077353-3481;077353-3481;077353-3481;077353-3481;077353-0;077353-0;077353-0 / 077353-0;
08.04.09;Nico Claassen;07:00:00;16:00:00;60;077251-0;077251-0;077251-0;077251-0;077251-0;077251-0;077251-0;077251-0 / 077353-1913;
08.04.09;Malcolm Vorster;07:00:00;16:00:00;60;077251-0;077251-0;077251-0;077251-0;077251-0;077251-0;077251-0;077251-0;
08.04.09;Graham Meyer;07:00:00;16:00:00;60;077251-1705;077251-1705;077251-1705;077251-1705;077251-1705;077251-1705;077251-1702;077251-1702;
08.04.09;Andre Esterhuyse;07:00:00;16:00:00;60;077251-1585;077251-1585;077251-1585;077251-1585;077251-1585;077251-1585;077251-1373;077251-1373;
08.04.09;Ludumo Sankobe;07:00:00;16:00:00;60;077251- 0;077251- 0;077251- 0;077251- 0;077251- 0;077251- 0;077251- 0;077251- 0;
08.04.09;Paul Helliwell;07:00:00;16:00:00;60;077251-1575;077353-0;077353-0;077353-0;077353-0;077353-0;077353-0;077353-0;
08.04.09;Michael Wells;07:00:00;16:00:00;60;077353-2;077353-1;077353-0;077353-4;077353-5;077353-6;077353-6;077353-6;
08.04.09;Pierre Jansen;
08.04.09;Brendan van Zyl;07:00:00;16:00:00;60;077472-1893;077472-1640;077472-1640;077472-1640;077472-1640;077472-1640;077472-1640;077472-1640;
08.04.09;Jason Smith;07:00:00;16:00:00;60;077472-1566;077472-1566;077472-1566;077472-1566;077472-1566;077472-1566 / 077472-860;077472-860;077472-860;
08.04.09;Justin Jansen Van Vuuren;07:00:00;16:00:00;60;077472-1895;077472-1895;077472-1895 / 077472-1586;077472-1586;077472-1586;077472-1586;077472-1586;077472-1586;
08.04.09;Thando Katywa;07:00:00;16:00:00;60;077353-0;077353-0;077353-0;077353-0;077353-0;077353-0;077353-0;077353-0 / 077353-0;
09.04.09;Nico Claassen;07:00:00;16:00:00;60;077353-2929 / 077251-1583;077251-1583;077251-1583;077251-1583 / 077251-1581;077251-1581 / 077472-1644;077472-1644;077472-1644;077472-1644;
09.04.09;Malcolm Vorster;07:00:00;16:00:00;60;077251-0;077251-0;077472-0;077472-0;077472-0;077472-0;077251-1125;077251-1125;
09.04.09;Graham Meyer;07:00:00;16:00:00;60;077251-1702;077251-1702;077251-1702;077251-1702;077251-1702;077598-0;077598-0;077598-0;
09.04.09;Andre Esterhuyse;07:00:00;16:00:00;60;077251-1585;077251-1585;077251-1585;077251-1585;077251-1585;077251-1585;077251-1585;077251-1585;077251-1373;
09.04.09;Ludumo Sankobe;09:00:00;16:00:00;60;077251- 0;077251- 0;077251- 0;077251- 0;077251- 0;077251- 0;
09.04.09;Paul Helliwell;07:00:00;16:00:00;60;077353-5452;077353-5452;077353-0;077353-0;077353-0;077353-0;077353-0;077353-0;
09.04.09;Michael Wells;07:00:00;16:00:00;60;077251-1688;077251-1688;077251-1688;077251-1688;077251-1688;077251-1688;077251-1690;077251-1690;
09.04.09;Pierre Jansen;
09.04.09;Brendan van Zyl;07:00:00;16:00:00;60;077472-1555;077472-1555;077472-1555;077472-1555;077472-1643;077472-1643;077472-1643;077472-1643;
09.04.09;Jason Smith;07:00:00;16:00:00;60;077472-1566;077472-1566;077472-1566;077472-1566;077472-1566;077472-1566;077472-1566;077472-1566;
09.04.09;Justin Jansen Van Vuuren;07:00:00;16:00:00;60;077472-1586;077472-1586;077472-1586;077472-1586;077472-1586;077472-1586;077472-1586 / 077472-1895;077472-1895;
09.04.09;Thando Katywa;07:00:00;16:00:00;60;077353-1;077353-1;077353-1;077353-0;077353-0;077353-0;077353-0;077353-0 / 077353-0;
10.04.09;Nico Claassen;07:00:00;16:00:00;0;077598-0;077598-0;077598-0;077598-0;077598-0;077598-0;077598-0;077598-0;077598-0;
10.04.09;Malcolm Vorster;07:00:00;16:00:00;0;077598-0;077598-0;077598-0;077598-0;077598-0;077598-0;077598-0;077598-0;077598-0;
10.04.09;Graham Meyer;07:00:00;16:00:00;60;077598-0;077598-0;077598-0;077598-0;077598-0;077598-0;077598-0;077598-0;
10.04.09;Andre Esterhuyse;07:00:00;16:00:00;60;077598-0;077598-0;077598-0;077598-0;077598-0;077598-0;077598-0;077598-0;
10.04.09;Ludumo Sankobe;07:00:00;16:00:00;60;077598-0;077598-0;077598-0;077598-0;077598-0;077598-0;077598-0;077598-0;
10.04.09;Paul Helliwell;07:00:00;16:00:00;60;077598-0;077598-0;077598-0;077598-0;077598-0;077598-0;077598-0;077598-0;
10.04.09;Michael Wells;07:00:00;16:00:00;60;077598-0;077598-0;077598-0;077598-0;077598-0;077598-0;077598-0;077598-0;
10.04.09;Pierre Jansen;
10.04.09;Brendan van Zyl;07:00:00;16:00:00;0;077598-0;077598-0;077598-0;077598-0;077598-0;077598-0;077598-0;077598-0;077598-0;
10.04.09;Jason Smith;07:00:00;16:00:00;60;
10.04.09;Justin Jansen Van Vuuren;07:00:00;16:00:00;60;077598-0;077598-0;077598-0;077598-0;077598-0;077598-0;077598-0;077598-0;
10.04.09;Thando Katywa;07:00:00;16:00:00;0;077598-0;077598-0;077598-0;077598-0;077598-0;077598-0;077598-0;077598-0;077598-0;
11.04.09;Nico Claassen;
11.04.09;Malcolm Vorster;
11.04.09;Graham Meyer;
11.04.09;Andre Esterhuyse;
11.04.09;Ludumo Sankobe;
11.04.09;Paul Helliwell;
11.04.09;Michael Wells;
11.04.09;Pierre Jansen;
11.04.09;Brendan van Zyl;
11.04.09;Jason Smith;
11.04.09;Justin Jansen Van Vuuren;
11.04.09;Thando Katywa;
12.04.09;Nico Claassen;
12.04.09;Malcolm Vorster;
12.04.09;Graham Meyer;
12.04.09;Andre Esterhuyse;
12.04.09;Ludumo Sankobe;
12.04.09;Paul Helliwell;
12.04.09;Michael Wells;
12.04.09;Pierre Jansen;
12.04.09;Brendan van Zyl;
12.04.09;Jason Smith;
12.04.09;Justin Jansen Van Vuuren;
12.04.09;Thando Katywa;
13.04.09;Nico Claassen;07:00:00;16:00:00;60;077598-0;077598-0;077598-0;077598-0;077598-0;077598-0;077598-0;077598-0;
13.04.09;Malcolm Vorster;07:00:00;16:00:00;0;077598-0;077598-0;077598-0;077598-0;077598-0;077598-0;077598-0;077598-0;077598-0;
13.04.09;Graham Meyer;07:00:00;16:00:00;0;077251-0;077251-0;077251-0;077251-0;077251-0;077251-0;077251-0;077251-0;077251-0;
13.04.09;Andre Esterhuyse;07:00:00;16:00:00;0;077598-0;077598-0;077598-0;077598-0;077598-0;077598-0;077598-0;077598-0;077598-0;
13.04.09;Ludumo Sankobe;07:00:00;16:00:00;0;077598-0;077598-0;077598-0;077598-0;077598-0;077598-0;077598-0;077598-0;077598-0;
13.04.09;Paul Helliwell;07:00:00;16:00:00;0;077598-0;077598-0;077598-0;077598-0;077598-0;077598-0;077598-0;077598-0;077598-0;
13.04.09;Michael Wells;07:00:00;16:00:00;60;077598-0;077598-0;077598-0;077598-0;077598-0;077598-0;077598-0;077598-0;
13.04.09;Pierre Jansen;
13.04.09;Brendan van Zyl;07:00:00;16:00:00;0;077598-0;077598-0;077598-0;077598-0;077598-0;077598-0;077598-0;077598-0;077598-0;
13.04.09;Jason Smith;07:00:00;16:00:00;60;077598-0;077598-0;077598-0;077598-0;077598-0;077598-0;077598-0;077598-0;
13.04.09;Justin Jansen Van Vuuren;07:00:00;16:00:00;60;077598-0;077598-0;077598-0;077598-0;077598-0;077598-0;077598-0;077598-0;
13.04.09;Thando Katywa;07:00:00;16:00:00;0;077598-0;077598-0;077598-0;077598-0;077598-0;077598-0;077598-0;077598-0;077598-0;
14.04.09;Nico Claassen;07:00:00;16:00:00;60;077353-0;077353-0;077353-0;077353-0;077353-0;077353-0;077353-2929;077472-781;
14.04.09;Malcolm Vorster;07:00:00;16:00:00;60;077251-0;077251-0;077251-0;077353-0;077353-0;077353-0;077353-0;077353-0;
14.04.09;Graham Meyer;07:00:00;16:00:00;60;077251-1702;077251-1702;077251-0;077251-0;077251-0;077251-0;077251-0;077251-0;
14.04.09;Andre Esterhuyse;07:00:00;16:00:00;60;077251-1585;077251-1585;077251-1585;077251-1585;077251-1585;077251-1585;077251-1585;077251-1585;
14.04.09;Ludumo Sankobe;07:00:00;16:00:00;60;077251- 0;077251- 0;077251- 0;077251- 0;077251- 0;077251- 0;077251- 0;077251- 0;
14.04.09;Paul Helliwell;07:00:00;16:00:00;60;077353-3082;077353-3082;077353-3082;077353-3082;077353-3082;077353-3082;077353-3082;077353-3082;
14.04.09;Michael Wells;07:00:00;16:00:00;60;077251-1688;077251-1688;077251-1688;077251-1688;077251-1688;077251-1688;077251-1690;077251-1690;
14.04.09;Pierre Jansen;
14.04.09;Brendan van Zyl;07:00:00;16:00:00;60;077472-1583;077472-1583;077472-1583;077472-1583;077472-1583;077472-1583;077472-1583;077472-1583;
14.04.09;Jason Smith;07:00:00;16:00:00;60;077472-1894;077472-1894 / 077472-1566;077472-1566;077472-1566;077472-1566;077472-1566;077472-1566;077472-1566;
14.04.09;Justin Jansen Van Vuuren;07:00:00;16:00:00;60;077472-1895;077472-1895;077472-1895 / 077472-1586;077472-1586;077472-1586;077472-1586;077472-1586;077472-1586;
14.04.09;Thando Katywa;07:00:00;16:00:00;60;077353-5450 / 077353-1;077353-1;077353-1;077353-1;077353-1;077353-1;077353-1;077353-1;
15.04.09;Nico Claassen;07:00:00;16:00:00;60;077353-3076;077353-3076;077353-3076;077251-0;077251-0;077251-0;077251-0;077251-0;
15.04.09;Malcolm Vorster;07:00:00;16:00:00;60;077251-0;077251-0;077251-0;077251-0;077251-1;077251-1;077251-1;077251-1;
15.04.09;Graham Meyer;07:00:00;16:00:00;60;077251-1573;077251-1573;077251-1573;077251-1573;077251-1573;077251-1573;077251-1573;077251-1573;
15.04.09;Andre Esterhuyse;07:00:00;16:00:00;60;077251-1585;077251-1585;077251-1585;077251-1585;077251-1585;077251-1585;077251-1373;077251-1373;
15.04.09;Ludumo Sankobe;07:00:00;16:00:00;60;077251-1372;077251-1372;077251-1372;077251-1372;077251-1372;077251-1372;077251-1372;077251-1372;
15.04.09;Paul Helliwell;07:00:00;16:00:00;0;077598-0;077598-0;077598-0;077598-0;077598-0;077598-0;077598-0;077598-0;077598-0;
15.04.09;Michael Wells;07:00:00;16:00:00;60;077251-1690;077251-1690;077251-1690;077251-1690;077251-1688;077251-1688;077251-1688;077251-1688;
15.04.09;Pierre Jansen;
15.04.09;Brendan van Zyl;07:00:00;16:00:00;60;077472-1567;077472-1567;077472-1567;077472-1567;077472-1567;077472-1567;077472-1567;077472-1567;
15.04.09;Jason Smith;07:00:00;16:00:00;60;077472-1894;077472-1894;077472-1566;077472-1566;077472-1566;077472-1566;077472-1566;077472-1566;
15.04.09;Justin Jansen Van Vuuren;07:00:00;16:00:00;60;077472-1895;077472-1895;077472-1586;077472-1586;077472-1586;077472-1586;077472-1586;077472-1586;
15.04.09;Thando Katywa;07:00:00;16:00:00;60;077353-6170 / 077251-0;077251-0;077251-0;077251-0;077353-3481;077353-3481;077353-3481;077353-3481;
16.04.09;Nico Claassen;07:00:00;16:00:00;60;077251-0;077251-0;077251-0;077251-0;077251-0;077251-0;077251-0;077251-0;
16.04.09;Malcolm Vorster;07:00:00;16:00:00;60;077251-1696;077251-1696;077251-1696;077251-1696;077251-1696;077251-1696;077251-1696;077251-1696;
16.04.09;Graham Meyer;07:00:00;16:00:00;60;077251-1573;077251-1573;077251-1573;077251-1573;077251-1573;077251-1573;077251-1573;077251-1573;
16.04.09;Andre Esterhuyse;07:00:00;16:00:00;60;077251-1585;077251-1585;077251-1585;077251-1585;077251-1585;077251-1585;077251-1585;077251-1585;
16.04.09;Ludumo Sankobe;07:00:00;16:00:00;60;077251-1372;077251-1372;077251-1372;077251-1372;077251-1372;077251-1372;077251-1372;077251-1372;
16.04.09;Paul Helliwell;07:00:00;16:00:00;60;077353-3087;077353-3087;077353-3087;077353-3087;077353-3087;077353-3087;077353-3087;077353-3087;
16.04.09;Michael Wells;07:00:00;16:00:00;60;077251-1688;077251-1688;077251-1688;077251-1690;077251-1690;077251-1690;077251-1690;077251-1690;
16.04.09;Pierre Jansen;
16.04.09;Brendan van Zyl;07:00:00;16:00:00;60;077472-1567;077472-1567;077472-1567;077472-1567;077472-1567;077472-1587;077472-1587;077472-1893;
16.04.09;Jason Smith;07:00:00;16:00:00;60;077472-1894;077472-1894 / 077472-1566;077472-1566;077472-1566;077472-1566;077472-1566;077472-1566;077472-1566;
16.04.09;Justin Jansen Van Vuuren;07:00:00;16:00:00;60;077472-1895;077472-1895 / 077472-1586;077472-1586;077472-1586;077472-1586;077472-1586;077472-1586;077472-1586;
16.04.09;Thando Katywa;07:00:00;16:00:00;60;077353-2;077353-2;077353-2;077353-2;077353-2;077353-2;077353-2;077353-2 / 077353-6170;
17.04.09;Nico Claassen;07:00:00;16:00:00;60;077251-0;077251-0;077251-0;077251-0;077251-0;077251-0;077251-1545;077353-2929;
17.04.09;Malcolm Vorster;07:00:00;16:00:00;60;077251-1696;077251-1696;077251-1696;077251-1696;077251-1696;077251-1696;077251-1696 / 077251-1125;077251-1125;
17.04.09;Graham Meyer;07:00:00;16:00:00;60;077251-1371;077251-1224;077251-1224;077251-1224;077251-1;077251-1;077251-1;077251-1;
17.04.09;Andre Esterhuyse;07:00:00;16:00:00;60;077251-1373;077251-1373 / 077251-0;077251-0;077251-0;077251-0;077251-0;077251-0;077251-0;
17.04.09;Ludumo Sankobe;07:00:00;16:00:00;60;077251-1654;077251-1654;077251-1654;077251-1654;077251-1654;077251-1654;077251-1654 / 077251-1372;077251-1372;
17.04.09;Paul Helliwell;07:00:00;16:00:00;60;077353-3083;077353-3083;077353-3083;077353-3083;077353-3083;077353-3083;077353-3083 / 077251-1374;077251-1374;
17.04.09;Michael Wells;07:00:00;16:00:00;60;077251-1688;077251-1688;077251-1690;077251-1690;077251-1690;077251-1690;077251-1690;077251-1375;
17.04.09;Pierre Jansen;
17.04.09;Brendan van Zyl;07:00:00;16:00:00;60;077472-1587;077472-1587;077472-1587;077472-1587;077472-1587;077472-1587;077472-1587;077472-1587;
17.04.09;Jason Smith;07:00:00;16:00:00;60;077472-1566;077472-1566;077472-1566;077472-1566;077472-1566;077472-1566;077472-1566;077472-1566;
17.04.09;Justin Jansen Van Vuuren;07:00:00;16:00:00;60;077472-1586;077472-1586;077472-1586;077472-1586;077472-1586;077472-1586;077472-1586 / 077472-1895;077472-1895;
17.04.09;Thando Katywa;07:00:00;16:00:00;60;077353-3481;077353-3481;077353-1;077353-6170;077353-6170;077353-2;077353-2;077353-3;
18.04.09;Nico Claassen;
18.04.09;Malcolm Vorster;
18.04.09;Graham Meyer;
18.04.09;Andre Esterhuyse;
18.04.09;Ludumo Sankobe;
18.04.09;Paul Helliwell;
18.04.09;Michael Wells;
18.04.09;Pierre Jansen;
18.04.09;Brendan van Zyl;07:00:00;16:00:00;60;077472-1567;077472-1567;077472-1567;077472-1567;077472-1567;077472-1567;077472-1567;077472-1567;
18.04.09;Jason Smith;
18.04.09;Justin Jansen Van Vuuren;
18.04.09;Thando Katywa;
19.04.09;Nico Claassen;
19.04.09;Malcolm Vorster;
19.04.09;Graham Meyer;
19.04.09;Andre Esterhuyse;
19.04.09;Ludumo Sankobe;
19.04.09;Paul Helliwell;
19.04.09;Michael Wells;
19.04.09;Pierre Jansen;
19.04.09;Brendan van Zyl;
19.04.09;Jason Smith;
19.04.09;Justin Jansen Van Vuuren;
19.04.09;Thando Katywa;
20.04.09;Nico Claassen;07:00:00;16:00:00;60;077353-6237;077353-6237;077353-6237;077353-6237;077353-6237;077353-6237;077353-6237;077353-6237;
20.04.09;Malcolm Vorster;07:00:00;16:00:00;60;077251-1696;077251-1696;077251-1696;077251-1696;077251-1696;077251-1696;077251-1696;077251-1696;
20.04.09;Graham Meyer;07:00:00;16:00:00;60;077353-0;077353-0;077353-0;077353-0;077353-0;077353-0;077353-0;077353-0;
20.04.09;Andre Esterhuyse;07:00:00;16:00:00;0;077598-0;077598-0;077598-0;077598-0;077598-0;077598-0;077598-0;077598-0;077598-0;
20.04.09;Ludumo Sankobe;07:00:00;16:00:00;60;077251-1662;077251-1662;077251-1662;077251-1662;077251-1662;077251-1662;077251-1662;077251-1662;
20.04.09;Paul Helliwell;07:00:00;16:00:00;60;077251-1674;077251-1674;077251-1674;077251-1674;077251-1674;077251-1674;077251-1674;077251-1674;
20.04.09;Michael Wells;07:00:00;16:00:00;60;077251-1688;077251-1688;077251-1688;077251-1690;077251-1690;077251-1690;077251-0;077251-0;
20.04.09;Pierre Jansen;
20.04.09;Brendan van Zyl;07:00:00;16:00:00;60;077472-1587;077472-1587;077472-1643;077472-1643;077472-1634;077472-1634;077472-1640;077472-1893;
20.04.09;Jason Smith;07:00:00;16:00:00;60;077472-1627;077472-1627;077472-1627;077472-1627;077472-1627;077472-1627;077472-1627;077472-1627;
20.04.09;Justin Jansen Van Vuuren;07:00:00;16:00:00;60;077472-1586;077472-1586 / 077472-1588;077472-1588;077472-1588;077472-1588 / 077472-1895;077472-1646;077472-1646;077472-1646;
20.04.09;Thando Katywa;07:00:00;16:00:00;60;077353-6231;077353-6231;077353-6231;077353-6231;077353-6231;077353-6231;077353-6231;077353-6231 / 077353-5450;
21.04.09;Nico Claassen;07:00:00;16:00:00;60;077353-6237;077353-6237;077353-6237;077353-6237;077353-6237;077353-6237;077353-2929;077353-2929;
21.04.09;Malcolm Vorster;07:00:00;16:00:00;60;077251-1696;077251-1696;077251-1696;077251-1696;077251-1696;077251-1696;077251-1696;077251-1696;
21.04.09;Graham Meyer;07:00:00;16:00:00;60;077353-1;077353-1;077353-1;077353-1;077353-1;077353-1;077353-1;077353-1;
21.04.09;Andre Esterhuyse;07:00:00;16:00:00;60;077251-1693;077251-1693;077251-1693;077251-1373;077251-1373;077251-1373;077251-1373;077251-1373;
21.04.09;Ludumo Sankobe;07:00:00;16:00:00;60;077353-1087;077353-1087;077353-1087;077353-1087;077353-1087;077353-1087;077353-1087;077353-1087;
21.04.09;Paul Helliwell;07:00:00;16:00:00;60;077251-1677;077251-1677;077251-1677;077251-1677;077251-1677;077251-1677;077251-1677;077251-1677;
21.04.09;Michael Wells;07:00:00;16:00:00;60;077251-1691;077251-1691;077251-1691;077251-1691;077251-1691;077251-1691;077251-1691;077251-1691;
21.04.09;Pierre Jansen;
21.04.09;Brendan van Zyl;07:00:00;16:00:00;60;077472-1893;077472-1647;077472-1647;077472-1647;077472-1647;077472-1647;077472-1647;077472-1647;
21.04.09;Jason Smith;07:00:00;16:00:00;60;077472-1627;077472-1627;077472-1627;077472-1627;077472-1627;077472-1627;077472-1627;077472-1627;
21.04.09;Justin Jansen Van Vuuren;07:00:00;16:00:00;60;077472-1646;077472-1646;077472-1646;077472-1646;077472-1646;077472-1646;077472-1646;077472-1646;
21.04.09;Thando Katywa;07:00:00;16:00:00;60;077353-3482;077353-3482;077353-3482;077353-3482;077353-6231;077353-6231;077353-6231 / 077353-5450;077353-5450;
22.04.09;Nico Claassen;07:00:00;16:00:00;60;077598-0;077598-0;077598-0;077598-0;077598-0;077598-0;077598-0;077598-0;
22.04.09;Malcolm Vorster;07:00:00;16:00:00;0;077598-0;077598-0;077598-0;077598-0;077598-0;077598-0;077598-0;077598-0;077598-0;
22.04.09;Graham Meyer;07:00:00;16:00:00;60;077598-0;077598-0;077598-0;077598-0;077598-0;077598-0;077598-0;077598-0;
22.04.09;Andre Esterhuyse;07:00:00;16:00:00;0;077598-0;077598-0;077598-0;077598-0;077598-0;077598-0;077598-0;077598-0;077598-0;
22.04.09;Ludumo Sankobe;07:00:00;16:00:00;0;077251- 0;077251- 0;077251- 0;077251- 0;077251- 0;077251- 0;077251- 0;077251- 0;077251- 0;
22.04.09;Paul Helliwell;07:00:00;16:00:00;0;077598-0;077598-0;077598-0;077598-0;077598-0;077598-0;077598-0;077598-0;077598-0;
22.04.09;Michael Wells;07:00:00;16:00:00;60;077598-0;077598-0;077598-0;077598-0;077598-0;077598-0;077598-0;077598-0;
22.04.09;Pierre Jansen;
22.04.09;Brendan van Zyl;07:00:00;16:00:00;0;077598-0;077598-0;077598-0;077598-0;077598-0;077598-0;077598-0;077598-0;077598-0;
22.04.09;Jason Smith;07:00:00;16:00:00;1;077598-0;077598-0;077598-0;077598-0;077598-0;077598-0;077598-0;077598-0;077598-0;
22.04.09;Justin Jansen Van Vuuren;07:00:00;16:00:00;60;077598-0;077598-0;077598-0;077598-0;077598-0;077598-0;077598-0;077598-0;
22.04.09;Thando Katywa;07:00:00;16:00:00;0;077598-0;077598-0;077598-0;077598-0;077598-0;077598-0;077598-0;077598-0;077598-0;
23.04.09;Nico Claassen;07:00:00;16:00:00;60;077353-6237;077353-6237;077353-6237;077353-6237;077353-6237;077353-6237;077353-6237;077353-6237;
23.04.09;Malcolm Vorster;07:00:00;16:00:00;60;077251-1696;077251-1696;077251-1696;077251-1696;077251-1696;077251-1696;077251-1696;077251-1696;
23.04.09;Graham Meyer;07:00:00;16:00:00;60;077353-2;077353-2;077353-2;077353-2;077353-2;077353-2;077353-2;077353-2;
23.04.09;Andre Esterhuyse;07:00:00;16:00:00;60;077251-1373;077251-1373;077251-1373;077251-1373;077251-1373;077251-1373;077251-1373;077251-1373;
23.04.09;Ludumo Sankobe;07:00:00;16:00:00;60;077353-1087;077353-1087;077353-1087;077353-1087;077353-1087;077353-1087;077353-1087;077353-1087;
23.04.09;Paul Helliwell;07:00:00;16:00:00;60;077251-1663;077251-1663;077251-1663;077251-1663;077251-1663;077251-1663;077251-1663;077251-1663;
23.04.09;Michael Wells;07:00:00;16:00:00;60;077251-1691;077251-1691;077251-1691;077251-1691;077251-1;077251-1;077251-1;077251-1;
23.04.09;Pierre Jansen;
23.04.09;Brendan van Zyl;07:00:00;16:00:00;60;077472-1647;077472-1647;077472-1647;077472-1647;077472-1647;077472-1647;077472-1647;077472-1893;
23.04.09;Jason Smith;07:00:00;16:00:00;60;077472-1627;077472-1627;077472-1627;077472-1627;077472-1627;077472-1627;077472-1627;077472-1627;
23.04.09;Justin Jansen Van Vuuren;07:00:00;16:00:00;60;077472-1646;077472-1646;077472-1646;077472-1646;077472-1646;077472-1646;077472-1646;077472-1646;
23.04.09;Thando Katywa;07:00:00;16:00:00;60;077353-3482;077353-3482;077353-3482;077353-3482;077353-3482;077353-5450;077353-6208;077353-6208;
24.04.09;Nico Claassen;07:00:00;16:00:00;60;077353-6237;077353-6237;077353-6237;077353-6237;077353-6237;077353-6237;077353-6237;077353-6237;
24.04.09;Malcolm Vorster;07:00:00;16:00:00;60;077251-1696;077251-1696;077251-1696;077251-1696;077251-1696;077251-1696;077251-1696;077251-1696;
24.04.09;Graham Meyer;07:00:00;16:00:00;60;077353-2;077353-2;077353-2;077353-2;077353-2;077353-2;077353-2;077353-2;
24.04.09;Andre Esterhuyse;07:00:00;16:00:00;60;077251-1585;077251-1585;077251-1585;077251-1585;077251-1585;077251-1585;077251-1585;077251-1585;
24.04.09;Ludumo Sankobe;07:00:00;16:00:00;60;077353-1087;077353-1087;077353-1087;077353-1087;077353-1087;077353-1087;077353-1087;077353-1087;
24.04.09;Paul Helliwell;07:00:00;16:00:00;60;077251-1659;077251-1659;077251-1659;077251-1659;077251-1659;077251-1659;077251-1659;077251-1659;
24.04.09;Michael Wells;07:00:00;16:00:00;60;077251-1691;077251-1691;077251-1691;077251-1;077251-1;077251-1;077251-1688;077251-1688;
24.04.09;Pierre Jansen;
24.04.09;Brendan van Zyl;07:00:00;16:00:00;60;077472-1893;077472-1647;077472-1647;077472-1647;077472-1647;077472-1647;077472-1647;077472-1647;
24.04.09;Jason Smith;07:00:00;16:00:00;60;077472-1627;077472-1627;077472-1627;077472-1627;077472-1627;077472-1627;077472-1627;077472-1627;
24.04.09;Justin Jansen Van Vuuren;07:00:00;16:00:00;60;077472-1646;077472-1646;077472-1646;077472-1646;077472-1646;077472-1646;077472-1646;077472-1646;
24.04.09;Thando Katywa;07:00:00;16:00:00;60;077353-6208;077353-6208;077353-6208;077353-6208;077353-6208;077353-6208;077353-6208;077353-5450;
25.04.09;Nico Claassen;
25.04.09;Malcolm Vorster;
25.04.09;Graham Meyer;
25.04.09;Andre Esterhuyse;
25.04.09;Ludumo Sankobe;
25.04.09;Paul Helliwell;
25.04.09;Michael Wells;
25.04.09;Pierre Jansen;
25.04.09;Brendan van Zyl;
25.04.09;Jason Smith;
25.04.09;Justin Jansen Van Vuuren;
25.04.09;Thando Katywa;
26.04.09;Nico Claassen;
26.04.09;Malcolm Vorster;
26.04.09;Graham Meyer;
26.04.09;Andre Esterhuyse;
26.04.09;Ludumo Sankobe;
26.04.09;Paul Helliwell;
26.04.09;Michael Wells;
26.04.09;Pierre Jansen;
26.04.09;Brendan van Zyl;
26.04.09;Jason Smith;
26.04.09;Justin Jansen Van Vuuren;
26.04.09;Thando Katywa;
27.04.09;Nico Claassen;07:00:00;16:00:00;0;077598-0;077598-0;077598-0;077598-0;077598-0;077598-0;077598-0;077598-0;077598-0;
27.04.09;Malcolm Vorster;
27.04.09;Graham Meyer;07:00:00;16:00:00;60;077251-0;077251-0;077251-0;077251-0;077251-0;077251-0;077251-0;077251-0;
27.04.09;Andre Esterhuyse;07:00:00;16:00:00;0;077598-0;077598-0;077598-0;077598-0;077598-0;077598-0;077598-0;077598-0;077598-0;
27.04.09;Ludumo Sankobe;07:00:00;16:00:00;60;077251- 0;077251- 0;077251- 0;077251- 0;077251- 0;077251- 0;077251- 0;077251- 0;
27.04.09;Paul Helliwell;07:00:00;16:00:00;0;077598-0;077598-0;077598-0;077598-0;077598-0;077598-0;077598-0;077598-0;077598-0;
27.04.09;Michael Wells;07:00:00;16:00:00;60;077598-0;077598-0;077598-0;077598-0;077598-0;077598-0;077598-0;077598-0;
27.04.09;Pierre Jansen;
27.04.09;Brendan van Zyl;07:00:00;16:00:00;0;077598-0;077598-0;077598-0;077598-0;077598-0;077598-0;077598-0;077598-0;077598-0;
27.04.09;Jason Smith;07:00:00;16:00:00;60;077598-0;077598-0;077598-0;077598-0;077598-0;077598-0;077598-0;077598-0;
27.04.09;Justin Jansen Van Vuuren;07:00:00;16:00:00;60;077598-0;077598-0;077598-0;077598-0;077598-0;077598-0;077598-0;077598-0;
27.04.09;Thando Katywa;07:00:00;16:00:00;0;077598-0;077598-0;077598-0;077598-0;077598-0;077598-0;077598-0;077598-0;077598-0;
28.04.09;Nico Claassen;07:00:00;16:00:00;60;077251-1793;077251-1793;077251-1793;077251-1793;077251-1793;077251-1793;077251-1793;077251-1793;
28.04.09;Malcolm Vorster;07:00:00;16:00:00;60;077251-1696;077251-1696;077251-1696;077251-0;077251-0;077251-0;077251-0;077251-0;
28.04.09;Graham Meyer;07:00:00;16:00:00;60;07;07;07;07;07;07;07;077251-1371;
28.04.09;Andre Esterhuyse;07:00:00;16:00:00;60;077251-1693;077251-1693;077251-1693;077251-1693;077251-1693;077251-1693;077251-1693;077251-1693;
28.04.09;Ludumo Sankobe;07:00:00;16:00:00;60;077353-6249;077353-6249;077353-6249;077353-6249;077353-6249;077353-6249;077353-6249;077353-6249;
28.04.09;Paul Helliwell;07:00:00;16:00:00;60;077373-0;077373-0;077373-0;077373-0;077373-0;077373-0;077251-1704;077251-1704;
28.04.09;Michael Wells;07:00:00;16:00:00;60;077251-1671;077251-1671;077251-1671;077251-1671;077251-1671;077251-0;077251-0;077251-1673;
28.04.09;Pierre Jansen;
28.04.09;Brendan van Zyl;07:00:00;16:00:00;60;077472-1893;077472-1640;077472-1640;077472-1640;077472-1640;077472-1640;077472-1640;077472-1640 / 077472-859;
28.04.09;Jason Smith;07:00:00;16:00:00;60;077472-860;077472-860;077472-860;077472-860;077472-860;077472-860;077472-860;077472-860;
28.04.09;Justin Jansen Van Vuuren;07:00:00;16:00:00;60;077472-1646;077472-1646;077472-1646;077472-1646;077472-1646;077472-1646;077472-1646;077472-1646;
28.04.09;Thando Katywa;07:00:00;16:00:00;60;077353-0 / 077353-6208;077353-6208;077353-6208;077353-6208;077353-6208 / 077353-4048;077353-4048;077353-4048;077353-4048;
29.04.09;Nico Claassen;07:00:00;16:00:00;60;077251-1793;077251-1793;077251-1793;077251-1793;077251-1793;077251-1793;077251-1793;077251-1793;
29.04.09;Malcolm Vorster;07:00:00;16:00:00;60;077251-0;077251-0;077251-0;077251-0;077251-0;077251-0;077251-0;077251-0;
29.04.09;Graham Meyer;07:00:00;16:00:00;60;077251-1721;077251-1721;077251-1721;077251-1721;077251-1721;077251-1721;077251-1721;077251-1721 / 077251-1371;
29.04.09;Andre Esterhuyse;07:00:00;16:00:00;60;077251-1693;077251-1693;077251-1693;077251-1693;077251-1693;077251-1693;077251-1693;077251-1693;
29.04.09;Ludumo Sankobe;07:00:00;16:00:00;60;077251-1664;077251-1664;077251-1664;077251-1664;077251-1664;077251-1664;077251-1664;077251-1664;
29.04.09;Paul Helliwell;07:00:00;16:00:00;60;077251-1704;077251-1704;077251-1704;077251-1704;077251-1704;077251-1704;077251-1374;077251-1374;
29.04.09;Michael Wells;07:00:00;16:00:00;60;077251-1688;077251-1688;077251-1691;077251-1671;077251-1671;077251-1678;077251-1678;077251-1678;
29.04.09;Pierre Jansen;
29.04.09;Brendan van Zyl;07:00:00;16:00:00;60;077472-1893;077472-1647;077472-1647;077472-1647;077472-1647;077472-1647;077472-1647;077472-1647;
29.04.09;Jason Smith;07:00:00;16:00:00;60;077472-860;077472-860;077472-860;077472-860;077472-860;077472-860;077472-860;077472-860;
29.04.09;Justin Jansen Van Vuuren;07:00:00;16:00:00;60;077472-1646;077472-1646;077472-1646;077472-1646;077472-1646;077472-1646;077472-1646;077472-1646;
29.04.09;Thando Katywa;07:00:00;16:00:00;60;077353-6170;077353-4048;077353-4048;077353-4048;077353-4048;077353-4048;077353-4048;077353-4048 / 077353-0;
30.04.09;Nico Claassen;07:00:00;16:00:00;60;077251-1793;077251-1793;077251-1793;077251-1793;077251-1793;067527-2875;067527-2875;067527-2875;
30.04.09;Malcolm Vorster;07:00:00;16:00:00;60;077251-0;077251-0;077251-0;077251-0;077251-0;077251-0;077251-0;077251-0;
30.04.09;Graham Meyer;07:00:00;16:00:00;60;077251-1721;077251-1721;077251-1721;077353-1;077353-1;077353-1;077353-1;077353-1;
30.04.09;Andre Esterhuyse;07:00:00;16:00:00;60;077251-1693;077251-1693;077251-1693;077251-1693;077251-1693;077251-1693;077251-1693;077251-1693;
30.04.09;Ludumo Sankobe;07:00:00;16:00:00;60;077251-1666;077251-1666;077251-1666;077251-1666;077251-1666;077251-1666;077251-1666;077251-1666;
30.04.09;Paul Helliwell;07:00:00;16:00:00;60;077251-1;077251-1;077251-1;077251-1;077251-1;077251-1;077251-1;077251-1704;
30.04.09;Michael Wells;07:00:00;16:00:00;60;077251-1688;077251-1688;077251-1688;077251-1690;077251-1690;077251-1691;077251-1691;077251-1691;
30.04.09;Pierre Jansen;
30.04.09;Brendan van Zyl;07:00:00;16:00:00;60;077472-1893;077472-1659;077472-1659;077472-1659;077472-1659;077472-1659;077472-1659;077472-1659;
30.04.09;Jason Smith;07:00:00;16:00:00;60;077472-860;077472-860;077472-860;077472-860;077472-860;077472-860;077472-860;077472-860;
30.04.09;Justin Jansen Van Vuuren;07:00:00;16:00:00;60;077472-1646;077472-1646;077472-1646;077472-1646;077472-1646;077472-1646;077472-1646;077472-1646;
30.04.09;Thando Katywa;07:00:00;16:00:00;60;077353-4048;077353-4048;077353-4048;077353-4048;077353-4048;077353-4048;077353-4048;077353-4048 / 077353-6170;