"09.11.09","1","077353","0","120","Codierung","","55"," SWSG Post Coding Job Implementation","07:00","16:00","8","60",
"10.11.09","2","077353","0","120","Codierung","","70","SWSG Post Coding Job Implementation","07:00","16:00","8","60",
"11.11.09","3","077353","0","120","Codierung","","85","SWSG Post Coding Job Implementation - Also addded more sevices for swsg in ODX Auth","07:00","16:00","8","60",
"12.11.09","4","077353","10043","120","Codierung","","100","5368: E1 M5: SWSG: SG-Tausch: ODX-Bedatung","07:00","16:00","1","60",
"12.11.09","4","077353","11085","140","Test","","100","5361: E1 M5: SWSG: Gen ODX-Bedat: Kodier: Modultest","","","1","0",
"12.11.09","4","077353","11084","110","Engineering","","100","	 5361: E1 M5: SWSG: Gen ODX-Bedat: Kodier: TestSpec + erw. Sim","","","1","0",
"12.11.09","4","077353","0","120","Codierung","","95","SWSG Post Coding Job Implementation","","","5","0",
"13.11.09","5","077353","0","120","Codierung","","100","SWSG Post Coding Job Implementation","07:00","16:00","7","60",
"13.11.09","5","077353","11086","181","Fehlerbes. vor Ausl. (Bugzilla)","","100","5361: E1 M5: SWSG: Gen ODX-Bedat: Kodier: Bugfixing","","","1","0",
