"16.11.09","1","077353","2946","110","Engineering","","0","	Common project tasks and installing Pidt","07:00","16:00","2","60",
"16.11.09","1","077353","6170","110","Engineering","","0","8185: Warten auf Authoring (Performance-Probleme bei Ausführung)","","","1,5","0",
"16.11.09","1","077353","10502","181","Fehlerbes. vor Ausl. (Bugzilla)","","0","Fixing Gateway CAN: Flashen bugs","","","4,5","0",
"16.11.09","1","077353","11238","120","Codierung","","100","5806: E1 M5: CDR23-GW: MOST Sollverbauliste: Implementierung","","","0","0",
"17.11.09","2","077353","6170","110","Engineering","","0","8185: Warten auf Authoring (Performance-Probleme bei Ausführung)","07:00","16:00","1","60",
"17.11.09","2","077353","2946","110","Engineering","","0","Common project tasks","","","0,7","0",
"17.11.09","2","077353","11313","120","Codierung","","80","From s42: 5624: E1 M5: PCM2-Bose: SG-Tausch: Implementierung","","","6,3","0",
"18.11.09","3","077353","11313","120","Codierung","","100","From s42: 5624: E1 M5: PCM2-Bose: SG-Tausch: Implementierung","07:00","16:00","4","60",
"18.11.09","3","077353","6170","110","Engineering","","0","	8185: Warten auf Authoring (Performance-Probleme bei Ausführung)","","","1","0",
"18.11.09","3","077353","11587","170","Schulung","","0","8501: E1 M5: Assisting colleagues","","","0,5","0",
"18.11.09","3","077353","2946","110","Engineering","","0","Common project tasks","","","0,5","0",
"18.11.09","3","077353","10502","181","Fehlerbes. vor Ausl. (Bugzilla)","","0","Fixing bug 17227","","","2","0",
"19.11.09","4","077353","2946","110","Engineering","","0","Common project tasks and configuring Pidt","07:00","16:00","1,5","60",
"19.11.09","4","077353","11078","181","Fehlerbes. vor Ausl. (Bugzilla)","","100"," 5346: E1 M5: Kombi: SG-Tausch: Bugfixing zum Modultest","","","1","0",
"19.11.09","4","077353","10967","181","Fehlerbes. vor Ausl. (Bugzilla)","","100","5285: E1 M5: RDK: SG-Tausch: Bugfixing zum Modultest","","","3,5","0",
"19.11.09","4","077353","11595","120","Codierung","","100","6008: E1 M5: Gateway CAN (24.100): Gateway CAN: Flashen","","","2","0",
"20.11.09","5","077353","6170","110","Engineering","","0"," 8185: Warten auf Authoring (Performance-Probleme bei Ausführung)","07:00","16:00","1","60",
"20.11.09","5","077353","10502","181","Fehlerbes. vor Ausl. (Bugzilla)","","0","Fixing SWSG bugs","","","3","0",
"20.11.09","5","077353","11311","110","Engineering","","0","From s42: 5624: E1 M5: PCM2-Bose: SG-Tausch: Testspec + erw. Sim.","","","3,5","0",
"20.11.09","5","077353","2946","110","Engineering","","0","Common project tasks","","","0,5","0",
