"02.03.09","1","077472","1321","120","Codierung","","0","F141 NCM CTS implementation","7:00","16:00","8","60",
"03.03.09","2","077472","1318","120","Codierung","","0","F141 NCM simulation creation","7:00","11:00","4","0",
"03.03.09","2","077472","1321","120","Codierung","","0","F141 NCM CTS implementation","11:00","16:00","4","60",
"04.03.09","3","077472","1321","120","Codierung","","0","F141 NCM CTS implementation","7:00","16:00","8","60",
"05.03.09","4","077472","1321","120","Codierung","","0","F141 NCM CTS implementation","7:00","16:00","8","60",
"06.03.09","5","077472","1321","120","Codierung","","0","F141 NCM CTS implementation","7:00","16:00","8","60",
