"27.07.09","1","077353","0","110","Engineering","","0","Assisting colleague with simulation creation","07:00","16:00","8","60",
"28.07.09","2","077472","785","110","Engineering","","0","Assisting colleagues with NCR simulation creation","07:00","16:00","4","60",
"28.07.09","2","077353","0","110","Engineering","","0","Assisting colleague with simulation creation","","","4","0",
"29.07.09","3","077472","785","110","Engineering","","0","Assisting colleagues with simulation creation","07:00","16:00","8","60",
"30.07.09","4","077472","785","110","Engineering","","0","Assisting colleagues with NCR simulation creation","07:00","16:00","8","60",
"31.07.09","5","077472","785","110","Engineering","","0","Assiting colleagues with NCR simulation creation","07:00","16:00","8","60",
