"24.08.09","1","077353","9828","120","Codierung","","90","5285: E1 M5: RDK: SG-Tausch: ODX-Bedatung - Further configuration after Job fix.","07:00","16:00","3","60",
"24.08.09","1","077353","1913","110","Engineering","","0","Waiting for Builderchecker for various E1 test ODX builds.","","","3","0",
"24.08.09","1","077353","2938","110","Engineering","","0","Assisting colleagues and SVN maintenance","","","2","0",
"25.08.09","2","077353","9828","120","Codierung","","90","5285: E1 M5: RDK: SG-Tausch: ODX-Bedatung - Verifying in PIDT","07:00","16:00","1","0",
"25.08.09","2","077353","1913","110","Engineering","","0","Application server down, waiting for ODX builds","","","3","0",
"25.08.09","2","077353","2938","110","Engineering","","0","Import + check-in of E1 GW CAN Wake-Up Guardian into dsa18a","","","1","0",
"25.08.09","2","077353","2938","110","Engineering","","0","Assisting colleagues with Authroing problems - scripts not executing, etc.","","","3","0",
"25.08.09","2","077353","2929","110","Engineering","","0","Project plan discussions, new interface deiscussions, meeting with S4 management.","","","1","0",
"26.08.09","3","077353","9828","120","Codierung","","100","	 5285: E1 M5: RDK: SG-Tausch: ODX-Bedatung - Task complete","07:00","16:00","1","60",
"26.08.09","3","077353","0","120","Codierung","","70","ODX Single ECU Job - Job_LangeCodierungByteReplacement_Write - Implementation. Bug 15144","","","3","0",
"26.08.09","3","077353","1913","110","Engineering","","0","ODX project build time","","","0,5","0",
"26.08.09","3","077353","2938","110","Engineering","","0","SVN updates + documentation, assisting colleagues, Eclipse setup.","","","3,5","0",
"27.08.09","4","077353","10348","120","Codierung","","10","5905: E1 M5: PCM2-TV-Tuner: Feldstärke o. verstellung (GESiC): ODX-Bedatung - Quick analysis","07:00","16:00","0,2","60",
"27.08.09","4","077353","0","120","Codierung","","90","SingleEcuJob - Bug 15144 - finished adding changes to E1_rdk.odx.","","","3","0",
"27.08.09","4","09.00052","253","170","Schulung","","0","Self learning SingleECUJob creation","","","2","0",
"27.08.09","4","077353","2938","110","Engineering","","0","Assising colleagues with various problems.","","","2,8","0",
"28.08.09","5","077353","0","120","Codierung","","90","SingleECUJob - Bug 15144 - Converting to new CommonLibrary, various code fixes","07:00","16:00","3","60",
"28.08.09","5","09.00052","253","170","Schulung","","0","Learning new CommonLibrary methods and code.","","","1","0",
"28.08.09","5","077353","1913","110","Engineering","","0","ODX builds","","","0,5","0",
"28.08.09","5","077353","2929","110","Engineering","","0","Communication over various task problems","","","1","0",
"28.08.09","5","077353","2929","110","Engineering","","0","Timesheet","","","0,5","0",
"28.08.09","5","077472","781","110","Engineering","","0","Ferrari DTC's discussion","","","0,2","0",
"28.08.09","5","077353","2938","110","Engineering","","0","Assisintg colleagues with various issues.","","","1,8","0",
