"23.02.09","1","077353","1916","110","Engineering ","","0","Waiting For Authoring ","7:00","14:00","7","0",
"23.02.09","1","077353","1087","110","Engineering ","","0","G1 Pasm: Implementing G1 Pasm CTS","14:00","16:00","1","60",
"24.02.09","2","077353","1916","110","Engineering ","","0","Waiting For Authoring","7:00","9:00","2","0",
"24.02.09","2","077353","1087","110","Engineering ","","0","G1 Pasm: Implementing G1 Pasm CTS","9:00","16:00","6","60",
"25.02.09","3","077353","1916","110","Engineering ","","0","Waiting For Authoring","7:00","14:00","7","0",
"25.02.09","3","077353","1087","110","Engineering ","","0","G1 Pasm: Implementing G1 Pasm CTS","14:00","16:00","1","60",
"26.02.09","4","077353","1916","110","Engineering ","","0","Waiting For Authoring","7:00","8:00","1","0",
"26.02.09","4","077353","1087","110","Engineering ","","0","","8:00","16:00","7","60",
"27.02.09","5","077353","1916","110","Engineering ","","0","Waiting For Authoring","7:00","8:00","1","0",
"27.02.09","5","077353","1087","110","Engineering ","","0","G1 Pasm: Debbugging G1 Pasm CTS","8:00","16:00","7","60",
