"28.09.09","1","077353","9873","140","Test","","40","Performing module test for wischer","07:00","16:00","8","60",
"29.09.09","2","077353","9873","140","Test","","80","Performing module test for wischer","07:00","16:00","8","60",
"30.09.09","3","077353","9873","140","Test","","100","Performing module test for wischer","07:00","16:00","7","60",
"30.09.09","3","077353","9869","110","Engineering","","10","Test spec and simulation for wischer actuator","","","1","0",
"01.10.09","4","077353","9869","110","Engineering","","10","creating test spec and simulation for wischer actuator","07:00","16:00","8","60",
"02.10.09","5","077353","10461","110","Engineering","","10","Creating PH document for PCM","07:00","16:00","8","60",
