"21.09.09","1","077353","9872","110","Engineering","","20","Creating simulation for ECU Wischer Codierung.","07:00","16:00","8","60",
"22.09.09","2","077353","9872","110","Engineering","","100","Creating test specification and simulation","07:00","16:00","7","60",
"22.09.09","2","077353","9873","140","Test","","5","Wischer Moduletest","","","1","0",
"23.09.09","3","077353","9873","140","Test","","5","Performing module test for wischer","07:00","16:00","8","60",
"24.09.09","4","077598","0","910","Urlaub","","0","Holiday","07:00","16:00","8","60",
"25.09.09","5","077353","9873","140","Test","","10","Performing module test for wischer","07:00","16:00","8","60",
