"27.04.09","1","077598","0","910","Urlaub","","0","Holiday","07:00","16:00","8","60",
"28.04.09","2","077472","1646","140","Test","","40","F141 NCM MY08 Test vs Simulation","07:00","16:00","8","60",
"29.04.09","3","077472","1646","140","Test","","55","F141 NCM MY08 Test vs Simulation","07:00","16:00","8","60",
"30.04.09","4","077472","1646","140","Test","","65","F141 NCM MY08 Test vs Simulation","07:00","16:00","8","60",
"01.05.09","5","077598","0","910","Urlaub","","0","Holiday","07:00","16:00","8","60",
