"26.10.09","1","077353","9551","110","Engineering","","0","Timesheet corrections, and basic admin","07:00","16:00","2","60",
"26.10.09","1","077353","11299","110","Engineering","","50","	 5907: E1 M5: PCM2-TV-Tuner: SG-Tausch: Testspec + erw. Sim.","","","2","0",
"26.10.09","1","077353","0","910","Urlaub","","0","Time Off","","","4","0",
"27.10.09","2","077353","11293","140","Test","","70"," 5905: E1 M5: PCM2-TV-Tuner: Videoanschluss (GESiC): Modultest","07:00","16:00","1","60",
"27.10.09","2","077353","11299","110","Engineering","","90"," 5907: E1 M5: PCM2-TV-Tuner: SG-Tausch: Testspec + erw. Sim.","","","4","0",
"27.10.09","2","077353","9551","110","Engineering","","0","8501: E1 M5: allg. Projekttätigkeiten - General Admin, and assisting","","","2","0",
"27.10.09","2","077353","11294","181","Fehlerbes. vor Ausl. (Bugzilla)","","30","	 5905: E1 M5: PCM2-TV-Tuner: Videoanschluss (GESiC): Bugfixing zum Modultest","","","1","0",
"28.10.09","3","077353","11294","181","Fehlerbes. vor Ausl. (Bugzilla)","","100","5905: E1 M5: PCM2-TV-Tuner: Videoanschluss (GESiC): Bugfixing zum Modultest","07:00","16:00","3","60",
"28.10.09","3","077353","11293","140","Test","","100","	 5905: E1 M5: PCM2-TV-Tuner: Videoanschluss (GESiC): Modultest","","","1","0",
"28.10.09","3","077353","9551","110","Engineering","","0","8501: E1 M5: allg. Projekttätigkeiten - Admin and assisting colleague","","","3","0",
"28.10.09","3","077353","11298","181","Fehlerbes. vor Ausl. (Bugzilla)","","30","	 5906: E1 M5: PCM2-TV-Tuner: Antennenverkabelung (GESiC): Bugfixing zum Modultest","","","1","0",
"29.10.09","4","077353","11298","181","Fehlerbes. vor Ausl. (Bugzilla)","","100","	 5906: E1 M5: PCM2-TV-Tuner: Antennenverkabelung (GESiC): Bugfixing zum Modultest","07:00","16:00","3","60",
"29.10.09","4","077353","11297","140","Test","","100","	 5906: E1 M5: PCM2-TV-Tuner: Antennenverkabelung (GESiC): Modultest","","","3","0",
"29.10.09","4","077353","9551","110","Engineering","","0","8501: E1 M5: allg. Projekttätigkeiten","","","2","0",
"30.10.09","5","077353","11205","120","Codierung","","80","	 5242: E1 M5: Bordnetz (BSG): SG-Tausch: Implementierung","07:00","16:00","6","60",
"30.10.09","5","077353","9551","110","Engineering","","0","8501: E1 M5: allg. Projekttätigkeiten -  Admin and genrel assisting","","","2","0",
