"25.05.09","1","077251","2035","185","Service","","0","Bug fixing CTS's, Kessy, Short tests, PDCC, PCM2, Default Error Handler #16194","07:00","16:00","8","60",
"26.05.09","2","077251","2035","185","Service","","0","Bug fixing CTS's, Kessy, Short tests, PDCC, PCM2, Default Error Handler #16194","07:00","16:00","8","60",
"27.05.09","3","077251","2035","185","Service","","0","Bug fixing CTS's, Kessy, Short tests, PDCC, PCM2, Default Error Handler #16194","07:00","16:00","2","60",
"27.05.09","3","077472","0","110","Engineering","","100","Updating F141 NVO PH document","","","6","0",
"28.05.09","4","077472","1","120","Codierung","","30","Implementing F141 NVO EOL Test","07:00","16:00","8","60",
"29.05.09","5","077472","1","120","Codierung","","95","Implementing F141 NVO EOL Test","07:00","16:00","8","60",
