"09.03.09","1","077472","861","110","Engineering ","","0","F141 NCM CTS implementation.","7:00","16:00","8","60",
"10.03.09","2","077472","861","110","Engineering ","","0","F141 NCM CTS implementation.","7:00","16:00","8","60",
"11.03.09","3","077472","861","110","Engineering ","","0","F141 NCM CTS implementation.","7:00","16:00","8","60",
"12.03.09","4","077472","861","110","Engineering ","","0","F141 NCM CTS implementation.","7:00","16:00","8","60",
"13.03.09","5","077472","861","110","Engineering ","","0","F141 NCM CTS implementation.","7:00","16:00","8","60",
