"19.01.09","1","077353","1916","110","Engineering ","","0","Waiting For Authoring","7:00","10:00","3","0",
"19.01.09","1","077353","1087","110","Engineering ","","0","E1 PASM: Internationalization","10:00","16:00","5","60",
"21.01.09","3","077353","1916","110","Engineering ","","0","Waiting For Authoring","7:00","9:00","2","0",
"21.01.09","3","077353","1087","110","Engineering ","","0","E1 PDC: Internationalization","9:00","16:00","6","60",
"22.01.09","4","077353","1916","110","Engineering ","","0","Waiting For Authoring","7:00","9:00","2","0",
"22.01.09","4","077353","1087","110","Engineering ","","0","E1 PASM:Updating  Internationalization","9:00","11:00","2","0",
"22.01.09","4","077353","1087","110","Engineering ","","0","E1 PASM:Updating  Internationalization","11:00","16:00","4","60",
"23.01.09","5","077353","1916","110","Engineering ","","0","Waiting For Authoring","7:00","9:00","2","0",
"23.01.09","5","077353","1087","110","Engineering ","","0","E1 Kombi: Testing The Changes of Internationalization","9:00","16:00","6","60",
