"05.10.09","1","077472","0","110","Engineering","","50","Creating F149 NCM Cranksaft Camshaft Adaption PH","07:00","16:00","8","60",
"06.10.09","2","077472","0","110","Engineering","","100","Creating PH for F149 NCM Crankshaft Camshaft Adaption","07:00","16:00","8","60",
"07.10.09","3","077472","1","120","Codierung","","50","Implementing F149 NCM Crankshaft Camshaft Adaption CTS","07:00","16:00","8","60",
"08.10.09","4","077472","1","120","Codierung","","95","Implementing F149 NCM Crankshaft Camshaft Adaption CTS","07:00","16:00","8","60",
"09.10.09","5","077472","1","120","Codierung","","100","Implementing F149 NCM Crankshaft Camshaft Adaption CTS","07:00","16:00","1","60",
"09.10.09","5","077353","10551","181","Fehlerbes. vor Ausl. (Bugzilla)","","80","Fixing bug 14571","","","7","0",
