"12.10.09","1","077353","9765","140","Test","","100","	 0 5103: E1 M5: PSM: SG-Tausch: Modultest","07:00","16:00","8","60",
"13.10.09","2","077353","9744","181","Fehlerbes. vor Ausl. (Bugzilla)","","100","5083: E1 M5: Tiptronic: SG-Tausch: Bugfixing zu Integrationstest","07:00","16:00","1","60",
"13.10.09","2","077353","10869","181","Fehlerbes. vor Ausl. (Bugzilla)","","100","5520: E1 M5: Heck-SG: Bugfixing zu Integrationstest","","","1","0",
"13.10.09","2","077353","9742","181","Fehlerbes. vor Ausl. (Bugzilla)","","100","5083: E1 M5: Tiptronic:SG-Tausch: Bugfixing zum Modultest","","","1","0",
"13.10.09","2","077353","9766","181","Fehlerbes. vor Ausl. (Bugzilla)","","100","5103: E1 M5: PSM: SG-Tausch: Bugfixing zum Modultest","","","2","0",
"13.10.09","2","077353","10043","120","Codierung","","10","5368: E1 M5: SWSG: SG-Tausch: ODX-Bedatung","","","3","0",
"14.10.09","3","077353","10043","120","Codierung","","30","5368: E1 M5: SWSG: SG-Tausch: ODX-Bedatung : #15334, 18887","07:00","16:00","8","60",
"15.10.09","4","077353","10043","120","Codierung","","40","5368: E1 M5: SWSG: SG-Tausch: ODX-Bedatung : #15334, 18887","07:00","16:00","5","60",
"15.10.09","4","077353","10052","120","Codierung","","10","	 5370: E1 M5: SWSG: Komplex Codier: ODX-Bedatung : #18711","","","3","0",
"16.10.09","5","077353","10052","120","Codierung","","15","5370: E1 M5: SWSG: Komplex Codier: ODX-Bedatung : #18711","07:00","16:00","1","60",
"16.10.09","5","077353","7685","110","Engineering","","0","8185: Warten auf Authoring - Install ODX Authoring","","","4","0",
"16.10.09","5","077591","0","910","Urlaub","","0","Leave","","","3","0",
