"22.06.09","1","077472","0","110","Engineering","","60","Developing/Working on modules for Ferrari implementation.","07:00","16:00","7,34","60",
"22.06.09","1","077472","1895","110","Engineering","","0","Waiting for Authoring.","","","0,66","0",
"23.06.09","2","077598","0","920","Krankheit","","0","Mouth infection.","07:00","16:00","8","60",
"24.06.09","3","077598","0","920","Krankheit","","0","Mouth infection.","07:00","16:00","8","60",
"25.06.09","4","077472","0","110","Engineering","","70","Developing/Working on modules for Ferrari implementation.","07:00","16:00","6","60",
"25.06.09","4","077472","2091","185","Service","","75","F141 NIM Bug fixing","","","0,9","0",
"25.06.09","4","077472","1895","110","Engineering","","0","Waiting for Authoring.","","","1,1","0",
"26.06.09","5","077472","0","110","Engineering","","80","Developing/Working on modules for Ferrari implementation.","07:00","16:00","7,5","60",
"26.06.09","5","077472","1895","110","Engineering","","0","Waiting for Authoring.","","","0,5","0",
