"30.03.09","1","077251","0","110","Engineering","","0","Implemanting BCM vorne Gesic CTS as as part of learning Gesic.","07:00","16:00","8","60",
"31.03.09","2","077251","0","110","Engineering","","0","Implemanting BCM vorne Zentralverriegelungshistorie CTS.","07:00","16:00","5","60",
"01.04.09","3","077251","0","110","Engineering","","0","Implemanting BCM vorne Zentralverriegelungshistorie CTS.","07:00","16:00","6","60",
"01.04.09","3","077251","0","185","Service","","0","Bufixing PAG _CTS_Template","","","2","0",
"02.04.09","4","077251"," 0","110","Engineering","","0","Implemanting BCM vorne Zentralverriegelungshistorie CTS.","07:00","16:00","6","60",
"02.04.09","4","077251"," 0","185","Service","","0","Bufixing PAG _CTS_Template Error Handler","","","2","0",
"03.04.09","5","077251"," 0","110","Engineering","","0","Implemanting BCM vorne Zentralverriegelungshistorie CTS.","07:00","16:00","8","60",
