"14.09.09","1","077353","9892","140","Test","","99","5322: E1 M5: Gateway K-Line: SG-Tausch: Modultest Tested in PIDT, wrote MOTR.","07:00","16:00","3","60",
"14.09.09","1","077353","7687","110","Engineering","","0","8501: E1 M5: allg. Projekttätigkeiten Varified if gesic work was still open, reinstall Authoring.","","","2","0",
"14.09.09","1","077353","9893","181","Fehlerbes. vor Ausl. (Bugzilla)","","70","5322: E1 M5: Gateway K-Line: SG-Tausch: Bugfixing zum Modultest Fixed bugz from module test.","","","3","0",
"15.09.09","2","077353","10133","110","Engineering","","60","5862: E1 M5: PCM2-SBS2:Löschen Spracheinträge (GESiC): PH Set up PIWIS for and made PH","07:00","16:00","1","60",
"15.09.09","2","077353","10135","110","Engineering","","40"," 5862: E1 M5: PCM2-SBS2: Löschen Spracheinträge (GESiC): Testspec + erw. Sim. Tested services - OET","","","3","0",
"15.09.09","2","077353","7687","110","Engineering","","0","8501: E1 M5: allg. Projekttätigkeiten Varified if gesic work was still open, reinstall new PIDT.","","","3","0",
"15.09.09","2","077353","9892","140","Test","","99","5322: E1 M5: Gateway K-Line: SG-Tausch: Modultest Tested in PIDT, wrote MOTR","","","1","0",
"16.09.09","3","077353","10141","110","Engineering","","99"," 5863: E1 M5: PCM2-SBS2: Mikrofontest (GESiC): MadePH using PIWIS","07:00","16:00","1","60",
"16.09.09","3","077353","7687","110","Engineering","","0","8501: E1 M5: allg. Projekttätigkeiten Varified if tasks in project plan,studied GESiC docs.","","","3,5","0",
"16.09.09","3","077353","9892","110","Engineering","","99","	5862: E1 M5: PCM2-SBS2:Löschen Spracheinträge (GESiC): PH Set up PIWIS for and made PH","","","0,5","0",
"16.09.09","3","077353","10143","110","Engineering","","65","5863: E1 M5: PCM2-SBS2: Mikrofontest (GESiC): Testspec + erw. Sim.Tested services - OET","","","3","0",
"17.09.09","4","077353","0","110","Engineering","","100","E1 M5: PCM2-SBS2: Löschen Spracheinträge (GESiC): PH compiled analyse document from PIWIS","07:00","16:00","1,5","60",
"17.09.09","4","077353","1","110","Engineering","","100","E1 M5: PCM2-SBS2: Mikrofontest (GESiC): PH:  compiled analyse document from PIWIS","","","2","0",
"17.09.09","4","077353","7687","110","Engineering","","0","8501: E1 M5: allg. Projekttätigkeiten Confirmed all work on SVN and project plan,studied GESiC docs.","","","2","0",
"17.09.09","4","077353","10143","110","Engineering","","70","5863: E1 M5: PCM2-SBS2: Mikrofontest (GESiC): Testspec + erw. Sim. Finished simulation","","","1,5","0",
"17.09.09","4","077353","10135","110","Engineering","","60","	 5862: E1 M5: PCM2-SBS2: Löschen Spracheinträge (GESiC): Testspec + erw. Sim. Finished simulation.","","","1","0",
"18.09.09","5","077353","10141","110","Engineering","","99","5863: E1 M5: PCM2-SBS2: Mikrofontest (GESiC): PH Determined and posted open issues.","07:00","16:00","2","60",
"18.09.09","5","077353","9892","110","Engineering","","99","5862: E1 M5: PCM2-SBS2:Löschen Spracheinträge (GESiC): PH Determined and posted open issues.","","","2","0",
"18.09.09","5","077353","7687","110","Engineering","","0","8501: E1 M5: allg. Projekttätigkeiten Maintained software GESiC documentation, looked for bugs.","","","4","0",
