"22.02.10","1","077353","10867","110","Engineering","","0","8185: Warten auf Authoring (Performance-Probleme bei Ausführung). Waiting for authoring - CTS execution","07:00","16:00","2,5","60",
"22.02.10","1","100154","8","120","Codierung","","96","1041: E2: Kombi: Wartungsintervall schreiben: Implementierung, Modultest+Bugfixing D2.6/ae10. Adjusting modules for alternate behaviour","","","5,5","0",
"23.02.10","2","100154","8","120","Codierung","","98","1041: E2: Kombi: Wartungsintervall schreiben: Implementierung, Modultest+Bugfixing D2.6/ae10. Implementation done: Bugfixing after test","07:00","16:00","4","60",
"23.02.10","2","077353","10867","110","Engineering","","0","8185: Warten auf Authoring (Performance-Probleme bei Ausführung). Waiting for Authoring and OET","","","2","0",
"23.02.10","2","077353","10551","181","Fehlerbes. vor Ausl. (Bugzilla)","","0","1604: E1 M5: Bugfixing /ae15. Bugfixing","","","2","0",
"24.02.10","3","100154","8","120","Codierung","","98","1041: E2: Kombi: Wartungsintervall schreiben: Implementierung, Modultest+Bugfixing D2.6/ae10. Bugfixing","07:00","16:00","6","60",
"24.02.10","3","077353","10867","110","Engineering","","0","8185: Warten auf Authoring (Performance-Probleme bei Ausführung). Waiting for authoring - CTS execution","","","2","0",
"25.02.10","4","100154","8","120","Codierung","","100","1041: E2: Kombi: Wartungsintervall schreiben: Implementierung, Modultest+Bugfixing D2.6/ae10. Bugfixing","07:00","16:00","6","60",
"25.02.10","4","077353","10867","110","Engineering","","0","8185: Warten auf Authoring (Performance-Probleme bei Ausführung). Waiting for authoring - CTS execution","","","2","0",
"26.02.10","5","077353","10867","110","Engineering","","0","8185: Warten auf Authoring (Performance-Probleme bei Ausführung). Waiting for Authoring - G1 DB problem","07:00","16:00","2","60",
"26.02.10","5","100154","9","181","Fehlerbes. vor Ausl. (Bugzilla)","","0","1041: E2: Kombi: Wartungsintervall schreiben: Bugfixing  /IntegrTest D2.9/ae10. Bugfixing","","","0,5","0",
"26.02.10","5","09.00311","126","120","Codierung","","0","New Input Screen Module. from we","","","5,5","0",
