"16.08.10","1","09.00582","1958","110","Engineering","","80","3020: 9x6:ME7.8/ME7.8min: ECU Analyse. Helping s42 with Analysis.","07:00","16:00","5","60",
"16.08.10","1","09.00582","1958","110","Engineering","","81","3020: 9x6:ME7.8/ME7.8min: ECU Analyse. Analysing security Access for 78min ECU","","","3","0",
"17.08.10","2","09.00582","1958","110","Engineering","","82","3020: 9x6:ME7.8/ME7.8min: ECU Analyse. Fixing documentation of Stellglieder and Analysis documents","07:00","16:00","8","60",
"18.08.10","3","09.00582","1958","110","Engineering","","83","3020: 9x6:ME7.8/ME7.8min: ECU Analyse. Working on Kurztest and Analysis documents","07:00","16:00","8","60",
"19.08.10","4","09.00582","1958","110","Engineering","","86","3020: 9x6:ME7.8/ME7.8min: ECU Analyse. Fixing Stellglieder Analysis for ME78 - updating variant filter.","07:00","16:00","7,25","60",
"19.08.10","4","100018","52","110","Engineering","","0","Wochenaufgaben AES. Fortnightly meeting discussing documentation and general progress.","","","0,75","0",
"20.08.10","5","09.00582","1958","110","Engineering","","90","3020: 9x6:ME7.8/ME7.8min: ECU Analyse. Creating simulations and logging to aid analysis of ME78/78min","07:00","16:00","8","60",
