"30.08.10","1","09.00582","2248","140","Test","","100","4042: 9x6: Alarmanlage/WFS: Wegfahrsperre: Modultest+Bugfixing. Bugfixing  Wegfahrsperre CTS","07:00","16:00","6","60",
"30.08.10","1","09.00582","2250","110","Engineering","","80","4043: 9x6: Alarmanlage/WFS: Transponderschlüssel: Testspec + erw. Sim. Creating Test Spec for Transponderschlüssel","","","2","0",
"31.08.10","2","09.00582","2381","120","Codierung","","50","2182: 9x6: Flashen Pre/Post CTS gen: VIN Nr: Implementierung. Implementing PAG_9x6_DME_VIN_Input CTS","07:00","16:00","4","60",
"31.08.10","2","09.00582","2376","120","Codierung","","50","2182: 9x6: Flashen Pre/Post CTS gen: ProgCode: Implementierung. Implementing PAG_9x6_DME_Program_Code_Input CTS","","","4","0",
"01.09.10","3","09.00582","2381","120","Codierung","","70","2182: 9x6: Flashen Pre/Post CTS gen: VIN Nr: Implementierung. Implementing PAG_9x6_DME_VIN_Input CTS","07:00","16:00","4","60",
"01.09.10","3","09.00582","2376","120","Codierung","","70","2182: 9x6: Flashen Pre/Post CTS gen: ProgCode: Implementierung. Implementing PAG_9x6_DME_Program_Code_Input CTS","","","3,5","0",
"01.09.10","3","09.00582","316","170","Schulung","","0","Schulungen 2010. Trainning Colleague in CTS Creation","","","0,5","0",
"02.09.10","4","09.00582","2249","110","Engineering","","100","4043: 9x6: Alarmanlage/WFS: Transponderschlüssel: PH. Closing Task","07:00","16:00","0","60",
"02.09.10","4","09.00582","2371","120","Codierung","","20","2181: 9x6: Flashen Pre/Post CTS gen: WFS programmieren: Implementierung. Implementing PAG_9x6_DME_Immobilizer_Code_Input","","","4,5","0",
"02.09.10","4","09.00582","2381","120","Codierung","","60","2182: 9x6: Flashen Pre/Post CTS gen: VIN Nr: Implementierung. Implementing PAG_9x6_DME_VIN_Inpu","","","2","0",
"02.09.10","4","100018","46","110","Engineering","","0","Wochenaufgaben AES.  Altbaureihen kick-off meeting","","","1,5","0",
"03.09.10","5","09.00582","2250","110","Engineering","","80","4043: 9x6: Alarmanlage/WFS: Transponderschlüssel: Testspec + erw. Sim. Creating Test Spec and Sim for Transponderschlüssel","07:00","16:00","6","60",
"03.09.10","5","09.00582","2252","120","Codierung","","80","4043: 9x6: Alarmanlage/WFS: Transponderschlüssel: Implementierung. Implementing PAG_9x6_Alarmanlage_Transponderschluessel CTS","","","2","0",
