"03.05.10","1","100152","7","110","Engineering","","10","1000: E1 PIROL: EDC17: ECU Analyse. Analysis source and creating document (Finishing readiness code, working on particle regen)","07:00","16:00","8","60",
"04.05.10","2","100152","7","110","Engineering","","25","1000: E1 PIROL: EDC17: ECU Analyse. Analysis of source for sequence particle filter regenertaion","07:00","16:00","8","60",
"05.05.10","3","100152","7","110","Engineering","","35","1000: E1 PIROL: EDC17: ECU Analyse. Analysis of source for sequence particle filter regenertaion","07:00","16:00","8","60",
"06.05.10","4","100152","7","110","Engineering","","45","1000: E1 PIROL: EDC17: ECU Analyse. Analysis of source for sequence particle filter regenertaion","07:00","16:00","8","60",
"07.05.10","5","100023","0","910","Urlaub","","0","Holiday. Time-Off","07:00","16:00","8","60",
