"26.04.10","1","09.00582","421","120","Codierung","","98","PSM/ABS Statischer Test. Continued implementing ABS/PSM Statischer CTS","07:00","16:00","3","60",
"26.04.10","1","09.00582","0","110","Engineering","","0","Ueberrollschutz : ODX Bedat. Implemented a lock state job for the Ueberrollschutz ECU","","","2","0",
"26.04.10","1","100025","311","170","Schulung","","0","Schulungen 2010. Training on the CTS sequence builder","","","3","0",
"27.04.10","2","100023","855","910","Urlaub","","100","Urlaub 27.04.2010. Public holiday","07:00","16:00","8","60",
"28.04.10","3","09.00582","421","120","Codierung","","98","PSM/ABS Statischer Test. Continued implementing ABS/PSM Statischer CTS","07:00","16:00","8","60",
"29.04.10","4","09.00582","613","120","Codierung","","98","Kombi I: ODX Bedat. Updating actuator services with correct conversion structure","07:00","16:00","1","60",
"29.04.10","4","09.00582","421","120","Codierung","","100","PSM/ABS Statischer Test. Continued Implementing and testing ABS/PSM Statischer CTS","","","6","0",
"29.04.10","4","09.00582","124","110","Engineering","","0","S4 weekly meeting. Discussing 9x6 project progress on ODA, ODX and CTS Implementation","","","1","0",
"30.04.10","5","09.00582","613","120","Codierung","","98","Kombi I: ODX Bedat. Updating kombi actuator services with correct conversion structure","07:00","16:00","3","60",
"30.04.10","5","09.00582","431","120","Codierung","","5","9x6: PSM/ABS I: Vertauschungspruefung: Implementierung. none","","","5","0",
