"22.02.10","1","077353","11248","181","Fehlerbes. vor Ausl. (Bugzilla)","","0","5421: E1 M5: PCM2-MMI: Gen ODX-Bedat: Kodier: Bugfixing. From f5. Additional option items for MMI07. Creating ECU Job","07:00","19:00","6","0",
"22.02.10","1","077353","11248","181","Fehlerbes. vor Ausl. (Bugzilla)","","0","5421: E1 M5: PCM2-MMI: Gen ODX-Bedat: Kodier: Bugfixing. From f5. Analysis of option items in PIWIS","","","2","0",
"22.02.10","1","077353","11248","181","Fehlerbes. vor Ausl. (Bugzilla)","","0","5421: E1 M5: PCM2-MMI: Gen ODX-Bedat: Kodier: Bugfixing. From f5. Testing and verification of new options items","","","1","0",
"22.02.10","1","077353","2938","110","Engineering","","0","8501: E1 M5: allg. Projekttätigkeiten A1.15/ae19. General admin, checking work items and finding work.","","","3","0",
"23.02.10","2","077353","11248","181","Fehlerbes. vor Ausl. (Bugzilla)","","100","5421: E1 M5: PCM2-MMI: Gen ODX-Bedat: Kodier: Bugfixing. From f5. Fix for multiple items not returning values from job correctly. Check-in","07:00","16:00","2","60",
"23.02.10","2","09.00582","178","110","Engineering","","70","1020: 9x6: Kombi I: ECU Analyse. Completed komb2000 996.","","","6","0",
"24.02.10","3","09.00582","178","110","Engineering","","70","1020: 9x6: Kombi I: ECU Analyse. Documentation for komb2000. Back to kombi03 analysis","07:00","16:00","7","0",
"24.02.10","3","077353","2938","110","Engineering","","0","8501: E1 M5: allg. Projekttätigkeiten A1.15/ae19. General admin, checking work items and finding work.","","","2","0",
"25.02.10","4","077353","2938","110","Engineering","","0","8501: E1 M5: allg. Projekttätigkeiten A1.15/ae19. General admin, checking work items and finding work.","07:00","16:00","2","60",
"25.02.10","4","09.00582","178","110","Engineering","","75","1020: 9x6: Kombi I: ECU Analyse. kombi.dll analysis.","","","2","0",
"25.02.10","4","09.00582","178","110","Engineering","","75","1020: 9x6: Kombi I: ECU Analyse. Documentation for analysis","","","2","0",
"25.02.10","4","09.00582","90","170","Schulung","","0","8503: 9x6: get into Subject E1.3/ae20. DSA Log. Getting into subject.","","","2","0",
"26.02.10","5","09.00582","90","170","Schulung","","0","8503: 9x6: get into Subject E1.3/ae20. DSA Log. Changes to kombi03.ddl. Recompile, testing and linkage errors.","07:00","16:00","6","60",
"26.02.10","5","077353","2938","110","Engineering","","0","8501: E1 M5: allg. Projekttätigkeiten A1.15/ae19. Discussions with S4 management","","","1","0",
"26.02.10","5","077353","2929","110","Engineering","","0","8501: E1 M5: CoMod A1.4/ae19. Timesheets, tracking of tasks.","","","1","0",
