"21.06.10","1","100023","0","910","Urlaub","","0","Holiday. Leave","07:00","16:00","8","60",
"22.06.10","2","100023","0","910","Urlaub","","0","Holiday. Leave","07:00","16:00","8","60",
"23.06.10","3","100023","0","910","Urlaub","","0","Holiday. Leave","07:00","16:00","8","60",
"24.06.10","4","100023","0","910","Urlaub","","0","Holiday. Leave","07:00","16:00","8","60",
"25.06.10","5","100023","0","910","Urlaub","","0","Holiday. Leave","07:00","16:00","8","60",
