DATE;NAME;START;END;LUNCH;1;2;3;4;5;6;7;8;9;10;11;12;13;14;15;16;17;18;19;20;21;22;23;24;
01.03.10;Brendan van Zyl;07:00:00;16:00:00;60;09.00582-355;09.00582-355;09.00311-126;09.00311-126;09.00311-126;09.00311-126;09.00311-126;09.00311-126;
01.03.10;Jason Smith;
01.03.10;Justin Jansen Van Vuuren;07:00:00;16:00:00;60;077251-3572;077251-3572;077251-3572;077251-3572;077251-3572;077251-3572;077251-3572;077251-3577;
01.03.10;Nico Claassen;07:00:00;16:00:00;0;077353-2938;077353-2938 / 077353-2938;077353-2938;09.00582-90;09.00582-178;09.00582-178;09.00582-178;09.00582-178;09.00582-90;
01.03.10;Malcolm Vorster;07:00:00;16:00:00;60;09.00582-117;09.00582-117;09.00582-117;09.00582-91;077353-9551;077251-3610;077251-3610 / 077353-10552;077353-10552;
01.03.10;Graham Meyer;08:00:00;16:00:00;0;077598-0;077598-0;077598-0;077598-0;077598-0;077598-0;077598-0;077598-0;
01.03.10;Thando Katywa;07:00:00;16:00:00;60;077353-6170;077353-6170 / 077353-10549;077353-10549;077353-10549;077353-10549;077353-10549;077353-10549;077353-10549 / 077353-2946;
01.03.10;Ludumo Sankobe;07:00:00;16:00:00;60;077251-3398;077251-3398;077251-3398;077251-3571;077251-3571;077251-3571;077251-3571;077251-3571;
01.03.10;Paul Helliwell;07:00:00;16:00:00;60;077353-12181;077353-12181;09.00582-94;09.00582-94;09.00582-94;09.00582-0;09.00582-0;09.00582-0;
01.03.10;Richard Raymond;07:00:00;16:00:00;60;077353-10550;077353-10550;077353-10550;077353-10550;077353-10550;077353-10550;077353-10550;077353-10550;
01.03.10;Johannes Geldenhuys;07:00:00;16:00:00;60;09.00582-96;09.00582-96;09.00582-96;09.00582-96;09.00582-96;09.00582-96;09.00582-96;09.00582-96;
01.03.10;Ntombenkosi Maldaki;07:00:00;16:00:00;60;09.00065-355;09.00065-355;09.00065-355;09.00065-355;077353-12189;077353-12189;077353-12137;077353-12137;
01.03.10;Abdul-Aziz Hendricks;07:00:00;16:00:00;60;09.00065-367;09.00065-367;09.00065-367;09.00065-367;077353-12187;077353-12187;077353-12138;077353-12138;
01.03.10;Ralf Hummel;
01.03.10;Mark Britten;
01.03.10;Angelo Bentley;
02.03.10;Brendan van Zyl;07:00:00;16:00:00;60;09.00582-355;09.00582-355;09.00582-355 / 09.00311-126;09.00311-126;09.00311-126;09.00311-126;09.00311-126;09.00311-126;
02.03.10;Jason Smith;
02.03.10;Justin Jansen Van Vuuren;07:00:00;16:00:00;60;077251-3572;077251-3572;077251-3572;077251-3572;077251-3572;077251-3577;077251-3528;077251-3528;
02.03.10;Nico Claassen;07:00:00;16:00:00;0;077353-2938;077353-2938;077353-2938;077353-2938;077353-2938;077353-2938;09.00582-90;077353-2938;077353-2938;
02.03.10;Malcolm Vorster;07:00:00;16:00:00;60;077353-9551;077353-9551;077353-9551;077353-9551;077353-9551;077251-3610 / 077353-1914;077353-1914 / 077353-9551;077353-9551;
02.03.10;Graham Meyer;07:00:00;16:00:00;60;100154-9;100154-9;100154-9;100154-9;077353-10867;077353-10867;077353-9560;077353-10551;
02.03.10;Thando Katywa;07:00:00;16:00:00;60;077353-10549;077353-10549;077353-10549;077353-10549;077353-10549;077353-10549;077353-6170;077353-6170;
02.03.10;Ludumo Sankobe;07:00:00;16:00:00;60;077251-3398;077251-3398;077251-3571;077251-3571;077251-3571;077251-3571;077251-3571;077251-3571;
02.03.10;Paul Helliwell;07:00:00;16:00:00;60;077353-12181;077353-12181;077353-12181;077353-12181;09.00582-94;09.00582-94;09.00582-94;09.00582-120;
02.03.10;Richard Raymond;07:00:00;16:00:00;60;077353-10550;077353-10550;077353-10550;077353-10550;077353-10550;077353-10550;077353-10721;077353-10721;
02.03.10;Johannes Geldenhuys;07:00:00;16:00:00;60;09.00582-96;09.00582-96;09.00582-96;09.00582-96;09.00582-96;09.00582-96;09.00582-96;09.00582-96;
02.03.10;Ntombenkosi Maldaki;07:00:00;16:00:00;60;077353-12189;077353-12189;077353-12189;09.00852-0;09.00852-0;09.00852-0;09.00852-0;09.00852-0;
02.03.10;Abdul-Aziz Hendricks;07:00:00;16:00:00;60;077353-12187;077353-12187;077353-12187;09.00065-367;09.00065-367;09.00065-367;09.00065-367;09.00065-367;
02.03.10;Ralf Hummel;
02.03.10;Mark Britten;
02.03.10;Angelo Bentley;
03.03.10;Brendan van Zyl;07:00:00;16:00:00;60;09.00582-355;09.00582-355;09.00311-126;09.00311-126;09.00311-126;09.00311-126;09.00311-126;09.00582-0;
03.03.10;Jason Smith;
03.03.10;Justin Jansen Van Vuuren;07:00:00;16:00:00;60;077251-3528;077251-3528;09.00582-0;09.00582-0;09.00582-0;09.00582-0;09.00582-0;09.00582-0;
03.03.10;Nico Claassen;07:00:00;16:00:00;60;09.00582-178;09.00582-178;077353-2938;077353-2938;077353-2938;077353-2938;09.00582-90;09.00582-90;
03.03.10;Malcolm Vorster;07:00:00;16:00:00;60;077353-9551;077353-9551;077353-10552;077353-10552;077353-10552;077353-10552;077353-10552;077353-10552;
03.03.10;Graham Meyer;07:00:00;16:00:00;60;09.00582-92;09.00582-92;09.00582-92;09.00582-92;09.00582-92;09.00582-92;077353-9560 / 100154-9;100154-9;
03.03.10;Thando Katywa;07:00:00;16:00:00;60;077353-6170;077353-6170 / 077353-10549;077353-10549;077353-10549;077353-10549;077353-10549;077353-10549 / 077353-2946;077353-2946;
03.03.10;Ludumo Sankobe;07:00:00;16:00:00;60;077251-1372;077251-1372;077251-1372;09.00582-0;09.00582-0;09.00582-0;09.00582-0;09.00582-0;
03.03.10;Paul Helliwell;07:00:00;16:00:00;60;09.00582-0;09.00582-0;077353-12181;077353-12181;077353-12181;077353-12181;077353-12181;077353-1088;
03.03.10;Richard Raymond;07:00:00;16:00:00;60;077353-10550;077353-10550;077353-10550;077353-10550;077353-10550;077353-10550;077353-10550;077353-7686;
03.03.10;Johannes Geldenhuys;07:00:00;16:00:00;60;09.00582-122;09.00582-96;09.00582-96;09.00582-96;09.00582-96;09.00582-96;09.00582-96;09.00582-96;
03.03.10;Ntombenkosi Maldaki;07:00:00;16:00:00;60;077353-0;09.00582-0;09.00582-0;09.00582-0;09.00582-0;09.00582-0;09.00582-0;09.00582-0;
03.03.10;Abdul-Aziz Hendricks;07:00:00;16:00:00;60;077353-0;077353-0;077353-0;077353-0;077353-0;077353-0;077353-0;077353-12187;
03.03.10;Ralf Hummel;
03.03.10;Mark Britten;
03.03.10;Angelo Bentley;
04.03.10;Brendan van Zyl;07:00:00;16:00:00;60;09.00582-0;09.00582-355;09.00582-355;09.00311-126;09.00311-126;09.00311-126;09.00311-126;09.00311-126;
04.03.10;Jason Smith;
04.03.10;Justin Jansen Van Vuuren;07:00:00;16:00:00;60;09.00582-0;09.00582-0;09.00582-0;09.00582-0;09.00582-0;09.00582-0;09.00582-0;09.00582-0;
04.03.10;Nico Claassen;07:00:00;16:00:00;60;077353-2938;077353-2938;077353-2938;077353-2938;09.00582-90;09.00582-116;09.00582-116;09.00582-116;
04.03.10;Malcolm Vorster;07:00:00;16:00:00;60;077353-9551;077353-10552;077353-10552;077353-10552;077353-10552;077353-10552;077353-10552;077353-10552;
04.03.10;Graham Meyer;07:00:00;16:00:00;60;09.00582-92;09.00582-92;09.00582-92;09.00582-92;09.00582-92;09.00582-92;09.00582-92;09.00582-92;
04.03.10;Thando Katywa;07:00:00;16:00:00;60;077353-10549;077353-10549;077353-10549;09.00582-93;09.00582-93;09.00582-93;09.00582-93 / 077353-11587;077353-11587;
04.03.10;Ludumo Sankobe;07:00:00;16:00:00;60;09.00582-0;09.00582-0;09.00582-0;09.00582-0;09.00582-0;09.00582-0;09.00582-0;09.00582-0;
04.03.10;Paul Helliwell;07:00:00;16:00:00;60;077598-0;077598-0;077598-0;077598-0;077598-0;077598-0;077598-0;077598-0;
04.03.10;Richard Raymond;07:00:00;16:00:00;60;077353-10550;077353-10550;077353-10550;077353-10550;077353-10550;077353-10550;077353-10721;077353-10721;
04.03.10;Johannes Geldenhuys;07:00:00;16:00:00;60;09.00582-96;09.00582-96;09.00582-96;09.00582-96;09.00582-96;09.00582-96;09.00582-96;09.00582-96;
04.03.10;Ntombenkosi Maldaki;07:00:00;16:00:00;60;077353-12189;077353-12189;09.00582-0;09.00582-0;09.00582-0;09.00582-0;09.00582-0;09.00582-0;
04.03.10;Abdul-Aziz Hendricks;07:00:00;16:00:00;60;09.00582-0;09.00582-0;09.00582-0;09.00582-0;09.00582-0;09.00582-0;09.00582-0;09.00582-0;
04.03.10;Ralf Hummel;
04.03.10;Mark Britten;
04.03.10;Angelo Bentley;
05.03.10;Brendan van Zyl;07:00:00;16:00:00;60;09.00582-0;09.00582-355;09.00311-126;09.00311-126;09.00311-126;09.00311-126;09.00311-126;09.00311-126;
05.03.10;Jason Smith;
05.03.10;Justin Jansen Van Vuuren;07:00:00;16:00:00;60;09.00582-0;09.00582-0;09.00582-0;09.00582-0;09.00582-0;09.00582-0;09.00582-0;09.00582-0;
05.03.10;Nico Claassen;07:00:00;16:00:00;60;077353-2929;077353-2929 / 09.00582-178;09.00582-178;09.00582-178;09.00582-178 / 09.00582-90;09.00582-90 / 100025-0;100025-0;100025-0;
05.03.10;Malcolm Vorster;07:00:00;16:00:00;60;077353-10552;077353-10552;077353-10552;077353-10552;077353-10552;077353-10552;077353-9551;077353-9551;
05.03.10;Graham Meyer;07:00:00;16:00:00;60;09.00582-0;09.00582-0;09.00582-0;09.00582-0;09.00582-0;09.00582-0;09.00582-0;09.00582-0;
05.03.10;Thando Katywa;07:00:00;16:00:00;60;077353-10549;077353-10549;077353-10549;077353-10549;077353-2946;09.00582-93;09.00582-93 / 077353-6170;077353-6170 / 09.00582-119;
05.03.10;Ludumo Sankobe;07:00:00;16:00:00;60;09.00582-0;09.00582-0;09.00582-0;09.00582-0;09.00582-0;09.00582-0;09.00582-0;09.00582-0;
05.03.10;Paul Helliwell;07:00:00;16:00:00;60;09.00582-0;09.00582-0;09.00582-0;09.00582-0;09.00582-0;09.00582-0;09.00582-0;09.00582-0;
05.03.10;Richard Raymond;07:00:00;16:00:00;60;077353-7686;077353-10721;077353-10550;077353-10550;077353-10550;077353-10550;077353-10550;077353-10550;
05.03.10;Johannes Geldenhuys;07:00:00;16:00:00;60;09.00582-96;09.00582-96;09.00582-96;09.00582-96;09.00582-96;077591-0;077591-0;077591-0;
05.03.10;Ntombenkosi Maldaki;07:00:00;16:00:00;60;077353-12189;077353-12189;077353-12137;09.00582-0;09.00582-0;09.00582-0;09.00582-0;09.00582-0;
05.03.10;Abdul-Aziz Hendricks;07:00:00;16:00:00;60;09.00582-0;09.00582-0;09.00582-0;09.00582-0;09.00582-0;077353-12138;077353-12187;077353-12187;
05.03.10;Ralf Hummel;
05.03.10;Mark Britten;
05.03.10;Angelo Bentley;
06.03.10;Brendan van Zyl;
06.03.10;Jason Smith;
06.03.10;Justin Jansen Van Vuuren;
06.03.10;Nico Claassen;
06.03.10;Malcolm Vorster;
06.03.10;Graham Meyer;07:00:00;16:00:00;60;
06.03.10;Thando Katywa;
06.03.10;Ludumo Sankobe;
06.03.10;Paul Helliwell;
06.03.10;Richard Raymond;
06.03.10;Johannes Geldenhuys;
06.03.10;Ntombenkosi Maldaki;
06.03.10;Abdul-Aziz Hendricks;
06.03.10;Ralf Hummel;
06.03.10;Mark Britten;
06.03.10;Angelo Bentley;
07.03.10;Brendan van Zyl;
07.03.10;Jason Smith;
07.03.10;Justin Jansen Van Vuuren;
07.03.10;Nico Claassen;
07.03.10;Malcolm Vorster;
07.03.10;Graham Meyer;
07.03.10;Thando Katywa;
07.03.10;Ludumo Sankobe;
07.03.10;Paul Helliwell;
07.03.10;Richard Raymond;
07.03.10;Johannes Geldenhuys;
07.03.10;Ntombenkosi Maldaki;
07.03.10;Abdul-Aziz Hendricks;
07.03.10;Ralf Hummel;
07.03.10;Mark Britten;
07.03.10;Angelo Bentley;
08.03.10;Brendan van Zyl;07:00:00;16:00:00;60;09.00582-391;09.00582-355;09.00582-355;09.00311-170;09.00311-170;09.00311-170;09.00311-170;09.00311-170;
08.03.10;Jason Smith;07:00:00;16:00:00;60;09.00582-0;09.00582-0;09.00582-0;09.00582-0;09.00582-0;09.00582-0;09.00582-0;09.00582-0;
08.03.10;Justin Jansen Van Vuuren;07:00:00;16:00:00;60;09.00582-0;09.00582-0;09.00582-0;09.00582-0;09.00582-0;09.00582-0;09.00582-0;09.00582-0;
08.03.10;Nico Claassen;07:00:00;16:00:00;0;100023-0;100023-0;100023-0;100023-0;100023-0;100023-0;100023-0;100023-0;100023-0;
08.03.10;Malcolm Vorster;07:00:00;16:00:00;60;100023-0;100023-0;100023-0;100023-0;100023-0;100023-0;100023-0;100023-0;
08.03.10;Graham Meyer;07:00:00;16:00:00;60;09.00582-380;09.00582-380;09.00582-380;09.00582-380;09.00582-380;09.00582-380;09.00582-380 / 100023-0;100023-0;
08.03.10;Thando Katywa;07:00:00;16:00:00;60;077353-10549;077353-10549;077353-10549;077353-10549;077353-6170;077353-6170;09.00065-0;09.00065-0;
08.03.10;Ludumo Sankobe;07:00:00;16:00:00;60;09.00582-0;09.00582-0;09.00582-0;09.00582-0;09.00582-0;09.00582-0;09.00582-0;09.00582-0;
08.03.10;Paul Helliwell;07:00:00;16:00:00;60;09.00582-381;09.00582-381;09.00582-381;09.00582-381;09.00582-381;09.00582-381;09.00582-381;09.00582-381;
08.03.10;Richard Raymond;07:00:00;16:00:00;60;077353-10721;077353-10721;077353-10721;077353-10721;077353-7686;077353-7686;077353-10550;077353-10550;
08.03.10;Johannes Geldenhuys;
08.03.10;Ntombenkosi Maldaki;07:00:00;16:00:00;60;09.00582-0;09.00582-0;09.00582-0;09.00582-0;09.00582-0;09.00582-0;09.00582-0;09.00582-392;
08.03.10;Abdul-Aziz Hendricks;07:00:00;16:00:00;60;09.00582-0;09.00582-0;09.00582-0;09.00582-0;09.00582-0;09.00582-0;09.00582-0;09.00582-0;
08.03.10;Ralf Hummel;
08.03.10;Mark Britten;
08.03.10;Angelo Bentley;
09.03.10;Brendan van Zyl;07:00:00;16:00:00;60;09.00582-391;09.00582-355;09.00582-355;09.00311-170;09.00311-170;09.00311-170;09.00311-170;09.00311-170;
09.03.10;Jason Smith;07:00:00;16:00:00;60;09.00582-354;09.00582-354;09.00582-354;09.00582-354;09.00582-354;09.00582-354;09.00582-354;09.00582-354;
09.03.10;Justin Jansen Van Vuuren;07:00:00;16:00:00;60;09.00582-0;09.00582-0;09.00582-0;09.00582-0;09.00582-0;09.00582-0;09.00582-0;09.00582-0;
09.03.10;Nico Claassen;07:00:00;16:00:00;60;09.00582-178;09.00582-178;09.00582-178;09.00582-178 / 100018-37;100018-37;100018-37;100018-37;100018-37;
09.03.10;Malcolm Vorster;07:00:00;16:00:00;60;077353-12287;077353-12287;077353-12287;077353-12287;077353-12287;077353-12287;077353-12287;077353-12287;
09.03.10;Graham Meyer;07:00:00;16:00:00;60;077353-12219;077353-12219;09.00582-380;09.00582-380;09.00582-380;09.00582-380;09.00582-380;09.00582-380;
09.03.10;Thando Katywa;07:00:00;16:00:00;60;077353-10549;077353-10549;077353-10549;09.00582-119;09.00582-119 / 09.00582-0;09.00582-0 / 077353-6170;09.00065-0;09.00065-0;
09.03.10;Ludumo Sankobe;07:00:00;16:00:00;60;09.00582-0;09.00582-0;09.00582-0;09.00582-0;09.00582-0;09.00582-0;09.00582-0;09.00582-0;
09.03.10;Paul Helliwell;07:00:00;16:00:00;60;09.00582-381;09.00582-381;09.00582-381;09.00582-381;09.00582-381;09.00582-381;09.00582-381;09.00582-381;
09.03.10;Richard Raymond;07:00:00;16:00:00;60;09.00582-0;09.00582-0;09.00582-0;09.00582-0;09.00582-121;09.00582-121;09.00582-121;09.00582-95;
09.03.10;Johannes Geldenhuys;
09.03.10;Ntombenkosi Maldaki;07:00:00;16:00:00;60;09.00582-0;09.00582-0;09.00582-0;09.00582-0;09.00582-0;09.00582-0;09.00582-392;09.00582-392;
09.03.10;Abdul-Aziz Hendricks;07:00:00;16:00:00;60;077353-12187;077353-12187;077353-12187;077353-12187;077353-12187;077353-12187;077353-12187;077353-12187;
09.03.10;Ralf Hummel;
09.03.10;Mark Britten;
09.03.10;Angelo Bentley;
10.03.10;Brendan van Zyl;07:00:00;16:00:00;60;09.00582-355;09.00582-355;09.00582-391;09.00311-170;09.00311-170;09.00311-170;09.00311-170;09.00311-170;
10.03.10;Jason Smith;07:00:00;16:00:00;60;09.00065-0;09.00065-0;09.00065-0;09.00065-0;09.00065-0;09.00065-0;09.00065-0;09.00065-0;
10.03.10;Justin Jansen Van Vuuren;07:00:00;16:00:00;60;09.00065-0;09.00065-0;09.00065-0;09.00065-0;09.00065-0;09.00065-0;09.00065-0;09.00065-0;
10.03.10;Nico Claassen;07:00:00;16:00:00;60;100018-37;100018-37;100018-37;09.00582-178;09.00582-178;09.00582-178;09.00582-178;09.00582-178;
10.03.10;Malcolm Vorster;07:00:00;16:00:00;60;077353-12287;077353-12287;077353-12287;077353-12287;077353-12287;077353-12287;077353-12287;077353-12287;
10.03.10;Graham Meyer;07:00:00;16:00:00;60;077353-12219;077353-12219;077353-12229;077353-12229;077353-12229;09.00582-380;077353-12230;077353-12230;
10.03.10;Thando Katywa;07:00:00;16:00:00;60;09.00065-0;09.00065-0;09.00065-0;09.00065-0;09.00065-0;09.00065-0;09.00065-0;09.00065-0 / 077353-12231;
10.03.10;Ludumo Sankobe;07:00:00;16:00:00;60;09.00065-0;09.00065-0;09.00065-0;09.00065-0;09.00065-0;09.00065-0;09.00065-0;09.00065-0;
10.03.10;Paul Helliwell;07:00:00;16:00:00;60;100023-0;100023-0;100023-0;100023-0;100023-0;100023-0;100023-0;100023-0;
10.03.10;Richard Raymond;07:00:00;16:00:00;60;09.00582-0;09.00582-0;09.00582-0;09.00582-0;09.00582-0;09.00582-0;09.00582-0;09.00582-0;
10.03.10;Johannes Geldenhuys;
10.03.10;Ntombenkosi Maldaki;07:00:00;16:00:00;60;09.00582-392;09.00065-355;09.00065-355;09.00065-355;09.00065-355;09.00065-355;09.00065-355;09.00065-355;
10.03.10;Abdul-Aziz Hendricks;07:00:00;16:00:00;60;09.00065-367;09.00065-367;09.00065-367;09.00065-367;09.00065-367;09.00065-367;09.00065-367;09.00065-367;
10.03.10;Ralf Hummel;
10.03.10;Mark Britten;
10.03.10;Angelo Bentley;
11.03.10;Brendan van Zyl;07:00:00;16:00:00;60;09.00582-355;09.00582-355;09.00582-391;09.00311-170;09.00311-170;09.00311-170;09.00311-170;09.00311-170;
11.03.10;Jason Smith;07:00:00;16:00:00;60;09.00065-0;09.00065-0;09.00065-0;09.00065-0;09.00065-0;09.00065-0;09.00065-0;09.00065-0;
11.03.10;Justin Jansen Van Vuuren;07:00:00;16:00:00;60;09.00582-159;09.00582-159;09.00582-159;09.00582-159;09.00582-159;09.00582-159;09.00582-159;09.00582-159;
11.03.10;Nico Claassen;07:00:00;16:00:00;60;09.00582-178;09.00582-178;100018-37;100018-37;100018-37;100018-37;100025-265;100025-265;
11.03.10;Malcolm Vorster;07:00:00;16:00:00;60;077353-12287;077353-12287;077353-12287;077353-12287;077353-12287;077353-12287;077353-12287;077353-12287;
11.03.10;Graham Meyer;07:00:00;16:00:00;60;077353-12229;077353-12229;077353-12229;077353-12230;077353-12230;077353-12230;077353-12230;077353-12230;
11.03.10;Thando Katywa;07:00:00;16:00:00;60;09.00065-0;09.00065-0;09.00065-0;09.00065-0;09.00065-0;09.00065-0;09.00065-0 / 09.00582-9999;09.00582-9999 / 09.00582-1;
11.03.10;Ludumo Sankobe;07:00:00;16:00:00;60;09.00582-9999;09.00582-9999;09.00582-9999;09.00582-9999;09.00582-9999;09.00582-9999;09.00582-9999;09.00582-9999;
11.03.10;Paul Helliwell;07:00:00;16:00:00;60;09.00582-381;09.00582-381;09.00582-381;09.00582-381;09.00582-381;09.00582-381;09.00582-381;09.00582-381;
11.03.10;Richard Raymond;07:00:00;16:00:00;60;09.00582-0;09.00582-0;09.00582-0;09.00582-0;09.00582-0;09.00582-0;09.00582-0;09.00582-0;
11.03.10;Johannes Geldenhuys;
11.03.10;Ntombenkosi Maldaki;07:00:00;16:00:00;60;09.00582-392;09.00582-0;09.00582-0;09.00582-0;09.00582-0;09.00582-0;09.00582-0;09.00582-0;
11.03.10;Abdul-Aziz Hendricks;07:00:00;16:00:00;60;09.00582-0;09.00582-0;09.00582-0;09.00582-0;09.00582-0;09.00582-0;09.00582-0;09.00582-0;
11.03.10;Ralf Hummel;
11.03.10;Mark Britten;
11.03.10;Angelo Bentley;
12.03.10;Brendan van Zyl;07:00:00;16:00:00;60;09.00582-355;09.00582-391;09.00311-170;09.00311-170;09.00311-170;09.00311-170;09.00311-170;09.00311-170;
12.03.10;Jason Smith;07:00:00;16:00:00;60;09.00065-0;09.00065-0;09.00065-0;09.00065-0;09.00065-0;09.00065-0;09.00065-0;09.00065-0;
12.03.10;Justin Jansen Van Vuuren;07:00:00;16:00:00;60;09.00582-159;09.00582-159;09.00582-159;09.00582-159;09.00582-159;09.00582-159;09.00582-159;09.00582-159;
12.03.10;Nico Claassen;07:00:00;16:00:00;60;100018-37;100018-37;100018-37;100018-37;09.00582-178;09.00582-178;09.00582-178;09.00582-178;
12.03.10;Malcolm Vorster;07:00:00;16:00:00;60;077353-12287;077353-12287;077353-12287;077353-12287;077353-12287;077353-12287;077353-12287;077353-12287;
12.03.10;Graham Meyer;07:00:00;16:00:00;60;09.00582-380;09.00582-380;09.00582-380;09.00582-380;09.00582-380;09.00582-380;09.00582-380;09.00582-380;
12.03.10;Thando Katywa;07:00:00;16:00:00;60;09.00582-9999;09.00582-9999 / 09.00582-1;09.00065-0;09.00065-0;09.00065-0;09.00065-0;09.00065-0;09.00065-0;
12.03.10;Ludumo Sankobe;07:00:00;16:00:00;60;09.00065-0;09.00065-0;09.00065-0;09.00065-0;09.00065-0;09.00065-0;09.00065-0;09.00065-0;
12.03.10;Paul Helliwell;07:00:00;16:00:00;60;09.00582-381;09.00582-381;09.00582-381;09.00582-381;09.00582-381;09.00582-381;09.00582-381;09.00582-381;
12.03.10;Richard Raymond;07:00:00;16:00:00;60;09.00582-0;09.00582-0;09.00582-0;09.00582-0;09.00582-0;09.00582-0;09.00582-0;09.00582-0;
12.03.10;Johannes Geldenhuys;
12.03.10;Ntombenkosi Maldaki;07:00:00;16:00:00;60;09.00582-392;09.00582-9999;09.00582-0;09.00582-0;09.00582-0;09.00582-0;09.00582-0;09.00582-0;
12.03.10;Abdul-Aziz Hendricks;07:00:00;16:00:00;60;09.00582-0;09.00582-0;09.00582-0;09.00582-0;09.00582-0;09.00582-0;09.00582-0;09.00582-0;
12.03.10;Ralf Hummel;
12.03.10;Mark Britten;
12.03.10;Angelo Bentley;
13.03.10;Brendan van Zyl;
13.03.10;Jason Smith;
13.03.10;Justin Jansen Van Vuuren;
13.03.10;Nico Claassen;
13.03.10;Malcolm Vorster;
13.03.10;Graham Meyer;
13.03.10;Thando Katywa;
13.03.10;Ludumo Sankobe;
13.03.10;Paul Helliwell;
13.03.10;Richard Raymond;
13.03.10;Johannes Geldenhuys;
13.03.10;Ntombenkosi Maldaki;
13.03.10;Abdul-Aziz Hendricks;
13.03.10;Ralf Hummel;
13.03.10;Mark Britten;
13.03.10;Angelo Bentley;
14.03.10;Brendan van Zyl;
14.03.10;Jason Smith;
14.03.10;Justin Jansen Van Vuuren;
14.03.10;Nico Claassen;
14.03.10;Malcolm Vorster;
14.03.10;Graham Meyer;
14.03.10;Thando Katywa;
14.03.10;Ludumo Sankobe;
14.03.10;Paul Helliwell;
14.03.10;Richard Raymond;
14.03.10;Johannes Geldenhuys;
14.03.10;Ntombenkosi Maldaki;
14.03.10;Abdul-Aziz Hendricks;
14.03.10;Ralf Hummel;
14.03.10;Mark Britten;
14.03.10;Angelo Bentley;
15.03.10;Brendan van Zyl;07:00:00;16:00:00;60;09.00582-355;09.00582-355;09.00582-391;09.00311-170;09.00311-170;09.00311-170;09.00311-170;09.00311-170;
15.03.10;Jason Smith;07:00:00;16:00:00;60;09.00582-0;09.00582-0;09.00582-0;09.00582-0;09.00582-0;09.00582-0;09.00582-0;09.00582-0;
15.03.10;Justin Jansen Van Vuuren;07:00:00;16:00:00;60;09.00582-405;09.00582-405;09.00582-405;09.00582-405;09.00582-405;09.00582-405;09.00582-405;09.00582-405;
15.03.10;Nico Claassen;07:00:00;16:00:00;60;09.00582-435 / 100025-265;100025-265 / 100018-37;100018-37;100018-37;100018-37;100018-37;100018-37;100018-37;
15.03.10;Malcolm Vorster;07:00:00;16:00:00;60;077353-12287;077353-12287;077353-12287;077353-12287;077353-12287;077353-12287;077353-12287;077353-9551;
15.03.10;Graham Meyer;07:00:00;16:00:00;60;09.00582-380;09.00582-380;09.00582-380;09.00582-380;09.00582-380;09.00582-380;077353-12215 / 100023-0;100023-0;
15.03.10;Thando Katywa;07:00:00;16:00:00;60;100023-0;100023-0;100023-0;100023-0;100023-0;100023-0;100023-0;100023-0;
15.03.10;Ludumo Sankobe;07:00:00;16:00:00;60;09.00582-0;09.00582-0;09.00582-0;09.00582-0;09.00582-0;09.00582-0;09.00582-0;09.00582-0;
15.03.10;Paul Helliwell;07:00:00;16:00:00;60;09.00582-381;09.00582-381;09.00582-381;09.00582-381;09.00582-381;09.00582-381;09.00582-381;09.00582-381;
15.03.10;Richard Raymond;07:00:00;16:00:00;60;09.00582-386;09.00582-386;09.00582-386;09.00582-121;09.00582-121;09.00582-121;09.00582-121;09.00582-121;
15.03.10;Johannes Geldenhuys;
15.03.10;Ntombenkosi Maldaki;07:00:00;16:00:00;60;09.00582-0;09.00582-0;09.00582-392;09.00582-179;09.00582-179;09.00582-179;09.00582-0;09.00582-0;
15.03.10;Abdul-Aziz Hendricks;07:00:00;16:00:00;60;09.00582-0;09.00582-0;09.00582-0;09.00582-0;09.00582-0;09.00582-0;09.00582-0;09.00582-0;
15.03.10;Ralf Hummel;
15.03.10;Mark Britten;07:00:00;16:00:00;60;100036-74;100036-74;100036-74;100036-74;100036-76;100036-76;100036-76;100036-76;
15.03.10;Angelo Bentley;07:00:00;16:00:00;60;100036-81;100036-81;100036-81;100036-81;100036-73;100036-73;100036-73;100036-73;
16.03.10;Brendan van Zyl;07:00:00;16:00:00;60;09.00582-391;09.00582-355;09.00582-355;09.00582-355;09.00311-170;09.00311-170;09.00311-170;09.00311-170;
16.03.10;Jason Smith;07:00:00;16:00:00;60;09.00582-0;09.00582-0;09.00582-0;09.00582-0;09.00582-0;09.00582-0;09.00582-0;09.00582-0;
16.03.10;Justin Jansen Van Vuuren;07:00:00;16:00:00;60;09.00582-405;09.00582-405;09.00582-405;09.00582-405;09.00582-405;09.00582-405 / 09.00582-405;09.00582-405;09.00582-405;
16.03.10;Nico Claassen;07:00:00;16:00:00;60;100025-265;09.00582-116;09.00582-116;09.00582-116;100018-37;100018-37;100018-37;100018-37;
16.03.10;Malcolm Vorster;07:00:00;16:00:00;60;09.00582-117;09.00582-117;077353-12287;077353-12287;077353-12287;077353-12287;077353-12287;077353-12287;
16.03.10;Graham Meyer;07:00:00;16:00:00;60;09.00582-380;09.00582-380;09.00582-380;09.00582-380;09.00582-380;09.00582-380;09.00582-380;09.00582-380;
16.03.10;Thando Katywa;07:00:00;16:00:00;60;100025-300;100025-300;100025-300;100025-300;09.00582-406;09.00582-406;09.00582-406;09.00582-406;
16.03.10;Ludumo Sankobe;07:00:00;16:00:00;60;09.00582-0;09.00582-0;09.00582-0;09.00582-0;09.00582-0;09.00582-0;09.00582-0;09.00582-0;
16.03.10;Paul Helliwell;07:00:00;16:00:00;60;09.00582-381;09.00582-381;09.00582-381;09.00582-381;09.00582-381;09.00582-381;09.00582-381;100018-38;
16.03.10;Richard Raymond;07:00:00;16:00:00;60;09.00582-205;09.00582-205;09.00582-205;09.00582-205;09.00582-205;09.00582-205;09.00582-205;09.00582-205;
16.03.10;Johannes Geldenhuys;
16.03.10;Ntombenkosi Maldaki;07:00:00;16:00:00;60;09.00582-0;09.00582-0;09.00582-179;09.00582-179;09.00582-179;09.00582-179;09.00582-0;09.00582-0;
16.03.10;Abdul-Aziz Hendricks;07:00:00;16:00:00;60;09.00582-205;09.00582-205;09.00582-205;09.00582-205;09.00582-0;09.00582-0;09.00582-205;09.00582-205;
16.03.10;Ralf Hummel;
16.03.10;Mark Britten;07:00:00;16:00:00;60;100036-67;100036-67;100036-77;100036-77;100036-77;100036-0;100036-0;100036-0;
16.03.10;Angelo Bentley;07:00:00;16:00:00;60;100036-80;100036-80;100036-80;100036-69;100036-69;100036-0;100036-0;100036-0;
17.03.10;Brendan van Zyl;07:00:00;16:00:00;60;09.00582-355;09.00582-355;09.00582-355 / 09.00582-391;09.00582-391;09.00311-170;09.00311-170;09.00311-170;09.00311-170;
17.03.10;Jason Smith;07:00:00;16:00:00;60;09.00582-0;09.00582-0;09.00582-0;09.00582-0;09.00582-0;09.00582-0;09.00582-0;09.00582-0;
17.03.10;Justin Jansen Van Vuuren;07:00:00;16:00:00;60;09.00582-0;09.00582-405;09.00582-405;09.00582-405;09.00582-405;09.00582-405;09.00582-405;09.00582-405;
17.03.10;Nico Claassen;07:00:00;16:00:00;60;100018-37;100018-37;100018-37;09.00582-435;09.00582-435;09.00582-435;09.00582-435;09.00582-435;
17.03.10;Malcolm Vorster;07:00:00;16:00:00;60;09.00582-117;09.00582-117;09.00582-117;09.00582-117;09.00582-117 / 100018-43;100018-43 / 09.00582-91;09.00582-91;09.00582-91;
17.03.10;Graham Meyer;07:00:00;16:00:00;60;077353-0;077353-0;077353-0;077353-0;077353-0;09.00582-380;09.00582-380;09.00582-380;
17.03.10;Thando Katywa;07:00:00;16:00:00;60;100025-300;100025-300;100025-300;09.00582-406;09.00582-119;09.00582-406;09.00582-406;09.00582-406;
17.03.10;Ludumo Sankobe;07:00:00;16:00:00;60;09.00582-393;09.00582-393;09.00582-393;09.00582-393;09.00582-393;09.00582-393;09.00582-393;09.00582-0;
17.03.10;Paul Helliwell;07:00:00;16:00:00;60;09.00582-381;09.00582-381;09.00582-381;09.00582-381;09.00582-381;09.00582-381;09.00582-381;100018-38;
17.03.10;Richard Raymond;07:00:00;16:00:00;60;09.00582-121;09.00582-121;077353-12302;077353-12302;077353-12302;09.00582-179;09.00582-179;09.00582-179;
17.03.10;Johannes Geldenhuys;
17.03.10;Ntombenkosi Maldaki;07:00:00;16:00:00;60;09.00582-392;09.00582-179;09.00582-179;09.00582-179;09.00582-179;09.00582-179;09.00582-179;09.00582-0;
17.03.10;Abdul-Aziz Hendricks;07:00:00;16:00:00;60;09.00582-205;09.00582-205;09.00582-0;09.00582-205;09.00582-205;09.00582-205;09.00582-205;09.00582-205;
17.03.10;Ralf Hummel;
17.03.10;Mark Britten;07:00:00;16:00:00;60;100036-0;100036-0;100036-0;100036-0;100036-74;100036-74 / 100036-77;100036-77;100036-77;
17.03.10;Angelo Bentley;07:00:00;16:00:00;60;100036-73;100036-73;100036-73;100036-0-110;100036-0-110 / 100036-69;100036-69;100036-69;100036-69;
18.03.10;Brendan van Zyl;07:00:00;16:00:00;60;09.00582-355;09.00582-355;09.00582-355 / 100018-39;09.00311-170;09.00311-170;09.00311-170;09.00311-170;09.00311-170;
18.03.10;Jason Smith;07:00:00;16:00:00;60;09.00582-0;09.00582-0;09.00582-0;09.00582-0;09.00582-0;09.00582-0;09.00582-0;09.00582-0;
18.03.10;Justin Jansen Van Vuuren;07:00:00;16:00:00;60;09.00582-405;09.00582-405;09.00582-405;09.00582-405;09.00582-405;09.00582-405;09.00582-0;09.00582-0 / 09.00582-405;
18.03.10;Nico Claassen;07:00:00;16:00:00;60;100018-37;100018-37;09.00582-435;09.00582-90;09.00582-90;09.00582-90;09.00582-90;09.00582-90;
18.03.10;Malcolm Vorster;07:00:00;16:00:00;60;100018-43;09.00582-117;09.00582-117;09.00582-91;09.00582-91;09.00582-91;09.00582-0;09.00582-393;
18.03.10;Graham Meyer;07:00:00;16:00:00;60;09.00286-25;09.00286-25;09.00286-25;09.00286-25;09.00286-25;09.00286-25;09.00286-25;09.00286-25;
18.03.10;Thando Katywa;07:00:00;16:00:00;60;09.00582-411;09.00582-160;09.00582-119;09.00582-119;09.00582-159;09.00582-159;09.00582-159;09.00582-159;
18.03.10;Ludumo Sankobe;07:00:00;16:00:00;60;09.00582-393;09.00582-393;09.00582-393;09.00582-393;09.00582-393;09.00582-393;09.00582-393;09.00582-393;
18.03.10;Paul Helliwell;07:00:00;16:00:00;60;09.00582-381;09.00582-381;09.00582-381;09.00582-381;09.00582-381;09.00582-381;09.00582-381;09.00582-381;
18.03.10;Richard Raymond;07:00:00;16:00:00;60;077353-11917;077353-11917;077353-11917;077353-11917;077353-11917;077353-11917;09.00582-179;09.00582-179;
18.03.10;Johannes Geldenhuys;
18.03.10;Ntombenkosi Maldaki;07:00:00;16:00:00;60;09.00582-205;09.00582-205;09.00582-205;09.00582-205;09.00582-205;09.00582-205;09.00582-205;09.00582-205;
18.03.10;Abdul-Aziz Hendricks;07:00:00;16:00:00;60;09.00582-205;09.00582-205;09.00582-205;09.00582-205;09.00582-205;09.00582-205;09.00582-205;09.00582-205;
18.03.10;Ralf Hummel;
18.03.10;Mark Britten;07:00:00;16:00:00;60;100036-74;100036-74;100036-74;100036-74;100036-74;100036-77;100036-77;100036-77;
18.03.10;Angelo Bentley;07:00:00;16:00:00;60;100036-73;100036-73;100036-73;100036-73;100036-69;100036-69;100036-80;100036-80;
19.03.10;Brendan van Zyl;07:00:00;16:00:00;60;09.00582-355;09.00582-355 / 09.00311-170;09.00311-170;09.00311-170;09.00311-170;09.00311-170;09.00311-170;09.00311-170;
19.03.10;Jason Smith;07:00:00;16:00:00;60;09.00582-0;09.00582-0;09.00582-0;09.00582-0;09.00582-0;09.00582-0;09.00582-0;09.00582-0;
19.03.10;Justin Jansen Van Vuuren;07:00:00;16:00:00;60;09.00582-405;09.00582-405;09.00582-405;09.00582-405;09.00582-405;09.00582-405;09.00582-405;09.00582-405 / 09.00582-405;
19.03.10;Nico Claassen;07:00:00;16:00:00;60;100018-37;100018-37;09.00582-435;09.00582-435;09.00582-435;09.00582-435;09.00582-435;09.00582-435;
19.03.10;Malcolm Vorster;07:00:00;16:00:00;60;09.00582-393;09.00582-393;09.00582-393;09.00582-393;09.00582-0;09.00582-0;09.00582-0;100018-43;
19.03.10;Graham Meyer;07:00:00;16:00:00;60;077353-10867;077353-10867;077353-12243;077353-12243;077353-12243;
19.03.10;Thando Katywa;07:00:00;16:00:00;60;100023-0;100023-0;100023-0;100023-0;100023-0;100023-0;100023-0;100023-0;
19.03.10;Ludumo Sankobe;07:00:00;16:00:00;60;09.00582-393;09.00582-393;09.00582-393;09.00582-393;09.00582-393;100023-0;100023-0;100023-0;
19.03.10;Paul Helliwell;07:00:00;16:00:00;60;100023-0;100023-0;100023-0;100023-0;100023-0;100023-0;100023-0;100023-0;
19.03.10;Richard Raymond;07:00:00;16:00:00;60;100023-0;100018-48;09.00582-179;09.00582-179;09.00582-179;09.00582-179;09.00582-179;09.00582-179;
19.03.10;Johannes Geldenhuys;
19.03.10;Ntombenkosi Maldaki;07:00:00;16:00:00;60;09.00582-205;09.00582-205;09.00582-205;09.00582-205;09.00582-205;09.00582-205;09.00582-205;09.00582-205;
19.03.10;Abdul-Aziz Hendricks;07:00:00;16:00:00;60;09.00582-205;09.00582-205;09.00582-205;09.00582-205;09.00582-205;09.00582-205;09.00582-205;09.00582-205;
19.03.10;Ralf Hummel;
19.03.10;Mark Britten;07:00:00;16:00:00;60;100036-74;100036-74;100036-74;100036-74;100036-74;100036-74;100036-67;100036-67;
19.03.10;Angelo Bentley;07:00:00;16:00:00;60;100036-73;100036-73;100036-73;100036-69;100036-69;100036-69;100036-80;100036-80;
20.03.10;Brendan van Zyl;
20.03.10;Jason Smith;
20.03.10;Justin Jansen Van Vuuren;
20.03.10;Nico Claassen;
20.03.10;Malcolm Vorster;
20.03.10;Graham Meyer;
20.03.10;Thando Katywa;
20.03.10;Ludumo Sankobe;
20.03.10;Paul Helliwell;
20.03.10;Richard Raymond;
20.03.10;Johannes Geldenhuys;
20.03.10;Ntombenkosi Maldaki;
20.03.10;Abdul-Aziz Hendricks;
20.03.10;Ralf Hummel;
20.03.10;Mark Britten;
20.03.10;Angelo Bentley;
21.03.10;Brendan van Zyl;
21.03.10;Jason Smith;
21.03.10;Justin Jansen Van Vuuren;
21.03.10;Nico Claassen;
21.03.10;Malcolm Vorster;
21.03.10;Graham Meyer;
21.03.10;Thando Katywa;
21.03.10;Ludumo Sankobe;
21.03.10;Paul Helliwell;
21.03.10;Richard Raymond;
21.03.10;Johannes Geldenhuys;
21.03.10;Ntombenkosi Maldaki;
21.03.10;Abdul-Aziz Hendricks;
21.03.10;Ralf Hummel;
21.03.10;Mark Britten;
21.03.10;Angelo Bentley;
22.03.10;Brendan van Zyl;07:00:00;16:00:00;60;100023-0;100023-0;100023-0;100023-0;100023-0;100023-0;100023-0;100023-0;
22.03.10;Jason Smith;07:00:00;16:00:00;60;100023-0;100023-0;100023-0;100023-0;100023-0;100023-0;100023-0;100023-0;
22.03.10;Justin Jansen Van Vuuren;07:00:00;16:00:00;60;100023-0;100023-0;100023-0;100023-0;100023-0;100023-0;100023-0;100023-0;
22.03.10;Nico Claassen;07:00:00;16:00:00;0;100023-0;100023-0;100023-0;100023-0;100023-0;100023-0;100023-0;100023-0;100023-0;
22.03.10;Malcolm Vorster;07:00:00;16:00:00;60;100023-0;100023-0;100023-0;100023-0;100023-0;100023-0;100023-0;100023-0;
22.03.10;Graham Meyer;07:00:00;16:00:00;60;100023-0;100023-0;100023-0;100023-0;100023-0;100023-0;100023-0;100023-0;
22.03.10;Thando Katywa;07:00:00;16:00:00;60;100023-0;100023-0;100023-0;100023-0;100023-0;100023-0;100023-0;100023-0;
22.03.10;Ludumo Sankobe;07:00:00;16:00:00;60;100023-0;100023-0;100023-0;100023-0;100023-0;100023-0;100023-0;100023-0;
22.03.10;Paul Helliwell;07:00:00;16:00:00;60;100023-0;100023-0;100023-0;100023-0;100023-0;100023-0;100023-0;100023-0;
22.03.10;Richard Raymond;07:00:00;16:00:00;60;100023-0;100023-0;100023-0;100023-0;100023-0;100023-0;100023-0;100023-0;
22.03.10;Johannes Geldenhuys;
22.03.10;Ntombenkosi Maldaki;07:00:00;16:00:00;60;100023-0;100023-0;100023-0;100023-0;100023-0;100023-0;100023-0;100023-0;
22.03.10;Abdul-Aziz Hendricks;07:00:00;16:00:00;60;100023-0;100023-0;100023-0;100023-0;100023-0;100023-0;100023-0;100023-0;
22.03.10;Ralf Hummel;
22.03.10;Mark Britten;07:00:00;16:00:00;60;100023-0;100023-0;100023-0;100023-0;100023-0;100023-0;100023-0;100023-0;
22.03.10;Angelo Bentley;07:00:00;16:00:00;60;
23.03.10;Brendan van Zyl;07:00:00;16:00:00;60;09.00582-355;09.00582-355;100018-39 / 09.00311-170;09.00311-170 / 09.00311-170;09.00311-170;09.00311-170;09.00311-170;09.00311-170;
23.03.10;Jason Smith;07:00:00;16:00:00;60;09.00582-0;09.00582-0;09.00582-0;09.00582-0;09.00582-0;09.00582-0;09.00582-0;09.00582-0;
23.03.10;Justin Jansen Van Vuuren;07:00:00;16:00:00;60;09.00582-416;09.00582-416;09.00582-416;09.00582-416;09.00582-416;09.00582-416;09.00582-594;09.00582-594 / 09.00582-416;
23.03.10;Nico Claassen;07:00:00;16:00:00;60;077353-2929 / 09.00582-435;09.00582-435;09.00582-435;09.00582-435;09.00582-435 / 09.00582-90;09.00582-90 / 100018-37;100018-37;100018-37;
23.03.10;Malcolm Vorster;07:00:00;16:00:00;60;077353-0;077353-0;077353-0;077353-0;077353-0;077353-0;077353-0;09.00582-117;
23.03.10;Graham Meyer;07:00:00;16:00:00;60;077353-12243;077353-12243;077353-12243;09.00286-26;09.00286-23;09.00286-23;09.00286-23;09.00286-23;
23.03.10;Thando Katywa;07:00:00;16:00:00;60;09.00582-601;09.00582-601;09.00582-601;09.00582-601;09.00582-601;09.00582-598;09.00582-598 / 077353-11587;077353-11587;
23.03.10;Ludumo Sankobe;07:00:00;16:00:00;60;09.00582-599;09.00582-599;09.00582-599;09.00582-599;09.00582-599;09.00582-599;09.00582-599;09.00582-599;
23.03.10;Paul Helliwell;07:00:00;16:00:00;60;09.00582-532;09.00582-532;09.00582-532;09.00582-532;09.00582-532;09.00582-532;09.00582-532 / 100018-38;100018-38 / 100018-38;
23.03.10;Richard Raymond;07:00:00;16:00:00;60;077353-12302;077353-12302;077353-12302;077353-12302;077353-12302;077353-12302;100023-0;100023-0 / 100018-48;
23.03.10;Johannes Geldenhuys;
23.03.10;Ntombenkosi Maldaki;07:00:00;16:00:00;60;09.00582-599;09.00582-599;09.00582-599;09.00582-599;09.00582-599;09.00582-599;09.00582-599;09.00582-599;
23.03.10;Abdul-Aziz Hendricks;07:00:00;16:00:00;60;09.00582-600;09.00582-600 / 09.00582-600;09.00582-600;09.00582-600;09.00582-600;09.00582-600;09.00582-600;09.00582-600;
23.03.10;Ralf Hummel;
23.03.10;Mark Britten;07:00:00;16:00:00;60;100036-67;100036-67;100036-67;100036-67;100036-67;100036-67;100036-67;100036-67;
23.03.10;Angelo Bentley;07:00:00;16:00:00;60;100036-80;100036-80;100036-80;100036-69;100036-69;100036-73;100036-73;100036-73;
24.03.10;Brendan van Zyl;07:00:00;16:00:00;60;09.00582-355;100018-39 / 09.00311-0;09.00311-0;09.00311-0;09.00311-0;09.00311-0;09.00311-0;09.00311-0;
24.03.10;Jason Smith;07:00:00;16:00:00;60;09.00582-0;09.00582-0;09.00582-0;09.00582-0;09.00582-0;09.00582-0;09.00582-0;09.00582-0;
24.03.10;Justin Jansen Van Vuuren;07:00:00;16:00:00;60;09.00582-594;09.00582-594;09.00582-416;09.00582-416;09.00582-416;09.00582-416;09.00582-416;09.00582-416 / 09.00582-416;
24.03.10;Nico Claassen;07:00:00;16:00:00;60;100018-37;100018-37;100018-37;100018-37;100018-37;100018-37;100018-37 / 100018-37;100018-37;
24.03.10;Malcolm Vorster;07:00:00;16:00:00;60;077353-0;100018-43;09.00582-117;09.00582-117 / 077353-12287;077353-12287;077353-12287;077353-12287;077353-12287;
24.03.10;Graham Meyer;07:00:00;16:00:00;60;077353-12243;077353-12243;077353-12243;077353-12243;077353-12243;077353-12243;09.00582-491;09.00582-491;
24.03.10;Thando Katywa;07:00:00;16:00:00;60;09.00582-601;09.00582-601;09.00582-601;09.00582-601;09.00582-601;09.00582-601;09.00582-601;09.00582-601 / 09.00582-119;
24.03.10;Ludumo Sankobe;
24.03.10;Paul Helliwell;07:00:00;16:00:00;60;12262-182 / 12262-182;12262-182;12262-182;12262-182 / 12262-182;12262-182;12262-182;12262-182 / 12262-182;100018-38;
24.03.10;Richard Raymond;07:00:00;16:00:00;60;077353-12302;077353-12302;077353-12302;077353-12302;100018-48;09.00582-598;09.00582-598;09.00582-598;
24.03.10;Johannes Geldenhuys;
24.03.10;Ntombenkosi Maldaki;07:00:00;16:00:00;60;100018-50 / 09.00582-599;09.00582-599;09.00582-599;09.00582-599;09.00582-599;09.00582-599;09.00582-599;09.00582-599;
24.03.10;Abdul-Aziz Hendricks;07:00:00;16:00:00;60;09.00582-600;09.00582-600;09.00582-600;09.00582-600;09.00582-600;09.00582-600 / 100018-51;09.00582-600;09.00582-600;
24.03.10;Ralf Hummel;
24.03.10;Mark Britten;07:00:00;16:00:00;60;100036-67;100036-67;100036-67;100036-67;100036-67;100036-67;100036-67;100036-67;
24.03.10;Angelo Bentley;07:00:00;16:00:00;60;100036-81;100036-81;100036-81;100036-69;100036-69;100036-73;100036-80;100036-80;
25.03.10;Brendan van Zyl;07:00:00;16:00:00;60;09.00582-355;09.00311-0;09.00311-0;09.00311-0;09.00311-0;100018-39 / 09.00065-378;09.00065-378 / 09.00065-378;09.00065-378;
25.03.10;Jason Smith;07:00:00;16:00:00;60;09.00582-0;09.00582-0;09.00582-0;09.00582-0;09.00582-0;09.00582-0;09.00582-0;09.00582-0;
25.03.10;Justin Jansen Van Vuuren;07:00:00;16:00:00;60;09.00582-416;09.00582-416;09.00582-532;09.00582-601;09.00582-120;09.00582-120;09.00582-416;09.00582-416 / 09.00582-416;
25.03.10;Nico Claassen;07:00:00;16:00:00;60;100018-37;100018-37;100018-37;100018-37;100018-37;100018-37;100025-265;100025-265;
25.03.10;Malcolm Vorster;07:00:00;16:00:00;60;077353-12287;077353-12287;077353-12287;077353-12287;077353-12287;077353-12287;100018-43;09.00582-117;
25.03.10;Graham Meyer;07:00:00;16:00:00;60;09.00146-0;09.00146-0;09.00146-0 / 09.00582-491;09.00582-491;09.00582-491;09.00582-491;09.00582-491;09.00582-491 / 100018-44;
25.03.10;Thando Katywa;07:00:00;16:00:00;60;09.00582-601;09.00582-601;09.00582-601;09.00582-601;09.00582-417;09.00582-417;09.00582-417;09.00582-417;
25.03.10;Ludumo Sankobe;07:00:00;16:00:00;60;100023-0;100023-0;100023-0;100023-0;100023-0;100023-0;100023-0;100023-0;
25.03.10;Paul Helliwell;07:00:00;16:00:00;60;077353-0;09.00582-532;09.00582-532;09.00582-532;09.00582-532;09.00582-532;09.00582-532;09.00582-532;
25.03.10;Richard Raymond;07:00:00;16:00:00;60;100018-48;100018-48;09.00582-598;09.00582-598;09.00582-598;09.00582-598;09.00582-598;09.00582-598;
25.03.10;Johannes Geldenhuys;
25.03.10;Ntombenkosi Maldaki;07:00:00;16:00:00;60;100018-50;09.00582-0;09.00582-0;09.00582-0;09.00582-0;09.00582-0;09.00582-0;09.00582-0;
25.03.10;Abdul-Aziz Hendricks;07:00:00;16:00:00;60;100018-51;09.00582-0;09.00582-0;09.00582-0;09.00582-600;09.00582-600;09.00582-493;09.00582-493;
25.03.10;Ralf Hummel;
25.03.10;Mark Britten;07:00:00;16:00:00;60;100036-67;100036-67;100036-67;100036-67;100036-67;100036-67;100036-67;100036-67 / 100018-52;
25.03.10;Angelo Bentley;07:00:00;16:00:00;60;100036-81;100036-81;100036-69;100036-69;100036-80;100036-80;100036-73;100036-73;
26.03.10;Brendan van Zyl;07:00:00;16:00:00;60;09.00582-355;09.00065-378;09.00065-378;09.00065-378;09.00065-378 / 09.00065-378;09.00065-378;09.00065-378;09.00065-378 / 100018-39;
26.03.10;Jason Smith;07:00:00;16:00:00;60;09.00582-0;09.00582-0;09.00582-0;09.00582-0;09.00582-0;09.00582-0;09.00582-0;09.00582-0;
26.03.10;Justin Jansen Van Vuuren;07:00:00;16:00:00;60;09.00582-416;09.00582-416;09.00582-416;09.00582-416;09.00582-416;09.00582-386;09.00582-386;09.00582-386;
26.03.10;Nico Claassen;07:00:00;16:00:00;60;100025-265;100025-265;09.00582-116;09.00582-116;09.00582-116;09.00582-116;09.00582-116;100018-37;
26.03.10;Malcolm Vorster;07:00:00;16:00:00;60;09.00582-117;077353-0;077353-0;077353-0;077353-0;077353-0;077353-0;077353-0;
26.03.10;Graham Meyer;07:00:00;16:00:00;0;100023-0;100023-0;100023-0;100023-0;100023-0;100023-0;100023-0;100023-0;
26.03.10;Thando Katywa;07:00:00;16:00:00;60;09.00582-417;09.00582-417;09.00582-417;09.00582-417;09.00582-417;09.00582-601;09.00582-601;09.00582-601;
26.03.10;Ludumo Sankobe;07:00:00;16:00:00;60;100023-0;100023-0;100023-0;100023-0;100023-0;100023-0;100023-0;100023-0;
26.03.10;Paul Helliwell;07:00:00;16:00:00;60;09.00582-532;09.00582-532;09.00582-532;09.00582-532;09.00582-532;09.00582-532;09.00582-532;09.00582-532;
26.03.10;Richard Raymond;07:00:00;16:00:00;60;077353-12302;077353-12302;09.00582-598;09.00582-598;09.00582-598;09.00582-598;09.00582-598;09.00582-598;
26.03.10;Johannes Geldenhuys;
26.03.10;Ntombenkosi Maldaki;07:00:00;16:00:00;60;100018-50;09.00582-0;100025-320;100025-320;100025-320;100025-320;100025-320;100025-320;
26.03.10;Abdul-Aziz Hendricks;07:00:00;16:00:00;60;100025-321;100025-321;100025-321;100025-321;100025-321;100025-321;100025-321;100025-321;
26.03.10;Ralf Hummel;
26.03.10;Mark Britten;07:00:00;16:00:00;60;100036-52;100036-67;100036-67;100036-67;100036-67;100036-67;100036-67;100036-67;
26.03.10;Angelo Bentley;07:00:00;16:00:00;60;100036-69;100036-69;100036-69;100036-81;100036-81;100036-73;100036-73;100036-73;
27.03.10;Brendan van Zyl;
27.03.10;Jason Smith;
27.03.10;Justin Jansen Van Vuuren;
27.03.10;Nico Claassen;
27.03.10;Malcolm Vorster;
27.03.10;Graham Meyer;
27.03.10;Thando Katywa;
27.03.10;Ludumo Sankobe;
27.03.10;Paul Helliwell;
27.03.10;Richard Raymond;
27.03.10;Johannes Geldenhuys;
27.03.10;Ntombenkosi Maldaki;
27.03.10;Abdul-Aziz Hendricks;
27.03.10;Ralf Hummel;
27.03.10;Mark Britten;
27.03.10;Angelo Bentley;
28.03.10;Brendan van Zyl;
28.03.10;Jason Smith;
28.03.10;Justin Jansen Van Vuuren;
28.03.10;Nico Claassen;
28.03.10;Malcolm Vorster;
28.03.10;Graham Meyer;
28.03.10;Thando Katywa;
28.03.10;Ludumo Sankobe;
28.03.10;Paul Helliwell;
28.03.10;Richard Raymond;
28.03.10;Johannes Geldenhuys;
28.03.10;Ntombenkosi Maldaki;
28.03.10;Abdul-Aziz Hendricks;
28.03.10;Ralf Hummel;
28.03.10;Mark Britten;
28.03.10;Angelo Bentley;
29.03.10;Brendan van Zyl;07:00:00;16:00:00;60;09.00582-355;100018-39 / 09.00065-378;09.00065-378;09.00065-378;09.00065-378;09.00065-378;09.00065-378;09.00065-378;
29.03.10;Jason Smith;07:00:00;16:00:00;60;09.00582-0;09.00582-598;09.00582-598;09.00582-598;09.00582-598;09.00582-598;09.00582-598;09.00582-598;
29.03.10;Justin Jansen Van Vuuren;07:00:00;16:00:00;60;09.00582-416;09.00582-416;09.00582-416 / 09.00582-0;09.00582-0;09.00582-0;09.00582-0;09.00582-0;09.00582-0 / 09.00582-0;
29.03.10;Nico Claassen;07:00:00;16:00:00;60;09.00582-0 / 09.00582-116;09.00582-116;09.00582-116;09.00582-116;09.00582-116;09.00582-116;100018-37;100018-37;
29.03.10;Malcolm Vorster;07:00:00;16:00:00;60;09.00286-0;09.00286-0;09.00286-0;09.00286-0;09.00286-0 / 077353-12350;077353-12350;100018-43 / 077353-12287;077353-12287;
29.03.10;Graham Meyer;07:00:00;16:00:00;60;100023-0;100023-0;100023-0;100023-0;100023-0;100023-0;100023-0;100023-0;
29.03.10;Thando Katywa;07:00:00;16:00:00;60;09.00582-601;09.00582-601;09.00582-601;09.00582-601;09.00582-601;09.00582-417;09.00582-417;09.00582-417;
29.03.10;Ludumo Sankobe;07:00:00;16:00:00;60;09.00286-30;09.00286-30;09.00286-30;09.00286-30;09.00286-30;09.00286-30;09.00286-30;09.00286-30;
29.03.10;Paul Helliwell;07:00:00;16:00:00;60;077353-12335;09.00582-608;09.00582-608 / 100018-38;077353-12332;077353-12332;077353-12332;077353-12332;077353-12332;
29.03.10;Richard Raymond;07:00:00;16:00:00;60;09.00582-390;09.00582-390;09.00582-390;09.00582-390;09.00582-390;09.00582-390;09.00582-390;09.00582-390;
29.03.10;Johannes Geldenhuys;
29.03.10;Ntombenkosi Maldaki;07:00:00;16:00:00;60;09.00582-534;09.00582-534;09.00582-534;09.00582-534;09.00582-534;09.00582-534;09.00582-534;09.00582-534;
29.03.10;Abdul-Aziz Hendricks;07:00:00;16:00:00;60;09.00582-534;09.00582-534;09.00582-534;09.00582-534;09.00582-534;09.00582-534;09.00582-534;09.00582-534;
29.03.10;Ralf Hummel;
29.03.10;Mark Britten;07:00:00;16:00:00;60;100036-67;100036-67;100036-67;100036-67;100036-76;100036-76;100036-76;100036-76;
29.03.10;Angelo Bentley;07:00:00;16:00:00;60;100036-81;100036-81;100036-81;100036-69;100036-69;100036-73;100036-73;100036-73;
30.03.10;Brendan van Zyl;07:00:00;16:00:00;60;09.00582-355;100018-39 / 09.00065-378;09.00065-378;09.00065-378;09.00065-378;09.00065-378;09.00065-378;09.00065-378;
30.03.10;Jason Smith;07:00:00;16:00:00;60;09.00582-598;09.00582-598;09.00582-598;09.00582-598;09.00582-598;09.00582-598;09.00582-598;09.00582-598;
30.03.10;Justin Jansen Van Vuuren;07:00:00;16:00:00;60;09.00582-0;09.00582-0;09.00582-0;09.00582-534;09.00582-534;09.00582-534;09.00582-416;09.00582-416;
30.03.10;Nico Claassen;07:00:00;16:00:00;60;100018-37;100018-37;100018-37;100018-37;100018-37;09.00582-0;09.00582-0;09.00582-0;
30.03.10;Malcolm Vorster;07:00:00;16:00:00;60;09.00286-0;09.00286-0;09.00286-0;09.00286-0;09.00582-595;09.00582-595;09.00582-117;09.00582-117;
30.03.10;Graham Meyer;07:00:00;16:00:00;60;100023-0;100023-0;100023-0;100023-0;100023-0;100023-0;100023-0;100023-0;
30.03.10;Thando Katywa;07:00:00;16:00:00;60;09.00582-601;09.00582-601;09.00582-601;09.00582-601;09.00582-601;09.00582-601;09.00582-417;09.00582-417;
30.03.10;Ludumo Sankobe;07:00:00;16:00:00;60;09.00286-30;09.00286-30;09.00286-30;09.00286-30;09.00286-30;09.00286-30;09.00286-30;09.00286-30;
30.03.10;Paul Helliwell;07:00:00;16:00:00;60;077353-12335;077353-12335;077353-12335;077353-12335;077353-0;077353-0;077353-0;077353-0;
30.03.10;Richard Raymond;07:00:00;16:00:00;60;09.00582-533;09.00582-533;09.00582-533;09.00582-533;09.00582-533;09.00582-533;09.00582-533;100018-48;
30.03.10;Johannes Geldenhuys;
30.03.10;Ntombenkosi Maldaki;07:00:00;16:00:00;60;09.00582-534;09.00582-534;09.00582-534;09.00582-534;09.00582-534;09.00582-534;09.00582-534;09.00582-534;
30.03.10;Abdul-Aziz Hendricks;07:00:00;16:00:00;60;09.00582-534;09.00582-534;09.00582-534;09.00582-534;09.00582-534;09.00582-534;09.00582-534;09.00582-534;
30.03.10;Ralf Hummel;
30.03.10;Mark Britten;07:00:00;16:00:00;60;100036-67;100036-67;100036-67;100036-67;100036-67;100036-67;100036-67;100036-67;
30.03.10;Angelo Bentley;07:00:00;16:00:00;60;100036-69;100036-69;100036-69;100036-73;100036-73;100036-73;100036-81;100036-81;
31.03.10;Brendan van Zyl;07:00:00;16:00:00;60;100018-39 / 09.00065-378;09.00065-378;09.00065-378;09.00065-378;09.00065-378;09.00065-378;09.00065-378 / 09.00582-355;09.00065-378;
31.03.10;Jason Smith;07:00:00;16:00:00;60;09.00582-598;09.00582-598;09.00582-598;09.00582-598;09.00582-598;09.00582-598;09.00582-598;09.00582-598;
31.03.10;Justin Jansen Van Vuuren;07:00:00;16:00:00;60;09.00582-416;09.00582-416;09.00582-416;09.00582-416;09.00582-416;09.00582-0;09.00582-0;09.00582-0;
31.03.10;Nico Claassen;07:00:00;16:00:00;60;100018-37;100018-37;100018-37;100018-37;100018-37;09.00582-116 / 100018-116;100018-116 / 09.00582-0;09.00582-116;
31.03.10;Malcolm Vorster;07:00:00;16:00:00;60;100023-0;100023-0;100023-0;100023-0;100023-0;100023-0;100023-0;100023-0;
31.03.10;Graham Meyer;07:00:00;16:00:00;60;100023-0;100023-0;100023-0;100023-0;100023-0;100023-0;100023-0;100023-0;
31.03.10;Thando Katywa;07:00:00;16:00:00;60;09.00286-30;09.00286-30 / 09.00582-601;09.00582-601;09.00582-601;09.00582-601;09.00582-601 / 09.00582-601;09.00582-601;09.00582-601;
31.03.10;Ludumo Sankobe;07:00:00;16:00:00;60;09.00286-30;09.00286-30;09.00286-30;09.00286-30;09.00286-30;09.00286-30;09.00286-30;09.00286-30;
31.03.10;Paul Helliwell;07:00:00;16:00:00;60;077353-0;077353-0;077353-0;077353-0;077353-0;077353-0;077353-0;077353-0;
31.03.10;Richard Raymond;07:00:00;16:00:00;60;09.00582-533;09.00582-533;09.00582-533;09.00582-533;09.00582-533;09.00582-533;09.00582-533;100018-48;
31.03.10;Johannes Geldenhuys;
31.03.10;Ntombenkosi Maldaki;07:00:00;16:00:00;60;09.00582-534;09.00582-534;09.00582-534;09.00582-534;09.00582-534;09.00582-534;09.00582-534;09.00582-534;
31.03.10;Abdul-Aziz Hendricks;07:00:00;16:00:00;60;09.00582-600;09.00582-600;09.00582-600;09.00582-600;09.00582-600;09.00582-600;09.00582-600;09.00582-600;
31.03.10;Ralf Hummel;
31.03.10;Mark Britten;07:00:00;16:00:00;60;100036-76;100036-67;100036-67;100036-67;100036-67;100036-67;100036-67;100036-67;
31.03.10;Angelo Bentley;07:00:00;16:00:00;60;100036-69;100036-69;100036-69;100036-81;100036-81;100036-81;100036-73;100036-73;