"18.01.10","1","077353","7686","110","Engineering","","0","8501: E1 M5: allg. Projekttätigkeiten. Bugfixing: 21151","07:00","16:00","6","60",
"18.01.10","1","077353","7683","110","Engineering","","0","8185: Warten auf Authoring (Performance-Probleme bei Ausführung). Server issues","","","2","0",
"19.01.10","2","077353","10721","170","Schulung","","0","8501: E1 M5: Assisting colleagues. Assisting with training","07:00","16:00","2","60",
"19.01.10","2","077353","7683","110","Engineering","","0","8185: Warten auf Authoring (Performance-Probleme bei Ausführung). Server issues","","","1","0",
"19.01.10","2","077353","7686","110","Engineering","","0","8501: E1 M5: allg. Projekttätigkeiten. Investigating bugs on bug list, for milestone","","","5","0",
"20.01.10","3","077353","7686","110","Engineering","","0","8501: E1 M5: allg. Projekttätigkeiten. Meeting","07:00","16:00","2","60",
"20.01.10","3","077353","10721","170","Schulung","","0","8501: E1 M5: Assisting colleagues. Assisting with training","","","1","0",
"20.01.10","3","077353","11951","120","Codierung","","10","6023: E1 M5: PCM3.0 (24.100): HeadUnit: Lautsprechertest: Implementierung. Intitial investigations. Implimentation has begun. Minor issues with requested method resolved","","","5","0",
"21.01.10","4","077353","11951","120","Codierung","","40","6023: E1 M5: PCM3.0 (24.100): HeadUnit: Lautsprechertest: Implementierung. Continued implimentation","07:00","16:00","6","60",
"21.01.10","4","077353","7683","110","Engineering","","0","8185: Warten auf Authoring (Performance-Probleme bei Ausführung). Server issues","","","2","0",
"22.01.10","5","077353","11951","120","Codierung","","60","6023: E1 M5: PCM3.0 (24.100): HeadUnit: Lautsprechertest: Implementierung. Continued implimentation","07:00","16:00","7","60",
"22.01.10","5","077353","7686","110","Engineering","","0","8501: E1 M5: allg. Projekttätigkeiten. General issues, and maintainence","","","1","0",
