"16.08.10","1","100018","51","110","Engineering","","0","Wochenaufgaben AES. Helping colleages on various tasks with bugfixing CTS's and ODX entries","07:00","16:00","1","60",
"16.08.10","1","09.00582","2476","181","Fehlerbes. vor Ausl. (Bugzilla)","","0","5026: 9x6: Bugfixing: Bedat: BF+Test. Bugfixing ODX Kombi0x.* config data and config records from s57","","","2","0",
"16.08.10","1","09.00582","2476","181","Fehlerbes. vor Ausl. (Bugzilla)","","0","5026: 9x6: Bugfixing: Bedat: BF+Test. Bugfixing ODX ecu java jobs as described in bugzilla, bug 24975, from s57","","","5","0",
"17.08.10","2","09.00582","2476","181","Fehlerbes. vor Ausl. (Bugzilla)","","0","5026: 9x6: Bugfixing: Bedat: BF+Test. Bugfixing and Testing ODX for kombi with option items to work with java jobs from s57","07:00","16:00","5,5","60",
"17.08.10","2","100018","51","110","Engineering","","0","Wochenaufgaben AES. Helping colleages on various tasks with bugfixing CTS's and ODX entries","","","1","0",
"17.08.10","2","09.00582","2137","120","Codierung","","0","1024: 9x6: Kombi: SG-Tausch_0x: Implementierung. Importing CTS for SGTausch sequence and bugfixing java job","","","0,5","0",
"17.08.10","2","100025","321","170","Schulung","","0","Schulungen 2010. Training colleague on ODX Authoring service creation","","","1","0",
"18.08.10","3","09.00582","2139","120","Codierung","","0","1024: 9x6: Kombi: SG-Tausch_PRE-READ_2000: Implementation. Bugfixing CTS according to changes made in the ODX","07:00","16:00","5,5","60",
"18.08.10","3","100018","51","110","Engineering","","0","Wochenaufgaben AES. General bugfixing and helping colleagues on CTS and ODX implementation.","","","1","0",
"18.08.10","3","09.00582","2137","120","Codierung","","0","1024: 9x6: Kombi: SG-Tausch_0x: Implementierung.  Bugfixing simulations for to match up with the CTS","","","1,5","0",
"19.08.10","4","100018","51","110","Engineering","","0","Wochenaufgaben AES. Meeting","07:00","16:00","1","60",
"19.08.10","4","100018","51","110","Engineering","","0","Wochenaufgaben AES. General bugfixing and helping colleagues on work related problems for CTS and ODX.","","","1","0",
"19.08.10","4","100025","321","170","Schulung","","0","Schulungen 2010. Teaching colleague on ODX implementation for 9x6","","","1","0",
"19.08.10","4","09.00582","2139","120","Codierung","","100","1024: 9x6: Kombi: SG-Tausch_PRE-READ_2000: Implementation. Bugfixing CTS for Kombi2000 Pre-Read","","","3","0",
"19.08.10","4","09.00582","2141","120","Codierung","","0","1024: 9x6: Kombi: SG-Tausch_POST-WRITE_2000: Implementierung. Bugfixing and Implementing CTS for Kombi2000 Post Write","","","2","0",
"20.08.10","5","09.00582","2141","120","Codierung","","0","1024: 9x6: Kombi: SG-Tausch_POST-WRITE_2000: Implementierung. Bugfixing and Implementing CTS for Kombi2000 Post Write","07:00","16:00","7","60",
"20.08.10","5","100018","51","110","Engineering","","0","Wochenaufgaben AES. General bugfixing and helping colleagues on work related problems.","","","1","0",
