"21.06.10","1","100152","9","120","Codierung","","80","1001: E1 PIROL: EDC17: ODX Bedat. Updating ODX Measurement values and changes due to RVRP(From s54)","07:00","16:00","5","60",
"21.06.10","1","100152","9","120","Codierung","","0","1001: E1 PIROL: EDC17: ODX Bedat. Waiting for Authoring(From s54)","","","2","0",
"21.06.10","1","100018","43","110","Engineering","","0","Wochenaufgaben PAE. Feedback on work completed to date, tracking ODX progress","","","1","0",
"22.06.10","2","100152","9","120","Codierung","","80","1001: E1 PIROL: EDC17: ODX Bedat. From s54 ODX Reworking and testing","07:00","16:00","2","60",
"22.06.10","2","100018","43","110","Engineering","","0","Wochenaufgaben PAE. General admin and feedback on progress, also timesheets","","","1","0",
"22.06.10","2","100152","193","110","Engineering","","0","8501: E1 PIROL: allg. Projekttätigkeiten. Meeting for ODX updating and status","","","1","0",
"22.06.10","2","100152","193","110","Engineering","","0","8501: E1 PIROL: allg. Projekttätigkeiten. Teleco with dr and s41","","","1","0",
"22.06.10","2","100152","21","110","Engineering","","90","1004: E1 PIROL: EDC17: SystAnp Fkt1 (Lernwerte Partikelfilter): PH+Testspec Review. From s48, review of Test spec and PH","","","3","0",
"23.06.10","3","100152","26","110","Engineering","","10","1005: E1 PIROL: EDC17: SystAnp/Kurztest Fkt2-12: PH+Testspec Review. Began Test Specification review","07:00","16:00","2","60",
"23.06.10","3","100152","21","110","Engineering","","100","1004: E1 PIROL: EDC17: SystAnp Fkt1 (Lernwerte Partikelfilter): PH+Testspec Review. Finished review(from s48)","","","1","0",
"23.06.10","3","100152","193","110","Engineering","","0","8501: E1 PIROL: allg. Projekttätigkeiten. General admin and meeting, also timesheets","","","1,5","0",
"23.06.10","3","100025","313","170","Schulung","","0","Schulungen 2010. ODX Document research, finding correct information for implemeting","","","1","0",
"23.06.10","3","100152","9","120","Codierung","","0","1001: E1 PIROL: EDC17: ODX Bedat. From s54(ODX Reworking and testing)","","","2","0",
"23.06.10","3","100018","43","110","Engineering","","0","Wochenaufgaben PAE. Timesheet Admin","","","0,5","0",
"24.06.10","4","100152","193","110","Engineering","","0","8501: E1 PIROL: allg. Projekttätigkeiten. Teleco re (Kraftstoffsystem entlüften/entleeren), and admin","07:00","16:00","1,5","60",
"24.06.10","4","100152","43","110","Engineering","","0","Wochenaufgaben PAE. Bi-Weekly department meeting, discuss project developments and progress, timesheet admin","","","2","0",
"24.06.10","4","100152","9","110","Engineering","","90","1001: E1 PIROL: EDC17: ODX Bedat. From s54(ODX Reworking and testing)","","","2","0",
"24.06.10","4","100152","26","110","Engineering","","50","1005: E1 PIROL: EDC17: SystAnp/Kurztest Fkt2-12: PH+Testspec Review. Review test specification and made changes during review.","","","2","0",
"24.06.10","4","100025","313","170","Schulung","","0","Schulungen 2010. Checking bosch jobs for flow and information","","","0,5","0",
"25.06.10","5","100023","0","910","Urlaub","","0","Time Off. Time-Off","07:00","16:00","1","60",
"25.06.10","5","100152","26","110","Engineering","","80","1005: E1 PIROL: EDC17: SystAnp/Kurztest Fkt2-12: PH+Testspec Review. Review test specification and made changes during review.","","","4","0",
"25.06.10","5","100025","313","170","Schulung","","0","Schulungen 2010. More ODX testing and document checking","","","1,5","0",
"25.06.10","5","100152","193","110","Engineering","","0","8501: E1 PIROL: allg. Projekttätigkeiten. General admin","","","0,5","0",
"25.06.10","5","100018","43","110","Engineering","","0","Wochenaufgaben PAE. Timesheet admin, checking and verifying","","","1","0",
