"03.05.10","1","100036","0","170","Schulung","","80","Training: CTS Authoring + GESIC /em009fp1. Creating CTS's for kombi","07:00","16:00","5","60",
"03.05.10","1","100036","79","170","Schulung","","20","Training: Create Test Specification /em009fp1. Creating Text Specs for kombi","","","3","0",
"04.05.10","2","100023","0","920","Krankheit","","0","Sick Leave. Sick Leave","07:00","16:00","8","60",
"05.05.10","3","100023","0","920","Krankheit","","0","Sick Leave. Sick Leave","07:00","16:00","8","60",
"06.05.10","4","100036","79","170","Schulung","","40","Training: Create Test Specification /em009fp1. Creating Text Specs","07:00","16:00","3","60",
"06.05.10","4","09.00582","736","120","Codierung","","60","9X6:PSM/ABS:Entluften:Implementierung. Completing CTS and implementing(Task was assign to s43)","","","5","0",
"07.05.10","5","09","00582","120","Codierung","","100","9X6:PSM/ABS:Entluften:Implementierung. Completing CTS and implementing(Task was assign to s43)","07:00","16:00","8","60",
