"24.05.10","1","09.00582","904","110","Engineering","","10","3040: 9x6: ME7.11: ECU Analyse. documentation for Stellglieder","07:00","16:00","2,5","60",
"24.05.10","1","09.00582","904","110","Engineering","","15","3040: 9x6: ME7.11: ECU Analyse. Analysis + documentation for Fahrzeugdaten.","","","2","0",
"24.05.10","1","100018","54","110","Engineering","","0","S4 Technical Support/Troubleshooting. MFTD problem, assisting staff with questions.","","","2,5","0",
"24.05.10","1","09.00582","55","110","Engineering","","0","S4 Administrative Tasks. Tracking work items and finding tasks for staff.","","","1","0",
"25.05.10","2","09.00582","904","110","Engineering","","15","3040: 9x6: ME7.11: ECU Analyse. Kurztest analysis - Setting up simulations + instrumenting FWS source","07:00","16:00","6","60",
"25.05.10","2","100018","54","110","Engineering","","0","S4 Technical Support/Troubleshooting. MFTD vci problem, NoSuchMethod error troubleshooting","","","0,5","0",
"25.05.10","2","100018","37","110","Engineering","","0","S4/DSA overall tasks. Weekly telco with dr, mi","","","0,5","0",
"25.05.10","2","100018","55","110","Engineering","","0","S4 Administrative Tasks. Meeting with S4 management, task tracking + assigments.","","","1","0",
"26.05.10","3","09.00582","904","110","Engineering","","15","3040: 9x6: ME7.11: ECU Analyse. Kurztest Analysis","07:00","16:00","1","60",
"26.05.10","3","100018","54","110","Engineering","","0","S4 Technical Support/Troubleshooting. PIDT 7.0.0 SDT problem troubleshooting + temporary fix.","","","4","0",
"26.05.10","3","100018","55","110","Engineering","","0","S4 Administrative Tasks. Weekly telco, updating and tracking workstatus.","","","3","0",
"27.05.10","4","100023","0","910","Urlaub","","0","Urlaub. Urlaub","07:00","16:00","8","60",
"28.05.10","5","100023","0","110","Engineering","","100","Urlaub. Urlaub","07:00","16:00","8","60",
