"02.08.10","1","09.00582","1403","120","Codierung","","50","9x6: Kombi: Komplexe Codierung: Implementierung. Waiting for Authoring + VCI RX Timeouts","07:00","16:00","3","60",
"02.08.10","1","09.00582","1403","120","Codierung","","50","9x6: Kombi: Komplexe Codierung: Implementierung. Implementation","","","1","0",
"02.08.10","1","100018","55","110","Engineering","","0","S4 Administrative Tasks. Admin tasks","","","1","0",
"02.08.10","1","100018","54","110","Engineering","","0","S4 Technical Support / Troubleshooting. Assisting colleagues with issues and questions","","","3","0",
"03.08.10","2","09.00582","1403","120","Codierung","","50","1031: 9x6: Kombi: Komplexe Codierung: Implementierung. Setting up PCPAG10 PIDT and Authoring","07:00","16:00","3","60",
"03.08.10","2","09.00582","1403","120","Codierung","","50","1031: 9x6: Kombi: Komplexe Codierung: Implementierung. Waiting for Authroing + VCI RX Timeouts","","","2","0",
"03.08.10","2","09.00582","1403","120","Codierung","","50","1031: 9x6: Kombi: Komplexe Codierung: Implementierung. Implementation","","","0,5","0",
"03.08.10","2","100018","54","110","Engineering","","0","S4 Technical Support / Troubleshooting. Assisintg coleagues with issues and questions.","","","2,5","0",
"04.08.10","3","09.00582","1403","120","Codierung","","50","1031: 9x6: Kombi: Komplexe Codierung: Implementierung. Implementation","07:00","16:00","4","60",
"04.08.10","3","09.00582","1403","120","Codierung","","50","1031: 9x6: Kombi: Komplexe Codierung: Implementierung. Waiting for Authroing","","","2","0",
"04.08.10","3","100018","54","110","Engineering","","0","S4 Technical Support / Troubleshooting. assisting colleagues with issues and questions","","","2","0",
"05.08.10","4","09.00582","1403","120","Codierung","","60","1031: 9x6: Kombi: Komplexe Codierung: Implementierung. Waiting for Authoring","07:00","16:00","1","60",
"05.08.10","4","09.00582","1403","120","Codierung","","60","1031: 9x6: Kombi: Komplexe Codierung: Implementierung. DSA18A downtime","","","2","0",
"05.08.10","4","09.00582","1403","120","Codierung","","60","1031: 9x6: Kombi: Komplexe Codierung: Implementierung. Implementation","","","4","0",
"05.08.10","4","100018","54","110","Engineering","","0","S4 Technical Support / Troubleshooting. Assisting colleagues with issues and questions","","","1","0",
"06.08.10","5","09.00582","1403","120","Codierung","","70","1031: 9x6: Kombi: Komplexe Codierung: Implementierung. Implementation","07:00","16:00","0,5","60",
"06.08.10","5","09.00582","1403","120","Codierung","","0","1031: 9x6: Kombi: Komplexe Codierung: Implementierung. Waiting for Authoring - Deliverables","","","0,5","0",
"06.08.10","5","100018","42","110","Engineering","","0","Wochenaufgaben AES. Timesheets","","","0,5","0",
"06.08.10","5","100018","55","110","Engineering","","0","S4 Administrative Tasks. General admin + Meeting with S4 management.","","","1,5","0",
"06.08.10","5","100018","54","110","Engineering","","0","S4 Technical Support / Troubleshooting. Assisting with E1 Pirol problems.","","","5","0",
