"22.02.10","1","077251","3572","181","Fehlerbes. vor Ausl. (Bugzilla)","","0","6019: Bugfixing. Bugs #21983, #21984","07:00","16:00","6","60",
"22.02.10","1","077251","3577","110","Engineering","","0","8185: Warten auf Authoring. Poor performance","","","2","0",
"23.02.10","2","077251","3572","181","Fehlerbes. vor Ausl. (Bugzilla)","","0","6019: Bugfixing. Worked on the following bug: 22042","07:00","16:00","4","60",
"23.02.10","2","077251","3577","110","Engineering","","0","8185: Warten auf Authoring. Poor authoring performace","","","2","0",
"23.02.10","2","077353","12174","181","Fehlerbes. vor Ausl. (Bugzilla)","","0","1604: E1 M5: Bugfixing. Working on PCM2 MMI job issues","","","2","0",
"24.02.10","3","077251","3572","181","Fehlerbes. vor Ausl. (Bugzilla)","","0","6019: Bugfixing. Worked on the following bugs: #22048, 14274","07:00","16:00","6","60",
"24.02.10","3","077251","3577","110","Engineering","","0","8185: Warten auf Authoring. Poor performance","","","2","0",
"25.02.10","4","077251","3572","181","Fehlerbes. vor Ausl. (Bugzilla)","","0","6019: Bugfixing. Working on bugs","07:00","16:00","6","60",
"25.02.10","4","077251","3577","110","Engineering","","0","8185: Warten auf Authoring. Poor performance","","","2","0",
"26.02.10","5","077251","3572","181","Fehlerbes. vor Ausl. (Bugzilla)","","0","6019: Bugfixing. Working on bugs","07:00","16:00","6","60",
"26.02.10","5","077251","3577","110","Engineering","","0","8185: Warten auf Authoring. Waiting for authoring","","","2","0",
