"11.01.10","1","077353","11799","140","Test","","100","5904: E1 M5: PCM2-TV-Tuner: Feldstärke über Kanal und Land: Moduletest. Complete - Pierre Jansen","07:00","16:00","1","60",
"11.01.10","1","077353","11800","181","Fehlerbes. vor Ausl. (Bugzilla)","","100","5904: E1 M5: PCM2-TV-Tuner: Feldstärke über Kanal und Land: Bugfixing zum Modultest. Complete - Pierre Jansen","","","1","0",
"11.01.10","1","077353","9551","110","Engineering","","0","8501: E1 M5: allg. Projekttätigkeiten. Getting into subject and meeting","","","2","0",
"11.01.10","1","077353","12095","110","Engineering","","50","5425: E1 M5: PCM2-MMI: Komplex Codier: Testspec. Busy with changes","","","4","0",
"12.01.10","2","077353","12095","110","Engineering","","75","5425: E1 M5: PCM2-MMI: Komplex Codier: Testspec. Working on simulations and testspecification","07:00","16:00","6","60",
"12.01.10","2","077353","9551","110","Engineering","","0","8501: E1 M5: allg. Projekttätigkeiten. Assisting colleague's and meeting, basic admin","","","2","0",
"13.01.10","3","077353","12095","110","Engineering","","90","5425: E1 M5: PCM2-MMI: Komplex Codier: Testspec. Complete, Sims and test specification - Waiting for review","07:00","16:00","7","60",
"13.01.10","3","077353","9551","110","Engineering","","0","8501: E1 M5: allg. Projekttätigkeiten. Assisting new members","","","1","0",
"14.01.10","4","077251","0","110","Engineering","","0","G1 GESiC: New CTS. GESiC sequence migration","07:00","16:00","7","60",
"14.01.10","4","077353","9551","110","Engineering","","0","8501: E1 M5: allg. Projekttätigkeiten. General Assisting and short project meeting","","","1","0",
"15.01.10","5","077353","9551","110","Engineering","","0","8501: E1 M5: allg. Projekttätigkeiten. Meeting with Nico and Paul","07:00","16:00","2","60",
"15.01.10","5","077251","0","110","Engineering","","0","G1 GESiC: New CTS. GESiC sequence migration","","","6","0",
