"25.10.10","1","100023","0","910","Urlaub","","0","Holiday. Time off","07:00","16:00","8","60",
"26.10.10","2","100023","0","910","Urlaub","","0","Holiday. Time off","07:00","16:00","8","60",
"27.10.10","3","09.00582","2169","120","Codierung","","0","3021: 9x6: ME7.8/ME7.8min: ODX Bedat + FAP. Implementing services and Evn Data entities for ME78 Extended FSP","07:00","16:00","8","60",
"28.10.10","4","09.00582","2169","120","Codierung","","0","3021: 9x6: ME7.8/ME7.8min: ODX Bedat + FAP. Creating Env data objects","07:00","16:00","8","60",
"29.10.10","5","100018","52","110","Engineering","","0","Wochenaufgaben AES. Meeting on documentation process for Old Models project","07:00","16:00","1","60",
"29.10.10","5","09.00582","2169","120","Codierung","","50","3021: 9x6: ME7.8/ME7.8min: ODX Bedat + FAP. Creating Env data objects","","","7","0",
