"06.12.10","1","100025","1799","170","Schulung","","65","Schulungen 2010. Training: ODX Authoring","07:00","16:00","8","60",
"07.12.10","2","100025","1799","170","Schulung","","65","Schulungen 2010. Training: ODX Authoring","07:00","16:00","8","60",
"08.12.10","3","100334","889","120","Codierung","","40","3001: Alt-BR: Motronic: ODX Bedat. Created DTCs for DME01, DME03,DME05, DME06, DME07, and DME14","07:00","16:00","5","60",
"08.12.10","3","100023","0","910","Urlaub","","0","Time-Off. Staff function","","","3","0",
"09.12.10","4","100334","889","120","Codierung","","50","3001: Alt-BR: Motronic: ODX Bedat. Work on CTS service creation on variants 01,03,04,05, and 06","07:00","16:00","8","60",
"10.12.10","5","100334","889","120","Codierung","","50","3001: Alt-BR: Motronic: ODX Bedat. Finish up CTS service creation","07:00","16:00","3","60",
"10.12.10","5","100025","1814","170","Schulung","","50","Training: ODX Authoring. Simulation creation","","","5","0",
