"08.03.10","1","100023","0","920","Krankheit","","0","Krankheit. Off sick.","07:00","16:00","9","0",
"09.03.10","2","09.00582","178","110","Engineering","","80","1020: 9x6: Kombi I: ECU Analyse. Analysis for GT, GT2.","07:00","16:00","3,5","60",
"09.03.10","2","100018","37","110","Engineering","","0","S4/DSA overall tasks. Status updates, general admin and assistance","","","4,5","0",
"10.03.10","3","100018","37","110","Engineering","","0","S4/DSA overall tasks. General admin, assisting colleagues. task tracking","07:00","16:00","3","60",
"10.03.10","3","09.00582","178","110","Engineering","","85","1020: 9x6: Kombi I: ECU Analyse. Kombi coding analysis done for GT2 / GT3.","","","5","0",
"11.03.10","4","09.00582","178","110","Engineering","","85","1020: 9x6: Kombi I: ECU Analyse. Kombi variant analysis","07:00","16:00","2","60",
"11.03.10","4","100018","37","110","Engineering","","0","S4/DSA overall tasks. Monthly report for S4 management, task tracking and assignments.","","","4","0",
"11.03.10","4","100025","265","170","Schulung","","0","Schulungen 2010. Training for S56, S57 on procom and VCI5.","","","2","0",
"12.03.10","5","100018","37","110","Engineering","","0","S4/DSA overall tasks. Arrangements for Boxster at S4, task tracking.","07:00","16:00","4","60",
"12.03.10","5","09.00582","178","110","Engineering","","90","1020: 9x6: Kombi I: ECU Analyse. Kombi variant analysis and documenting findings.","","","4","0",
