"31.05.10","1","09.00582","118","110","Engineering","","0","8501: 9x6: allg. Projekttätigkeit C1.3/ae20. Meeting","07:00","16:00","0,5","60",
"31.05.10","1","09.00582","880","120","Codierung","","50","3003: 9x6: ME7.2: Kurztest: Implementierung. Implementing SEJ and GESIC for Kurtztests","","","7,5","0",
"01.06.10","2","09.00582","118","110","Engineering","","0","8501: 9x6: allg. Projekttätigkeit C1.3/ae20. Meeting","07:00","16:00","0,5","60",
"01.06.10","2","09.00582","880","120","Codierung","","75","3003: 9x6: ME7.2: Kurztest: Implementierung. Implementing SEJ and GESIC for Kurtztests","","","7,5","0",
"02.06.10","3","09.00582","118","110","Engineering","","0","8501: 9x6: allg. Projekttätigkeit C1.3/ae20. Meeting and Telco","07:00","16:00","1","60",
"02.06.10","3","09.00582","758","140","Test","","100","1023: 9x6: Kombi 1: Tankabgleich: Modultest + Bugfixing. From f5/s46","","","0,5","0",
"02.06.10","3","100152","9","120","Codierung","","100","1001: E1 PIROL: EDC17: ODX Bedat. from s54","","","0,5","0",
"02.06.10","3","09.00582","880","120","Codierung","","85","3003: 9x6: ME7.2: Kurztest: Implementierung. Implementing GESIC for Kurtztests","","","6","0",
"03.06.10","4","09.00582","880","120","Codierung","","95","3003: 9x6: ME7.2: Kurztest: Implementierung. Implementing GESIC for Kurtztests","07:00","16:00","8","60",
"04.06.10","5","100152","17","110","Engineering","","50","1003: E1 PIROL: EDC17: SystAnp/Kurztest: Analyse. Kurtz Test Analysis","07:00","16:00","8","60",
