"09.08.10","1","100152","424","181","Fehlerbes. vor Ausl. (Bugzilla)","","0","1104: E1 PIROL: RegrTests Bugfixing. EDC17 Partikelfilter - Bugfix for 24704, 24904","08:00","15:00","5","0",
"09.08.10","1","100152","424","181","Fehlerbes. vor Ausl. (Bugzilla)","","0","1104: E1 PIROL: RegrTests Bugfixing. Waiting for Authroing","","","2","0",
"10.08.10","2","100152","424","181","Fehlerbes. vor Ausl. (Bugzilla)","","0","1104: E1 PIROL: RegrTests Bugfixing. EDC17 Partikelfilter - Bugfix for 24704, 24904","07:00","17:00","6","60",
"10.08.10","2","100152","424","181","Fehlerbes. vor Ausl. (Bugzilla)","","0","1104: E1 PIROL: RegrTests Bugfixing. Waiting for Authoring","","","1","0",
"10.08.10","2","100018","54","110","Engineering","","0","S4 Technical Support / Troubleshooting. Assisting colleagues with issues.","","","2","0",
"11.08.10","3","100152","424","181","Fehlerbes. vor Ausl. (Bugzilla)","","0","1104: E1 PIROL: RegrTests Bugfixing. EDC17 Partikelfilter - Bugfix for 24704, 24904","07:00","22:30","11","60",
"11.08.10","3","100152","424","181","Fehlerbes. vor Ausl. (Bugzilla)","","0","1104: E1 PIROL: RegrTests Bugfixing. Waiting for Authoring","","","2","0",
"11.08.10","3","100018","54","110","Engineering","","0","S4 Technical Support / Troubleshooting. Meeting, assisting colleagues.","","","1,5","0",
"12.08.10","4","100152","424","181","Fehlerbes. vor Ausl. (Bugzilla)","","0","1104: E1 PIROL: RegrTests Bugfixing. EDC17 Partikelfilter - Bugfix for 24704, 24904","07:00","22:20","10","30",
"12.08.10","4","100152","424","181","Fehlerbes. vor Ausl. (Bugzilla)","","0","1104: E1 PIROL: RegrTests Bugfixing. Waiting for Authoring","","","2","0",
"12.08.10","4","100018","54","110","Engineering","","0","S4 Technical Support / Troubleshooting. Assisting colleagues","","","2,83","0",
"13.08.10","5","100152","424","181","Fehlerbes. vor Ausl. (Bugzilla)","","0","1104: E1 PIROL: RegrTests Bugfixing. EDC17 Partikelfilter - Bugfix for 24704, 24904","07:00","16:00","3","60",
"13.08.10","5","100152","424","181","Fehlerbes. vor Ausl. (Bugzilla)","","0","1104: E1 PIROL: RegrTests Bugfixing. Waiting for Authoring","","","1","0",
"13.08.10","5","100018","55","110","Engineering","","0","S4 Administrative Tasks. Meeting, Monthly Reports","","","4","0",
