"28.06.10","1","09.00582","1425","110","Engineering","","60","9x6: Ereignisse lesen/loschen: PH. Started creating PH for lesen and loschen using the sequence builder","07:00","16:00","8","60",
"29.06.10","2","09.00582","1425","110","Engineering","","100","9x6: Ereignisse lesen/loschen: PH. continued creating PH for lesen and loschen using the sequence builder","07:00","16:00","8","60",
"30.06.10","3","09.00582","1426","110","Engineering","","50","9x6: Ereignisse lesen/loschen: Testspec + erw. Sim. Creating test spec on test link and simulations","07:00","16:00","8","60",
"01.07.10","4","09.00582","1425","110","Engineering","","80","9x6: Ereignisse lesen/loschen: Testspec + erw. Sim. Creating the test specification and simulation.","07:00","16:00","8","60",
"02.07.10","5","09.00582","1426","110","Engineering","","100","9x6: Ereignisse lesen/loschen: Testspec + erw. Sim. Creating the test specification and simulation.","07:00","16:00","2","60",
"02.07.10","5","09.00582","1443","120","Codierung","","50","3001: 9x6: ME7.2: ODX Bedat + FAP. ODX implementation for ME7.2","","","6","0",
