"22.02.10","1","077353","10550","181","Fehlerbes. vor Ausl. (Bugzilla)","","0","1604: E1 M5: Bugfixing /ae15. Bugfixing - RDK Radsatz Schreiben (from s48)","07:00","16:00","8","60",
"23.02.10","2","077353","10550","181","Fehlerbes. vor Ausl. (Bugzilla)","","0","1604: E1 M5: Bugfixing /ae15. Bugfixing - RDK Radsatz Schreiben / Kessy Learn / Tiptronic  (from s48)","07:00","16:00","8","60",
"24.02.10","3","077353","10550","181","Fehlerbes. vor Ausl. (Bugzilla)","","0","1604: E1 M5: Bugfixing /ae15. General Bugfixing (from s48)","07:00","16:00","4","60",
"24.02.10","3","077353","1898","110","Engineering","","0","8185: Warten auf Authoring (Performance-Probleme bei Ausführung). Authoring crashing during debugging / General Waiting for Authoring","","","2","0",
"24.02.10","3","077353","1088","110","Engineering","","0","8501: E1 M5: allg. Projekttätigkeiten A1.15/ae15. Assisting collegue with PCM Pre CTS","","","2","0",
"25.02.10","4","077353","10550","181","Fehlerbes. vor Ausl. (Bugzilla)","","0","1604: E1 M5: Bugfixing /ae15. Bugfixing bugzilla bugs (from s48)","07:00","16:00","4","60",
"25.02.10","4","077353","1898","110","Engineering","","0","8185: Warten auf Authoring (Performance-Probleme bei Ausführung). Authoring Performance problems during debugging","","","3","0",
"25.02.10","4","077353","1088","110","Engineering","","0","8501: E1 M5: allg. Projekttätigkeiten A1.15/ae15. Assisting collegue with PCM Pre CTS","","","1","0",
"26.02.10","5","077353","1898","110","Engineering","","0","8185: Warten auf Authoring (Performance-Probleme bei Ausführung). Authoring Performance during debugging inside authoring","07:00","16:00","2","60",
"26.02.10","5","077353","10550","181","Fehlerbes. vor Ausl. (Bugzilla)","","0","1604: E1 M5: Bugfixing /ae15. Bugfixing bugzilla bugs (from s48)","","","6","0",
