"30.08.10","1","09.00582","2473","181","Fehlerbes. vor Ausl. (Bugzilla)","","0","5026: 9x6: Bugfixing: Bedat: BF+Test. Working on Bugzilla Bug 25221","07:00","16:00","4","60",
"30.08.10","1","09.00582","2473","181","Fehlerbes. vor Ausl. (Bugzilla)","","0","5026: 9x6: Bugfixing: Bedat: BF+Test. Working on Bugzilla Bug 25237","","","2","0",
"30.08.10","1","09.00582","2473","181","Fehlerbes. vor Ausl. (Bugzilla)","","0","5026: 9x6: Bugfixing: Bedat: BF+Test. Working on Bugzilla Bug 25234","","","2","0",
"31.08.10","2","09.00582","2473","181","Fehlerbes. vor Ausl. (Bugzilla)","","0","5026: 9x6: Bugfixing: Bedat: BF+Test. Working on Bugzilla Bug 25242","07:00","16:00","7,5","60",
"31.08.10","2","100025","315","170","Schulung","","0","Schulungen 2010. Assisting new staff with testing and PIDT/HSX installation","","","0,5","0",
"01.09.10","3","100023","0","910","Urlaub","","0","Time off. Time off","07:00","16:00","3","60",
"01.09.10","3","09.00582","2473","181","Fehlerbes. vor Ausl. (Bugzilla)","","0","5026: 9x6: Bugfixing: Bedat: BF+Test. Working on Bugzilla Bug 25290","","","5","0",
"02.09.10","4","09.00582","2473","181","Fehlerbes. vor Ausl. (Bugzilla)","","0","5026: 9x6: Bugfixing: Bedat: BF+Test. Working on Bugzilla Bug 25340","07:00","16:00","1","60",
"02.09.10","4","100018","45","110","Engineering","","0","Wochenaufgaben AES. AltBaureihen Kick off meeting","","","1,5","0",
"02.09.10","4","09.00582","2473","181","Fehlerbes. vor Ausl. (Bugzilla)","","0","5026: 9x6: Bugfixing: Bedat: BF+Test. Working on Bugzilla Bug 25430","","","5,5","0",
"03.09.10","5","09.00582","2473","181","Fehlerbes. vor Ausl. (Bugzilla)","","0","5026: 9x6: Bugfixing: Bedat: BF+Test. Working on Bugzilla Bug 25430","07:00","16:00","5","60",
"03.09.10","5","09.00582","2473","181","Fehlerbes. vor Ausl. (Bugzilla)","","0","5026: 9x6: Bugfixing: Bedat: BF+Test. Working on Bugzilla Bug 25221","","","3","0",
