"01.03.10","1","077251","3398","110","Engineering","","0","8185: Warten auf Authoring (Performance-Probleme bei Ausführung). Waiting For Authoring","07:00","16:00","3","60",
"01.03.10","1","077251","3571","181","Fehlerbes. vor Ausl. (Bugzilla)","","0","6019: Bugfixing. Fixing Bug 21712, 21974","","","5","0",
"02.03.10","2","077251","3398","110","Engineering","","0","8185: Warten auf Authoring (Performance-Probleme bei Ausführung). Waiting For Authoring","07:00","16:00","2","60",
"02.03.10","2","077251","3571","181","Fehlerbes. vor Ausl. (Bugzilla)","","0","6019: Bugfixing. Fixing G1 Bugs 22025, 21712,21673","","","6","0",
"03.03.10","3","077251","1372","110","Engineering","","0","8501: G1: allg. Projekttätigkeiten. Installing ODX Authoring","07:00","16:00","2","60",
"03.03.10","3","077251","1372","110","Engineering","","0","8501: G1: allg. Projekttätigkeiten. DSA Development Department Meeting","","","1","0",
"03.03.10","3","09.00582","0","110","Engineering","","0","H4-2 ODX Bedatung ME 5.2 inkl. FAP. Creating Conversions for 9x6 Kombinstrument","","","5","0",
"04.03.10","4","09.00582","0","110","Engineering","","0","H4-2 ODX Bedatung ME 5.2 inkl. FAP. Implematin ODX - conversions for Kombi03 and Implemanting ODX-E for Kombi03","07:00","16:00","8","60",
"05.03.10","5","09.00582","0","110","Engineering","","0","H4-2 ODX Bedatung ME 5.2 inkl. FAP. Implementing ODX-e","07:00","16:00","8","60",
