"14.06.10","1","100152","11","120","Codierung","","0","1001: E1 PIROL: EDC17: ODX Bedat. Testing EDC17 ODX","07:00","16:00","8","60",
"15.06.10","2","100023","0","910","Urlaub","","0","Holiday. Time-Off","07:00","16:00","3","60",
"15.06.10","2","100152","11","120","Codierung","","0","1001: E1 PIROL: EDC17: ODX Bedat. Testing EDC17 ODX and doing Dev tables","","","5","0",
"16.06.10","3","100023","0","910","Urlaub","","0","Holiday. Public Holiday","07:00","16:00","8","60",
"17.06.10","4","100025","316","170","Schulung","","0","Schulungen 2010	Sequence. PTTD Training","07:00","16:00","5","60",
"17.06.10","4","100152","11","120","Codierung","","0","1001: E1 PIROL: EDC17: ODX Bedat. Testing EDC17 ODX","","","3","0",
"18.06.10","5","100025","316","170","Schulung","","0","Schulungen 2010. PTTD Training","07:00","16:00","3","60",
"18.06.10","5","100152","11","120","Codierung","","0","1001: E1 PIROL: EDC17: ODX Bedat. Testing EDC17 ODX","","","2","0",
"18.06.10","5","100023","0","910","Urlaub","","0","Holiday. Time-Off","","","3","0",
