"05.07.10","1","100152","21","110","Engineering","","100","1004: E1 PIROL: EDC17: SystAnp Fkt1 (Lernwerte Partikelfilter): PH+Testspec Review. Close task for s48","07:00","16:00","0","60",
"05.07.10","1","100152","66","110","Engineering","","100","1014: E1 PIROL: EDC17: SG-Program FZG schreiben: PH+Testspec Review. Close task for s48","","","0","0",
"05.07.10","1","100152","193","110","Engineering","","0","8501: E1 PIROL: allg. Projekttätigkeiten A1/papl. Encryption of DSA SVN onto laptop and updating, and E1 PIROL Status and follow up","","","4","0",
"05.07.10","1","09.00582","1465","110","Engineering","","15","3022: 9x6: ME7.8/ME7.8min: Kurztest: Testspec + erw. Sim. Working through analysis documentation","","","4","0",
"06.07.10","2","09.00582","1465","110","Engineering","","25","3022: 9x6: ME7.8/ME7.8min: Kurztest: Testspec + erw. Sim. Continued with Test Specification investigation into variants etc","07:00","16:00","4","60",
"06.07.10","2","100152","193","110","Engineering","","0","8501: E1 PIROL: allg. Projekttätigkeiten A1/papl. Feed back on progress and updating and checking sequence executions and documentation","","","4","0",
"07.07.10","3","100152","16","140","Test","","100","1002: E1 PIROL: EDC17: SG-Tausch: Modultest+Bugfixing. Testing vs Simulation, minor test spec updates","07:00","16:00","4","60",
"07.07.10","3","100018","1465","110","Engineering","","0","Wochenaufgaben AES. Meeting with NC for status and update","","","1","0",
"07.07.10","3","100152","193","120","Codierung","","0","8501: E1 PIROL: allg. Projekttätigkeiten A1/papl. Follow up on tasks and final retesting of all Implemented CTS's","","","3","0",
"08.07.10","4","100025","313","170","Schulung","","0","Schulungen 2010. ODX MOTS test procedure instructions and setup","07:00","16:00","2","60",
"08.07.10","4","100018","43","110","Engineering","","0","Wochenaufgaben AES. Timesheets and admin for status reports","","","2","0",
"08.07.10","4","100152","8","120","Codierung","","0","1001: E1 PIROL: EDC17: ODX Bedat. (From s53) Assisting with retesting of ODX data","","","4","0",
"09.07.10","5","100023","0","910","Urlaub","","0","Holiday. Time-Off","07:00","16:00","8","60",
