DATE;NAME;START;END;LUNCH;1;2;3;4;5;6;7;8;9;10;11;12;13;14;15;16;17;18;19;20;21;22;23;24;
01.10.10;Brendan van Zyl;07:00:00;16:00:00;60;09.00582-2169;09.00582-2169;09.00582-2169;09.00582-2169;09.00582-2169;09.00582-2169;09.00582-2169;09.00582-2169 / 100018-39;
01.10.10;Jason Smith;07:00:00;16:00:00;60;09.00582-1956;09.00582-1956;09.00582-1956;09.00582-1956;09.00582-1956;09.00582-1956;09.00582-1956;09.00582-1956;
01.10.10;Justin Jansen Van Vuuren;
01.10.10;Nico Claassen;07:00:00;16:00:00;60;100334-26;100334-26;100334-26;100334-26;100334-26;100334-26;100334-26;100334-26 / 100018-42;
01.10.10;Malcolm Vorster;07:00:00;16:00:00;60;100018-43;100018-43;100018-43 / 09.00582-2169;09.00582-2169;09.00582-2169;09.00582-2169;09.00582-2169;09.00582-2169;
01.10.10;Graham Meyer;07:00:00;16:00:00;60;09.00582-2542;09.00582-2542;09.00582-2542;09.00582-2542;09.00582-2542;09.00582-2542;09.00582-2542;09.00582-2542;
01.10.10;Thando Katywa;07:00:00;16:00:00;60;09.00582-2543;09.00582-2543;09.00582-2543;09.00582-2543;09.00582-2543;09.00582-2543;09.00582-2543;09.00582-2543;
01.10.10;Ludumo Sankobe;07:00:00;16:00:00;60;100018-46 / 09.00582-2169;09.00582-2169;09.00582-2169;09.00582-2169;09.00582-2169;09.00582-2169;09.00582-2169;09.00582-2169;
01.10.10;Paul Helliwell;07:00:00;16:00:00;60;100334-504;100334-504;100334-504;100334-504;100334-504;100334-504;100334-504;100334-504;
01.10.10;Ntombenkosi Maldaki;07:00:00;16:00:00;60;09.00582-392 / 09.00582-2168;09.00582-2168;09.00582-2168;09.00582-2168;09.00582-2168;09.00582-2168;09.00582-2168;09.00582-2168;
01.10.10;Abdul-Aziz Hendricks;07:00:00;16:00:00;60;09.00582-600;09.00582-600;09.00582-626;09.00582-626;09.00582-626;09.00582-626;09.00582-626;09.00582-626;
01.10.10;Mark Britten;07:00:00;16:00:00;60;09.00582-2543;09.00582-2543;09.00582-2543;09.00582-2543;09.00582-2543;09.00582-2543;09.00582-2169;09.00582-2169;
01.10.10;Angelo Bentley;07:00:00;16:00:00;60;09.00582-2149;09.00582-2149;09.00582-2149;09.00582-2149;09.00582-2169;09.00582-2169;09.00582-2169;09.00582-2169;
02.10.10;Brendan van Zyl;
02.10.10;Jason Smith;
02.10.10;Justin Jansen Van Vuuren;
02.10.10;Nico Claassen;
02.10.10;Malcolm Vorster;
02.10.10;Graham Meyer;
02.10.10;Thando Katywa;
02.10.10;Ludumo Sankobe;
02.10.10;Paul Helliwell;
02.10.10;Ntombenkosi Maldaki;
02.10.10;Abdul-Aziz Hendricks;
02.10.10;Mark Britten;
02.10.10;Angelo Bentley;
03.10.10;Brendan van Zyl;
03.10.10;Jason Smith;
03.10.10;Justin Jansen Van Vuuren;
03.10.10;Nico Claassen;
03.10.10;Malcolm Vorster;
03.10.10;Graham Meyer;
03.10.10;Thando Katywa;
03.10.10;Ludumo Sankobe;
03.10.10;Paul Helliwell;
03.10.10;Ntombenkosi Maldaki;
03.10.10;Abdul-Aziz Hendricks;
03.10.10;Mark Britten;
03.10.10;Angelo Bentley;
04.10.10;Brendan van Zyl;07:00:00;16:00:00;60;09.00582-2169;09.00582-2169;09.00582-2169;09.00582-2169;09.00582-2169;09.00582-2169;09.00582-2169;09.00582-2169;
04.10.10;Jason Smith;07:00:00;16:00:00;60;09.00582-1956;09.00582-1956;09.00582-1956;09.00582-1956;09.00582-1956;09.00582-1956;09.00582-1956;09.00582-1956;
04.10.10;Justin Jansen Van Vuuren;
04.10.10;Nico Claassen;07:00:00;16:00:00;60;100334-26;100334-26;100334-26;100334-26;100334-26;100334-26;100018-54;100018-54;
04.10.10;Malcolm Vorster;07:00:00;16:00:00;60;09.00582-2169;09.00582-2169;09.00582-2169;09.00582-2169;09.00582-2169;09.00582-2169;09.00582-2169;09.00582-2169;
04.10.10;Graham Meyer;07:00:00;16:00:00;60;09.00582-2542;09.00582-2542;09.00582-2542;09.00582-2542;09.00582-2542;09.00582-2542;09.00582-2542;09.00582-2542 / 09.00582-2542;
04.10.10;Thando Katywa;07:00:00;16:00:00;60;100023-0;100023-0;100023-0;100023-0;100023-0;100023-0;100023-0;100023-0;
04.10.10;Ludumo Sankobe;07:00:00;16:00:00;60;09.00582-2543;09.00582-2543;09.00582-2543;09.00582-2543;09.00582-2543;09.00582-2543;09.00582-2543;09.00582-2543;
04.10.10;Paul Helliwell;07:00:00;16:00:00;60;100334-504;100334-504;100334-504;100334-504;100334-504;100334-504;100334-504;100334-504;
04.10.10;Ntombenkosi Maldaki;07:00:00;16:00:00;60;09.00582-2168;09.00582-2168;09.00582-2168;09.00582-2168;09.00582-2168;09.00582-2168;09.00582-2168;09.00582-2168;
04.10.10;Abdul-Aziz Hendricks;07:00:00;16:00:00;60;09.00582-534;09.00582-534;09.00582-534;09.00582-534;09.00582-534;09.00582-534;09.00582-534;09.00582-534;
04.10.10;Mark Britten;07:00:00;16:00:00;60;09.00582-2169;09.00582-2169;09.00582-2169;09.00582-2169;09.00582-2653;09.00582-2653;09.00582-2653;09.00582-2653;
04.10.10;Angelo Bentley;07:00:00;16:00:00;60;09.00582-1956;09.00582-1956;09.00582-1956;09.00582-1956;09.00582-1956;09.00582-1956;09.00582-1956;09.00582-1956;
05.10.10;Brendan van Zyl;07:00:00;16:00:00;60;100018-39;09.00582-2196;09.00582-2169;09.00582-2169;09.00582-2169;09.00582-2169;09.00582-2169;09.00582-2169;
05.10.10;Jason Smith;07:00:00;16:00:00;60;09.00582-1956;09.00582-1956;09.00582-1956;09.00582-1956;09.00582-1956;09.00582-1956;09.00582-1956;09.00582-1956;
05.10.10;Justin Jansen Van Vuuren;
05.10.10;Nico Claassen;07:00:00;16:00:00;60;100018-54;100018-54;100018-54;100334-717;100334-717;100334-717;100334-717;100334-26;
05.10.10;Malcolm Vorster;07:00:00;16:00:00;60;100018-43;09.00582-2169;09.00582-2169;09.00582-2169;09.00582-2169;09.00582-2169;09.00582-2169;09.00582-2169;
05.10.10;Graham Meyer;07:00:00;16:00:00;60;09.00582-2147;09.00582-2147;09.00582-2147;09.00582-2147;09.00582-2147;09.00582-2147;09.00582-2147;09.00582-2147;
05.10.10;Thando Katywa;07:00:00;16:00:00;60;100023-0;100023-0;100023-0;100023-0;100023-0;100023-0;100023-0;100023-0;
05.10.10;Ludumo Sankobe;07:00:00;16:00:00;60;09.00582-2543;09.00582-2543;09.00582-2543;09.00582-2543;09.00582-2543;09.00582-2543;09.00582-2543;09.00582-2543;
05.10.10;Paul Helliwell;07:00:00;16:00:00;60;100023-0;100023-0;100023-0;100023-0;100023-0;100023-0;100023-0;100023-0;
05.10.10;Ntombenkosi Maldaki;07:00:00;16:00:00;60;09.00582-2168;09.00582-2168;09.00582-2168;09.00582-2168;09.00582-2168;09.00582-2168;09.00582-2168;09.00582-2168 / 100018-50;
05.10.10;Abdul-Aziz Hendricks;07:00:00;16:00:00;60;09.00582-600;09.00582-600;09.00582-600;09.00582-600;09.00582-600;09.00582-600;09.00582-600;09.00582-600;
05.10.10;Mark Britten;07:00:00;16:00:00;60;09.00582-2653;09.00582-2653;09.00582-2653;09.00582-2653;09.00582-2653;09.00582-2653;09.00582-2653;09.00582-2653;
05.10.10;Angelo Bentley;07:00:00;16:00:00;60;09.00582-1956;09.00582-1956;09.00582-1956;09.00582-1956;09.00582-1956;09.00582-1956;09.00582-1956;09.00582-1956;
06.10.10;Brendan van Zyl;07:00:00;16:00:00;60;09.00582-2169;09.00582-2169;09.00582-2169;09.00582-2169;09.00582-2169;09.00582-2169;09.00582-2169;09.00582-2169 / 100018-39;
06.10.10;Jason Smith;07:00:00;16:00:00;60;09.00582-1956;09.00582-1956;09.00582-1956;09.00582-1956;09.00582-1956;09.00582-1956;09.00582-1956;09.00582-1956;
06.10.10;Justin Jansen Van Vuuren;
06.10.10;Nico Claassen;07:00:00;16:00:00;60;100334-717;100334-717;100334-717;100334-717;100334-717;100334-717;100018-54;100018-54 / 09.00582-1317;
06.10.10;Malcolm Vorster;07:00:00;16:00:00;60;09.00582-2169;09.00582-2169;09.00582-2169;09.00582-2169;09.00582-2169;09.00582-2169;09.00582-2169;09.00582-2169;
06.10.10;Graham Meyer;07:00:00;16:00:00;60;09.00582-2627;09.00582-2627;09.00582-2627;09.00582-2627;09.00582-2627;09.00582-2627;09.00582-2627;09.00582-2627 / 09.00582-2627;
06.10.10;Thando Katywa;07:00:00;16:00:00;60;09.00582-2616;09.00582-2616;09.00582-2616;09.00582-2616;09.00582-2616;09.00582-2616;09.00582-2616;09.00582-2616;
06.10.10;Ludumo Sankobe;07:00:00;16:00:00;60;09.00582-2543;09.00582-2543;09.00582-2543;09.00582-2543;09.00582-2543;09.00582-2543;09.00582-2543;09.00582-2543;
06.10.10;Paul Helliwell;07:00:00;16:00:00;60;100023-0;100023-0;100023-0;100023-0;100023-0;100023-0;100023-0;100023-0;
06.10.10;Ntombenkosi Maldaki;07:00:00;16:00:00;60;09.00582-2168;09.00582-2168;09.00582-2168;09.00582-2168;09.00582-2168;09.00582-2168;09.00582-2168;09.00582-2168;
06.10.10;Abdul-Aziz Hendricks;07:00:00;16:00:00;60;09.00582-600;09.00582-600;09.00582-600;09.00582-600;09.00582-600;09.00582-600;09.00582-600;09.00582-600;
06.10.10;Mark Britten;07:00:00;16:00:00;60;09.00582-2653;09.00582-2653;09.00582-2653;09.00582-2653;09.00582-2653;09.00582-2653;09.00582-2653;09.00582-2653;
06.10.10;Angelo Bentley;07:00:00;16:00:00;60;09.00582-1956;09.00582-1956;09.00582-1956;09.00582-1956;09.00582-1956;09.00582-1956;09.00582-1956;09.00582-1956;
07.10.10;Brendan van Zyl;07:00:00;16:00:00;60;09.00582-2196;09.00582-2196;09.00582-2196;09.00582-2196;09.00582-2196;09.00582-2196;09.00582-2196;09.00582-2196 / 09.00582-2196;
07.10.10;Jason Smith;07:00:00;16:00:00;60;09.00582-1956;09.00582-1956;09.00582-1956;09.00582-1956;09.00582-1956;09.00582-1956;09.00582-1956;09.00582-1956;
07.10.10;Justin Jansen Van Vuuren;
07.10.10;Nico Claassen;07:00:00;16:00:00;60;100334-717;100334-717;100334-717;100334-717;100334-717;100334-717 / 100018-54;100018-54;100018-54;
07.10.10;Malcolm Vorster;07:00:00;16:00:00;60;09.00582-0;09.00582-0;09.00582-0;09.00582-0;09.00582-0;09.00582-0;09.00582-2169;09.00582-2169;
07.10.10;Graham Meyer;07:00:00;16:00:00;60;09.00582-2147;09.00582-2147;09.00582-2147;09.00582-2147;09.00582-2147;09.00582-2147;09.00582-2630;09.00582-2147;
07.10.10;Thando Katywa;07:00:00;16:00:00;60;09.00582-2240;09.00582-2240;09.00582-2240;09.00582-2224;09.00582-2224;09.00582-2224;09.00582-2224;09.00582-2224;
07.10.10;Ludumo Sankobe;07:00:00;16:00:00;60;09.00582-0;09.00582-0;09.00582-0;09.00582-0;09.00582-0;09.00582-0;09.00582-0;09.00582-0;
07.10.10;Paul Helliwell;07:00:00;16:00:00;60;100023-0;100023-0;100023-0;100023-0;100023-0;100023-0;100023-0;100023-0;
07.10.10;Ntombenkosi Maldaki;07:00:00;16:00:00;60;09.00582-2168;09.00582-2168;09.00582-2168;09.00582-2168;09.00582-2168;09.00582-2168;09.00582-2168;09.00582-2168;
07.10.10;Abdul-Aziz Hendricks;07:00:00;16:00:00;60;09.00582-600;09.00582-600;09.00582-600;09.00582-600;09.00582-600;09.00582-600;09.00582-600;09.00582-600;
07.10.10;Mark Britten;07:00:00;16:00:00;60;09.00582-2653;09.00582-2653;09.00582-2653;09.00582-2653;09.00582-2653;09.00582-2653;09.00582-2653;09.00582-2653;
07.10.10;Angelo Bentley;07:00:00;16:00:00;60;09.00582-1956;09.00582-1956;09.00582-1956;09.00582-1956;09.00582-1956;09.00582-1956;09.00582-1956;09.00582-1956;
08.10.10;Brendan van Zyl;07:00:00;16:00:00;60;100018-39 / 09.00582-2196;09.00582-2196;09.00582-2196;09.00582-2196;09.00582-2196;09.00582-2196;09.00582-2196 / 09.00582-2196;09.00582-2196;
08.10.10;Jason Smith;07:00:00;16:00:00;60;09.00582-1956;09.00582-1956;09.00582-1956;09.00582-1956;09.00582-1956;09.00582-1956;09.00582-1956;09.00582-1956;
08.10.10;Justin Jansen Van Vuuren;
08.10.10;Nico Claassen;07:00:00;16:00:00;60;100334-718;100334-718;100334-718;100334-718;100018-54;100018-54;100018-54;100018-42 / 100018-55;
08.10.10;Malcolm Vorster;07:00:00;16:00:00;60;100018-43;100018-43 / 09.00582-0;09.00582-0;09.00582-0;09.00582-0;09.00582-0;09.00582-0;09.00582-0;
08.10.10;Graham Meyer;07:00:00;16:00:00;60;09.00582-2147;09.00582-2147;09.00582-2147;09.00582-2147;09.00582-2147;09.00582-2147;09.00582-2147;09.00582-2147;
08.10.10;Thando Katywa;07:00:00;16:00:00;60;09.00582-2240;09.00582-2240;09.00582-2240 / 09.00582-2224;09.00582-2224;09.00582-2224;09.00582-2224;09.00582-2224;09.00582-2224;
08.10.10;Ludumo Sankobe;07:00:00;16:00:00;60;09.00582-0;09.00582-0;09.00582-0;09.00582-0;09.00582-0;09.00582-0;09.00582-0;09.00582-0;
08.10.10;Paul Helliwell;07:00:00;16:00:00;60;09.00582-2146;09.00582-2146;09.00582-2146;09.00582-2146;09.00582-2146;09.00582-2146;09.00582-2146;100334-504;
08.10.10;Ntombenkosi Maldaki;07:00:00;16:00:00;60;09.00582-2204;09.00582-2204;09.00582-2204;09.00582-2204;09.00582-617;09.00582-617;09.00582-617;09.00582-617 / 100018-50;
08.10.10;Abdul-Aziz Hendricks;07:00:00;16:00:00;60;09.00582-600;09.00582-600;09.00582-600;09.00582-600;09.00582-600;09.00582-600;09.00582-600;09.00582-600;
08.10.10;Mark Britten;07:00:00;16:00:00;60;09.00582-2653;09.00582-2653;09.00582-2653;09.00582-2653;09.00582-2653;09.00582-2653;09.00582-2653;09.00582-2653;
08.10.10;Angelo Bentley;07:00:00;16:00:00;60;09.00582-1956;09.00582-1956;09.00582-1956;09.00582-1956;09.00582-1956;09.00582-1956;09.00582-1956;09.00582-1956;
09.10.10;Brendan van Zyl;
09.10.10;Jason Smith;
09.10.10;Justin Jansen Van Vuuren;
09.10.10;Nico Claassen;
09.10.10;Malcolm Vorster;
09.10.10;Graham Meyer;
09.10.10;Thando Katywa;
09.10.10;Ludumo Sankobe;
09.10.10;Paul Helliwell;
09.10.10;Ntombenkosi Maldaki;
09.10.10;Abdul-Aziz Hendricks;
09.10.10;Mark Britten;
09.10.10;Angelo Bentley;
10.10.10;Brendan van Zyl;
10.10.10;Jason Smith;
10.10.10;Justin Jansen Van Vuuren;
10.10.10;Nico Claassen;
10.10.10;Malcolm Vorster;
10.10.10;Graham Meyer;
10.10.10;Thando Katywa;
10.10.10;Ludumo Sankobe;
10.10.10;Paul Helliwell;
10.10.10;Ntombenkosi Maldaki;
10.10.10;Abdul-Aziz Hendricks;
10.10.10;Mark Britten;
10.10.10;Angelo Bentley;
11.10.10;Brendan van Zyl;07:00:00;16:00:00;60;09.00582-2196;09.00582-2196;09.00582-2196 / 09.00582-2196;09.00582-2196;09.00582-2196 / 09.00582-2196;09.00582-2196;09.00582-2196;09.00582-2196;
11.10.10;Jason Smith;07:00:00;16:00:00;60;09.00582-2543;09.00582-2543;09.00582-2543;09.00582-2543;09.00582-2543;09.00582-2543;09.00582-2543;09.00582-2543;
11.10.10;Justin Jansen Van Vuuren;
11.10.10;Nico Claassen;07:00:00;16:00:00;60;100018-55;100018-55 / 100334-718;100334-718 / 100334-574;100334-574;100334-574;100018-42 / 100018-54;100018-54;100018-54;
11.10.10;Malcolm Vorster;07:00:00;16:00:00;60;09.00582-2670;09.00582-2670;09.00582-2670;09.00582-2670;09.00582-2662;09.00582-2662;09.00582-2662;09.00582-2662;
11.10.10;Graham Meyer;07:00:00;16:00:00;60;09.00582-2147;09.00582-2147;09.00582-2147;09.00582-2147;09.00582-2147;09.00582-2147;09.00582-2147;09.00582-2147;
11.10.10;Thando Katywa;07:00:00;16:00:00;60;09.00582-2508;09.00582-2508;09.00582-2508;09.00582-2508;09.00582-2508;09.00582-2508;09.00582-2508;09.00582-2508;
11.10.10;Ludumo Sankobe;07:00:00;16:00:00;60;09.00582-2664;09.00582-2664;09.00582-2664;09.00582-2664;09.00582-2664;09.00582-2664;09.00582-2664;09.00582-2664;
11.10.10;Paul Helliwell;07:00:00;16:00:00;60;100334-498;100334-498;100334-498;100334-498;100334-498;100334-498;100334-498;100018-47 / 100018-38;
11.10.10;Ntombenkosi Maldaki;07:00:00;16:00:00;60;09.00582-617;09.00582-617;09.00582-617;09.00582-617;09.00582-2204;09.00582-2204;09.00582-2204;09.00582-2204 / 09.00582-617;
11.10.10;Abdul-Aziz Hendricks;07:00:00;16:00:00;60;09.00582-600;09.00582-600;09.00582-600;09.00582-600;09.00582-600;09.00582-600;09.00582-600;09.00582-600;
11.10.10;Mark Britten;07:00:00;16:00:00;60;09.00582-2653;09.00582-2653;09.00582-2653;09.00582-2653;09.00582-2653;09.00582-2653;09.00582-2653;09.00582-2653;
11.10.10;Angelo Bentley;07:00:00;16:00:00;60;09.00582-2665;09.00582-2665;09.00582-2665;09.00582-2665;09.00582-2665;09.00582-2665;09.00582-2665;09.00582-2665;
12.10.10;Brendan van Zyl;07:00:00;16:00:00;60;09.00582-2196 / 09.00582-2349;09.00582-2349;09.00582-2349;09.00582-2349;09.00582-2349 / 09.00582-2349;09.00582-2349 / 09.00582-2196;09.00582-2196;09.00582-2196;
12.10.10;Jason Smith;07:00:00;16:00:00;60;09.00582-2543;09.00582-2543;09.00582-2543;09.00582-2543;09.00582-2543;09.00582-2543;09.00582-2543;09.00582-2543;
12.10.10;Justin Jansen Van Vuuren;
12.10.10;Nico Claassen;07:00:00;16:00:00;60;100334-574;100334-574;100334-574;100018-54;100018-54;100018-54;100018-54;100018-54;
12.10.10;Malcolm Vorster;07:00:00;16:00:00;60;09.00582-2662;09.00582-2662;09.00582-2662;09.00582-2662;09.00582-2662;09.00582-2662;09.00582-2662;09.00582-2662;
12.10.10;Graham Meyer;07:00:00;16:00:00;60;09.00582-2147;09.00582-2147;09.00582-2147;09.00582-2147;09.00582-2147;09.00582-2147;09.00582-2147;09.00582-2147 / 09.00582-2147;
12.10.10;Thando Katywa;07:00:00;16:00:00;60;09.00582-2508;09.00582-2508;09.00582-2508;09.00582-2508;09.00582-2508;09.00582-2227;09.00582-2227;09.00582-2227;
12.10.10;Ludumo Sankobe;07:00:00;16:00:00;60;09.00582-2664;09.00582-2664;09.00582-2664;09.00582-2664;09.00582-2664;09.00582-2664;09.00582-2664;09.00582-2664;
12.10.10;Paul Helliwell;07:00:00;16:00:00;60;100018-38;100334-498;100334-498;100334-498;100334-498;100334-498;100334-498 / 100018-38;100018-38;
12.10.10;Ntombenkosi Maldaki;07:00:00;16:00:00;60;09.00582-2668;09.00582-2668;09.00582-2668;09.00582-2668;09.00582-2668;09.00582-2668;09.00582-2668;09.00582-2668;
12.10.10;Abdul-Aziz Hendricks;07:00:00;16:00:00;60;09.00582-600;09.00582-600;09.00582-600;09.00582-600;09.00582-600;09.00582-600;09.00582-600;09.00582-600;
12.10.10;Mark Britten;07:00:00;16:00:00;60;09.00582-2653;09.00582-2653;09.00582-2653;09.00582-2653;09.00582-2653;09.00582-2653;09.00582-2653;09.00582-2653;
12.10.10;Angelo Bentley;07:00:00;16:00:00;60;09.00582-2665;09.00582-2665;09.00582-2665;09.00582-2665;09.00582-2665;09.00582-2665;09.00582-2665;09.00582-2665;
13.10.10;Brendan van Zyl;07:00:00;16:00:00;60;09.00582-2349 / 09.00582-2349;09.00582-2349;09.00582-2349 / 09.00582-2196;09.00582-2196 / 09.00582-2196;09.00582-2196;09.00582-2196;09.00582-2196;09.00582-2196;
13.10.10;Jason Smith;07:00:00;16:00:00;60;09.00582-2543;09.00582-2543;09.00582-2543;09.00582-2543;09.00582-2543;09.00582-2543;09.00582-2543;09.00582-2543;
13.10.10;Justin Jansen Van Vuuren;
13.10.10;Nico Claassen;07:00:00;16:00:00;60;100334-574;100334-574;100334-574;09.00582-1317;09.00582-1317 / 100018-55;100018-54;100018-54;100018-54;
13.10.10;Malcolm Vorster;07:00:00;16:00:00;60;09.00582-2662;09.00582-2662;09.00582-2662;09.00582-2662;09.00582-2662;09.00582-2662;09.00582-2662;100018-43;
13.10.10;Graham Meyer;07:00:00;16:00:00;60;09.00582-2147;09.00582-2147;09.00582-2147;09.00582-2147;09.00582-2147;09.00582-2147;09.00582-2147;09.00582-2147;
13.10.10;Thando Katywa;07:00:00;16:00:00;60;09.00582-2240;09.00582-2240;09.00582-2240;09.00582-2240;09.00582-2240;09.00582-2240;09.00582-2240;09.00582-2240;
13.10.10;Ludumo Sankobe;07:00:00;16:00:00;60;09.00582-2663;09.00582-2663;09.00582-2663;09.00582-2663;09.00582-2664;09.00582-2664;09.00582-2664;09.00582-2664;
13.10.10;Paul Helliwell;07:00:00;16:00:00;60;100334-498;100334-498;100334-498;100334-498;100018-38;100018-38;100018-38;100018-38;
13.10.10;Ntombenkosi Maldaki;07:00:00;16:00:00;60;09.00582-2668;09.00582-2668;09.00582-2668;09.00582-2668;09.00582-2668;09.00582-2668;09.00582-2668;09.00582-2168;
13.10.10;Abdul-Aziz Hendricks;07:00:00;16:00:00;60;09.00582-600;09.00582-600;09.00582-600;09.00582-600;09.00582-600;09.00582-600;09.00582-600;09.00582-600;
13.10.10;Mark Britten;07:00:00;16:00:00;60;09.00582-2653;09.00582-2653;09.00582-2653;09.00582-2653;09.00582-2653;09.00582-2169;09.00582-2169;09.00582-2169;
13.10.10;Angelo Bentley;07:00:00;16:00:00;60;09.00582-2665;09.00582-2665;09.00582-2665;09.00582-2665;09.00582-2665;09.00582-2665;09.00582-2665;09.00582-2665;
14.10.10;Brendan van Zyl;07:00:00;16:00:00;60;09.00582-2196;09.00582-2196;09.00582-2196;09.00582-2196;09.00582-2196;09.00582-2196;09.00582-2196;09.00582-2196;
14.10.10;Jason Smith;07:00:00;16:00:00;60;09.00582-2543;09.00582-2543;09.00582-2543;09.00582-2543;09.00582-2543;09.00582-2543;09.00582-2543;09.00582-2543;
14.10.10;Justin Jansen Van Vuuren;
14.10.10;Nico Claassen;07:00:00;16:00:00;60;100334-574;100334-718 / 100018-54;100018-54;100018-54;100018-54;100018-54;100018-42;100018-42;
14.10.10;Malcolm Vorster;07:00:00;16:00:00;60;09.00582-2670;09.00582-2670;09.00582-2662;09.00582-2662;09.00582-2662;09.00582-2662;09.00582-2662;100018-43;
14.10.10;Graham Meyer;07:00:00;16:00:00;60;09.00582-2147;09.00582-2147;09.00582-2147;09.00582-2147;09.00582-2147;09.00582-2147;09.00582-2147;09.00582-2147;
14.10.10;Thando Katywa;07:00:00;16:00:00;60;09.00582-2240;09.00582-2240;09.00582-2240;09.00582-2240;09.00582-2240;09.00582-2224;09.00582-2224;09.00582-2240;
14.10.10;Ludumo Sankobe;07:00:00;16:00:00;60;09.00582-2664;09.00582-2664;09.00582-2664;09.00582-2664;09.00582-2664;09.00582-2664;09.00582-2664;09.00582-2664;
14.10.10;Paul Helliwell;07:00:00;16:00:00;60;100334-498;100334-498;100334-498;100334-498;100334-498;100334-498;100334-498;100334-498;
14.10.10;Ntombenkosi Maldaki;07:00:00;16:00:00;60;09.00582-2668;09.00582-2668;09.00582-2668;09.00582-2668;09.00582-2668;09.00582-2668;09.00582-2668;09.00582-2668;
14.10.10;Abdul-Aziz Hendricks;07:00:00;16:00:00;60;09.00582-600;09.00582-600;09.00582-600;09.00582-600;09.00582-600;09.00582-600;09.00582-600;09.00582-600;
14.10.10;Mark Britten;07:00:00;16:00:00;60;09.00582-2653;09.00582-2653;09.00582-2653;09.00582-2653;09.00582-2653;09.00582-2653;09.00582-2653;09.00582-2653;
14.10.10;Angelo Bentley;07:00:00;16:00:00;60;09.00582-2665;09.00582-2665;09.00582-2665;09.00582-2665;09.00582-2665;09.00582-2665;09.00582-2665;09.00582-2665;
15.10.10;Brendan van Zyl;07:00:00;16:00:00;60;09.00582-2196;09.00582-2196;09.00582-2196;09.00582-2196;09.00582-2196;09.00582-2196;09.00582-2196 / 100018-39;100018-39 / 100018-39;
15.10.10;Jason Smith;07:00:00;16:00:00;60;09.00582-2543;09.00582-2543;09.00582-2543;09.00582-2543;09.00582-2543;09.00582-2543;09.00582-2543;09.00582-2543;
15.10.10;Justin Jansen Van Vuuren;
15.10.10;Nico Claassen;07:00:00;16:00:00;60;100334-574;100334-574;100334-574;100018-42;100018-54;100018-54;100018-54;100018-54;
15.10.10;Malcolm Vorster;07:00:00;16:00:00;60;09.00582-0;09.00582-0;09.00582-0;09.00582-2662;09.00582-2662;09.00582-2662;09.00582-2662 / 100018-43;100018-43;
15.10.10;Graham Meyer;07:00:00;16:00:00;60;09.00582-2147;09.00582-2147;09.00582-2147;09.00582-2147;09.00582-2147;09.00582-2147;09.00582-2147;09.00582-2147 / 100018-44;
15.10.10;Thando Katywa;07:00:00;16:00:00;60;09.00582-2240;09.00582-2240;09.00582-2240;09.00582-2240;09.00582-2240;09.00582-2240;09.00582-2240;09.00582-2240 / 09.00582-119;
15.10.10;Ludumo Sankobe;07:00:00;16:00:00;60;09.00582-2664;09.00582-2664;09.00582-2664;09.00582-2664;09.00582-2663;09.00582-2663;09.00582-2663;09.00582-2663;
15.10.10;Paul Helliwell;07:00:00;16:00:00;60;100334-498;100334-498;100334-498;100334-498;100334-498;100334-498;100334-498;100018-47 / 100018-47;
15.10.10;Ntombenkosi Maldaki;07:00:00;16:00:00;60;09.00582-2668;09.00582-2668;09.00582-2668;09.00582-2668;09.00582-2668;09.00582-617;09.00582-617 / 09.00582-494;09.00582-494 / 100018-50;
15.10.10;Abdul-Aziz Hendricks;07:00:00;16:00:00;60;09.00582-600;09.00582-600;09.00582-600;09.00582-600;09.00582-600;09.00582-600;09.00582-600;100018-51;
15.10.10;Mark Britten;07:00:00;16:00:00;60;09.00582-2653;09.00582-2653;09.00582-2653;09.00582-2653;09.00582-2653;09.00582-2653;09.00582-2653;09.00582-2653 / 100018-52;
15.10.10;Angelo Bentley;07:00:00;16:00:00;60;09.00582-2665;09.00582-2665;09.00582-2665;09.00582-2665;09.00582-2665;09.00582-2665;09.00582-2665;09.00582-2665;
16.10.10;Brendan van Zyl;
16.10.10;Jason Smith;
16.10.10;Justin Jansen Van Vuuren;
16.10.10;Nico Claassen;
16.10.10;Malcolm Vorster;
16.10.10;Graham Meyer;
16.10.10;Thando Katywa;
16.10.10;Ludumo Sankobe;
16.10.10;Paul Helliwell;
16.10.10;Ntombenkosi Maldaki;
16.10.10;Abdul-Aziz Hendricks;
16.10.10;Mark Britten;
16.10.10;Angelo Bentley;
17.10.10;Brendan van Zyl;
17.10.10;Jason Smith;
17.10.10;Justin Jansen Van Vuuren;
17.10.10;Nico Claassen;
17.10.10;Malcolm Vorster;
17.10.10;Graham Meyer;
17.10.10;Thando Katywa;
17.10.10;Ludumo Sankobe;
17.10.10;Paul Helliwell;
17.10.10;Ntombenkosi Maldaki;
17.10.10;Abdul-Aziz Hendricks;
17.10.10;Mark Britten;
17.10.10;Angelo Bentley;
18.10.10;Brendan van Zyl;07:00:00;16:00:00;60;09.00582-2196;09.00582-2196;09.00582-2196;09.00582-2196;09.00582-2196;09.00582-2196;09.00582-2196;09.00582-2196;
18.10.10;Jason Smith;07:00:00;16:00:00;60;09.00582-0;09.00582-0;09.00582-0;09.00582-0;09.00582-0;09.00582-0;09.00582-0;09.00582-0;
18.10.10;Justin Jansen Van Vuuren;
18.10.10;Nico Claassen;07:00:00;16:00:00;60;100018-54;100018-54;100018-54;100018-54;100018-54 / 100018-42;100018-42;100018-42;100018-55;
18.10.10;Malcolm Vorster;07:00:00;16:00:00;60;09.00582-2664;09.00582-2664;09.00582-2670;09.00582-2670;09.00582-2670;09.00582-2670;09.00582-2670;09.00582-2670;
18.10.10;Graham Meyer;07:00:00;16:00:00;60;09.00582-2147;09.00582-2147;09.00582-2147;100334-552;100334-552;100334-552;100334-552;100334-552;
18.10.10;Thando Katywa;07:00:00;16:00:00;60;09.00582-626;09.00582-626;09.00582-626;09.00582-626;09.00582-626;09.00582-626;09.00582-626;09.00582-626;
18.10.10;Ludumo Sankobe;07:00:00;16:00:00;60;09.00582-2664;09.00582-2664;09.00582-2664;09.00582-2664;09.00582-2664;09.00582-2664;09.00582-2664;09.00582-2664;
18.10.10;Paul Helliwell;07:00:00;16:00:00;60;100334-706;100334-706;100334-706;100334-706;100334-706;100334-706;100334-706;100334-706;
18.10.10;Ntombenkosi Maldaki;07:00:00;16:00:00;60;09.00582-2668;09.00582-2668;09.00582-2218;09.00582-2218;09.00582-2218;09.00582-2218;09.00582-2218;09.00582-2218;
18.10.10;Abdul-Aziz Hendricks;07:00:00;16:00:00;60;09.00582-600;09.00582-600;09.00582-600;09.00582-600;09.00582-600;09.00582-600;09.00582-600;09.00582-600;
18.10.10;Mark Britten;07:00:00;16:00:00;60;09.00582-2653;09.00582-2653;09.00582-2653;09.00582-2169;09.00582-2169;09.00582-2169;09.00582-2169;09.00582-2169;
18.10.10;Angelo Bentley;07:00:00;16:00:00;60;09.00582-2665;09.00582-2665;09.00582-2665;09.00582-2665;09.00582-2665;09.00582-2665;09.00582-2665;09.00582-2665;
19.10.10;Brendan van Zyl;07:00:00;16:00:00;60;100018-39;09.00582-2196;09.00582-2196;09.00582-2196;09.00582-2196;09.00582-2196;09.00582-2196;100025-310;
19.10.10;Jason Smith;07:00:00;16:00:00;60;09.00582-0;09.00582-0;09.00582-0;09.00582-0;09.00582-0;09.00582-0;09.00582-0;09.00582-0;
19.10.10;Justin Jansen Van Vuuren;
19.10.10;Nico Claassen;07:00:00;16:00:00;60;100334-574;100334-574;100334-574;100334-574;100334-574;100025-265;100018-42;100018-54;
19.10.10;Malcolm Vorster;07:00:00;16:00:00;60;100025-313;100018-43;09.00582-2664;09.00582-2664;09.00582-2662;09.00582-2662;09.00582-2669;09.00582-2669;
19.10.10;Graham Meyer;07:00:00;16:00:00;60;100334-552;100334-552;100334-552;100334-552;100334-552;100334-552;100018-44;100025-314;
19.10.10;Thando Katywa;07:00:00;16:00:00;60;100018-45;100025-315;09.00582-2349;09.00582-626;09.00582-626;09.00582-626;09.00582-626;09.00582-626;
19.10.10;Ludumo Sankobe;07:00:00;16:00:00;60;100025-316;09.00582-2664;09.00582-2664;09.00582-2664;09.00582-2664;09.00582-2664;09.00582-2664;100018-46;
19.10.10;Paul Helliwell;07:00:00;16:00:00;60;100334-706;100334-706;100334-706;100334-706;100334-706;100334-706;100025-317;100018-38;
19.10.10;Ntombenkosi Maldaki;07:00:00;16:00:00;60;09.00582-2218;09.00582-2218;09.00582-2218;09.00582-2218;09.00582-2218;09.00582-2218 / 100018-50;100018-50 / 100025-320;100025-320 / 09.00582-2218;
19.10.10;Abdul-Aziz Hendricks;07:00:00;16:00:00;60;09.00582-600;09.00582-600;09.00582-600;09.00582-600;09.00582-600;09.00582-600;100018-51;100025-321;
19.10.10;Mark Britten;07:00:00;16:00:00;60;09.00582-2169;09.00582-2169;09.00582-2169;09.00582-2169;09.00582-2169;09.00582-2169;100018-52;100025-322;
19.10.10;Angelo Bentley;07:00:00;16:00:00;60;09.00582-2665;09.00582-2665;09.00582-2665;09.00582-2665;09.00582-2665;09.00582-2665;100018-53;100025-323;
20.10.10;Brendan van Zyl;07:00:00;16:00:00;60;100018-39;100018-39 / 09.00582-2196;09.00582-2196;09.00582-2196;09.00582-2196;09.00582-2196;09.00582-2196 / 09.00582-2196;09.00582-2196;
20.10.10;Jason Smith;07:00:00;16:00:00;60;09.00582-0;09.00582-0;09.00582-0;09.00582-0;09.00582-0;09.00582-0;09.00582-0;09.00582-0;
20.10.10;Justin Jansen Van Vuuren;
20.10.10;Nico Claassen;07:00:00;16:00:00;60;100334-574;100334-574;100334-574;100334-574;100334-574;09.00582-1317;100018-54;100018-54;
20.10.10;Malcolm Vorster;07:00:00;16:00:00;60;09.00582-2669;09.00582-2669;09.00582-2669;09.00582-2669;09.00582-2669;09.00582-2669;09.00582-2669;09.00582-2669;
20.10.10;Graham Meyer;07:00:00;16:00:00;60;100334-552;100334-552;100334-552;100334-552;100334-552;100334-552;100334-552;100334-552;
20.10.10;Thando Katywa;07:00:00;16:00:00;60;09.00582-626;09.00582-626;09.00582-626;09.00582-626;09.00582-626;09.00582-626;09.00582-626;09.00582-626;
20.10.10;Ludumo Sankobe;07:00:00;16:00:00;60;09.00582-2664;09.00582-2664;09.00582-2664;09.00582-2664;09.00582-2664;09.00582-2664;09.00582-2664;09.00582-2664;
20.10.10;Paul Helliwell;07:00:00;16:00:00;60;100025-317;100025-317;100025-317;100025-317;100025-317;100018-38;100018-38;100018-38;
20.10.10;Ntombenkosi Maldaki;07:00:00;16:00:00;60;09.00582-2213;09.00582-2213;09.00582-2218;09.00582-2218;09.00582-2218;09.00582-2218;09.00582-2204;09.00582-2204;
20.10.10;Abdul-Aziz Hendricks;07:00:00;16:00:00;60;09.00582-600;09.00582-600;09.00582-600;09.00582-600;09.00582-600;09.00582-600;09.00582-600;09.00582-600;
20.10.10;Mark Britten;07:00:00;16:00:00;60;09.00582-2653;09.00582-2653;09.00582-2653;09.00582-2653;09.00582-2169;09.00582-2169;09.00582-2169;09.00582-2169;
20.10.10;Angelo Bentley;07:00:00;16:00:00;60;09.00582-2665;09.00582-2665;09.00582-2665;09.00582-2665;09.00582-2665;09.00582-2665;09.00582-2665;09.00582-2665;
21.10.10;Brendan van Zyl;07:00:00;16:00:00;60;09.00582-2196;09.00582-2196;09.00582-2196;09.00582-2196;09.00582-2196;09.00582-2196;100025-310;100334-105;
21.10.10;Jason Smith;07:00:00;16:00:00;60;09.00582-0;09.00582-0;09.00582-0;09.00582-0;09.00582-0;09.00582-0;09.00582-0;09.00582-0;
21.10.10;Justin Jansen Van Vuuren;
21.10.10;Nico Claassen;07:00:00;16:00:00;60;100025-265;100018-54;100018-54;100018-54;100018-54;100018-54;100018-55;100018-55;
21.10.10;Malcolm Vorster;07:00:00;16:00:00;60;100025-313;09.00582-2669;09.00582-2669;09.00582-2669;09.00582-2669;09.00582-2669;09.00582-2669;09.00582-2669;
21.10.10;Graham Meyer;07:00:00;16:00:00;60;100334-552;100334-552;100334-552;100334-552;100334-552;100334-552;100334-552;100025-314;
21.10.10;Thando Katywa;07:00:00;16:00:00;60;100025-315;09.00582-626;09.00582-626;09.00582-626;09.00582-626;09.00582-626;09.00582-626;09.00582-626;
21.10.10;Ludumo Sankobe;07:00:00;16:00:00;60;100025-316;09.00582-2669;09.00582-2669;09.00582-2669;09.00582-2669;09.00582-2669;09.00582-2669;09.00582-2669;
21.10.10;Paul Helliwell;07:00:00;16:00:00;60;100025-317;100025-317;100025-317;100025-317;100025-317;100025-317;100025-317;100025-317;
21.10.10;Ntombenkosi Maldaki;07:00:00;16:00:00;60;09.00582-617;09.00582-617;09.00582-617;09.00582-617;100025-320;09.00582-2219;09.00582-2219;09.00582-617;
21.10.10;Abdul-Aziz Hendricks;07:00:00;16:00:00;60;09.00582-600;09.00582-600;09.00582-600;09.00582-600;09.00582-600;09.00582-600;09.00582-600;100025-321;
21.10.10;Mark Britten;07:00:00;16:00:00;60;100018-52;09.00582-2653;09.00582-2653;09.00582-2653;09.00582-2653;09.00582-2653;09.00582-2653;09.00582-2653;
21.10.10;Angelo Bentley;07:00:00;16:00:00;60;09.00582-2665;09.00582-2665;09.00582-2665;09.00582-2665;09.00582-2665;09.00582-2665;09.00582-2665;100025-323;
22.10.10;Brendan van Zyl;07:00:00;16:00:00;60;100025-310;100025-310;09.00582-2196;09.00582-2196;09.00582-2196;09.00582-2196;09.00582-2196;100334-105;
22.10.10;Jason Smith;07:00:00;16:00:00;60;09.00582-0;09.00582-0;09.00582-0;09.00582-0;09.00582-0;09.00582-0;09.00582-0;09.00582-0;
22.10.10;Justin Jansen Van Vuuren;
22.10.10;Nico Claassen;07:00:00;16:00:00;60;100025-265;100025-265;100018-54;100018-54;100018-54;100018-54 / 100018-54;100018-54;100018-54;
22.10.10;Malcolm Vorster;07:00:00;16:00:00;60;100025-313;100025-313;100018-43;100334-718;100334-718;100334-718;100334-718;100334-718;
22.10.10;Graham Meyer;07:00:00;15:00:00;0;100025-314;100025-314;100334-552;100334-552;100334-552;100334-552;100334-552;100334-552;
22.10.10;Thando Katywa;07:00:00;16:00:00;60;09.00582-626;09.00582-626;09.00582-626;09.00582-2224;09.00582-2224;09.00582-2224;100025-315;100025-315;
22.10.10;Ludumo Sankobe;07:00:00;16:00:00;60;100025-316;100025-316;100025-316;09.00582-2663;09.00582-2663;09.00582-2663;09.00582-2663;09.00582-2663;
22.10.10;Paul Helliwell;07:00:00;15:00:00;60;100025-317;100025-317;100025-317;100025-317;09.00582-2686;09.00582-2686;09.00582-2686;
22.10.10;Ntombenkosi Maldaki;07:00:00;16:00:00;60;100025-320;100025-320;09.00582-2668;09.00582-2668;09.00582-2668;09.00582-2668;09.00582-2668;100018-50;
22.10.10;Abdul-Aziz Hendricks;07:00:00;16:00:00;60;09.00582-600;09.00582-600;09.00582-600;09.00582-600;09.00582-600;09.00582-600;100025-321;100025-321;
22.10.10;Mark Britten;07:00:00;16:00:00;60;100023-0;100023-0;100023-0;100023-0;100023-0;100023-0;100023-0;100023-0;
22.10.10;Angelo Bentley;07:00:00;16:00:00;60;09.00582-2665;09.00582-2665;09.00582-2665;09.00582-2665;09.00582-2665;09.00582-2665;100025-323;100025-323;
23.10.10;Brendan van Zyl;
23.10.10;Jason Smith;
23.10.10;Justin Jansen Van Vuuren;
23.10.10;Nico Claassen;
23.10.10;Malcolm Vorster;
23.10.10;Graham Meyer;
23.10.10;Thando Katywa;
23.10.10;Ludumo Sankobe;
23.10.10;Paul Helliwell;
23.10.10;Ntombenkosi Maldaki;
23.10.10;Abdul-Aziz Hendricks;
23.10.10;Mark Britten;
23.10.10;Angelo Bentley;
24.10.10;Brendan van Zyl;
24.10.10;Jason Smith;
24.10.10;Justin Jansen Van Vuuren;
24.10.10;Nico Claassen;
24.10.10;Malcolm Vorster;
24.10.10;Graham Meyer;
24.10.10;Thando Katywa;
24.10.10;Ludumo Sankobe;
24.10.10;Paul Helliwell;
24.10.10;Ntombenkosi Maldaki;
24.10.10;Abdul-Aziz Hendricks;
24.10.10;Mark Britten;
24.10.10;Angelo Bentley;
25.10.10;Brendan van Zyl;07:00:00;16:00:00;60;100334-105;100334-105;100334-105;100334-105;100334-105;100334-105;100334-105;100334-105;
25.10.10;Jason Smith;07:00:00;16:00:00;60;09.00582-2701;09.00582-2701;09.00582-2701;09.00582-2701;09.00582-2701;09.00582-2701;09.00582-2701;09.00582-2701;
25.10.10;Justin Jansen Van Vuuren;
25.10.10;Nico Claassen;07:00:00;16:00:00;60;100334-574;100334-574;100334-574;100334-574;100334-574;100334-574;100018-54;100018-54;
25.10.10;Malcolm Vorster;07:00:00;16:00:00;60;100334-854;100334-854;100334-854;100334-706;100334-706;100334-706;100334-706;100018-43;
25.10.10;Graham Meyer;07:00:00;16:00:00;60;100334-552;100334-552;100334-552;100334-552;100334-552;100334-552;100334-552;100334-552;
25.10.10;Thando Katywa;07:00:00;16:00:00;60;077598-0;077598-0;077598-0;077598-0;077598-0;077598-0;077598-0;077598-0;
25.10.10;Ludumo Sankobe;07:00:00;16:00:00;60;09.00582-2152;09.00582-2152;09.00582-2152;09.00582-2152;09.00582-2152;09.00582-2152;09.00582-2203;09.00582-2203;
25.10.10;Paul Helliwell;07:00:00;16:00:00;60;09.00582-2686;09.00582-2686;100334-551;100334-551;100334-551;100334-551;100334-551;100334-551;
25.10.10;Ntombenkosi Maldaki;07:00:00;16:00:00;60;100023-0;100023-0;100023-0;100023-0;100023-0;100023-0;100023-0;100023-0;
25.10.10;Abdul-Aziz Hendricks;07:00:00;16:00:00;60;09.00582-1866;09.00582-1866;09.00582-1866;09.00582-1866;09.00582-1866;09.00582-1866;09.00582-2210;09.00582-2210;
25.10.10;Mark Britten;07:00:00;16:00:00;60;100023-0;100023-0;100023-0;100023-0;100023-0;100023-0;100023-0;100023-0;
25.10.10;Angelo Bentley;07:00:00;16:00:00;60;09.00582-626;09.00582-626;09.00582-626;09.00582-626;09.00582-626;09.00582-626;09.00582-626;09.00582-626;
26.10.10;Brendan van Zyl;07:00:00;16:00:00;60;100025-310 / 09.00311-173;09.00311-173;09.00311-173;100334-105;100334-105;100334-105;100334-105;100334-105;
26.10.10;Jason Smith;07:00:00;16:00:00;60;09.00582-2701;09.00582-2701 / 09.00582-2701;09.00582-2701;09.00582-2701;09.00582-2701;09.00582-2701;09.00582-2701;09.00582-2701;
26.10.10;Justin Jansen Van Vuuren;
26.10.10;Nico Claassen;07:00:00;16:00:00;60;100334-574;100334-574;100334-574;100334-574;100334-574;100334-574;100018-54;100018-54;
26.10.10;Malcolm Vorster;07:00:00;16:00:00;60;100334-750;100334-750;100334-751;100334-751;100334-469;100334-469;100334-469;100334-62;
26.10.10;Graham Meyer;07:00:00;16:00:00;60;100334-552;100334-552;100334-552;100334-552;100334-552;100334-552;100334-552;100334-552;
26.10.10;Thando Katywa;07:00:00;16:00:00;60;09.00582-626;09.00582-626;09.00582-626;09.00582-626;09.00582-626;09.00582-626;09.00582-626;09.00582-626;
26.10.10;Ludumo Sankobe;07:00:00;16:00:00;60;09.00582-2491;09.00582-2491;09.00582-2491;09.00582-2491;09.00582-2491;09.00582-2491;09.00582-2491;09.00582-2491;
26.10.10;Paul Helliwell;07:00:00;16:00:00;60;100334-551;100334-551;100334-551;100334-551;100334-551;100334-551;100334-551;100334-551;
26.10.10;Ntombenkosi Maldaki;07:00:00;16:00:00;60;100023-0;100023-0;100023-0;100023-0;100023-0;100023-0;100023-0;100023-0;
26.10.10;Abdul-Aziz Hendricks;07:00:00;16:00:00;60;09.00582-2210;09.00582-2210;09.00582-2210;09.00582-2210 / 09.00582-2210;09.00582-2210;09.00582-1866;09.00582-1866 / 09.00582-1866;09.00582-1866;
26.10.10;Mark Britten;07:00:00;16:00:00;60;100023-0;100023-0;100023-0;100023-0;100023-0;100023-0;100023-0;100023-0;
26.10.10;Angelo Bentley;07:00:00;16:00:00;60;09.00582-626;09.00582-626;09.00582-626;09.00582-626;09.00582-626;09.00582-626;100018-53;100018-53;
27.10.10;Brendan van Zyl;07:00:00;16:00:00;60;100334-105;100334-105;100334-105;100334-105;100334-105;100334-105;100334-105;100334-105;
27.10.10;Jason Smith;07:00:00;16:00:00;60;09.00582-2477;09.00582-2477;09.00582-2477;09.00582-2477;09.00582-2477;09.00582-2477;09.00582-2477;09.00582-2477;
27.10.10;Justin Jansen Van Vuuren;
27.10.10;Nico Claassen;07:00:00;16:00:00;60;100334-574;100334-574;100334-574;100334-574;100018-55;100018-55;09.00582-1317;100018-54;
27.10.10;Malcolm Vorster;07:00:00;16:00:00;60;100334-574;100334-574;100334-574;100334-574;100334-574;100334-62;100334-62;100018-43;
27.10.10;Graham Meyer;07:00:00;16:00:00;60;09.00582-0;09.00582-0;09.00582-0;09.00582-0;09.00582-0;09.00582-0;100334-552;100334-552;
27.10.10;Thando Katywa;07:00:00;16:00:00;60;09.00582-626;09.00582-626;09.00582-626;09.00582-626;09.00582-626;09.00582-626;09.00582-626;09.00582-626;
27.10.10;Ludumo Sankobe;07:00:00;16:00:00;60;09.00582-2491;09.00582-2491;09.00582-2491;09.00582-2491;09.00582-2491;09.00582-2491;09.00582-2491;09.00582-2491;
27.10.10;Paul Helliwell;07:00:00;16:00:00;60;100023-0;100023-0;100023-0;100023-0;100023-0;100023-0;100023-0;100023-0;
27.10.10;Ntombenkosi Maldaki;07:00:00;16:00:00;60;09.00582-392;09.00582-392;09.00582-392;09.00582-2195;09.00582-2195;09.00582-2195;09.00582-2195;09.00582-2195;
27.10.10;Abdul-Aziz Hendricks;07:00:00;16:00:00;60;09.00582-2210;09.00582-2210;09.00582-2210;09.00582-2210;09.00582-2210;09.00582-2210;09.00582-2210;09.00582-2210 / 100018-51;
27.10.10;Mark Britten;07:00:00;16:00:00;60;09.00582-2169;09.00582-2169;09.00582-2169;09.00582-2169;09.00582-2169;09.00582-2169;09.00582-2169;09.00582-2169;
27.10.10;Angelo Bentley;07:00:00;16:00:00;60;09.00582-0;09.00582-0;09.00582-0;09.00582-0;09.00582-0;09.00582-0;09.00582-0;09.00582-0;
28.10.10;Brendan van Zyl;07:00:00;16:00:00;60;100334-105;100334-105;100334-105;100334-105;100334-105;100334-105;100334-105;100334-105;
28.10.10;Jason Smith;07:00:00;16:00:00;60;09.00582-2477;09.00582-2477;09.00582-2477;09.00582-2477;09.00582-2477;09.00582-2477;09.00582-2477;09.00582-2477;
28.10.10;Justin Jansen Van Vuuren;
28.10.10;Nico Claassen;07:00:00;16:00:00;60;100334-721;100334-721;100334-721;100334-721;100334-721;100334-721;100018-54;100018-54;
28.10.10;Malcolm Vorster;07:00:00;16:00:00;60;100334-807;100334-807;100334-807;100334-62;100334-62;100025-313;100025-313;100018-43;
28.10.10;Graham Meyer;07:00:00;16:00:00;60;100025-314;100334-552;100334-552;100334-552;100334-552;100334-552;100334-552;100334-552;
28.10.10;Thando Katywa;07:00:00;16:00:00;60;09.00582-626;09.00582-626;09.00582-626;09.00582-626;09.00582-626;09.00582-626;09.00582-626;09.00582-626;
28.10.10;Ludumo Sankobe;07:00:00;16:00:00;60;09.00582-2491;09.00582-2210;09.00582-2210;09.00582-2210;09.00582-2210;09.00582-2210;09.00582-2210;09.00582-2210;
28.10.10;Paul Helliwell;07:00:00;16:00:00;60;100334-551;100334-551;100334-551;100334-551;100334-551;100334-551;100334-551;100334-551;
28.10.10;Ntombenkosi Maldaki;07:00:00;16:00:00;60;09.00582-2204;09.00582-2204;09.00582-2204;09.00582-2204;09.00582-2204;09.00582-2204;09.00582-2204;09.00582-2204;
28.10.10;Abdul-Aziz Hendricks;07:00:00;16:00:00;60;09.00582-2210;09.00582-2210;09.00582-2210;09.00582-2210;09.00582-2210;09.00582-2210;09.00582-2210;09.00582-2210;
28.10.10;Mark Britten;07:00:00;16:00:00;60;09.00582-2169;09.00582-2169;09.00582-2169;09.00582-2169;09.00582-2169;09.00582-2169;09.00582-2169;09.00582-2169;
28.10.10;Angelo Bentley;07:00:00;16:00:00;60;09.00582-0;09.00582-0;09.00582-0;09.00582-0;09.00582-0;09.00582-0;09.00582-0;09.00582-0;
29.10.10;Brendan van Zyl;07:00:00;16:00:00;60;09.00582-2169;09.00582-2169;09.00582-2169;09.00582-2169;09.00582-2169;09.00582-2169;09.00582-2169 / 100018-39;100018-39;
29.10.10;Jason Smith;07:00:00;16:00:00;60;09.00582-2477;09.00582-2477;09.00582-2477;09.00582-2477;09.00582-2477;09.00582-2477;09.00582-2477;09.00582-2477;
29.10.10;Justin Jansen Van Vuuren;
29.10.10;Nico Claassen;07:00:00;16:00:00;60;100018-54;100018-54;100018-54;100018-54;100018-55;100018-55;100018-55;100018-55;
29.10.10;Malcolm Vorster;07:00:00;16:00:00;60;100018-43;100018-43;100018-43 / 100334-807;100334-807;100334-807;100334-807;100334-807;100334-807;
29.10.10;Graham Meyer;07:00:00;16:00:00;60;100018-44;09.00582-2152;09.00582-2152;09.00582-2152;09.00582-2152;09.00582-2152;09.00582-2152;09.00582-2152;
29.10.10;Thando Katywa;07:00:00;16:00:00;60;100018-45;100018-45 / 09.00582-626;09.00582-626;09.00582-626;09.00582-626;09.00582-626;09.00582-626;09.00582-626;
29.10.10;Ludumo Sankobe;07:00:00;16:00:00;60;09.00582-2491;09.00582-2491;09.00582-2491;09.00582-2491;09.00582-2491;09.00582-2491;09.00582-2491;100018-46;
29.10.10;Paul Helliwell;07:00:00;16:00:00;60;100334-551;100334-551;100334-551;100334-551;100334-551;100334-551;100334-551;100018-47;
29.10.10;Ntombenkosi Maldaki;07:00:00;16:00:00;60;100018-50;100018-50;09.00582-2204;09.00582-2204;09.00582-2204;09.00582-2204;09.00582-2204;09.00582-2204;
29.10.10;Abdul-Aziz Hendricks;07:00:00;16:00:00;60;100023-0;100023-0;100023-0;100023-0;100023-0;100023-0;100023-0;100023-0;
29.10.10;Mark Britten;07:00:00;16:00:00;60;100018-52;09.00582-2169;09.00582-2169;09.00582-2169;09.00582-2169;09.00582-2169;09.00582-2169;09.00582-2169;
29.10.10;Angelo Bentley;07:00:00;16:00:00;60;100018-53;0900582-0;0900582-0;0900582-0;0900582-0;077598-0;077598-0;077598-0;
30.10.10;Brendan van Zyl;
30.10.10;Jason Smith;
30.10.10;Justin Jansen Van Vuuren;
30.10.10;Nico Claassen;
30.10.10;Malcolm Vorster;
30.10.10;Graham Meyer;
30.10.10;Thando Katywa;
30.10.10;Ludumo Sankobe;
30.10.10;Paul Helliwell;
30.10.10;Ntombenkosi Maldaki;
30.10.10;Abdul-Aziz Hendricks;
30.10.10;Mark Britten;
30.10.10;Angelo Bentley;