"01.11.10","1","09.00582","2477","181","Fehlerbes. vor Ausl. (Bugzilla)","","60","9x6: bugfixing: bedat: bf+test. final testing of fsp and measurement for me 5.2","07:00","16:00","8","60",
"02.11.10","2","09.00582","2477","181","Fehlerbes. vor Ausl. (Bugzilla)","","0","9x6: bugfixing: bedat: bf+test. Worked on bug 26430 to attribute measurement values","07:00","16:00","1","60",
"02.11.10","2","09.00582","2477","181","Fehlerbes. vor Ausl. (Bugzilla)","","80","9x6: bugfixing: bedat: bf+test. Retested ME52 with latest baureheinsetup with bugfixes, combined all bus logs and protocols","","","7","0",
"03.11.10","3","09.00582","2477","181","Fehlerbes. vor Ausl. (Bugzilla)","","0","9x6: bugfixing: bedat: bf+test. Working on bug 25210, 25444","07:00","16:00","5","60",
"03.11.10","3","09.00582","1443","120","Codierung","","0","3001: 9x6: ME7.2: ODX Bedat + FAP. ODX testing of ME7.2 (task has been closed)","","","3","0",
"04.11.10","4","09.00582","1443","120","Codierung","","0","3001: 9x6: ME7.2: ODX Bedat + FAP. ODX testing of ME7.2 (task is closed)","07:00","16:00","6,5","60",
"04.11.10","4","100018","40","110","Engineering","","0","Wochenaufgaben AES. Held meeting discuss odx testing of kombi and dme and the time the team has wasted","","","1,5","0",
"05.11.10","5","09.00582","1443","120","Codierung","","0","3001: 9x6: ME7.2: ODX Bedat + FAP. ODX testing and bugfixing ME7.2 (task is closed)","07:00","16:00","8","60",
