"23.08.10","1","09.00582","2170","110","Engineering","","80","3022: 9x6: ME7.8/ME7.8min: Kurztest: Testspec + erw. Sim. Updating test specification and simulation with more test cases and corrected with new analysis","07:00","16:00","8","60",
"24.08.10","2","100018","43","110","Engineering","","0","Wochenaufgaben AES. Meeting regarding timesheets checking and updating with NC and Nolwazi","07:00","16:00","1","60",
"24.08.10","2","09.00582","2170","110","Engineering","","100","3022: 9x6: ME7.8/ME7.8min: Kurztest: Testspec + erw. Sim. Completed the task, checked in final simulations","","","3","0",
"24.08.10","2","09.00582","2189","110","Engineering","","10","3029: 9x6: ME7.8/ME7.8min: CVN-Check: PH. Began task, checking sequence flow and how to implement","","","4","0",
"25.08.10","3","09.00582","2189","110","Engineering","","75","3029: 9x6: ME7.8/ME7.8min: CVN-Check: PH. Found short falls in the analysis, added service and update variants","07:00","16:00","8","60",
"26.08.10","4","09.00582","2189","110","Engineering","","100","3029: 9x6: ME7.8/ME7.8min: CVN-Check: PH. Completed PH document, and finilised DSN's","07:00","16:00","4","60",
"26.08.10","4","09.00582","2190","110","Engineering","","15","3029: 9x6: ME7.8/ME7.8min: CVN-Check: Testspec + erw. Sim. Began simulations and variant confirmation","","","4","0",
"27.08.10","5","09.00582","2190","110","Engineering","","75","3029: 9x6: ME7.8/ME7.8min: CVN-Check: Testspec + erw. Sim. Adhusting the simulations for specific test cases and DSN's, building test specification","07:00","16:00","8","60",
