"05.04.10","1","100023","0","910","Urlaub","","0","Urlaub. Public Holiday","07:00","16:00","9","0",
"06.04.10","2","09.00582","0","110","Engineering","","90","1020: 9x6: Kombi I: ECU Analyse. Reworking analysis document done. Creating actuators CTS document.","07:00","16:00","6","60",
"06.04.10","2","100018","37","110","Engineering","","0","S4/DSA overall tasks. General admin, checking work items.","","","1,5","0",
"06.04.10","2","100018","42","110","Engineering","","0","Wochenaufgaben PAE. Telco with dr, mi and sd","","","0,5","0",
"07.04.10","3","09.00582","0","110","Engineering","","20","1020: 9x6: Kombi I: ECU Analyse. Kombi SG-Tausch re-analysis","07:00","16:00","3","60",
"07.04.10","3","100018","37","110","Engineering","","0","S4/DSA overall tasks. Assisting colleagues, genral admin","","","4,5","0",
"07.04.10","3","077353","2929","110","Engineering","","0","8501: E1 M5: CoMod A1.4/ae19. Project Plan + Bug tracking with dr","","","0,5","0",
"08.04.10","4","100025","265","170","Schulung","","0","Schulungen 2010. ODA Sequence Builder training","07:00","16:00","6","60",
"08.04.10","4","100018","37","110","Engineering","","0","S4/DSA overall tasks. General admin, checking work items","","","1,5","0",
"08.04.10","4","100018","42","110","Engineering","","0","Wochenaufgaben PAE. General discussions with staff on ODA Sequence Builder","","","0,5","0",
"09.04.10","5","100025","265","170","Schulung","","0","Schulungen 2010. ODA Sequence Builder training","07:00","16:00","2","60",
"09.04.10","5","100018","42","110","Engineering","","0","Wochenaufgaben PAE. Discussions with staff on ODA Sequence Builder","","","1","0",
"09.04.10","5","100018","37","110","Engineering","","0","S4/DSA overall tasks. Admin, email about ODA, tracking work items","","","2","0",
"09.04.10","5","09.00582","0","110","Engineering","","0","1020: 9x6: Kombi I: ECU Analyse. Kombi SG-Tausch re-analysis","","","3","0",
