"08.03.10","1","077353","10549","181","Fehlerbes. vor Ausl. (Bugzilla)","","0","1604: E1 M5: Bugfixing /ae15nd bug-fixing.. E1 bug-fixing: Bug 22212","07:00","16:00","4","60",
"08.03.10","1","077353","6170","110","Engineering","","0","8185: Warten auf Authoring (Performance-Probleme bei Ausfuehrung). Waiting for response from authoring","","","2","0",
"08.03.10","1","09.00065","0","170","Schulung","","0","Get into subject: ODX. ODX creation training","","","2","0",
"09.03.10","2","077353","10549","181","Fehlerbes. vor Ausl. (Bugzilla)","","0","1604: E1 M5: Bugfixing /ae15nd bug-fixing.. E1 bug-fixing: Bug 22212","07:00","16:00","3","60",
"09.03.10","2","09.00582","119","110","Engineering","","0","8501: 9x6: allg. Projekttätigkeit C1.3/ae20. Installing ODX Authoring","","","1,5","0",
"09.03.10","2","09.00582","0","120","Codierung","","0","G2.1 120 ODX Bedatung ABS_PSM. ODX creation","","","1","0",
"09.03.10","2","077353","6170","110","Engineering","","0","	 8185: Warten auf Authoring (Performance-Probleme bei Ausfuehrung). Waiting for response from authoring","","","0,5","0",
"09.03.10","2","09.00065","0","170","Schulung","","0","Get into subject: ODX. ODX creation training","","","2","0",
"10.03.10","3","09.00065","0","170","Schulung","","0","Get into subject: ODX. ODX creation training","07:00","16:00","7,5","60",
"10.03.10","3","077353","12231","182","Fehlerbes. nach Ausl. (Bugzilla)","","100","6220: E1 M5: Bugfixing: BF+Test: #22169. E1 bug-fixing: Bug 22169","","","0,5","0",
"11.03.10","4","09.00065","0","170","Schulung","","0","Get into subject: ODX. ODX creation training","07:00","16:00","6,5","60",
"11.03.10","4","09.00582","9999","120","Codierung","","0","ODX Bedatung ABS_PSM. ODX creation","","","1","0",
"11.03.10","4","09.00582","1","110","Engineering","","0","Waiting for authoring. Waiting for authoring response","","","0,5","0",
"12.03.10","5","09.00582","9999","120","Codierung","","0","ODX Bedatung ABS_PSM. ODX creation","07:00","16:00","1,5","60",
"12.03.10","5","09.00582","1","110","Engineering","","0","Waiting for authoring. Waiting for authoring response","","","0,5","0",
"12.03.10","5","09.00065","0","170","Schulung","","0","Get into subject: ODX. ODX creation training","","","6","0",
