"05.04.10","1","100023","0","910","Urlaub","","0","Holiday. Public holiday","07:00","16:00","8","60",
"06.04.10","2","09.00582","601","120","Codierung","","0","1001: 9x6: PSM/ABS I: ODX Bedat. ODX Creation for ABS A06, A07 and A08","07:00","16:00","5","60",
"06.04.10","2","09.00582","601","120","Codierung","","0","1001: 9x6: PSM/ABS I: ODX Bedat. Waiting for authoring response and ODX export problems","","","3","0",
"07.04.10","3","077353","12368","181","Fehlerbes. vor Ausl. (Bugzilla)","","0","6320: E1 M5: Bugfixing: BF+Test: #22530. Testing and fixing bug 22530","07:00","16:00","1","60",
"07.04.10","3","09.00582","601","120","Codierung","","0","1001: 9x6: PSM/ABS I: ODX Bedat. ODX Creation for ABS A06, A07 and A08","","","4","0",
"07.04.10","3","09.00582","601","120","Codierung","","0","	1001: 9x6: PSM/ABS I: ODX Bedat. Waiting for authoring response and ODX export problems","","","1,5","0",
"07.04.10","3","09.00582","600","120","Codierung","","0","From s54: 1021: 9x6: Kombi I: ODX Bedat. Fixing corrupt entities","","","1,5","0",
"08.04.10","4","100025","315","170","Schulung","","0","Schulungen 2010. DSA Sequence Builder training","07:00","16:00","6","60",
"08.04.10","4","100036","76","170","Schulung","","0","From s56: Training: ODX Authoring /em009fp1. Assisting collegue","","","0,5","0",
"08.04.10","4","09.00582","601","120","Codierung","","0","1001: 9x6: PSM/ABS I: ODX Bedat. ODX Creation for ABS A06, A07 and A08","","","1","0",
"08.04.10","4","09.00582","601","120","Codierung","","0","1001: 9x6: PSM/ABS I: ODX Bedat. Waiting for authoring response","","","0,5","0",
"09.04.10","5","100025","315","170","Schulung","","0","Schulungen 2010. DSA Sequence Builder training","07:00","16:00","2","60",
"09.04.10","5","09.00582","119","110","Engineering","","0","8501: 9x6: allg. Projekttätigkeit C1.3/ae20. Project meeting","","","1","0",
"09.04.10","5","09.00582","417","120","Codierung","","0","1001: 9x6: PSM/ABS I: ODX Bedat JavaJobs. Modifying ODX Job for variant identification","","","2","0",
"09.04.10","5","09.00582","418","110","Engineering","","0","1002: 9x6: PSM/ABS I: Statischer Test: PH. Working with sequence builder files","","","3","0",
