"01.03.10","1","09.00065","355","170","Schulung","","0","Training: ODX Authoring/em949fp1. ODX authoring traing","07:00","16:00","4","60",
"01.03.10","1","077353","12189","110","Engineering","","0","8185: Warten auf Authoring (Performance-Probleme bei Ausführung). connection problems with database","","","2","0",
"01.03.10","1","077353","12137","110","Engineering","","0","8501: E1 M5: allg. Projekttätigkeiten A1.15/ae19. test specifications","","","2","0",
"02.03.10","2","077353","12189","110","Engineering","","0","Warten auf Authoring (Performance-Probleme bei Ausführung). connection problems","07:00","16:00","3","60",
"02.03.10","2","09.00852","0","120","Codierung","","0","G1-2 ODX Bedatung Kombi. 9x6 Kombi structures and tables for 21 01 service","","","5","0",
"03.03.10","3","077353","0","110","Engineering","","0","8501: E1 M5: allg. Projekttätigkeiten A1.15. Meeting","07:00","16:00","1","60",
"03.03.10","3","09.00582","0","120","Codierung","","0","G1-2 ODX Bedatung Kombi. Conversions for Kombi 3, 21 22 srvice","","","4","0",
"03.03.10","3","09.00582","0","120","Codierung","","0","G1-2 ODX Bedatung Kombi. Structure for Kombi 2000, 21 01 service","","","3","0",
"04.03.10","4","077353","12189","110","Engineering","","0","8185: Warten auf Authoring (Performance-Probleme bei Ausführung). connection problems and slow server","07:00","16:00","2","60",
"04.03.10","4","09.00582","0","110","Engineering","","0","G1-2 ODX Bedatung Kombi. Conversions and structures for Kombi_i03n identification","","","6","0",
"05.03.10","5","077353","12189","110","Engineering","","0","8185: Warten auf Authoring (Performance-Probleme bei Ausführung). ODX outhoring perfomance problems","07:00","16:00","2","60",
"05.03.10","5","077353","12137","110","Engineering","","0","8501: E1 M5: allg. Projekttätigkeiten A1.15/ae19. general tasks","","","1","0",
"05.03.10","5","09.00582","0","120","Codierung","","0","G1-2 ODX Bedatung Kombi. Kombi i03n","","","5","0",
