DATE;NAME;START;END;LUNCH;1;2;3;4;5;6;7;8;9;10;11;12;13;14;15;16;17;18;19;20;21;22;23;24;
01.04.10;Brendan van Zyl;07:00:00;16:00:00;60;100018-39;09.00582-355;09.0065-378;09.0065-378;09.0065-378;09.0065-378;09.0065-378;09.0065-378;
01.04.10;Jason Smith;07:00:00;16:00:00;60;09.00582-598;09.00582-598;09.00582-598;09.00582-598;09.00582-598;09.00582-598;09.00582-598;09.00582-598 / 09.00582-0;
01.04.10;Justin Jansen Van Vuuren;07:00:00;16:00:00;60;09.00582-416;09.00582-416;09.00582-416;09.00582-416;09.00582-416;09.00582-416;09.00582-416;09.00582-594;
01.04.10;Nico Claassen;07:00:00;16:00:00;60;09.00582-0;09.00582-0;09.00582-0;09.00582-0;100018-37;09.00582-116 / 100018-37;100018-37;100018-37;
01.04.10;Malcolm Vorster;07:00:00;16:00:00;60;077353-12280;077353-12280;077353-12280;077353-12280;100018-43;09.00582-117;09.00582-117;09.00582-514;
01.04.10;Graham Meyer;07:00:00;16:00:00;60;100023-0;100023-0;100023-0;100023-0;100023-0;100023-0;100023-0;100023-0;
01.04.10;Thando Katywa;07:00:00;16:00:00;60;09.00582-119 / 09.00582-601;09.00582-601;09.00582-601;09.00582-601;09.00582-601;077353-0;077353-0;077353-0;
01.04.10;Ludumo Sankobe;07:00:00;16:00:00;60;100018-46;09.00286-51;09.00286-51;09.00286-51;09.00286-51;09.00286-51;09.00286-51;09.00286-51;
01.04.10;Paul Helliwell;07:00:00;16:00:00;60;077353-0;077353-0;077353-0;077353-0 / 077353-0;077353-0;077353-0;077353-0;077353-0 / 09.00582-120;
01.04.10;Richard Raymond;07:00:00;16:00:00;60;100018-48;100018-48;09.00582-533;09.00582-533;09.00582-533;09.00582-533;09.00582-533;09.00582-533;
01.04.10;Johannes Geldenhuys;
01.04.10;Ntombenkosi Maldaki;07:00:00;16:00:00;60;100018-50;100018-50 / 09.00582-599;09.00582-599;09.00582-599;09.00582-599;09.00582-599;09.00582-599;09.00582-599;
01.04.10;Abdul-Aziz Hendricks;07:00:00;16:00:00;60;09.00582-600;09.00582-600;09.00582-600;09.00582-600;09.00582-600;09.00582-600;09.00582-600;077353-12138;
01.04.10;Mark Britten;07:00:00;16:00:00;60;100036-0 / 100036-84;100036-84;100036-84;100036-84;100036-84;100036-84;100036-84;100036-84;
01.04.10;Angelo Bentley;07:00:00;16:00:00;60;100036-81;100036-81;100036-81;100036-81;100036-73;100036-73;100036-69;100036-69;
02.04.10;Brendan van Zyl;07:00:00;16:00:00;60;100023-0;100023-0;100023-0;100023-0;100023-0;100023-0;100023-0;100023-0;
02.04.10;Jason Smith;07:00:00;16:00:00;60;100023-0;100023-0;100023-0;100023-0;100023-0;100023-0;100023-0;100023-0;
02.04.10;Justin Jansen Van Vuuren;07:00:00;16:00:00;60;100023-0;100023-0;100023-0;100023-0;100023-0;100023-0;100023-0;100023-0;
02.04.10;Nico Claassen;07:00:00;16:00:00;0;100023-0;100023-0;100023-0;100023-0;100023-0;100023-0;100023-0;100023-0;100023-0;
02.04.10;Malcolm Vorster;07:00:00;16:00:00;60;100023-0;100023-0;100023-0;100023-0;100023-0;100023-0;100023-0;100023-0;
02.04.10;Graham Meyer;07:00:00;16:00:00;60;100023-0;100023-0;100023-0;100023-0;100023-0;100023-0;100023-0;100023-0;
02.04.10;Thando Katywa;07:00:00;16:00:00;60;100023-0;100023-0;100023-0;100023-0;100023-0;100023-0;100023-0;100023-0;
02.04.10;Ludumo Sankobe;07:00:00;16:00:00;60;100023-0;100023-0;100023-0;100023-0;100023-0;100023-0;100023-0;100023-0;
02.04.10;Paul Helliwell;07:00:00;16:00:00;60;100023-0;100023-0;100023-0;100023-0;100023-0;100023-0;100023-0;100023-0;
02.04.10;Richard Raymond;07:00:00;16:00:00;60;100023-0;100023-0;100023-0;100023-0;100023-0;100023-0;100023-0;100023-0;
02.04.10;Johannes Geldenhuys;
02.04.10;Ntombenkosi Maldaki;07:00:00;16:00:00;60;100023-0;100023-0;100023-0;100023-0;100023-0;100023-0;100023-0;100023-0;
02.04.10;Abdul-Aziz Hendricks;07:00:00;16:00:00;60;100023-0;100023-0;100023-0;100023-0;100023-0;100023-0;100023-0;100023-0;
02.04.10;Mark Britten;07:00:00;16:00:00;60;100023-0;100023-0;100023-0;100023-0;100023-0;100023-0;100023-0;100023-0;
02.04.10;Angelo Bentley;07:00:00;16:00:00;60;100023-0;100023-0;100023-0;100023-0;100023-0;100023-0;100023-0;100023-0;
03.04.10;Brendan van Zyl;
03.04.10;Jason Smith;
03.04.10;Justin Jansen Van Vuuren;
03.04.10;Nico Claassen;
03.04.10;Malcolm Vorster;
03.04.10;Graham Meyer;
03.04.10;Thando Katywa;
03.04.10;Ludumo Sankobe;
03.04.10;Paul Helliwell;
03.04.10;Richard Raymond;
03.04.10;Johannes Geldenhuys;
03.04.10;Ntombenkosi Maldaki;
03.04.10;Abdul-Aziz Hendricks;
03.04.10;Mark Britten;
03.04.10;Angelo Bentley;
04.04.10;Brendan van Zyl;
04.04.10;Jason Smith;
04.04.10;Justin Jansen Van Vuuren;
04.04.10;Nico Claassen;
04.04.10;Malcolm Vorster;
04.04.10;Graham Meyer;
04.04.10;Thando Katywa;
04.04.10;Ludumo Sankobe;
04.04.10;Paul Helliwell;
04.04.10;Richard Raymond;
04.04.10;Johannes Geldenhuys;
04.04.10;Ntombenkosi Maldaki;
04.04.10;Abdul-Aziz Hendricks;
04.04.10;Mark Britten;
04.04.10;Angelo Bentley;
05.04.10;Brendan van Zyl;07:00:00;16:00:00;60;100023-0;100023-0;100023-0;100023-0;100023-0;100023-0;100023-0;100023-0;
05.04.10;Jason Smith;07:00:00;16:00:00;60;100023-0;100023-0;100023-0;100023-0;100023-0;100023-0;100023-0;100023-0;
05.04.10;Justin Jansen Van Vuuren;07:00:00;16:00:00;60;100023-0;100023-0;100023-0;100023-0;100023-0;100023-0;100023-0;100023-0;
05.04.10;Nico Claassen;07:00:00;16:00:00;0;100023-0;100023-0;100023-0;100023-0;100023-0;100023-0;100023-0;100023-0;100023-0;
05.04.10;Malcolm Vorster;07:00:00;16:00:00;60;100023-0;100023-0;100023-0;100023-0;100023-0;100023-0;100023-0;100023-0;
05.04.10;Graham Meyer;07:00:00;16:00:00;60;100023-0;100023-0;100023-0;100023-0;100023-0;100023-0;100023-0;100023-0;
05.04.10;Thando Katywa;07:00:00;16:00:00;60;100023-0;100023-0;100023-0;100023-0;100023-0;100023-0;100023-0;100023-0;
05.04.10;Ludumo Sankobe;07:00:00;16:00:00;60;100023-0;100023-0;100023-0;100023-0;100023-0;100023-0;100023-0;100023-0;
05.04.10;Paul Helliwell;07:00:00;16:00:00;60;100023-0;100023-0;100023-0;100023-0;100023-0;100023-0;100023-0;100023-0;
05.04.10;Richard Raymond;07:00:00;16:00:00;60;100023-0;100023-0;100023-0;100023-0;100023-0;100023-0;100023-0;100023-0;
05.04.10;Johannes Geldenhuys;
05.04.10;Ntombenkosi Maldaki;07:00:00;16:00:00;60;100023-0;100023-0;100023-0;100023-0;100023-0;100023-0;100023-0;100023-0;
05.04.10;Abdul-Aziz Hendricks;07:00:00;16:00:00;60;100023-0;100023-0;100023-0;100023-0;100023-0;100023-0;100023-0;100023-0;
05.04.10;Mark Britten;07:00:00;16:00:00;60;100023-0;100023-0;100023-0;100023-0;100023-0;100023-0;100023-0;100023-0;
05.04.10;Angelo Bentley;07:00:00;16:00:00;60;100023-0;100023-0;100023-0;100023-0;100023-0;100023-0;100023-0;100023-0;
06.04.10;Brendan van Zyl;07:00:00;16:00:00;60;100018-39 / 09.00582-355;09.00582-355;09.00065-378;09.00065-378;09.00065-378;09.00065-378;09.00065-378;09.00065-378;
06.04.10;Jason Smith;07:00:00;16:00:00;60;09.00582-613;09.00582-613;09.00582-613;09.00582-613;09.00582-613;09.00582-613;09.00582-613;100025-311;
06.04.10;Justin Jansen Van Vuuren;07:00:00;16:00:00;60;09.00582-416;09.00582-416;09.00582-416;09.00582-416;09.00582-416;09.00582-416;09.00582-416;09.00582-416;
06.04.10;Nico Claassen;07:00:00;16:00:00;60;09.00582-0;09.00582-0;09.00582-0;09.00582-0;09.00582-0;09.00582-0;100018-37;100018-37 / 100018-42;
06.04.10;Malcolm Vorster;07:00:00;16:00:00;60;077353-12280;077353-12280;077353-12280;077353-12280;077353-12280;077353-12280;100018-43 / 09.00582-117;09.00582-117;
06.04.10;Graham Meyer;07:00:00;16:00:00;60;100023-0;100023-0;100023-0;100023-0;100023-0;100023-0;100023-0;100023-0;
06.04.10;Thando Katywa;07:00:00;16:00:00;60;09.00582-601;09.00582-601;09.00582-601;09.00582-601;09.00582-601;09.00582-601;09.00582-601;09.00582-601;
06.04.10;Ludumo Sankobe;07:00:00;16:00:00;60;09.00286-12;09.00286-12;09.00286-12;09.00286-12;09.00286-12;09.00286-2;09.00286-2;09.00286-2;
06.04.10;Paul Helliwell;07:00:00;16:00:00;60;077353-12376;077353-12376;077353-12376;077353-12376;077353-12381;100018-38;100018-38;077353-12277;
06.04.10;Richard Raymond;07:00:00;16:00:00;60;100023-0;100023-0;100023-0;100023-0;100023-0;100023-0;100023-0;100023-0;
06.04.10;Johannes Geldenhuys;
06.04.10;Ntombenkosi Maldaki;07:00:00;16:00:00;60;09.00582-617;09.00582-617;09.00582-617;09.00582-617;09.00582-617;09.00582-617;09.00582-617;09.00582-617;
06.04.10;Abdul-Aziz Hendricks;07:00:00;16:00:00;60;09.00582-416;09.00582-416;09.00582-416;09.00582-416;09.00582-416;09.00582-416;09.00582-416;09.00582-416;
06.04.10;Mark Britten;07:00:00;16:00:00;60;100036-84;100036-84;100036-84;100036-84;100036-84;100036-84;100036-84;100036-84;
06.04.10;Angelo Bentley;07:00:00;16:00:00;60;100036-69;100036-69;100036-73;100036-73;100036-80;100036-80;100036-80;100036-80;
07.04.10;Brendan van Zyl;07:00:00;16:00:00;60;09.00582-355;100018-39 / 100025-310;100025-310;100025-310;100025-310;100025-310;100025-310;100025-310;
07.04.10;Jason Smith;07:00:00;16:00:00;60;100025-311;100025-311;100025-311;100025-311;09.00582-613;09.00582-613;09.00582-613;09.00582-613;
07.04.10;Justin Jansen Van Vuuren;07:00:00;16:00:00;60;100025-312;100025-312;100025-312;100025-312;100025-312;100025-312;100025-312;09.00582-416;
07.04.10;Nico Claassen;07:00:00;16:00:00;60;09.00582-0;09.00582-0;09.00582-0;100018-37;100018-37;100018-37;100018-37;100018-37 / 077353-2929;
07.04.10;Malcolm Vorster;07:00:00;16:00:00;60;100025-313;100025-313;100025-313;077353-12280;077353-12280;077353-12280;077353-12280;100018-43 / 09.00582-117;
07.04.10;Graham Meyer;07:00:00;16:00:00;60;100023-0;100023-0;100023-0;100023-0;100023-0;100023-0;100023-0;100023-0;
07.04.10;Thando Katywa;07:00:00;16:00:00;60;077353-12368;09.00582-601;09.00582-601;09.00582-601;09.00582-601;09.00582-601;09.00582-601 / 09.00582-600;09.00582-600;
07.04.10;Ludumo Sankobe;07:00:00;16:00:00;60;09.00582-599;09.00582-599;09.00582-599;09.00582-599;09.00582-599;09.00582-599;09.00582-599;09.00582-599;
07.04.10;Paul Helliwell;07:00:00;16:00:00;60;077353-12289;077353-12289;077353-12289;077353-12289;077353-12289;077353-12289;077353-12289;100018-38;
07.04.10;Richard Raymond;07:00:00;16:00:00;60;100018-48;077353-12294;077353-12294;077353-12294;077353-12294;077353-12368;077353-12368;077353-12368;
07.04.10;Johannes Geldenhuys;
07.04.10;Ntombenkosi Maldaki;07:00:00;16:00:00;60;100025-320;100025-320;100025-320;100025-320;100025-320;100025-320;100025-320;100025-320;
07.04.10;Abdul-Aziz Hendricks;07:00:00;16:00:00;60;100025-321;100025-321;100025-321;100025-321;100025-321;100025-321;100025-321;100025-321;
07.04.10;Mark Britten;07:00:00;16:00:00;60;100025-322;100025-322;100025-322;100025-322;100025-322;100025-322;100025-322;100025-322;
07.04.10;Angelo Bentley;07:00:00;16:00:00;60;100025-323;100025-323;100025-323;100025-323;100025-323;100025-323;100025-323;100025-323;
08.04.10;Brendan van Zyl;07:00:00;16:00:00;60;100025-310;100025-310;100025-310;100025-310;100025-310;100025-310;100025-310 / 100018-39;09.00582-355;
08.04.10;Jason Smith;07:00:00;16:00:00;60;09.00582-613;09.00582-613;09.00582-613;09.00582-613;09.00582-613;09.00582-613;09.00582-613;09.00582-613;
08.04.10;Justin Jansen Van Vuuren;07:00:00;16:00:00;60;09.00582-416;09.00582-416;09.00582-416;09.00582-416;09.00582-416;09.00582-416;09.00582-594;09.00582-594;
08.04.10;Nico Claassen;07:00:00;16:00:00;60;100025-265;100025-265;100025-265;100025-265;100025-265;100025-265;100018-37;100018-37 / 100018-42;
08.04.10;Malcolm Vorster;07:00:00;16:00:00;60;100025-313;100025-313;100025-313;100025-313;100025-313;077353-12289;077353-12289;077353-12289 / 100018-43;
08.04.10;Graham Meyer;07:00:00;16:00:00;60;100023-0;100023-0;100023-0;100023-0;100023-0;100023-0;100023-0;100023-0;
08.04.10;Thando Katywa;07:00:00;16:00:00;60;100025-315;100025-315;100025-315;100025-315;100025-315;100025-315;100036-76 / 09.00582-601;09.00582-601 / 09.00582-601;
08.04.10;Ludumo Sankobe;07:00:00;16:00:00;60;100025-316;100025-316;100025-316;100025-316;100025-316;09.00286-30;09.00286-30;09.00286-30;
08.04.10;Paul Helliwell;07:00:00;16:00:00;60;100025-317;100025-317;100025-317;100025-317;100025-317;100025-317;100018-38;077353-12277 / 077353-12289;
08.04.10;Richard Raymond;07:00:00;16:00:00;60;100025-318;100025-318;100025-318;100025-318;100025-318;100018-48;09.00582-437;09.00582-437;
08.04.10;Johannes Geldenhuys;
08.04.10;Ntombenkosi Maldaki;07:00:00;16:00:00;60;09.00582-617;09.00582-617;09.00582-617;09.00582-617;09.00582-617;09.00582-617;09.00582-617;09.00582-494;
08.04.10;Abdul-Aziz Hendricks;07:00:00;16:00:00;60;09.00582-416;09.00582-416;09.00582-416;09.00582-416;09.00582-416;09.00582-416;09.00582-416;09.00582-416;
08.04.10;Mark Britten;07:00:00;16:00:00;60;100036-84;100036-84;100036-84;100036-84;100036-84;100036-84;100036-84;100036-84;
08.04.10;Angelo Bentley;07:00:00;16:00:00;60;100036-72;100036-72;100036-72;100036-81;100036-81;100036-81;100036-80;100036-80;
09.04.10;Brendan van Zyl;07:00:00;16:00:00;60;09.00582-355;100018-39;100025-310;100025-310;09.00311-0;09.00311-0;09.00311-0;09.00311-0;
09.04.10;Jason Smith;07:00:00;16:00:00;60;100025-311;100025-311;09.00582-613;09.00582-613;09.00582-613;09.00582-613;09.00582-613;09.00582-124;
09.04.10;Justin Jansen Van Vuuren;07:00:00;16:00:00;60;100025-312;100025-312;09.00582-594;09.00582-594 / 09.00582-416;09.00582-416;09.00582-416;09.00582-416;09.00582-416;
09.04.10;Nico Claassen;07:00:00;16:00:00;60;100025-265;100025-265;100018-42;100018-37;100018-37;09.00582-0;09.00582-0;09.00582-0;
09.04.10;Malcolm Vorster;07:00:00;16:00:00;60;100025-313;100025-313;09.00582-117;09.00582-117;077353-12288;077353-12288 / 09.00582-595;09.00582-595;09.00582-595;
09.04.10;Graham Meyer;07:00:00;16:00:00;60;100023-0;100023-0;100023-0;100023-0;100023-0;100023-0;100023-0;100023-0;
09.04.10;Thando Katywa;07:00:00;16:00:00;60;100025-315;100025-315;09.00582-119;09.00582-417;09.00582-417;09.00582-418;09.00582-418;09.00582-418;
09.04.10;Ludumo Sankobe;07:00:00;16:00:00;60;100023-0;100023-0;09.00286-31;09.00286-31;09.00286-31;09.00286-31;09.00286-31;100018-46;
09.04.10;Paul Helliwell;07:00:00;16:00:00;60;077353-12288;077353-12288;077353-12288;077353-12288;077353-12288;077353-12288;077353-12288;077353-12288;
09.04.10;Richard Raymond;07:00:00;16:00:00;60;100018-48;100025-318;100025-318;09.00582-437;09.00582-437;09.00582-437;09.00582-437;09.00582-437;
09.04.10;Johannes Geldenhuys;
09.04.10;Ntombenkosi Maldaki;07:00:00;16:00:00;60;100025-320;100025-320;100018-50;09.00582-494;09.00582-494;09.00582-494;09.00582-494;09.00582-494;
09.04.10;Abdul-Aziz Hendricks;07:00:00;16:00:00;60;100025-321;100025-321;077353-12138;09.00582-416;09.00582-416;09.00582-416;09.00582-416;09.00582-416;
09.04.10;Mark Britten;07:00:00;16:00:00;60;100025-322;100025-322;100023-0;100023-0;100023-0;100018-52 / 100036-84;100036-84;100036-84;
09.04.10;Angelo Bentley;07:00:00;16:00:00;60;100036-0;100036-323;100036-323;100036-81;100036-81;100036-81;100036-81;100036-81;
10.04.10;Brendan van Zyl;
10.04.10;Jason Smith;
10.04.10;Justin Jansen Van Vuuren;
10.04.10;Nico Claassen;
10.04.10;Malcolm Vorster;
10.04.10;Graham Meyer;
10.04.10;Thando Katywa;
10.04.10;Ludumo Sankobe;
10.04.10;Paul Helliwell;
10.04.10;Richard Raymond;
10.04.10;Johannes Geldenhuys;
10.04.10;Ntombenkosi Maldaki;
10.04.10;Abdul-Aziz Hendricks;
10.04.10;Mark Britten;
10.04.10;Angelo Bentley;
11.04.10;Brendan van Zyl;
11.04.10;Jason Smith;
11.04.10;Justin Jansen Van Vuuren;
11.04.10;Nico Claassen;
11.04.10;Malcolm Vorster;
11.04.10;Graham Meyer;
11.04.10;Thando Katywa;
11.04.10;Ludumo Sankobe;
11.04.10;Paul Helliwell;
11.04.10;Richard Raymond;
11.04.10;Johannes Geldenhuys;
11.04.10;Ntombenkosi Maldaki;
11.04.10;Abdul-Aziz Hendricks;
11.04.10;Mark Britten;
11.04.10;Angelo Bentley;
12.04.10;Brendan van Zyl;07:00:00;16:00:00;60;09.00582-355;100018-39 / 09.00311-0;09.00311-0;09.00311-0;09.00311-0;09.00311-0;09.00311-0;09.00311-0;
12.04.10;Jason Smith;07:00:00;16:00:00;60;09.00582-613;09.00582-613;09.00582-613;09.00582-613;09.00582-613;09.00582-613;09.00582-613;09.00582-613;
12.04.10;Justin Jansen Van Vuuren;07:00:00;16:00:00;60;09.00582-0;09.00582-0;09.00582-0;09.00582-0;09.00582-0;09.00582-0;09.00582-0;09.00582-0;
12.04.10;Nico Claassen;07:00:00;16:00:00;60;100018-37;100018-37;100018-37;100018-37;100018-37;100018-37;09.00582-0;09.00582-0;
12.04.10;Malcolm Vorster;07:00:00;16:00:00;60;077353-12427;077353-12427;077353-12427;077353-12428;077353-12428;077353-12428;077353-12428;100018-43 / 09.00582-117;
12.04.10;Graham Meyer;07:00:00;16:00:00;60;09.00582-491;09.00582-491;09.00582-491;09.00582-491;09.00582-491;09.00582-491;09.00582-491;09.00582-491;
12.04.10;Thando Katywa;07:00:00;16:00:00;60;09.00582-620 / 077353-12368;077353-12368 / 09.00582-418;09.00582-418;09.00582-418;09.00582-418;09.00582-418 / 09.00582-417;09.00582-417;09.00582-417;
12.04.10;Ludumo Sankobe;07:00:00;16:00:00;60;09.00286-31;09.00582-596;09.00582-596;09.00582-596;09.00582-596;100023-0;100023-0;100023-0;
12.04.10;Paul Helliwell;07:00:00;16:00:00;60;077353-12381;077353-12381;077353-12381;077353-12381;077353-12288;077353-12288;09.00582-420;09.00582-420;
12.04.10;Richard Raymond;07:00:00;16:00:00;60;100018-48;09.00582-437;09.00582-437;09.00582-437;09.00582-437;09.00582-437;09.00582-437;09.00582-437;
12.04.10;Johannes Geldenhuys;
12.04.10;Ntombenkosi Maldaki;07:00:00;16:00:00;60;09.00582-440;09.00582-440;09.00582-440;09.00582-440;09.00582-440;09.00582-440;09.00582-440;09.00582-440;
12.04.10;Abdul-Aziz Hendricks;07:00:00;16:00:00;60;09.00582-416;09.00582-416;09.00582-416;09.00582-416;09.00582-416;09.00582-416;09.00582-416;09.00582-416;
12.04.10;Mark Britten;07:00:00;16:00:00;60;100036-84;100036-84;100036-84;100036-84;100036-84;100036-84;100036-84;100036-84;
12.04.10;Angelo Bentley;07:00:00;16:00:00;60;100036-72;100036-72;100036-72;100036-81;100036-81;09.00582-0;09.00582-0;09.00582-0;
13.04.10;Brendan van Zyl;07:00:00;16:00:00;60;09.00582-355;100018-39 / 09.00311-0;09.00311-0;09.00582-420;09.00582-420;09.00582-420;09.00582-420;09.00582-420;
13.04.10;Jason Smith;07:00:00;16:00:00;60;09.00582-613;09.00582-613;09.00582-613;09.00582-613;09.00582-613;09.00582-613;09.00582-613;09.00582-613;
13.04.10;Justin Jansen Van Vuuren;07:00:00;16:00:00;60;09.00582-0;09.00582-0;09.00582-0;09.00582-0;09.00582-0;09.00582-0;09.00582-0;09.00582-0;
13.04.10;Nico Claassen;07:00:00;16:00:00;60;077353-2929 / 100018-37;100018-37;100018-37;100018-37;100018-37;100018-37 / 100018-42;100018-42 / 09.00582-0;09.00582-0;
13.04.10;Malcolm Vorster;07:00:00;16:00:00;60;09.00582-91;09.00582-91;09.00582-91;09.00582-91;09.00582-0;09.00582-0;09.00582-0;09.00582-117;
13.04.10;Graham Meyer;07:00:00;16:00:00;60;09.00582-491;09.00582-491;09.00582-491;09.00582-491;09.00582-491;09.00582-491;09.00582-491;09.00582-491;
13.04.10;Thando Katywa;07:00:00;16:00:00;60;09.00582-620 / 100025-315;100025-315;100025-315;100025-315;100025-315;100025-315;100025-315;100025-315 / 100018-45;
13.04.10;Ludumo Sankobe;07:00:00;16:00:00;60;100023-0;100023-0;100023-0;100023-0;100023-0;100023-0;100023-0;100023-0;
13.04.10;Paul Helliwell;07:00:00;16:00:00;60;077353-12288;077353-12288;077353-12288;077353-12288;077353-12381;077353-12381;100018-38;100018-38 / 100018-38;
13.04.10;Richard Raymond;07:00:00;16:00:00;60;09.00582-0;09.00582-0;09.00582-0;09.00582-0;09.00582-0;09.00582-0;09.00582-437;100018-48;
13.04.10;Johannes Geldenhuys;
13.04.10;Ntombenkosi Maldaki;07:00:00;16:00:00;60;09.00582-617;09.00582-617;09.00582-617;09.00582-617;09.00582-617;09.00582-617;09.00582-617;09.00582-617;
13.04.10;Abdul-Aziz Hendricks;07:00:00;16:00:00;60;09.00582-416;09.00582-416;09.00582-416;09.00582-416;09.00582-416;09.00582-416;09.00582-416;09.00582-416;
13.04.10;Mark Britten;07:00:00;16:00:00;60;100036-67 / 100036-84;100036-84;100036-84;100036-84;100036-84;100036-84;100036-84;100036-84;
13.04.10;Angelo Bentley;07:00:00;16:00:00;60;09.00582-0;09.00582-0;09.00582-0;09.00582-0;100036-80;100036-80;100036-80;100036-80;
14.04.10;Brendan van Zyl;07:00:00;16:00:00;60;09.00582-355;100018-39 / 09.00311-0;09.00311-0;09.00311-0;09.00311-0;09.00311-0;09.00311-0;09.00311-0;
14.04.10;Jason Smith;07:00:00;16:00:00;60;09.00582-613;09.00582-613;09.00582-613;09.00582-613;09.00582-613;09.00582-613;09.00582-613;09.00582-613;
14.04.10;Justin Jansen Van Vuuren;07:00:00;16:00:00;60;09.00582-0;09.00582-0;09.00582-0;09.00582-0;09.00582-0;09.00582-599;09.00582-599;09.00582-599;
14.04.10;Nico Claassen;07:00:00;16:00:00;60;09.00582-0;09.00582-0;09.00582-0;09.00582-0 / 100018-37;100018-37;100018-37;100018-37 / 100018-37;100018-42 / 077353-2929;
14.04.10;Malcolm Vorster;07:00:00;16:00:00;60;09.00582-0;09.00582-0;09.00582-0;09.00582-0;09.00582-91;09.00582-91;09.00582-91;09.00582-91;
14.04.10;Graham Meyer;07:00:00;16:00:00;60;09.00582-491;09.00582-491;09.00582-491;09.00582-491;09.00582-491;09.00582-491;09.00582-491;09.00582-491;
14.04.10;Thando Katywa;07:00:00;16:00:00;60;100025-315;100025-315;100025-315;100025-315;09.00582-379;09.00582-379;09.00582-379;09.00582-379;
14.04.10;Ludumo Sankobe;07:00:00;16:00:00;60;09.00286-51;09.00286-51;09.00286-51;09.00286-51;09.00582-596;09.00582-596;09.00582-596;09.00582-596;
14.04.10;Paul Helliwell;07:00:00;16:00:00;60;077353-12381;077353-12381;077353-12288;077353-12288;077353-12288;077353-12288;077353-12288;077353-12288;
14.04.10;Richard Raymond;07:00:00;16:00:00;60;100018-48;09.00311-145;09.00311-145;09.00582-437;09.00582-437;09.00582-0;09.00582-0;09.00582-0;
14.04.10;Johannes Geldenhuys;
14.04.10;Ntombenkosi Maldaki;07:00:00;16:00:00;60;09.00582-617;09.00582-617;09.00582-617;09.00582-617;09.00582-617;09.00582-617;09.00582-617;09.00582-617;
14.04.10;Abdul-Aziz Hendricks;07:00:00;16:00:00;60;09.00582-416;09.00582-416;09.00582-416;09.00582-416;09.00582-416;09.00582-416;09.00582-416;09.00582-416;
14.04.10;Mark Britten;07:00:00;16:00:00;60;100036-84;100036-84;100036-84;100036-84;100036-84;100036-84;100036-84;100036-84;
14.04.10;Angelo Bentley;07:00:00;16:00:00;60;100036-80;100036-80;100036-80;100036-81;100036-81;100036-81;100036-81;100036-81;
15.04.10;Brendan van Zyl;07:00:00;16:00:00;60;09.00582-355;09.00582-355 / 100018-39;100018-39 / 09.00311-147;09.00311-147;09.00311-147;09.00311-147;09.00311-147 / 09.00311-147;09.00311-147;
15.04.10;Jason Smith;07:00:00;16:00:00;60;09.00582-124;09.00582-124 / 09.00582-613;09.00582-613;09.00582-613;09.00582-613;09.00582-613;09.00582-613;09.00582-613;
15.04.10;Justin Jansen Van Vuuren;07:00:00;16:00:00;60;09.00582-594;09.00582-594 / 09.00582-617;09.00582-617;09.00582-617 / 09.00582-599;09.00582-599 / 09.00582-0;09.00582-0;09.00582-0;09.00582-0;
15.04.10;Nico Claassen;07:00:00;16:00:00;60;09.00582-0;09.00582-0;09.00582-0;09.00582-0;09.00582-0;100018-37;100018-37;100018-37;
15.04.10;Malcolm Vorster;07:00:00;16:00:00;60;09.00582-117;09.00582-117;100018-43;09.00582-0;09.00582-0;09.00582-0 / 09.00582-91;09.00582-91;09.00582-91;
15.04.10;Graham Meyer;07:00:00;16:00:00;60;09.00582-491;09.00582-491;09.00582-491;09.00582-491;09.00582-491;09.00582-491;09.00582-491;09.00582-118;
15.04.10;Thando Katywa;07:00:00;16:00:00;60;09.00582-119;09.00582-119 / 09.00582-379;09.00582-379;09.00582-379;09.00582-379;09.00582-379;09.00582-379;09.00582-379;
15.04.10;Ludumo Sankobe;07:00:00;16:00:00;60;100018-46;100018-46 / 09.00582-596;09.00582-596;09.00582-596;09.00582-596;09.00582-596;09.00582-596;09.00582-596;
15.04.10;Paul Helliwell;07:00:00;16:00:00;60;09.00582-120;09.00582-120 / 077353-0;077353-0 / 077353-0;077353-0 / 077353-0;077353-0;077353-0 / 077353-0;077353-0;077353-0;
15.04.10;Richard Raymond;07:00:00;16:00:00;60;100018-48;100018-48;100018-48 / 09.00582-0;09.00582-0;09.00582-0;09.00582-0;09.00582-0;09.00311-145;
15.04.10;Johannes Geldenhuys;
15.04.10;Ntombenkosi Maldaki;07:00:00;16:00:00;60;09.00582-617;09.00582-617;09.00582-617;09.00582-617;100018-50;100018-50;09.00582-440;09.00582-440;
15.04.10;Abdul-Aziz Hendricks;07:00:00;16:00:00;60;09.00582-416;077353-12138;077353-12138;09.00582-416;09.00582-416;09.00582-416;09.00582-416;09.00582-416;
15.04.10;Mark Britten;07:00:00;16:00:00;60;100018-52;100018-52 / 100036-84;100036-84;100036-84;100036-84;100036-84;100036-84;100036-84;
15.04.10;Angelo Bentley;07:00:00;16:00:00;60;100036-81;100036-81;100036-81;100036-81;100036-81;100036-81;100036-69;100036-69;
16.04.10;Brendan van Zyl;07:00:00;16:00:00;60;09.00582-355;100018-39 / 09.00582-418;09.00582-418;09.00582-418;09.00582-418;09.00582-418;09.00311-147;09.00311-147;
16.04.10;Jason Smith;07:00:00;16:00:00;60;09.00582-613;09.00582-613;09.00582-613;09.00582-613;09.00582-613;09.00582-613;09.00582-613;09.00582-613;
16.04.10;Justin Jansen Van Vuuren;07:00:00;16:00:00;60;09.00582-599;09.00582-599 / 09.00582-0;09.00582-0;09.00582-0;09.00582-0;09.00582-0;09.00582-0;09.00582-0;
16.04.10;Nico Claassen;07:00:00;16:00:00;60;09.00582-0;09.00582-0;09.00582-0;09.00582-0;09.00582-0;09.00582-0;100018-37;100018-37;
16.04.10;Malcolm Vorster;07:00:00;16:00:00;60;09.00582-91;09.00582-91;09.00582-91;09.00582-91;09.00582-117;09.00582-0;09.00582-0;09.00582-0;
16.04.10;Graham Meyer;07:00:00;16:00:00;60;09.00582-491;09.00582-491;09.00582-491;09.00582-491;09.00582-491;09.00582-491;09.00582-491;09.00582-491;
16.04.10;Thando Katywa;07:00:00;16:00:00;60;09.00582-379;09.00582-379;09.00582-379;09.00582-379;09.00582-379;09.00582-379 / 09.00582-601;09.00582-601;09.00582-601 / 100018-45;
16.04.10;Ludumo Sankobe;07:00:00;16:00:00;60;09.00582-596;09.00582-596;09.00582-596;09.00582-596;09.00582-596;09.00582-596;100025-316;100025-316;
16.04.10;Paul Helliwell;07:00:00;16:00:00;60;09.00582-0;09.00582-0;09.00582-0;09.00582-0;09.00582-0;09.00582-0;09.00582-0;09.00582-0;
16.04.10;Richard Raymond;07:00:00;16:00:00;60;100018-48;09.00582-0;09.00582-0;09.00582-0;09.00582-0;09.00582-0;09.00582-95;09.00582-95;
16.04.10;Johannes Geldenhuys;
16.04.10;Ntombenkosi Maldaki;07:00:00;16:00:00;60;09.00582-440;09.00582-440;09.00582-440;09.00582-440;09.00582-440;09.00582-617;09.00582-617;09.00582-617;
16.04.10;Abdul-Aziz Hendricks;07:00:00;16:00:00;60;09.00582-416;09.00582-416;09.00582-416;09.00582-416;09.00582-416;09.00582-416;09.00582-416;09.00582-416;
16.04.10;Mark Britten;07:00:00;16:00:00;60;100036-68;100036-68;100036-68;100036-68;100036-68;100036-68;100036-68;100036-68;
16.04.10;Angelo Bentley;07:00:00;16:00:00;60;100036-81;100036-81;100036-81;100036-81;100036-81;100036-81;100036-81;100036-81;
17.04.10;Brendan van Zyl;
17.04.10;Jason Smith;
17.04.10;Justin Jansen Van Vuuren;
17.04.10;Nico Claassen;
17.04.10;Malcolm Vorster;
17.04.10;Graham Meyer;
17.04.10;Thando Katywa;
17.04.10;Ludumo Sankobe;
17.04.10;Paul Helliwell;
17.04.10;Richard Raymond;
17.04.10;Johannes Geldenhuys;
17.04.10;Ntombenkosi Maldaki;
17.04.10;Abdul-Aziz Hendricks;
17.04.10;Mark Britten;
17.04.10;Angelo Bentley;
18.04.10;Brendan van Zyl;
18.04.10;Jason Smith;
18.04.10;Justin Jansen Van Vuuren;
18.04.10;Nico Claassen;
18.04.10;Malcolm Vorster;
18.04.10;Graham Meyer;
18.04.10;Thando Katywa;
18.04.10;Ludumo Sankobe;
18.04.10;Paul Helliwell;
18.04.10;Richard Raymond;
18.04.10;Johannes Geldenhuys;
18.04.10;Ntombenkosi Maldaki;
18.04.10;Abdul-Aziz Hendricks;
18.04.10;Mark Britten;
18.04.10;Angelo Bentley;
19.04.10;Brendan van Zyl;07:00:00;16:00:00;60;09.00582-355;100018-39 / 09.00311-147;09.00311-147 / 09.00582-418;09.00582-418;09.00582-418;09.00582-418;09.00582-418;09.00582-418;
19.04.10;Jason Smith;07:00:00;16:00:00;60;09.00582-613;09.00582-613;09.00582-613;09.00582-613;09.00582-613;09.00582-613;09.00582-613;09.00582-613;
19.04.10;Justin Jansen Van Vuuren;07:00:00;16:00:00;60;09.00582-614;09.00582-614;09.00582-614;09.00582-405;09.00582-405;09.00582-405;09.00582-594 / 09.00582-599;09.00582-599;
19.04.10;Nico Claassen;07:00:00;16:00:00;60;09.00582-435;09.00582-435;09.00582-435;09.00582-435;09.00582-435;09.00582-435;100018-37;100018-37;
19.04.10;Malcolm Vorster;07:00:00;16:00:00;60;100018-43;09.00582-91;09.00582-91;09.00582-117;09.00582-117;09.00582-0;09.00582-0;09.00582-0;
19.04.10;Graham Meyer;08:00:00;16:00:00;0;100023-0;100023-0;100023-0;100023-0;100023-0;100023-0;100023-0;100023-0;
19.04.10;Thando Katywa;07:00:00;16:00:00;60;077353-12393;077353-12393;077353-12393;09.00582-379;09.00582-379;09.00582-379;09.00582-379;09.00582-379;
19.04.10;Ludumo Sankobe;07:00:00;16:00:00;60;09.00582-596;09.00582-596;100025-316;100025-316;100025-316;100025-316;100025-316;100025-316;
19.04.10;Paul Helliwell;07:00:00;16:00:00;60;09.00582-608;09.00582-608;09.00582-608;09.00582-608;09.00582-608;09.00582-608;09.00582-608;100018-38;
19.04.10;Richard Raymond;07:00:00;16:00:00;60;100018-48;09.00311-145;09.00311-145;09.00582-624;09.00582-624;09.00582-624;09.00582-624;09.00582-624;
19.04.10;Johannes Geldenhuys;
19.04.10;Ntombenkosi Maldaki;07:00:00;16:00:00;60;09.00582-440;09.00582-440;09.00582-617;09.00582-617;09.00582-617;09.00582-617;09.00582-617;09.00582-617;
19.04.10;Abdul-Aziz Hendricks;07:00:00;16:00:00;60;09.00582-620;09.00582-620;09.00582-620;09.00582-620;09.00582-620;09.00582-620;09.00582-620;09.00582-620;
19.04.10;Mark Britten;07:00:00;16:00:00;60;100036-68;100036-68;100036-68;100036-68;100036-68;100036-68;100036-84;100036-84;
19.04.10;Angelo Bentley;07:00:00;16:00:00;60;100036-75;100036-75;100036-75;100036-75;100036-80;100036-80;100036-80;100036-80;
20.04.10;Brendan van Zyl;07:00:00;16:00:00;60;09.00582-355;09.00582-418;09.00582-418;09.00582-418;09.00582-418;09.00582-418 / 100018-39;09.00311-147;09.00311-147;
20.04.10;Jason Smith;07:00:00;16:00:00;60;09.00582-613;09.00582-613;09.00582-613;09.00582-613;09.00582-613;09.00582-613;09.00582-613;09.00582-613;
20.04.10;Justin Jansen Van Vuuren;07:00:00;16:00:00;60;09.00582-594 / 09.00582-614;09.00582-614;09.00582-614 / 09.00582-614;09.00582-614;09.00582-416;09.00582-416 / 09.00582-416;09.00582-416;09.00582-416 / 09.00582-416;
20.04.10;Nico Claassen;07:00:00;16:00:00;60;09.00582-435;09.00582-435;09.00582-435;09.00582-435;09.00582-435;100018-54;100018-55;100018-55 / 09.00582-116;
20.04.10;Malcolm Vorster;07:00:00;16:00:00;60;09.00582-595;09.00582-595;09.00582-595;09.00582-595;09.00582-0;09.00582-0;100018-43;09.00582-117;
20.04.10;Graham Meyer;07:00:00;16:00:00;60;09.00582-491;09.00582-491;09.00582-491;09.00582-491;09.00582-491;09.00582-491;09.00582-491;09.00582-491;
20.04.10;Thando Katywa;07:00:00;16:00:00;60;09.00582-119 / 09.00582-379;09.00582-379;09.00582-379;09.00582-379;09.00582-379;09.00582-379;09.00582-379;09.00582-379;
20.04.10;Ludumo Sankobe;07:00:00;16:00:00;60;09.00582-596;09.00582-596;09.00582-596;09.00582-596;09.00582-596;09.00582-596;09.00582-596;09.00582-596;
20.04.10;Paul Helliwell;07:00:00;16:00:00;60;09.00582-608;09.00582-608;09.00582-608;09.00582-608;09.00582-608;09.00582-608;09.00582-608;09.00582-608;
20.04.10;Richard Raymond;07:00:00;16:00:00;60;09.00311-145;09.00582-437;09.00582-437;09.00582-598;077353-0;077353-0;077353-0;077353-0;
20.04.10;Johannes Geldenhuys;
20.04.10;Ntombenkosi Maldaki;07:00:00;16:00:00;60;09.00582-440;09.00582-440;09.00582-440;09.00582-617;09.00582-617;09.00582-599;09.00582-599;09.00582-599;
20.04.10;Abdul-Aziz Hendricks;07:00:00;16:00:00;60;09.00582-620;09.00582-620;09.00582-620;09.00582-620;09.00582-620;100023-0;100023-0;100023-0;
20.04.10;Mark Britten;07:00:00;16:00:00;60;100036-84 / 100036-67;100036-67 / 100036-71;100036-71;100036-71;100036-71;100036-71;100036-71;100036-71;
20.04.10;Angelo Bentley;07:00:00;16:00:00;60;100036-75;100036-75;100036-75;100036-75;100036-75;100036-75;100036-75;100036-75;
21.04.10;Brendan van Zyl;07:00:00;16:00:00;60;09.00582-355;09.00582-625;09.00582-625;09.00582-625;09.00582-625;09.00582-625;09.00311-147 / 100018-39;09.00582-423;
21.04.10;Jason Smith;07:00:00;16:00:00;60;09.00582-613;09.00582-613;09.00582-613;09.00582-421;09.00582-421;09.00582-421;09.00582-421;09.00582-421;
21.04.10;Justin Jansen Van Vuuren;07:00:00;16:00:00;60;09.00582-405;09.00582-405;09.00582-405;09.00582-405;09.00582-405;09.00582-614;09.00582-614;09.00582-405;
21.04.10;Nico Claassen;07:00:00;16:00:00;60;09.00582-435;09.00582-435;100018-55;100018-55;100018-54;100018-54 / 100018-55;100018-55 / 100018-55;100018-55;
21.04.10;Malcolm Vorster;07:00:00;16:00:00;60;100025-313;100025-313;100025-313;100025-313;100018-43;09.00582-0;09.00582-0;09.00582-117;
21.04.10;Graham Meyer;07:00:00;16:00:00;60;09.00582-491;09.00582-491;09.00582-491;09.00582-491;09.00582-491;09.00582-491;09.00582-491;09.00582-491;
21.04.10;Thando Katywa;07:00:00;16:00:00;60;09.00582-379;09.00582-379;09.00582-379;09.00582-379;09.00582-379;09.00582-379;09.00582-379;09.00582-379;
21.04.10;Ludumo Sankobe;07:00:00;16:00:00;60;100025-316;100025-316;100025-316;100025-316;09.00582-658;09.00582-658;09.00582-658;09.00582-658;
21.04.10;Paul Helliwell;07:00:00;16:00:00;60;09.00582-532;09.00582-532;09.00582-532;09.00582-532;09.00582-532;09.00582-532;09.00582-532;09.00582-532;
21.04.10;Richard Raymond;07:00:00;16:00:00;60;09.00582-624;09.00582-624;09.00582-624;09.00582-624;100018-48;09.00311-145;09.00311-145;09.00311-145;
21.04.10;Johannes Geldenhuys;
21.04.10;Ntombenkosi Maldaki;07:00:00;16:00:00;60;09.00582-440;09.00582-440;09.00582-440;09.00582-440;09.00582-440;09.00582-440;09.00582-440;09.00582-440;
21.04.10;Abdul-Aziz Hendricks;07:00:00;16:00:00;60;09.00582-620;09.00582-620;09.00582-620;09.00582-620;09.00582-620;09.00582-620;09.00582-620;09.00582-620;
21.04.10;Mark Britten;07:00:00;16:00:00;60;100036-67;100036-71;100036-71;100036-71;100036-71;100036-71;100036-71;100036-71;
21.04.10;Angelo Bentley;07:00:00;16:00:00;60;100036-75;100036-75;100036-75;100036-75;100036-72;100036-72;100036-72;100036-72;
22.04.10;Brendan van Zyl;07:00:00;16:00:00;60;09.00582-355;100018-39 / 09.00582-423;09.00582-423;09.00582-423;09.00582-423;09.00582-423;09.00582-423;09.00582-423;
22.04.10;Jason Smith;07:00:00;16:00:00;60;09.00582-421;09.00582-421;09.00582-421;09.00582-421;09.00582-421;09.00582-421;09.00582-422;09.00582-422;
22.04.10;Justin Jansen Van Vuuren;07:00:00;16:00:00;60;09.00582-614;09.00582-614;09.00582-614;09.00582-614;09.00582-614;09.00582-614 / 09.00582-594;09.00582-594 / 100025-312;100025-312;
22.04.10;Nico Claassen;07:00:00;16:00:00;60;09.00582-435;09.00582-435;09.00582-435;09.00582-572;09.00582-572;100018-54 / 100018-55;100018-55;100018-55;
22.04.10;Malcolm Vorster;07:00:00;16:00:00;60;09.00582-0;09.00582-0;09.00582-0;09.00582-0;09.00582-0;09.00582-0;100018-43 / 09.00582-117;09.00582-117;
22.04.10;Graham Meyer;07:00:00;16:00:00;60;09.00582-491;09.00582-491;09.00582-491;09.00582-491;09.00582-491;09.00582-491;09.00582-491;09.00582-491;
22.04.10;Thando Katywa;07:00:00;16:00:00;60;09.00582-379;09.00582-379;09.00582-379;09.00582-379;09.00582-379;09.00582-379;100036-71;100036-71;
22.04.10;Ludumo Sankobe;07:00:00;16:00:00;60;09.00582-658;09.00582-658;09.00582-658;09.00582-658;09.00582-658;09.00582-658;09.00582-658;09.00582-658;
22.04.10;Paul Helliwell;07:00:00;16:00:00;60;09.00582-532;09.00582-532;09.00582-532;09.00582-532;09.00582-532;09.00582-532;100018-38;100018-38;
22.04.10;Richard Raymond;07:00:00;16:00:00;60;077353-0;077353-0;077353-0;077353-0;077353-0;100018-48;09.00582-658;09.00582-658;
22.04.10;Johannes Geldenhuys;
22.04.10;Ntombenkosi Maldaki;07:00:00;16:00:00;60;09.00582-440;09.00582-440;09.00582-440;09.00582-440;09.00582-440;09.00582-440;09.00582-440;09.00582-440;
22.04.10;Abdul-Aziz Hendricks;07:00:00;16:00:00;60;09.00582-620;09.00582-620;09.00582-620;09.00582-620;09.00582-620;09.00582-620;09.00582-620;09.00582-620;
22.04.10;Mark Britten;07:00:00;16:00:00;60;100036-71;100036-71;100036-71;100036-71;100036-71;100036-71;100036-71;100036-71;
22.04.10;Angelo Bentley;07:00:00;16:00:00;60;100036-75;100036-75;100036-75;100036-75;100036-75;100036-69;100036-69;100036-69;
23.04.10;Brendan van Zyl;07:00:00;16:00:00;60;09.00582-355;100018-39 / 09.00311-147;09.00311-147 / 09.00582-423;09.00582-423;09.00582-423;09.00582-423;09.00582-423;09.00582-423;
23.04.10;Jason Smith;07:00:00;16:00:00;60;09.00582-422;09.00582-422;09.00582-422;09.00582-422;09.00582-422;09.00582-422;09.00582-422;09.00582-422;
23.04.10;Justin Jansen Van Vuuren;07:00:00;16:00:00;60;09.00582-416;09.00582-416;09.00582-416;
23.04.10;Nico Claassen;07:00:00;16:00:00;60;09.00582-572;09.00582-572;09.00582-572;09.00582-572;09.00582-572;09.00582-572;100018-55;100018-55;
23.04.10;Malcolm Vorster;07:00:00;16:00:00;60;100023-0;100023-0;100023-0;100023-0;100023-0;100023-0;100023-0;100023-0;
23.04.10;Graham Meyer;07:00:00;16:00:00;60;09.00582-491;09.00582-491;09.00582-491;09.00582-491;09.00582-491;09.00582-491;09.00582-491;09.00582-491;
23.04.10;Thando Katywa;07:00:00;16:00:00;60;09.00582-379	;09.00582-379	;09.00582-379	;09.00582-379	;09.00582-379	;09.00582-379	;09.00582-379	;09.00582-379	;
23.04.10;Ludumo Sankobe;07:00:00;16:00:00;60;09.00582-658;09.00582-658;09.00582-658;09.00582-658;09.00582-658;09.00582-658;09.00582-658;09.00582-658;
23.04.10;Paul Helliwell;07:00:00;16:00:00;60;09.00582-532;09.00582-532;09.00582-532;09.00582-532;09.00582-532;09.00582-532;09.00582-532;09.00582-532;
23.04.10;Richard Raymond;07:00:00;16:00:00;60;100018-48;077353-0;077353-0;077353-0;077353-0;077353-0;09.00311-145;09.00311-145;
23.04.10;Johannes Geldenhuys;
23.04.10;Ntombenkosi Maldaki;07:00:00;16:00:00;60;09.00582-440;09.00582-440;09.00582-671;09.00582-440;09.00582-440;09.00582-440;09.00582-440;09.00582-440;
23.04.10;Abdul-Aziz Hendricks;07:00:00;16:00:00;60;09.00582-620;09.00582-620;09.00582-620;09.00582-620;09.00582-620;09.00582-620;09.00582-620;09.00582-620;
23.04.10;Mark Britten;07:00:00;16:00:00;60;100036-71;100036-71;100036-71;100036-71;100036-71;100036-71;100036-71;100036-71;
23.04.10;Angelo Bentley;07:00:00;16:00:00;60;100036-75;100036-75;100036-75;100036-75;100036-75;100036-75;100036-75;100036-75;
24.04.10;Brendan van Zyl;
24.04.10;Jason Smith;
24.04.10;Justin Jansen Van Vuuren;
24.04.10;Nico Claassen;
24.04.10;Malcolm Vorster;
24.04.10;Graham Meyer;
24.04.10;Thando Katywa;
24.04.10;Ludumo Sankobe;
24.04.10;Paul Helliwell;
24.04.10;Richard Raymond;
24.04.10;Johannes Geldenhuys;
24.04.10;Ntombenkosi Maldaki;
24.04.10;Abdul-Aziz Hendricks;
24.04.10;Mark Britten;
24.04.10;Angelo Bentley;
25.04.10;Brendan van Zyl;
25.04.10;Jason Smith;
25.04.10;Justin Jansen Van Vuuren;
25.04.10;Nico Claassen;
25.04.10;Malcolm Vorster;
25.04.10;Graham Meyer;
25.04.10;Thando Katywa;
25.04.10;Ludumo Sankobe;
25.04.10;Paul Helliwell;
25.04.10;Richard Raymond;
25.04.10;Johannes Geldenhuys;
25.04.10;Ntombenkosi Maldaki;
25.04.10;Abdul-Aziz Hendricks;
25.04.10;Mark Britten;
25.04.10;Angelo Bentley;
26.04.10;Brendan van Zyl;07:00:00;16:00:00;60;100023-0;100023-0;100023-0;100023-0;100023-0;100023-0;100023-0;100023-0;
26.04.10;Jason Smith;07:00:00;16:00:00;60;09.00582-421;09.00582-421;09.00582-421;09.00582-0;09.00582-0;100025-311;100025-311;100025-311;
26.04.10;Justin Jansen Van Vuuren;07:00:00;16:00:00;60;100025-312;100025-312;100025-312 / 09.00582-416;09.00582-416;09.00582-416;09.00582-416 / 09.00582-416;09.00582-416;09.00582-534;
26.04.10;Nico Claassen;07:00:00;16:00:00;60;09.00582-713;09.00582-713;09.00582-713;09.00582-713;09.00582-713;09.00582-713;100018-37;100018-37;
26.04.10;Malcolm Vorster;07:00:00;16:00:00;60;100023-0;100023-0;100023-0;100023-0;100023-0;100023-0;100023-0;100023-0;
26.04.10;Graham Meyer;07:00:00;16:00:00;60;09.00582-491;09.00582-491;09.00582-491;09.00582-491;09.00582-491;09.00582-491;09.00582-491;09.00582-491;
26.04.10;Thando Katywa;07:00:00;16:00:00;60;09.00582-379;09.00582-379;09.00582-379;09.00582-379;09.00582-379;09.00582-379;09.00582-379;09.00582-379;
26.04.10;Ludumo Sankobe;07:00:00;16:00:00;60;09.00582-658;09.00582-658;09.00582-658;09.00582-658;09.00582-658;100025-316;100025-316;100025-316;
26.04.10;Paul Helliwell;07:00:00;16:00:00;60;09.00582-532;09.00582-532;09.00582-532;09.00582-532;09.00582-532;09.00582-532;09.00582-532;09.00582-532;
26.04.10;Richard Raymond;07:00:00;16:00:00;60;077353-12465;09.00311-145;09.00311-145;09.00311-145;100025-318;100025-318;100025-318;100025-318;
26.04.10;Johannes Geldenhuys;
26.04.10;Ntombenkosi Maldaki;07:00:00;16:00:00;60;100023-0;100023-0;100023-0;100023-0;100023-0;100023-0;100023-0;100023-0;
26.04.10;Abdul-Aziz Hendricks;07:00:00;16:00:00;60;100025-321;100025-321;100025-321;100025-321;09.00582-445;09.00582-445;09.00582-445;09.00582-445;
26.04.10;Mark Britten;07:00:00;16:00:00;60;100036-68;100036-68;100036-68;100036-68;100036-68;100036-68;100036-68;100036-68;
26.04.10;Angelo Bentley;07:00:00;16:00:00;60;100036-72;100036-72;100036-72;100036-72;100036-72;100036-72;100036-72;100036-72;
27.04.10;Brendan van Zyl;07:00:00;16:00:00;60;100023-854;100023-854;100023-854;100023-854;100023-854;100023-854;100023-854;100023-854;
27.04.10;Jason Smith;07:00:00;16:00:00;60;100023-855;100023-855;100023-855;100023-855;100023-855;100023-855;100023-855;100023-855;
27.04.10;Justin Jansen Van Vuuren;07:00:00;16:00:00;60;100023-856;100023-856;100023-856;100023-856;100023-856;100023-856;100023-856;100023-856;
27.04.10;Nico Claassen;07:00:00;16:00:00;60;100023-843;100023-843;100023-843;100023-843;100023-843;100023-843;100023-843;100023-843;
27.04.10;Malcolm Vorster;07:00:00;16:00:00;60;100023-844;100023-844;100023-844;100023-844;100023-844;100023-844;100023-844;100023-844;
27.04.10;Graham Meyer;07:00:00;16:00:00;60;100023-845;100023-845;100023-845;100023-845;100023-845;100023-845;100023-845;100023-845;
27.04.10;Thando Katywa;07:00:00;16:00:00;60;100023-846;100023-846;100023-846;100023-846;100023-846;100023-846;100023-846;100023-846;
27.04.10;Ludumo Sankobe;07:00:00;16:00:00;60;100023-847;100023-847;100023-847;100023-847;100023-847;100023-847;100023-847;100023-847;
27.04.10;Paul Helliwell;07:00:00;16:00:00;60;100023-848;100023-848;100023-848;100023-848;100023-848;100023-848;100023-848;100023-848;
27.04.10;Richard Raymond;07:00:00;16:00:00;60;100023-849;100023-849;100023-849;100023-849;100023-849;100023-849;100023-849;100023-849;
27.04.10;Johannes Geldenhuys;
27.04.10;Ntombenkosi Maldaki;07:00:00;16:00:00;60;100023-850;100023-850;100023-850;100023-850;100023-850;100023-850;100023-850;100023-850;
27.04.10;Abdul-Aziz Hendricks;07:00:00;16:00:00;60;100023-851;100023-851;100023-851;100023-851;100023-851;100023-851;100023-851;100023-851;
27.04.10;Mark Britten;07:00:00;16:00:00;60;100023-852;100023-852;100023-852;100023-852;100023-852;100023-852;100023-852;100023-852;
27.04.10;Angelo Bentley;07:00:00;16:00:00;60;100023-853;100023-853;100023-853;100023-853;100023-853;100023-853;100023-853;100023-853;
28.04.10;Brendan van Zyl;07:00:00;16:00:00;60;09.00582-355;100018-39 / 09.00582-712;09.00582-423;09.00582-423;09.00582-423;09.00582-423;09.00582-423;09.00582-423;
28.04.10;Jason Smith;07:00:00;16:00:00;60;09.00582-421;09.00582-421;09.00582-421;09.00582-421;09.00582-421;09.00582-421;09.00582-421;09.00582-421;
28.04.10;Justin Jansen Van Vuuren;07:00:00;16:00:00;60;100025-312 / 09.00582-594;09.00582-416;09.00582-416;09.00582-416 / 09.00582-416;09.00582-416;09.00582-617;09.00582-617;09.00582-617;
28.04.10;Nico Claassen;07:00:00;16:00:00;60;100018-54;100018-54;100018-37;100025-265;100025-265 / 100018-37;100018-55;100018-55;100018-55;
28.04.10;Malcolm Vorster;07:00:00;16:00:00;60;09.00582-117;09.00582-117 / 100018-43;09.00582-0;09.00582-0;09.00582-0;09.00582-0;09.00582-0;09.00582-0;
28.04.10;Graham Meyer;07:00:00;16:00:00;60;09.00582-491;09.00582-491;09.00582-491;09.00582-491;09.00582-491;09.00582-491;09.00582-491;09.00582-491;
28.04.10;Thando Katywa;07:00:00;16:00:00;60;09.00582-379;09.00582-379;09.00582-379;09.00582-379;09.00582-379;09.00582-379;09.00582-379;09.00582-379;
28.04.10;Ludumo Sankobe;07:00:00;16:00:00;60;077353 -6341;077353 -6341;077353 -6341;077353 -6341;077353 -6341;077353 -6341;077353 -6341;077353 -6341;
28.04.10;Paul Helliwell;07:00:00;16:00:00;60;09.00582-532;09.00582-532;09.00582-532;09.00582-532;09.00582-532;09.00582-532;100018-38 / 100025-317;100025-317 / 100018-38;
28.04.10;Richard Raymond;07:00:00;16:00:00;60;100025-318;100025-318;100025-318;100025-318;09.00582-624;09.00582-437;09.00582-437;100018-48;
28.04.10;Johannes Geldenhuys;
28.04.10;Ntombenkosi Maldaki;07:00:00;16:00:00;60;09.00582-440;09.00582-440;09.00582-440;09.00582-440;09.00582-440;09.00582-440;09.00582-440;09.00582-440;
28.04.10;Abdul-Aziz Hendricks;07:00:00;16:00:00;60;09.00582-0;09.00582-0;09.00582-0;09.00582-0;09.00582-0;09.00582-445;09.00582-445;09.00582-445;
28.04.10;Mark Britten;07:00:00;16:00:00;60;100036-71;100036-71;100036-71;100036-71;100036-71;100036-71;100036-71;100036-71;
28.04.10;Angelo Bentley;07:00:00;16:00:00;60;100036-72;100036-72;100036-72;100036-72;100036-72;100036-79;100036-79;100036-79;
29.04.10;Brendan van Zyl;07:00:00;16:00:00;60;09.00582-355;100018-39;09.00582-423;09.00582-423;09.00582-423;09.00582-423;09.00582-423;09.00582-423;
29.04.10;Jason Smith;07:00:00;16:00:00;60;09.00582-613;09.00582-421;09.00582-421;09.00582-421;09.00582-421;09.00582-421;09.00582-421;09.00582-124;
29.04.10;Justin Jansen Van Vuuren;07:00:00;16:00:00;60;09.00582-594;09.00582-594 / 09.00582-416;09.00582-416;09.00582-416;09.00582-416;09.00582-416;09.00582-416;09.00582-416 / 09.00582-416;
29.04.10;Nico Claassen;07:00:00;16:00:00;60;100018-54;100018-54;100018-37;100018-37;100018-42;100018-55;100018-55;100018-54;
29.04.10;Malcolm Vorster;07:00:00;16:00:00;60;100018-43;09.00582-117;09.00582-117 / 100152-0;100152-0;100152-0;100152-0 / 100025-313;100025-313;100025-313;
29.04.10;Graham Meyer;07:00:00;16:00:00;60;09.00582-491;09.00582-491;09.00582-491;09.00582-491;09.00582-491;09.00582-491;09.00582-491;09.00582-491;
29.04.10;Thando Katywa;07:00:00;16:00:00;60;09.00582-119;09.00582-601;09.00582-601;09.00582-601;09.00582-601;09.00582-601;09.00582-601;09.00582-601;
29.04.10;Ludumo Sankobe;07:00:00;16:00:00;60;09.00582-714;09.00582-714;09.00582-714;09.00582-714;100018-46;09.00582-714;09.00582-714;09.00582-714;
29.04.10;Paul Helliwell;07:00:00;16:00:00;60;09.00582-420;09.00582-420;09.00582-420;09.00582-420;100018-38;100018-38;100018-38;09.00582-120;
29.04.10;Richard Raymond;07:00:00;16:00:00;60;100025-318;100025-318;100025-318;100025-318;100018-48;100018-48;100152-0;100152-0;
29.04.10;Johannes Geldenhuys;
29.04.10;Ntombenkosi Maldaki;07:00:00;16:00:00;60;09.00582-440;09.00582-440;09.00582-440;09.00582-440;09.00582-440;09.00582-440;100018-50;09.00582-440;
29.04.10;Abdul-Aziz Hendricks;07:00:00;16:00:00;60;09.00582-445;09.00582-445;09.00582-445;09.00582-445;09.00582-445;09.00582-445;09.00582-445;09.00582-445;
29.04.10;Mark Britten;07:00:00;16:00:00;60;100018-52;100036-71;100036-71;100036-71;100036-71;100036-71;100036-71;100036-71;
29.04.10;Angelo Bentley;07:00:00;16:00:00;60;100036-72;100036-72;100036-72;100036-72;100036-72;100036-72;100036-72;100036-72;
30.04.10;Brendan van Zyl;07:00:00;16:00:00;60;09.00582-355;100018-39 / 09.00582-428;09.00582-428;09.00582-428;09.00582-428;09.00582-428;09.00582-428;09.00582-428;
30.04.10;Jason Smith;07:00:00;16:00:00;60;09.00582-613;09.00582-613;09.00582-613;09.00582-431;09.00582-431;09.00582-431;09.00582-431;09.00582-431;
30.04.10;Justin Jansen Van Vuuren;07:00:00;16:00:00;60;100025-312;100025-312;100025-312;100025-312;09.00582-443;09.00582-443;09.00582-443;09.00582-443;
30.04.10;Nico Claassen;07:00:00;16:00:00;60;100018-37;09.00582-435;09.00582-435;09.00582-435;09.00582-435;100018-37 / 100018-54;100018-54;100018-54;
30.04.10;Malcolm Vorster;07:00:00;16:00:00;60;09.00582-117;09.00582-117 / 100152-0;100152-0;100152-0;100152-0;100152-0;100152-0;100152-0;
30.04.10;Graham Meyer;07:00:00;16:00:00;60;09.00582-491;09.00582-491;09.00582-491;09.00582-491;09.00582-491;09.00582-491;09.00582-491;09.00582-491;
30.04.10;Thando Katywa;07:00:00;16:00:00;60;09.00582-724;09.00582-724;09.00582-724;09.00582-724;09.00582-724;09.00582-724;09.00582-601;09.00582-601;
30.04.10;Ludumo Sankobe;07:00:00;16:00:00;60;09.00582-714;09.00582-714;09.00582-714;09.00582-714;09.00582-714;09.00582-714;09.00582-714;09.00582-714;
30.04.10;Paul Helliwell;07:00:00;16:00:00;60;09.00582-420;09.00582-420;09.00582-425;09.00582-425;09.00582-425;09.00582-425;100018-38;100018-38;
30.04.10;Richard Raymond;07:00:00;16:00:00;60;100025-318;100025-318;100025-318;100152-0;100152-0;100152-0;100152-0;100152-0;
30.04.10;Johannes Geldenhuys;
30.04.10;Ntombenkosi Maldaki;07:00:00;16:00:00;60;09.00582-441;09.00582-441;09.00582-441;09.00582-441;09.00582-441;09.00582-441;09.00582-441;09.00582-441;
30.04.10;Abdul-Aziz Hendricks;07:00:00;16:00:00;60;09.00582-445;09.00582-445;09.00582-445;09.00582-445;09.00582-445;09.00582-445;09.00582-445;09.00582-445;
30.04.10;Mark Britten;07:00:00;16:00:00;60;100036-71;100036-71;100036-71;100036-71;100036-71;100036-71;100036-71;100036-71;
30.04.10;Angelo Bentley;07:00:00;16:00:00;60;100036-79;100036-79;100036-79;100036-79;100036-72;100036-72;100036-72;100036-72;