"27.09.10","1","100334","504","110","Engineering","","10","3000: Alt-BR: Motronic: ODX Analyse. Analysis of Alt-BR Motronic ODX","07:00","16:00","8","60",
"28.09.10","2","100334","504","110","Engineering","","30","3000: Alt-BR: Motronic: ODX Analyse. Analysis of Alt-BR Motronic ODX","07:00","16:00","7","60",
"28.09.10","2","100018","38","110","Engineering","","0","S4/DSA overall tasks. Assisting collegue with ODX Actuators","","","1","0",
"29.09.10","3","100018","47","110","Engineering","","0","Wochenaufgaben AES. S4 Project Meeting","07:00","16:00","0,5","60",
"29.09.10","3","100018","38","110","Engineering","","0","S4/DSA overall tasks. ODA Workshop meeting","","","2","0",
"29.09.10","3","100018","38","110","Engineering","","0","S4/DSA overall tasks. Project teleco with dsa","","","0,5","0",
"29.09.10","3","100334","504","110","Engineering","","35","3000: Alt-BR: Motronic: ODX Analyse. Analysis of Alt-BR Motronic ODX","","","5","0",
"30.09.10","4","100334","504","110","Engineering","","70","3000: Alt-BR: Motronic: ODX Analyse. Analysis of Alt-BR Motronic ODX","07:00","16:00","7","60",
"30.09.10","4","100018","38","110","Engineering","","0","S4/DSA overall tasks. Assisting collegue with translation of Ereignisse sequence","","","1","0",
"01.10.10","5","100334","504","110","Engineering","","95","3000: Alt-BR: Motronic: ODX Analyse. Analysis of Alt-BR Motronic ODX","07:00","16:00","8","60",
