"24.05.10","1","09.00582","848","110","Engineering","","10","1006: PSM/ABS II: Lenkwinkelsensor kalibrieren: PH. Time booked on task of S44.","07:00","16:00","2","60",
"24.05.10","1","09.00311","0","110","Engineering","","0","ODA Administration. Updates to ODA scripts in E1 database; New DelayScreen module.","","","3","0",
"24.05.10","1","100152","48","140","Test","","75","1010: E1 PIROL: EDC17: allg Fkt Momentbegrenzung: bugfixing. CTS bug-fixing","","","3","0",
"25.05.10","2","09.00582","848","110","Engineering","","98","1006: PSM/ABS II: Lenkwinkelsensor kalibrieren: PH. Time booked on task of S44","07:00","16:00","3","60",
"25.05.10","2","09.00582","849","110","Engineering","","20","1006: PSM/ABS II: Lenkwinkelsensor kalibrieren: Testspec. Time booked on task of S44","","","4,5","0",
"25.05.10","2","09.00311","0","110","Engineering","","0","ODA Administration. Updates to ODA scripts in 9x6 database.","","","0,5","0",
"26.05.10","3","09.00582","848","110","Engineering","","99","1006: PSM/ABS II: Lenkwinkelsensor kalibrieren: PH. Time booked on task of S44","07:00","16:00","1","60",
"26.05.10","3","09.00582","849","110","Engineering","","90","1006: PSM/ABS II: Lenkwinkelsensor kalibrieren: Testspec. Time booked on task of S44","","","6,5","0",
"26.05.10","3","09.00311","0","110","Engineering","","0","ODA Administration. Discussions of limitations of ProgressBar feature of current ODA modules.","","","0,5","0",
"27.05.10","4","09.00311","0","110","Engineering","","0","ODA Administration. Implementation of Progress bar feature in modules","07:00","16:00","2","60",
"27.05.10","4","09.00582","1267","120","Codierung","","0","1023: 9x6: Kombi I: Tankabgleich: Implementierung. Creation of ODA script for retrieving Bestelltyp; Booked on task of s46.","","","4","0",
"27.05.10","4","09.00582","849","110","Engineering","","100","1006: PSM/ABS II: Lenkwinkelsensor kalibrieren: Testspec+sim. Creation using TestLink and simulation","","","2","0",
"28.05.10","5","09.00582","1267","120","Codierung","","0","1023: 9x6: Kombi I: Tankabgleich: Implementierung. Creation of script for Bestelltyp; Booked on task of s46.","07:00","16:00","0,5","60",
"28.05.10","5","09.00311","0","120","Codierung","","0","ODA Administration. Implementation of ProgressBar SDT into ODA modules","","","4,5","0",
"28.05.10","5","100152","48","140","Test","","100","1010: E1 PIROL: EDC17: allg Fkt Momentbegrenzung: Moduletest + bugfixing. Completion of task after ODX finalised","","","3","0",
