"22.11.10","1","09.00582","2232","181","Fehlerbes. vor Ausl. (Bugzilla)","","0","3020: 9x6: ME7.8/ME7.8min: Bugfixing zu Integrationstest. bug 26720","07:00","16:00","3","60",
"22.11.10","1","09.00582","2755","181","Fehlerbes. vor Ausl. (Bugzilla)","","0","5029: Bugfixing: PTTD. reworked PCM2 coding PTTD","","","3","0",
"22.11.10","1","09.00582","2744","181","Fehlerbes. vor Ausl. (Bugzilla)","","0","5029: Bugfixing: ODX. reworked ventilhub measurements for me7.8","","","2","0",
"23.11.10","2","09.00582","2755","181","Fehlerbes. vor Ausl. (Bugzilla)","","0","5029: Bugfixing: PTTD. roworked attributation for me7.11 master and slave","07:00","16:00","5","60",
"23.11.10","2","09.00582","2232","181","Fehlerbes. vor Ausl. (Bugzilla)","","0","3020: 9x6: ME7.8/ME7.8min: Bugfixing zu Integrationstest. implemented measurements for ventilhub for me7.8min","","","3","0",
"24.11.10","3","09.00582","2755","181","Fehlerbes. vor Ausl. (Bugzilla)","","0","5029: Bugfixing: PTTD. bug 26360, 26860","07:00","16:00","5","60",
"24.11.10","3","09.00582","2232","181","Fehlerbes. vor Ausl. (Bugzilla)","","0","3020: 9x6: ME7.8/ME7.8min: Bugfixing zu Integrationstest. implemented measurements for ventilhub for me7.8min","","","3","0",
"25.11.10","4","09.00582","392","110","Engineering","","0","8501: 9x6: allg. Projekttätigkeit C1 .3/ae31. installing PIWIS","07:00","16:00","2","60",
"25.11.10","4","09.00582","2232","181","Fehlerbes. vor Ausl. (Bugzilla)","","0","3020: 9x6: ME7.8/ME7.8min: Bugfixing zu Integrationstest. bug 26360, 27103 ,26720","","","6","0",
"26.11.10","5","09.00582","2232","181","Fehlerbes. vor Ausl. (Bugzilla)","","0","3020: 9x6: ME7.8/ME7.8min: Bugfixing zu Integrationstest. bug 27029, 26358, 27103, 26360","07:00","16:00","6,5","60",
"26.11.10","5","100018","50","110","Engineering","","0","Wochenaufgaben AES. Meeting and updating timesheets","","","1,5","0",
