"07.06.10","1","09.00582","422","140","Test","","98","9X6:PSM/ABS:Statischer Test:ModuleTest.Task of F4. Bugfixing","07:00","16:00","8","60",
"08.06.10","2","100025","323","170","Schulung","","100","Schulungen 2010. Creating CTS's in Gesic","07:00","16:00","2","60",
"08.06.10","2","09.00582","422","140","Test","","99","9X6:PSM/ABS:Statischer Test:ModuleTest.Task of F4. Bugfixing","","","6","0",
"09.06.10","3","09.00582","422","140","Test","","100","9X6:PSM/ABS:Statischer Test:ModuleTest.Task of F4. Bugfixing","07:00","16:00","2","60",
"09.06.10","3","100025","323","170","Schulung","","50","Schulungen 2010. Creating CTS's in Gesic","","","3","0",
"09.06.10","3","100025","323","170","Schulung","","50","Schulungen 2010. Reading Stellglieder documentation for implimentation","","","3","0",
"10.06.10","4","09.00582","856","120","Codierung","","10","9x6: PSM/ABS II: Stellglieder: Implementierung. Creating CTS's and implement","07:00","16:00","8","60",
"11.06.10","5","09.00582","856","120","Codierung","","15","9x6: PSM/ABS II: Stellglieder: Implementierung. Completing CTS and implementing(Task was assign to s43)","07:00","16:00","7","60",
