"19.07.10","1","100023","0","910","Urlaub","","0","Holiday. Time off","07:00","16:00","8","60",
"20.07.10","2","100023","0","910","Urlaub","","0","Holiday. Time off","07:00","16:00","8","60",
"21.07.10","3","100018","52","110","Engineering","","0","Wochenaufgaben AES. Catching up on emails. Getting feedback on E1 work","07:00","16:00","0,5","60",
"21.07.10","3","09.00582","1958","110","Engineering","","5","3020: 9x6:ME7.8/ME7.8min: ECU Analyse. Running PIWIS to see what sequences appear fro which cars. Analysing Schalteingange.","","","7,5","0",
"22.07.10","4","09.00582","1958","110","Engineering","","15","3020: 9x6:ME7.8/ME7.8min: ECU Analyse. Finding which actuator tests are available for which variants and adding them to the def table.","07:00","16:00","8","60",
"23.07.10","5","09.00582","1958","110","Engineering","","20","3020: 9x6:ME7.8/ME7.8min: ECU Analyse. Analysis of short tests for 78min.","07:00","16:00","8","60",
