"01.02.10","1","09.00582","94","170","Schulung","","0","8503: 9x6: get into Subject E1.3/ae20. Reading over 9x6 Analysis Guideline and installing of software","07:00","16:00","8","60",
"02.02.10","2","09.00582","94","170","Schulung","","0","8503: 9x6: get into Subject E1.3/ae20. Looking into the 9x6 source","07:00","16:00","4","60",
"02.02.10","2","09.00582","158","110","Engineering","","0","1000: 9x6: PSM/ABS I: ECU Analyse. Analysing the 9x6 coding source","","","4","0",
"03.02.10","3","09.00582","94","170","Schulung","","0","8503: 9x6: get into Subject E1.3/ae20. Discussion with collegues over Analysis findings","07:00","16:00","4","60",
"03.02.10","3","09.00582","158","110","Engineering","","0","1000: 9x6: PSM/ABS I: ECU Analyse. Analysing the 9x6 PSM coding source","","","2","0",
"03.02.10","3","09.00582","120","110","Engineering","","0","8501: 9x6: allg. Projekttätigkeit C1.3/ae20	. Meeting","","","2","0",
"04.02.10","4","09.00582","158","110","Engineering","","0","1000: 9x6: PSM/ABS I: ECU Analyse. Creating of simulations for testing PSM Coding/anaysis of results","07:00","16:00","4","60",
"04.02.10","4","09.00582","94","170","Schulung","","0","8503: 9x6: get into Subject E1.3/ae20. Discussion with collegues over Analysis findings","","","4","0",
