"08.03.10","1","09.00582","381","110","Engineering","","5","3060: 9x6: MED5.2: ECU Analyse. Kurztest Analysis","07:00","16:00","8","60",
"09.03.10","2","09.00582","381","110","Engineering","","25","3060: 9x6: MED5.2: ECU Analyse. Kurztest Analysis","07:00","16:00","8","60",
"10.03.10","3","100023","0","910","Urlaub","","0","Urlaub. Leave","07:00","16:00","8","60",
"11.03.10","4","09.00582","381","110","Engineering","","55","3060: 9x6: MED5.2: ECU Analyse. Kurztest Analysis","07:00","16:00","8","60",
"12.03.10","5","09.00582","381","110","Engineering","","60","3060: 9x6: MED5.2: ECU Analyse. Kurztest Analysis","07:00","16:00","8","60",
