"14.06.10","1","0","0","401","Travel","","100","Travel. Travel too Aachen","07:00","16:00","4","30",
"14.06.10","1","09.00582","904","110","Engineering","","0","3040: 9x6: ME7.11: ECU Analyse. Documentation of services for Kurztests","","","2,5","0",
"14.06.10","1","09.00582","116","110","Engineering","","0","8501: 9x6: allg. Projekttätigkeit. General project discussions.","","","2","0",
"15.06.10","2","09.00582","904","110","Engineering","","45","3040: 9x6: ME7.11: ECU Analyse. Documentation of Kurztest services.","07:00","16:00","0,5","30",
"15.06.10","2","09.00582","1317","110","Engineering","","0","8501: 9x6: ProjStatus + Bespr. Project discussions with sc, fp, we","","","7","0",
"15.06.10","2","100018","42","110","Engineering","","0","Wochenaufgaben AES. E1 Pirol Weekly meeting","","","1","0",
"16.06.10","3","09.00582","1317","110","Engineering","","0","8501: 9x6: ProjStatus + Bespr. 9x6 New Project plan meeting.","07:00","16:00","0,5","30",
"16.06.10","3","100025","265","110","Engineering","","0","Schulungen. 9x6 Alarm ECU coding analysis training with wm","","","1","0",
"16.06.10","3","09.00582","116","110","Engineering","","0","8501: 9x6: allg. Projekttätigkeit. Discussions with sc, fp, bb, hz for 9x6 coding","","","1,5","0",
"16.06.10","3","100018","37","110","Engineering","","0","S4/DSA overall tasks. General discussions for E1 Pirol and 9x6 issues.","","","5,5","0",
"17.06.10","4","100018","42","110","Engineering","","0","Wochenaufgaben AES. Old vehicle project plan meeting.","07:00","16:00","0,5","30",
"17.06.10","4","09.00582","1317","110","Engineering","","0","8501: 9x6: allg. Projekttätigkeit. Coding discussions with dr and bb.","","","1,5","0",
"17.06.10","4","09.00582","116","110","Engineering","","0","8501: 9x6: allg. Projekttätigkeit. General project discussions.","","","0,5","0",
"17.06.10","4","100025","265","170","Schulung","","0","Schulungen. PTTD training with dr.","","","0,5","0",
"17.06.10","4","09.00582","116","110","Engineering","","0","8501: 9x6: allg. Projekttätigkeit. Virtual coding: Testing for Kombi solutions.","","","5,5","0",
"18.06.10","5","09.00582","116","110","Engineering","","0","8501: 9x6: allg. Projekttätigkeit. ODA discussions with we and mp","07:00","16:00","3","30",
"18.06.10","5","09.00582","116","110","Engineering","","0","8501: 9x6: allg. Projekttätigkeit. Project discussions with fp, sc.","","","2","0",
"18.06.10","5","09.00582","1314","110","Engineering","","0","8501: 9x6: Mod. Assisting colleagues with issues and questions. Troubleshooting module problems.","","","3,5","0",
