"13.12.10","1","09.00582","1901","181","Fehlerbes. vor Ausl. (Bugzilla)","","0","1104: 9x6: RegrTests Bugfixing. From s54: Bug 27473, 27469 & 27458","07:00","16:00","8","60",
"14.12.10","2","100334","1014","110","Engineering","","75","5000: Alt-BR: Airbag: Stellglied+Codier Analyse. Analysis - Codierung","07:00","16:00","8","60",
"15.12.10","3","100334","1014","110","Engineering","","70","5000: Alt-BR: Airbag: Stellglied+Codier Analyse. Analysis - Overview","07:00","16:00","8","60",
"16.12.10","4","100334","1014","110","Engineering","","75","5000: Alt-BR: Airbag: Stellglied+Codier Analyse. Analysis - Overview","07:00","16:00","8","60",
"17.12.10","5","100023","1692","910","Urlaub","","0","Urlaub 17.12.2010-05.01.2011. Time-Off","07:00","16:00","8","60",
