"26.07.10","1","09.00582","1526","110","Engineering","","90","3046: 9x6: ME7.11: FZG-Daten schreiben: PH. Creating Me7.11 PH from s41","07:00","16:00","8","60",
"27.07.10","2","09.00582","1526","110","Engineering","","95","3046: 9x6: ME7.11: FZG-Daten schreiben: PH. Creating Me7.11 PH from f4","07:00","16:00","2","60",
"27.07.10","2","09.00582","1450","110","Engineering","","10","3004: 9x6: ME7.2: STG auslesen: PH. Creating Me7.2 PH from f4","","","6","0",
"28.07.10","3","09.00582","1450","110","Engineering","","50","3004: 9x6: ME7.2: STG auslesen: PH. Creating Me7.2 PH from f4","07:00","16:00","4","60",
"28.07.10","3","09.00582","1523","120","Codierung","","10","3044: 9x6: ME7.11: STG auslesen: Implementierung. Implementing  DME ME.* Wegfahrsperrencode Programmieren from F5","","","3","0",
"28.07.10","3","09.00582","1523","120","Codierung","","10","3044: 9x6: ME7.11: STG auslesen: Implementierung. Waiting for Authoring from F5","","","1","0",
"29.07.10","4","09.00582","1523","120","Codierung","","40","3044: 9x6: ME7.11: STG auslesen: Implementierung. Implementing  DME ME.* Wegfahrsperrencode Programmieren from F5","07:00","16:00","5","60",
"29.07.10","4","09.00582","1523","120","Codierung","","40","3044: 9x6: ME7.11: STG auslesen: Implementierung. Waiting for Authoring from F5","","","2,5","0",
"29.07.10","4","100018","46","110","Engineering","","0","Wochenaufgaben PAE. 9x6 Meeting","","","0,5","0",
"30.07.10","5","09.00582","1523","120","Codierung","","50","3044: 9x6: ME7.11: STG auslesen: Implementierung. Implementing  DME ME.* Wegfahrsperrencode Programmieren from F5","07:00","16:00","6","60",
"30.07.10","5","09.00582","1523","120","Codierung","","50","3044: 9x6: ME7.11: STG auslesen: Implementierung. Waiting for Authoring from F5","","","2","0",
