"01.02.10","1","077251","3469","120","Codierung","","100","6002: Kombi Gesamtwegstrecke setzen: Imp. Worked on CTS","07:00","16:00","5","60",
"01.02.10","1","077251","3528","110","Engineering","","0","8501: allg. Projekttätigkeiten - Assisting colleagues. Helped colleagues with simulations and ODX issues","","","1,5","0",
"01.02.10","1","077251","3528","110","Engineering","","0","8501: allg. Projekttätigkeiten - Waiting for authoring. No task to book it under","","","1,5","0",
"02.02.10","2","077251","3444","181","Fehlerbes. vor Ausl. (Bugzilla)","","0","6010: Bugfixing - Bug #21450. Worked on bug #21450.","07:00","16:00","4","60",
"02.02.10","2","077251","3528","110","Engineering","","0","8501: allg. Projekttätigkeiten - Waiting for authoring. Performace issues","","","2","0",
"02.02.10","2","077251","3470","140","Test","","100","6002: Kombi Gesamtwegstrecke setzen: Test gegen Sim. Finished test vs simulation","","","2","0",
"03.02.10","3","077251","3528","110","Engineering","","0","8501: allg. Projekttätigkeiten - Project Meeting. G1, E1, E2 and 9x6 meeting","07:00","16:00","2","60",
"03.02.10","3","077251","3464","140","Test","","50","6001: Kombi Wartungsintervall setzen: Test gegen Sim. Tested the setzsen CTS","","","2","0",
"03.02.10","3","077251","3444","181","Fehlerbes. vor Ausl. (Bugzilla)","","0","6010: Bugfixing - Kombi Wartungsintervall setzen. Bugfixed the Kombi Wartungsintervall setzen CTS","","","4","0",
"04.02.10","4","077251","3504","140","Test","","100","6007: Kombi Tankgeberkalibrierung: Test gegen Sim. Tested against simulation, no bugs found","07:00","16:00","3","60",
"04.02.10","4","077251","3464","140","Test","","90","6001: Kombi Wartungsintervall setzen: Test gegen Sim. Tested the Kombi Wartungsintervall zurueck setzen CTS","","","3","0",
"04.02.10","4","077251","3444","181","Fehlerbes. vor Ausl. (Bugzilla)","","0","6010: Bugfixing - Kombi Wartungsintervall zurueck setzen. Corrected bugs in the Wartungsintervall zurueck setzen CTS","","","2","0",
"05.02.10","5","077251","3464","140","Test","","100","6001: Kombi Wartungsintervall setzen: Test gegen Sim. Did final testing and completed documentation and simulation issues","07:00","16:00","5","60",
