"04.01.10","1","077353","2938","110","Engineering","","0","8501: E1 M5: allg. Projekttätigkeiten A1.15/ae19. Checking + replying on email, new staff introductions, admin, etc.","07:00","16:00","8","60",
"05.01.10","2","077353","2938","110","Engineering","","0","8501: E1 M5: allg. Projekttätigkeiten A1.15/ae19. General admin, arrangements fro new staff.","07:00","17:00","6","60",
"05.01.10","2","077353","2929","110","Engineering","","0","8501: E1 M5: CoMod A1.4/ae19. Project tracking and phone call with dr and mi.","","","2","0",
"05.01.10","2","077353","2938","110","Engineering","","0","8501: E1 M5: allg. Projekttätigkeiten A1.15/ae19. Meeting with S4 management","","","1","0",
"06.01.10","3","077353","12104","120","Codierung","","100","6024: E1 M5: PCM3.0 (24.100): HeadUnit: Soll-/Ist Konfig: Implementierung. Cleaning up comments and naming inside CTS.","07:00","16:00","1","60",
"06.01.10","3","077353","2938","110","Engineering","","0","8501: E1 M5: allg. Projekttätigkeiten A1.15/ae19. Installing latest Authoring and PIDT.","","","1","0",
"06.01.10","3","077353","2938","110","Engineering","","0","8501: E1 M5: allg. Projekttätigkeiten A1.15/ae19. Assisting colleagues with problems.","","","3","0",
"06.01.10","3","077353","2929","110","Engineering","","0","8501: E1 M5: CoMod A1.4/ae19. Discussion emails about modules and ODA with dr and s47","","","2","0",
"06.01.10","3","077353","2938","110","Engineering","","0","8501: E1 M5: allg. Projekttätigkeiten A1.15/ae19. Arranging and installing backup hardware for department.","","","1","0",
"07.01.10","4","077353","2938","110","Engineering","","0","8501: E1 M5: allg. Projekttätigkeiten A1.15/ae19. Reports for S4 management.","07:00","16:00","2","60",
"07.01.10","4","077353","12103","140","Test","","20","6024: E1 M5: PCM3.0 (24.100): HeadUnit: Soll-/Ist Konfig: Modultest und Bugfixing. Problems with ODA script not working in Authoring with configuration files. Minor CTS fix for string","","","5","0",
"07.01.10","4","077353","2929","110","Engineering","","0","8501: E1 M5: CoMod A1.4/ae19. task tracking and communications with DSA","","","1","0",
"08.01.10","5","077353","2938","110","Engineering","","0","8501: E1 M5: allg. Projekttätigkeiten A1.15/ae19. Assisting colleagues, genral admin","07:00","16:00","2","60",
"08.01.10","5","077353","2929","110","Engineering","","0","8501: E1 M5: CoMod A1.4/ae19. Timesheets","","","1","0",
"08.01.10","5","077353","12103","140","Test","","99","6024: E1 M5: PCM3.0 (24.100): HeadUnit: Soll-/Ist Konfig: Modultest und Bugfixing. Provisionally finalize bugfixing and testing.","","","5","0",
