"09.08.10","1","100023","0","910","Urlaub","","0","Holiday. Public Holiday","07:00","16:00","8","60",
"10.08.10","2","100152","409","140","Test","","0","1104: E1 PIROL: Test FZG / Regressiontests. Testing and investigation into shorttest frame work problems","07:00","16:00","2","60",
"10.08.10","2","100152","422","181","Fehlerbes. vor Ausl. (Bugzilla)","","0","1104: E1 PIROL: RegrTests Bugfixing. Bug 24774, shottest not working on vehicle, PTTD missing mappings","","","5","0",
"10.08.10","2","100018","43","110","Engineering","","0","Wochenaufgaben AES. Project status feedback and teleco","","","1","0",
"11.08.10","3","100018","43","110","Engineering","","0","Wochenaufgaben AES. Department meeting","07:00","16:00","1","60",
"11.08.10","3","100025","313","170","Schulung","","0","Schulungen 2010. Assisting with the use of Auto test suite","","","1","0",
"11.08.10","3","100152","422","181","Fehlerbes. vor Ausl. (Bugzilla)","","0","1104: E1 PIROL: RegrTests Bugfixing. Bug 24814 and 24774, Fuep sequence","","","6","0",
"12.08.10","4","100152","409","140","Test","","0","1104: E1 PIROL: Test FZG / Regressiontests. Testing changes made against simulation and following up on branch modifications","07:00","16:00","6","60",
"12.08.10","4","100152","422","181","Fehlerbes. vor Ausl. (Bugzilla)","","0","1104: E1 PIROL: RegrTests Bugfixing. Following up on bug status's","","","1","0",
"12.08.10","4","100025","313","170","Schulung","","0","Schulungen 2010. Assisting with timesheets procedure and training","","","0,5","0",
"12.08.10","4","100018","43","110","Engineering","","0","Wochenaufgaben AES. Meeting and completion of timesheets","","","0,5","0",
"13.08.10","5","100018","43","110","Engineering","","0","Wochenaufgaben AES. Meeting with Nico","07:00","16:00","1","60",
"13.08.10","5","100152","409","140","Test","","0","1104: E1 PIROL: RegrTests Bugfixing. Continued with testing changes and verifying results","","","4","0",
"13.08.10","5","100025","437","170","Schulung","","0","Training new staff: 1. Introduction. Assisted with questions and basics","","","1","0",
"13.08.10","5","100152","422","181","Fehlerbes. vor Ausl. (Bugzilla)","","0","1104: E1 PIROL: RegrTests Bugfixing. Found and added strings for the Kurztest rework","","","2","0",
