"17.05.10","1","09.00582","435","110","Engineering","","85","1020: 9x6: Kombi I: ECU Anlayse. Tankabgleich analysis + documentation comepleted. Started with Tacho A.","07:00","16:00","6","60",
"17.05.10","1","100018","54","110","Engineering","","0","S4 Technical Support/Troubleshooting. Assisting f4, s53, s54 with problems and work items.","","","1","0",
"17.05.10","1","100018","55","110","Engineering","","0","S4 Administrative Tasks. Task tracking, assigning work items.","","","1","0",
"18.05.10","2","09.00582","435","110","Engineering","","100","1020: 9x6: Kombi I: ECU Anlayse. Kombi analisys completed","07:00","16:00","3","60",
"18.05.10","2","100018","42","110","Engineering","","0","Wochenaufgaben AES. Meeting with Frau Shaefer.","","","1","0",
"18.05.10","2","100018","55","110","Engineering","","0","S4 Administrative Tasks. Meeting with S4 management","","","1","0",
"18.05.10","2","100018","55","110","Engineering","","0","S4 Administrative Tasks. Updating estimates + progress for 9x6","","","1","0",
"18.05.10","2","09.00582","904","110","Engineering","","5","3040: 9x6: ME7.11: ECU Analyse. Getting started with analysis and getting overview of CTS's","","","2","0",
"19.05.10","3","09.00582","904","110","Engineering","","5","3040: 9x6: ME7.11: ECU Analyse. Working on overview and getting master + slave communication working.","07:00","16:00","1","60",
"19.05.10","3","100018","54","110","Engineering","","0","S4 Technical Support/Troubleshooting. Fixing problems with DT2's not communication. Wokring on DT2 SSH connection problem.","","","1,5","0",
"19.05.10","3","100018","55","110","Engineering","","0","S4 Administrative Tasks. Updating estimates + progress for 9x6. DME discussions for new extimations","","","2,5","0",
"19.05.10","3","100018","55","110","Engineering","","0","S4 Administrative Tasks. Meeting with sc, fp, rj, we.","","","1","0",
"19.05.10","3","100018","54","110","Engineering","","0","S4 Technical Support/Troubleshooting. Assisting colleagues with issues and questions.","","","2","0",
"20.05.10","4","09.00582","904","110","Engineering","","10","3040: 9x6: ME7.11: ECU Analyse. ME7.11 analysis for Actuators","07:00","16:00","2","60",
"20.05.10","4","100018","54","110","Engineering","","0","S4 Technical Support/Troubleshooting. Functional communication troubleshooting. Coldstart installation and coldstarts for DT2's.","","","3","0",
"20.05.10","4","100018","42","110","Engineering","","0","Wochenaufgaben AES. Meeting with S4 team","","","0,5","0",
"20.05.10","4","100018","54","110","Engineering","","0","S4 Technical Support/Troubleshooting. Troubleshooting MFTD rebooting issue.","","","1,5","0",
"20.05.10","4","100018","55","110","Engineering","","0","S4 Administrative Tasks. Work item tracking and assigning work.","","","1","0",
"21.05.10","5","09.00582","904","110","Engineering","","15","3040: 9x6: ME7.11: ECU Analyse. Documentation for Actuators, further analYsis.","07:00","16:00","5","60",
"21.05.10","5","100018","55","110","Engineering","","0","S4 Administrative Tasks. Timesheets, project tracking and updating workstatus.","","","2","0",
"21.05.10","5","100018","54","110","Engineering","","0","S4 Technical Support/Troubleshooting. MFTD coldstarts","","","1","0",
