"04.10.10","1","09.00582","534","120","Codierung","","0","3061: 9x6: ME5.2: ODX Bedat. ODX Testing and bugfixing for DME5.2, Task is Closed","07:00","16:00","8","60",
"05.10.10","2","09.00582","600","120","Codierung","","0","1021: 9x6: Kombi: ODX Bedat. Updating and bugfixing ODX, ODX test specs for testing, Task is Closed","07:00","16:00","8","60",
"06.10.10","3","09.00582","600","120","Codierung","","0","1021: 9x6: Kombi: ODX Bedat. Testing and creating ODX Test Specs for Kombi, Task is Closed","07:00","16:00","8","60",
"07.10.10","4","09.00582","600","120","Codierung","","0","1021: 9x6: Kombi: ODX Bedat. Testing and creating ODX Test Specs for Kombi, Task is Closed","07:00","16:00","8","60",
"08.10.10","5","09.00582","600","120","Codierung","","0","1021: 9x6: Kombi: ODX Bedat. Testing and creating ODX Test Specs for Kombi. task is closed","07:00","16:00","8","60",
