"15.11.10","1","100334","866","110","Engineering","","100","5020: Alt+BR: Alarm: ODX Analyse. Analysing Stellglieder","07:00","16:00","7","60",
"15.11.10","1","09.00582","2763","181","Fehlerbes. vor Ausl. (Bugzilla)","","0","5029: Bugfixing: ODX. Attributing the Active actuators in ME7.2","","","1","0",
"16.11.10","2","09.00582","2233","181","Fehlerbes. vor Ausl. (Bugzilla)","","10","3020: 9x6:ME7.8/ME7.8min: Bugfixing zu Integrationstest. Fixing translation of Actuator start routine options","07:00","16:00","1","60",
"16.11.10","2","100334","640","110","Engineering","","40","5020: Alt+BR: Alarm: ODX Analyse. From ru. Analysing services for Actuators and rearranging documentation in SVN","","","7","0",
"17.11.10","3","09.00582","2233","181","Fehlerbes. vor Ausl. (Bugzilla)","","60","3020: 9x6:ME7.8/ME7.8min: Bugfixing zu Integrationstest. Working on Bug 26875","07:00","16:00","5","60",
"17.11.10","3","100334","640","110","Engineering","","15","5020: Alt+BR: Alarm: ODX Analyse. From ru. Describing services and updating documents","","","3","0",
"18.11.10","4","100334","640","110","Engineering","","25","5020: Alt+BR: Alarm: ODX Analyse. From ru. Creating bus logs and simulations and inserting logging into PIWIS files for Alarm","07:00","16:00","8","60",
"19.11.10","5","100018","52","110","Engineering","","0","Wochenaufgaben AES. Meetings and timesheet entries","07:00","16:00","1,5","60",
"19.11.10","5","100334","640","110","Engineering","","30","5020: Alt+BR: Alarm: ODX Analyse. From ru. Documentation and updating requirement keys for Stellglieder. Analysing coding.","","","6,5","0",
