"20.09.10","1","09.00582","2212","120","Codierung","","0","3065: 9x6: ME5.2: PTTD: Textmapping+Attributierung. coding, FSP  textmapping and attributierung, from s43","07:00","16:00","4","60",
"20.09.10","1","09.00582","2212","120","Codierung","","0","3065: 9x6: ME5.2: PTTD: Textmapping+Attributierung. Waiting for authoring, from s43","","","1","0",
"20.09.10","1","09.00582","2468","181","Fehlerbes. vor Ausl. (Bugzilla)","","0","5026: 9x6: Bugfixing: Bedat: BF+Test. bugs 25347, 25349","","","3","0",
"21.09.10","2","09.00582","2468","181","Fehlerbes. vor Ausl. (Bugzilla)","","0","5026: 9x6: Bugfixing: Bedat: BF+Test. bug 25167","07:00","16:00","2","60",
"21.09.10","2","09.00582","2468","181","Fehlerbes. vor Ausl. (Bugzilla)","","0","5026: 9x6: Bugfixing: Bedat: BF+Test. bug 25346","","","2","0",
"21.09.10","2","09.00582","2468","181","Fehlerbes. vor Ausl. (Bugzilla)","","0","5026: 9x6: Bugfixing: Bedat: BF+Test. 25342","","","2","0",
"21.09.10","2","09.00582","2468","181","Fehlerbes. vor Ausl. (Bugzilla)","","0","5026: 9x6: Bugfixing: Bedat: BF+Test. bugs 25210, 25348, 25350, 25351,25352,25354, 25354","","","2","0",
"22.09.10","3","09.00582","2169","120","Codierung","","0","3021: 9x6: ME7.8/ME7.8min: ODX Bedat + FAP. Fixed odx test specs and simulations and tested M3101, from s56","07:00","16:00","6","60",
"22.09.10","3","09.00582","2468","181","Fehlerbes. vor Ausl. (Bugzilla)","","0","5026: 9x6: Bugfixing: Bedat: BF+Test. bug 25255","","","2","0",
"23.09.10","4","09.00582","0","120","Codierung","","0","3070: 9x6: SG_Auslesen MEx (generisch): ODX-Bedatung (ME7.11/ME5.2). reworking option items fro me711 m","07:00","16:00","3","60",
"23.09.10","4","09.00582","2195","140","Test","","0","3035: 9x6: ME7.8/ME7.8min: PTTD: Modultest+Bugfixing. re-mapped 7.8min iswerte","","","2,5","0",
"23.09.10","4","100018","50","110","Engineering","","0","Wochenaufgaben AES. updating timesheets","","","0,5","0",
"23.09.10","4","09.00582","2212","120","Codierung","","0","3065: 9x6: ME5.2: PTTD: Textmapping+Attributierung. FSP textmapping and attributierung, from s43","","","2","0",
"24.09.10","5","100023","0","910","Urlaub","","0","Holiday. Time-Off","07:00","16:00","8","60",
