"22.11.10","1","09.00582","2739","181","Fehlerbes. vor Ausl. (Bugzilla)","","0","5029: Bugfixing: CTSs. Fixing Bugzilla Bug(26974,26070)","07:00","16:00","8","60",
"23.11.10","2","09.00582","2739","181","Fehlerbes. vor Ausl. (Bugzilla)","","0","5029: Bugfixing: CTSs. Fixing Bugzilla Bug(27021)","07:00","16:00","8","60",
"24.11.10","3","09.00582","2739","181","Fehlerbes. vor Ausl. (Bugzilla)","","0","5029: Bugfixing: CTSs. Fixing Bugzilla Bug(26382)","07:00","16:00","8","60",
"25.11.10","4","09.00582","2739","181","Fehlerbes. vor Ausl. (Bugzilla)","","0","5029: Bugfixing: CTSs. Fixing Bugzilla Bug(27097,26243)","07:00","16:00","8","60",
"26.11.10","5","100023","0","910","Urlaub","","0","Holiday. Time-Off","07:00","16:00","8","60",
