"05.04.10","1","100023","0","910","Urlaub","","0","Holiday. Time off","07:00","16:00","8","60",
"06.04.10","2","100036","84","170","Schulung","","0","Training: PIWIS Source /em009fp1. Analysing the Customer number section of the coding routing for PSM","07:00","16:00","8","60",
"07.04.10","3","100025","322","170","Schulung","","0","Schulungen 2010. ODA training","07:00","16:00","8","60",
"08.04.10","4","100036","84","170","Schulung","","0","Training: PIWIS Source /em009fp1. Inserting logging into 9x6 ME07 module of PIWIS","07:00","16:00","8","60",
"09.04.10","5","100025","322","170","Schulung","","0","Schulungen 2010. Testing ODA Sequence Builder  for usability","07:00","16:00","2","60",
"09.04.10","5","100023","0","910","Urlaub","","0","Holiday. Time off","","","3","0",
"09.04.10","5","100018","52","110","Engineering","","0","Wochenaufgaben PAE. Meeting about the ODA Sequence building test and sorting files on the computer","","","0,5","0",
"09.04.10","5","100036","84","170","Schulung","","0","Training: PIWIS Source /em009fp1. Inserting logging into 9x6 ME07 module of PIWIS","","","2,5","0",
