"15.03.10","1","100036","74","170","Schulung","","20","Training: Testing Vs. Simulation /em009fp1. Testing simulations with proceom and jlogview","07:00","16:00","4","60",
"15.03.10","1","100036","76","170","Schulung","","20","Training: ODX Authoring /em009fp1. Installing software for ODX and testing that simulations work","","","4","0",
"16.03.10","2","100036","67","170","Schulung","","25","Training: Basics/ECU/Simulations/ODX/OET/em009fp1. Testing NGET and PIDT against simulations","07:00","16:00","2","60",
"16.03.10","2","100036","77","170","Schulung","","0","Training: Creating ODX incl. ODX-E /em009fp1. Reading documentation on the Data Model Specification for ASAM MCD-2D(ODX)","","","3","0",
"16.03.10","2","100036","0","110","Engineering","","0","General Tasks. Installing OET(NGET), PIDT, XMLSpy and configuration of MCD Kernel","","","3","0",
"17.03.10","3","100036","0","110","Engineering","","0","General Tasks. General fortnightly meeting with DSA development group. Discussed progress and ways to move forward.","07:00","16:00","1","60",
"17.03.10","3","100036","0","110","Engineering","","5","General Tasks. Formatting Wiki, added XMLSpy install howto, acronym definitions","","","3","0",
"17.03.10","3","100036","74","170","Schulung","","50","Training: Testing Vs. Simulation. Setting up NGET(OET) for testing PSM, copying latest .svn simulations tree","","","1,5","0",
"17.03.10","3","100036","77","170","Schulung","","0","Training: Creating ODX incl. ODX-E /em009fp1. Reading documentation on the Data Model Specification for ASAM MCD-2D(ODX)","","","2,5","0",
"18.03.10","4","100036","74","170","Schulung","","40","Training: Testing Vs. Simulation /em009fp1. Testing ODX for 9x6 PSM and modifying simulations to test with","07:00","16:00","5","60",
"18.03.10","4","100036","77","170","Schulung","","10","Training: Creating ODX incl. ODX-E /em009fp1. Reading ASAM_MCD3_ODX. Searching the ODX hieracrchy of 9x6 abs PSM for an identification calc bug.","","","3","0",
"19.03.10","5","100036","74","170","Schulung","","5","Training: Testing Vs. Simulation /em009fp1. Testing ODX conversions in OET and recording bugs.","07:00","16:00","6","60",
"19.03.10","5","100036","67","170","Schulung","","0","Training: Basics/ECU/Simulations/ODX/OET/em009fp1. Using ECU documentation to create Simulations with realistic responses that are not in a bus log.","","","2","0",
