"31.05.10","1","09.00582","1267","120","Codierung","","100","1023: 9x6: Kombi I: Tankabgleich: Implementierung. Implementing Tankabgleich CTS","07:00","16:00","5","60",
"31.05.10","1","09.00582","1267","120","Codierung","","100","1023: 9x6: Kombi I: Tankabgleich: Implementierung. Waiting for Authoring","","","1","0",
"31.05.10","1","100018","46","110","Engineering","","0","Wochenaufgaben PAE. 9x6 Meeting","","","0,5","0",
"31.05.10","1","09.00582","758","140","Test","","5","1023: 9x6: Kombi I: Tankabgleich: Modultest+Bugfixing. Testing Tankabgleich CTS from f5","","","1,5","0",
"01.06.10","2","100018","46","110","Engineering","","0","Wochenaufgaben PAE. 9x6 Meeting","07:00","16:00","0,5","60",
"01.06.10","2","09.00582","758","140","Test","","50","1023: 9x6: Kombi I: Tankabgleich: Modultest+Bugfixing. Waiting for Authoring from F5","","","2","0",
"01.06.10","2","09.00582","758","140","Test","","55","1023: 9x6: Kombi I: Tankabgleich: Modultest+Bugfixing. Testing and BugFixing Tankabgleich CTS from f5","","","5,5","0",
"02.06.10","3","100018","46","110","Engineering","","0","Wochenaufgaben PAE. 9x6 Meeting","07:00","16:00","0,5","60",
"02.06.10","3","09.00582","758","140","Test","","65","1023: 9x6: Kombi I: Tankabgleich: Modultest+Bugfixing. Waiting for Authoring from F5","","","2","0",
"02.06.10","3","09.00582","758","140","Test","","65","1023: 9x6: Kombi I: Tankabgleich: Modultest+Bugfixing. Testing and BugFixing Tankabgleich CTS from f5","","","5,5","0",
"03.06.10","4","09.00582","758","140","Test","","80","1023: 9x6: Kombi I: Tankabgleich: Modultest+Bugfixing. Waiting for Authoring from F5","07:00","16:00","2","60",
"03.06.10","4","09.00582","758","140","Test","","80","1023: 9x6: Kombi I: Tankabgleich: Modultest+Bugfixing. Testing Job 9x6_FahrzeugTyp_Read and BugFixing Tankabgleich CTS from f5","","","6","0",
"04.06.10","5","100018","46","110","Engineering","","0","Wochenaufgaben PAE. 9x6 Meeting","07:00","16:00","1","60",
"04.06.10","5","09.00582","758","140","Test","","80","1023: 9x6: Kombi I: Tankabgleich: Modultest+Bugfixing. Waiting for Authoring from F5","","","2","0",
"04.06.10","5","09.00582","758","140","Test","","0","1023: 9x6: Kombi I: Tankabgleich: Modultest+Bugfixing. ODX returning a wrong value and testing Script for  BestellTyp not working from F5","","","5","0",
