"22.02.10","1","09.00311","0","110","Engineering","","0","Erarbeitung Verbesserungskonzept ODA Modules. modules interface rework on enter diagnostic mode, display info screen modules, Dtc read, cts start","07:00","16:00","8","60",
"23.02.10","2","00.00065","0","110","Engineering","","0","Erarbeitung Verbesserungskonzept ODA Modules. modules interface rework on enter diagnostic mode, display info screen modules, Dtc read, cts start","07:00","16:00","8","60",
"24.02.10","3","077353","12137","110","Engineering","","0","8501: E1 M5: allg. Projekttätigkeiten A1.15/ae19. Intalling ODX authoring","07:00","16:00","4","60",
"24.02.10","3","077353","12189","110","Engineering","","0","Warten auf Authoring (Performance-Probleme bei Ausführung). Waiting for Getting authoring working, g","","","4","0",
"25.02.10","4","09.00065","355","170","Schulung","","0","Training: ODX Authoring/em949fp1. ODX authoring traing","07:00","16:00","2","60",
"25.02.10","4","09.00852","0","120","Codierung","","0","H4-2 ODX Bedatung ME 5.2 inkl. FAP. 9x6 Kombi conversions for 21 01 service","","","6","0",
"26.02.10","5","09.00582","0","120","Codierung","","0","H4-2 ODX Bedatung ME 5.2 inkl. FAP. 9x6 kombi ODX structures for service 21 01","07:00","16:00","6","60",
"26.02.10","5","09.00065","355","170","Schulung","","0","Training: ODX Authoring/em949fp1. 9x6 kombi ODX structures","","","1","0",
"26.02.10","5","077353","12189","110","Engineering","","0","8185: Warten auf Authoring (Performance-Probleme bei Ausführung). server down","","","1","0",
