"06.09.10","1","09.00582","2473","181","Fehlerbes. vor Ausl. (Bugzilla)","","20","5026: 9x6: Bugfixing: Bedat: BF + Test. Correcting ODX and Jobs. From s44","07:00","16:00","7","60",
"06.09.10","1","09.00582","2473","181","Fehlerbes. vor Ausl. (Bugzilla)","","0","5026: 9x6: Bugfixing: Bedat: BF + Test. Waiting for Authoring","","","1","0",
"07.09.10","2","09.00582","2473","181","Fehlerbes. vor Ausl. (Bugzilla)","","0","5026: 9x6: Bugfixing: Bedat: BF + Test. Worked on PSM LWS Kalib bug. From s44","07:00","16:00","3","60",
"07.09.10","2","09.00582","2164","120","Codierung","","100","3006: 9x6: ME7.2: SG-Typ: Implementierung. Completing CTS","","","3,5","0",
"07.09.10","2","09.00582","2164","120","Codierung","","0","3006: 9x6: ME7.2: SG-Typ: Implementierung. Waiting for Authoring","","","1,5","0",
"08.09.10","3","09.00582","2178","120","Codierung","","0","3026: 9x6: ME7.8/ME7.8min: SG-Typ: Implementierung. Populating the config file with the data. From s53.","07:00","16:00","5,5","60",
"08.09.10","3","09.00582","2178","120","Codierung","","0","3026: 9x6: ME7.8/ME7.8min: SG-Typ: Implementierung. Waiting for Authoring","","","2,5","0",
"09.09.10","4","09.00582","2162","110","Engineering","","100","3006: 9x6: ME7.2: SG-Typ: Testspec + erw. Sim. Making changes to test spec and simulation. From f4","07:00","16:00","6","60",
"09.09.10","4","100018","41","110","Engineering","","0","Wochenaufgaben AES. Porsche dev meeting","","","2","0",
"10.09.10","5","09.00582","2176","110","Engineering","","75","3026: 9x6: ME7.8/ME7.8min: SG-Typ: Testspec + erw. Sim. Working on test spec and simulation. From f4","07:00","16:00","4","60",
"10.09.10","5","09.00582","2543","120","Codierung","","0","3001: 9x6: ME7.2: ODX Bedat + FAP. Working on security access services and job for DMEs. From F2","","","4","0",
"10.09.10","5","09.00582","2178","120","Codierung","","100","3026: 9x6: ME7.8/ME7.8min: SG-Typ: Implementierung. Completed CTS. From s53","","","0","0",
