"01.02.10","1","077353","6170","110","Engineering","","0","	8185: Warten auf Authoring (Performance-Probleme bei Ausführung). 	8185: Warten auf Authoring (Performance-Probleme bei Ausführung)","07:00","16:00","1,5","60",
"01.02.10","1","077251","3503","120","Codierung","","75","From F5: 6007: Kombi Tankgeberkalibrierung: Imp. C3.5/aeB1. Updating the G1 Kombi Tankgeber kalibrieren CTS according to PH changes","","","5,5","0",
"01.02.10","1","077353","2946","110","Engineering","","0","Common project tasks and setting up Pidt. Common project tasks and setting up Pidt","","","1","0",
"02.02.10","2","077353","6170","110","Engineering","","0","8185: Warten auf Authoring (Performance-Probleme bei Ausfuehrung). 8185: Warten auf Authoring (Performance-Probleme bei Ausfuehrung)","07:00","16:00","3,5","60",
"02.02.10","2","077251","3503","110","Engineering","","100","From F5: 6007: Kombi Tankgeberkalibrierung: Imp. C3.5/aeB1. Updating the G1 Kombi Tankgeber kalibrieren CTS according to PH changes","","","2","0",
"02.02.10","2","077353","11587","170","Schulung","","0","	8501: E1 M5: Assisting colleagues. Helping collegue with test spec and simulation creation","","","2,5","0",
"03.02.10","3","077353","2946","110","Engineering","","0","Common project tasks and setting up Pidt & eclipse. Department meeting, setting up Pidt & eclipse","07:00","16:00","3","60",
"03.02.10","3","077353","10549","181","Fehlerbes. vor Ausl. (Bugzilla)","","0","Bug fixing and testing. Working on bug 21497 and 21518","","","5","0",
"04.02.10","4","077353","11587","170","Schulung","","0","Helping collegue with Simulation creation. Helping collegue with Simulation creation","07:00","16:00","2","60",
"04.02.10","4","077353","10549","181","Fehlerbes. vor Ausl. (Bugzilla)","","0","1604: E1 M5: Bugfixing /ae15. Working on bug 21518 and bug 21519","","","5","0",
"04.02.10","4","077353","6170","110","Engineering","","0","8185: Warten auf Authoring (Performance-Probleme bei Ausfuehrung). 8185: Warten auf Authoring (Performance-Probleme bei Ausfuehrung)","","","1","0",
"05.02.10","5","077353","6170","110","Engineering","","0","8185: Warten auf Authoring (Performance-Probleme bei Ausfuehrung). Waiting for response from authoring","07:00","16:00","1,5","60",
"05.02.10","5","077353","10549","181","Fehlerbes. vor Ausl. (Bugzilla)","","0","1604: E1 M5: Bugfixing /ae15. Bug testing and bug-fixing","","","6,5","0",
