"17.05.10","1","100152","8","120","Codierung","","66","1001: E1 PIROL: EDC17: ODX Bedat. Messwerte conversions, structures","07:00","16:00","7","60",
"17.05.10","1","100152","8","120","Codierung","","0","1001: E1 PIROL: EDC17: ODX Bedat. waiting for authoring","","","1","0",
"18.05.10","2","100018","50","110","Engineering","","0","Wochenaufgaben PAE. Meeting","07:00","16:00","1","60",
"18.05.10","2","100152","8","120","Codierung","","68","1001: E1 PIROL: EDC17: ODX Bedat. Messwerte tables","","","2","0",
"18.05.10","2","100152","8","120","Codierung","","0","1001: E1 PIROL: EDC17: ODX Bedat. waiting for authoring","","","1","0",
"18.05.10","2","100152","8","120","Codierung","","68","1001: E1 PIROL: EDC17: ODX Bedat. LangeAnpassung job","","","4","0",
"19.05.10","3","100152","8","120","Codierung","","68","1001: E1 PIROL: EDC17: ODX Bedat. waiting for authoring","07:00","16:00","1","60",
"19.05.10","3","100152","8","120","Codierung","","69","1001: E1 PIROL: EDC17: ODX Bedat. EDC17 ODX messwerte table","","","2","0",
"19.05.10","3","100152","8","120","Codierung","","69","1001: E1 PIROL: EDC17: ODX Bedat. EDC17 ODX messwerte structures","","","1","0",
"19.05.10","3","100152","8","120","Codierung","","69","1001: E1 PIROL: EDC17: ODX Bedat. LangeAnpassung job","","","4","0",
"20.05.10","4","100152","8","120","Codierung","","69","1001: E1 PIROL: EDC17: ODX Bedat. EDC17 ODX EventMoryFault service","07:00","16:00","1","60",
"20.05.10","4","100018","50","120","Codierung","","0","Wochenaufgaben PAE. Meeting","","","0,5","0",
"20.05.10","4","100152","8","120","Codierung","","69","1001: E1 PIROL: EDC17: ODX Bedat. waiting for authoring","","","1","0",
"20.05.10","4","100152","8","120","Codierung","","70","1001: E1 PIROL: EDC17: ODX Bedat. E1 EDC17 Systemanpassung Laufruheregelung job","","","5,5","0",
"21.05.10","5","100152","8","120","Codierung","","70","1001: E1 PIROL: EDC17: ODX Bedat. waiting for authoring","07:00","16:00","1","60",
"21.05.10","5","100152","8","120","Codierung","","70","1001: E1 PIROL: EDC17: ODX Bedat. E1 EDC17 Systemanpassung Laufruheregelung job","","","7","0",
