"13.06.11","1","110117","230","120","Codierung","","100","1002: Seq.: (CR033hz2): MCR-Codierung: Attribut ''Retry'': Impl.. Implementing retry behaviour","07:00","16:00","6","60",
"13.06.11","1","110036","183","170","Schulung","","0","Sequentialisierung von Aktionen /s43-anlrn. Implementing retry behaviour","","","2","0",
"14.06.11","2","110117","228","120","Codierung","","90","1002: Seq.: (CR033hz2): MCR-Codierung: Fehlerbehandlung: Impl.. Implementing error behaviour","07:00","16:00","5","60",
"14.06.11","2","1100036","183","170","Schulung","","0","Sequentialisierung von Aktionen /s43-anlrn. Implementing error behaviour","","","3","0",
"15.06.11","3","110036","183","170","Schulung","","0","Sequentialisierung von Aktionen /s43-anlrn. Implementing error behaviour","07:00","16:00","7","60",
"15.06.11","3","110117","228","120","Codierung","","95","1002: Seq.: (CR033hz2): MCR-Codierung: Fehlerbehandlung: Impl.. Implementing error behaviour","","","1","0",
"16.06.11","4","2011","0","910","Urlaub","","0","16.06.-17.06.2011. Public Holiday","07:00","16:00","8","60",
"17.06.11","5","2011","0","910","Urlaub","","0","16.06.-17.06.2011. Holiday","07:00","16:00","8","60",
