"06.06.11","1","110025","371","170","Schulung","","98","Training. Researched and implemented a filesystemwatcher","07:00","16:00","8","60",
"07.06.11","2","110025","371","170","Schulung","","98","Training. Created classes and data access layer to communicate with database","07:00","16:00","8","60",
"08.06.11","3","110025","371","170","Schulung","","98","Training. Created tables and related stored procedures","07:00","16:00","8","60",
"09.06.11","4","110025","371","170","Schulung","","98","Training. Training on the operation of Tortoise SVN","07:00","16:00","1","60",
"09.06.11","4","110025","371","170","Schulung","","98","Training. Problem solving filesystemwatch bug","","","7","0",
"10.06.11","5","110018","40","101","PM/Mod/Meetings","","92","Wochenaufgaben AES. Timesheets and meeting","07:00","16:00","1,5","60",
"10.06.11","5","110025","371","170","Schulung","","98","Training. Creating forms and related code for bin picking system","","","6,5","0",
