"08.08.11","1","110025","516","170","Schulung","","0","9999: Training: MAN-ODX Get into subject. Working with In2Soft database designer HDS ECU","07:00","16:00","4","60",
"08.08.11","1","09.00790","2816","120","Codierung","","0","2340: P.Autom: R5: P.Lib F5-16/19: VCI API Impl. implemented building blocks for VCI facade","","","4","0",
"09.08.11","2","110023","0","910","Urlaub","","0","Holiday. Public holiday","07:00","16:00","8","60",
"10.08.11","3","09.00790","2816","120","Codierung","","0","2340: P.Autom: R5: P.Lib F5-16/19: VCI API Impl. implemented building blocks for VCI facade","07:00","16:00","8","60",
"11.08.11","4","09.00790","2816","120","Codierung","","0","2340: P.Autom: R5: P.Lib F5-16/19: VCI API Impl. implemented building blocks for VCI facade","07:00","16:00","8","60",
"12.08.11","5","110018","35","101","PM/Mod/Meetings","","0","Wochenaufgaben AES. Meeting and updating timesheets","07:00","16:00","2","60",
"12.08.11","5","09.00790","2816","120","Codierung","","0","2340: P.Autom: R5: P.Lib F5-16/19: VCI API Impl. implemented building blocks for VCI facade","","","6","0",
