"12.09.11","1","110025","562","170","Schulung","","0","9999: Training: MIA Get into subject P.Office. Training in P.Office doing sequences and making simulations for it","07:00","16:00","8","60",
"13.09.11","2","110025","562","170","Schulung","","0","9999: Training: MIA Get into subject P.Office. Training in P.Office doing sequences and testing them","07:00","16:00","8","60",
"14.09.11","3","110025","562","170","Schulung","","0","9999: Training: MIA Get into subject P.Office. Going through MIA documentation and doing sequences","07:00","16:00","8","60",
"15.09.11","4","110023","0","920","Krankheit","","0","Sick Leave. Sick Leave","07:00","16:00","8","60",
"16.09.11","5","110018","39","101","PM/Mod/Meetings","","0","Wochenaufgaben AES. Meetings and Timesheets","07:00","16:00","2","60",
"16.09.11","5","110025","562","170","Schulung","","0","9999: Training: MIA Get into subject P.Office. Training in P.Office doing sequences and testing them","","","6","0",
