"18.07.11","1","110117","203","104","Test-Spezifikation","","100","1001: Kodierung o. Lesedienst (CR033hz3): Testspec. Creating Test Spec","07:00","16:00","1","60",
"18.07.11","1","110117","360","181","Fehlerbes. vor Ausl. (Bugzilla)","","0","1002: Seq.: (CR033hz2): Bugfixing Puffer. Bugfixing: 30681","","","7","0",
"19.07.11","2","110117","360","180","Fehlerbes. nach Auslieferung (SA)","","0","1002: Seq.: (CR033hz2): Bugfixing Puffer. Bug: 30680","07:00","16:00","4","60",
"19.07.11","2","110117","360","181","Fehlerbes. vor Ausl. (Bugzilla)","","0","1002: Seq.: (CR033hz2): Bugfixing Puffer. Bugfixing","","","4","0",
"20.07.11","3","110117","361","101","PM/Mod/Meetings","","0","8501: weekly telephone conference. Weekly telco","07:00","16:00","1","60",
"20.07.11","3","110117","360","181","Fehlerbes. vor Ausl. (Bugzilla)","","0","1002: Seq.: (CR033hz2): Bugfixing Puffer. Bugfixing","","","7","0",
"21.07.11","4","110117","360","181","Fehlerbes. vor Ausl. (Bugzilla)","","0","1002: Seq.: (CR033hz2): Bugfixing Puffer. Bugfixing: 30887","07:00","16:00","8","60",
"22.07.11","5","110117","360","181","Fehlerbes. vor Ausl. (Bugzilla)","","0","1002: Seq.: (CR033hz2): Bugfixing Puffer. Bugfixing","07:00","16:00","8","60",
