"14.03.11","1","110025","187","170","Schulung","","0","Training: PTTD. Setting up PRODIS.Automation and investigating it.","07:00","16:00","8","60",
"15.03.11","2","100334","1125","181","Fehlerbes. vor Ausl. (Bugzilla)","","0","1026: Alt-BR: Bugfixing: Bedat. Fixing bug 28782 and checking bug 28783. Additional testing on bug 28680.","07:00","16:00","8","60",
"16.03.11","3","100334","1125","181","Fehlerbes. vor Ausl. (Bugzilla)","","0","1026: Alt-BR: Bugfixing: Bedat. Completing bug 28782","07:00","16:00","4","60",
"16.03.11","3","100334","882","120","Codierung","","0","2080: Alt-BR: Job ID lesen: Implementierung. (from s47) - Creating .jar to patch comm param ResponseSeparator","","","4","0",
"17.03.11","4","100334","893","140","Test","","100","3001: Alt-BR: Motronic: ODX Test. (task already closed) Filling in test specs and testlink testspecs. Retesting DME ODX.","07:00","16:00","8","60",
"18.03.11","5","100334","893","140","Test","","100","3001: Alt-BR: Motronic: ODX Test. (task already closed) Filling in test specs and testlink testspecs. Retesting DME ODX.","07:00","16:00","4","60",
"18.03.11","5","110025","187","170","Schulung","","0","Training: PTTD. working with PRODIS.Automation to get familiarised with it","","","4","0",
