"16.05.11","1","110025","369","170","Schulung","","0","Training. Creating test cases and importing them into testlink and importing results.","07:00","16:00","8","60",
"17.05.11","2","110025","369","170","Schulung","","0","Training. Improving comments and integrating all the test cases into a test suite for CSF functions","07:00","16:00","8","60",
"18.05.11","3","110023","0","910","Urlaub","","0","Holiday. Voting Day","07:00","16:00","8","60",
"19.05.11","4","110025","369","170","Schulung","","0","Training. Helping s60 with simulations and Junit testing implementation.","07:00","16:00","8","60",
"20.05.11","5","110025","369","170","Schulung","","0","Training. Creating library elements in PRODIS.Automation for DTObj functions","07:00","16:00","6","60",
"20.05.11","5","110018","37","101","PM/Mod/Meetings","","0","Wochenaufgaben AES. Daily morning meetings and filling in timesheets","","","2","0",
