"18.07.11","1","110025","403","170","Schulung","","0","Training: P.Automation. Training release monitor, include files, scripts and BB's","07:00","16:00","8","60",
"19.07.11","2","110025","403","170","Schulung","","0","Training: P.Automation. Reading the Java Handbook and doing Java exercises brushing up on Java knowledge and skills","07:00","16:00","8","60",
"20.07.11","3","110018","39","101","PM/Mod/Meetings","","0","Wochenaufgaben AES. Tel Meeting discussing MAN work","07:00","16:00","2","60",
"20.07.11","3","110025","403","170","Schulung","","0","Training: P.Automation. Reading MAN documentation","","","6","0",
"21.07.11","4","110025","403","170","Schulung","","0","Training: P.Automation. Learning to use In2Soft Database Designer, setting up SVN, remote PC, etc","07:00","16:00","8","60",
"22.07.11","5","09.00790","2776","140","Test","","100","2240: P.Autom: R4: P.Lib F5-24: XML IO Test. Closing task","07:00","16:00","0","60",
"22.07.11","5","110018","39","101","PM/Mod/Meetings","","0","Wochenaufgaben AES. Meetings and Timesheets","","","2","0",
"22.07.11","5","110025","403","170","Schulung","","0","Training: P.Automation. Working with In2Soft Database Designer","","","6","0",
