"21.11.11","1","110618","98","120","Codierung","","0","FISKER:VCM-KEY Impl. C3.2/pa10	. Implementing FISKER VCM-KEY CTS","07:00","16:00","4","60",
"21.11.11","1","110025","391","170","Schulung","","0","Training: P.Automation. Training","","","4","0",
"22.11.11","2","110025","391","170","Schulung","","0","Training: P.Automation. Training","07:00","16:00","8","60",
"23.11.11","3","110025","391","170","Schulung","","0","Training: P.Automation. Training","07:00","16:00","5","60",
"23.11.11","3","110618","98","120","Codierung","","0","FISKER:VCM-KEY Impl. C3.2/pa10. Implementing FISKER VCM-KEY CTS","","","3","0",
"24.11.11","4","110025","391","170","Schulung","","0","Training: P.Automation. Training","07:00","16:00","5","60",
"24.11.11","4","110618","98","120","Codierung","","0","FISKER:VCM-KEY Impl. C3.2/pa10. Implementing FISKER VCM-KEY CTS","","","3","0",
"25.11.11","5","110618","98","120","Codierung","","0","FISKER:VCM-KEY Impl. C3.2/pa10. Implementing FISKER VCM-KEY CTS","07:00","16:00","1,5","60",
"25.11.11","5","110025","391","170","Schulung","","0","Training: P.Automation. Training","","","4","0",
"25.11.11","5","110018","32","101","PM/Mod/Meetings","","0","Wochenaufgaben AES. Department Meeting and Doing Timesheets","","","2,5","0",
