DATE;NAME;START;END;LUNCH;1;2;3;4;5;6;7;8;9;10;11;12;13;14;15;16;17;18;19;20;21;22;23;24;
01.03.11;Brendan van Zyl;07:00:00;16:00:00;60;100334-912;100334-912;100334-912;100334-912;100334-915;100334-915;100334-915;100334-916;
01.03.11;Mario Jansen van Vuuren;08:00:00;16:30:00;30;0-0;0-0;0-0;0-0;0-0;0-0;0-0;0-0;
01.03.11;Nico Claassen;07:00:00;16:00:00;60;100334-1079;100334-1079;100334-1079 / 100334-914;100334-914;100334-914 / 100334-904;100334-904;110018-27;110018-27;
01.03.11;Malcolm Vorster;07:00:00;16:00:00;60;100023-0;100023-0;100023-0;100023-0;100023-0;100023-0;100023-0;100023-0;
01.03.11;Graham Meyer;08:00:00;16:30:00;30;110036-0;110036-0;110036-0;110036-0;110036-0;110036-0;110036-0;110036-0;
01.03.11;Thando Katywa;08:00:00;16:30:00;30;110036-0;110036-0;110036-0;110036-0;110036-0;110036-0;110036-0;110036-0;
01.03.11;Ludumo Sankobe;07:00:00;16:00:00;60;100334-1352;100334-1352;100334-1352;100334-1352;100334-1352;100334-1352;100334-1352;100334-1352;
01.03.11;Paul Helliwell;07:00:00;16:00:00;60;100334-1080;100334-1080;100334-1080;100334-1080;100334-1080;100334-1080;100334-1080;100334-1080;
01.03.11;Ntombenkosi Maldaki;07:00:00;16:00:00;60;100334-896;100334-896;100334-896;100334-896;100334-896;100334-896;100334-896;100334-1035 / 100334-1040;
01.03.11;Mark Britten;07:00:00;16:00:00;60;100334-1006;100334-1006;100334-1006;100334-1006;100334-1006;100334-1006;100334-1006;100334-1006;
01.03.11;Wesley Saunders;07:00:00;16:00:00;60;100334-894;100334-894;100334-894;100334-894;100334-894;100334-894;100334-894;100334-894;
01.03.11;Francois Sayster;07:00:00;16:00:00;60;100334-1194;100334-1194;100334-1194;100334-1044;100334-1044 / 100334-1078;100334-1131;100334-1078;100334-1078;
01.03.11;Odwa Dyantyi;
01.03.11;Sesetu Mtukulu;07:00:00;16:00:00;60;100334-1134;100334-1134;100334-1134;100334-1134;100334-1133;100334-1133;100334-1133;100334-1133;
02.03.11;Brendan van Zyl;07:00:00;16:00:00;60;100334-912;100334-912 / 100334-916;100334-916;100334-916;100334-916;100334-984;100334-984;100334-984;
02.03.11;Mario Jansen van Vuuren;08:00:00;16:30:00;30;0-0;0-0;0-0;0-0;0-0;0-0;0-0;0-0;
02.03.11;Nico Claassen;07:00:00;16:00:00;60;100334-899;100334-899;100334-899;100334-939;100334-939;100334-939;100334-939;100334-909;
02.03.11;Malcolm Vorster;07:00:00;16:00:00;60;100023-0;100023-0;100023-0;100023-0;100023-0;100023-0;100023-0;100023-0;
02.03.11;Graham Meyer;07:00:00;16:00:00;60;110036-0;110036-0;110036-0;110036-0;110036-0;110036-0;110036-0;110036-0;
02.03.11;Thando Katywa;08:00:00;16:30:00;30;110036-0;110036-0;110036-0;110036-0;110036-0;110036-0;110036-0;110036-0;
02.03.11;Ludumo Sankobe;07:00:00;16:00:00;60;100334-1352;100334-1352;100334-1352;100334-1352;100334-1352;100334-1352;100334-1352;100334-1352;
02.03.11;Paul Helliwell;07:00:00;16:00:00;60;100334-902;100334-902;100334-902;100334-902;100334-950;100334-950;100334-950;100334-950;
02.03.11;Ntombenkosi Maldaki;07:00:00;16:00:00;60;100334-896;100334-896;100334-896;100334-896;100334-896;100334-896;100334-896;100334-896;
02.03.11;Mark Britten;07:00:00;16:00:00;60;100334-1006;100334-1006;100334-1006;100334-1006;100334-1006;100334-1006;100334-1006;100334-1006;
02.03.11;Wesley Saunders;07:00:00;16:00:00;60;100334-894;100334-894;100334-894;100334-894;100334-894;100334-894;100334-894;100334-894;
02.03.11;Francois Sayster;07:00:00;16:00:00;60;100334-1004;100334-1004;100334-1004;100334-1004;100334-1004;100334-1004;100334-1004;100334-1004;
02.03.11;Odwa Dyantyi;07:00:00;16:00:00;60;100023-0;100023-0;100023-0;100023-0;100023-0;100023-0;100023-0;100023-0;
02.03.11;Sesetu Mtukulu;07:00:00;16:00:00;60;100334-898;100334-898;100334-898;100334-898;100334-898;100334-898;100334-898;100334-898;
03.03.11;Brendan van Zyl;07:00:00;16:00:00;60;110018-24 / 100334-984;100334-984;100334-984;100334-984;100334-984 / 100334-1111;100334-1111;100334-1111;100334-1111;
03.03.11;Mario Jansen van Vuuren;08:00:00;16:30:00;30;0-0;0-0;0-0;0-0;0-0;0-0;0-0;0-0;
03.03.11;Nico Claassen;07:00:00;16:00:00;60;100025-0;100025-0;100025-0;100025-0;100025-0;100025-0;100025-0;100025-0;
03.03.11;Malcolm Vorster;07:00:00;16:00:00;60;100023-0;100023-0;100023-0;100023-0;100023-0;100023-0;100023-0;100023-0;
03.03.11;Graham Meyer;08:00:00;16:30:00;30;110036-0;110036-0;110036-0;110036-0;110036-0;110036-0;110036-0;110036-0;
03.03.11;Thando Katywa;08:00:00;16:30:00;30;110036-0;110036-0;110036-0;110036-0;110036-0;110036-0;110036-0;110036-0;
03.03.11;Ludumo Sankobe;07:00:00;16:00:00;60;100334-1352;100334-1352;100334-1352;100334-1352;100334-1352;100334-1352;100334-1352;100334-1352;
03.03.11;Paul Helliwell;07:00:00;16:00:00;60;110018-33;110018-33;110018-33;110018-33;100334-1084;100334-1084;100334-1084;100334-1084;
03.03.11;Ntombenkosi Maldaki;07:00:00;16:00:00;60;100023-0;100023-0;100023-0;100023-0;100023-0;100023-0;100023-0;100023-0;
03.03.11;Mark Britten;07:00:00;16:00:00;60;100334-1006;100334-1006;100334-1006;100334-1006;100334-1006;100334-1006;100334-1006;100334-1006;
03.03.11;Wesley Saunders;07:00:00;16:00:00;60;100023-0;100023-0;100023-0;100023-0;100023-0;100023-0;100023-0;100023-0;
03.03.11;Francois Sayster;07:00:00;16:00:00;60;100334-1078;100334-1078;100334-1078;100334-1131;100334-1131;100334-1131;100334-1131;100334-1131;
03.03.11;Odwa Dyantyi;07:00:00;16:00:00;60;100023-0;100023-0;100023-0;100023-0;100023-0;100023-0;100023-0;100023-0;
03.03.11;Sesetu Mtukulu;07:00:00;16:00:00;60;100334-898;100334-898;100334-898;100334-898;100334-898;100334-898;100334-1001;100334-1001;
04.03.11;Brendan van Zyl;07:00:00;16:00:00;60;110018-24;110018-24 / 100334-1111;100334-1111;100334-1111;100334-1111;100334-1111;100334-1111;100334-1111;
04.03.11;Mario Jansen van Vuuren;
04.03.11;Nico Claassen;07:00:00;16:00:00;60;100334-899;100334-1079;110018-27;110018-27;110018-26;100025-0;100025-0;100025-0;
04.03.11;Malcolm Vorster;07:00:00;16:00:00;60;100023-0;100023-0;100023-0;100023-0;100023-0;100023-0;100023-0;100023-0;
04.03.11;Graham Meyer;08:00:00;16:30:00;30;110036-0;110036-0;110036-0;110036-0;110036-0;110036-0;110036-0;110036-0;
04.03.11;Thando Katywa;08:00:00;16:30:00;30;110036-0;110036-0;110036-0;110036-0;110036-0;110036-0;110036-0;110036-0;
04.03.11;Ludumo Sankobe;07:00:00;16:00:00;60;100334-1352;100334-1352;100334-1352;100334-1352;100334-1352;100334-1352;100334-1352;100334-1352;
04.03.11;Paul Helliwell;07:00:00;16:00:00;60;100025-0;100025-0;100025-0;100025-0;100025-0;100025-0;100025-0;100025-0;
04.03.11;Ntombenkosi Maldaki;07:00:00;16:00:00;60;100334-896;100334-896;100334-896;100334-896;100334-896;100334-896;100334-896;110018-35;
04.03.11;Mark Britten;07:00:00;16:00:00;60;110018-37;110018-37 / 100334-1085;100334-1085;100334-1085;100334-1085;100334-1085;100334-1085;100334-1085;
04.03.11;Wesley Saunders;07:00:00;16:00:00;60;100334-894;100334-894;100334-894;100334-894;100334-894;100334-894;100334-894 / 110018-39;110018-39;
04.03.11;Francois Sayster;07:00:00;16:00:00;60;110018-40;110018-40 / 100334-1002;100334-1002 / 100334-1004;100334-1004;100334-1004;100334-1004 / 100334-1194;100334-1194;100334-1194;
04.03.11;Odwa Dyantyi;07:00:00;16:00:00;60;100023-0;100023-0;100023-0;100023-0;100023-0;100023-0;100023-0;100023-0;
04.03.11;Sesetu Mtukulu;07:00:00;16:00:00;60;100334-1001;100334-1001;100334-1001;100334-1001;100334-1001;100334-1001;100334-1001;100334-1001;
05.03.11;Brendan van Zyl;
05.03.11;Mario Jansen van Vuuren;08:00:00;16:30:00;30;
05.03.11;Nico Claassen;
05.03.11;Malcolm Vorster;
05.03.11;Graham Meyer;
05.03.11;Thando Katywa;
05.03.11;Ludumo Sankobe;
05.03.11;Paul Helliwell;
05.03.11;Ntombenkosi Maldaki;
05.03.11;Mark Britten;
05.03.11;Wesley Saunders;
05.03.11;Francois Sayster;
05.03.11;Odwa Dyantyi;07:00:00;16:00:00;60;
05.03.11;Sesetu Mtukulu;
06.03.11;Brendan van Zyl;
06.03.11;Mario Jansen van Vuuren;
06.03.11;Nico Claassen;
06.03.11;Malcolm Vorster;
06.03.11;Graham Meyer;
06.03.11;Thando Katywa;
06.03.11;Ludumo Sankobe;
06.03.11;Paul Helliwell;
06.03.11;Ntombenkosi Maldaki;
06.03.11;Mark Britten;
06.03.11;Wesley Saunders;
06.03.11;Francois Sayster;
06.03.11;Odwa Dyantyi;07:00:00;16:00:00;60;
06.03.11;Sesetu Mtukulu;07:00:00;16:00:00;60;100334-1338;100334-1338;100334-1338;100334-1338;100334-1338;100334-1338;100334-1338;100334-1338;
07.03.11;Brendan van Zyl;07:00:00;16:00:00;60;100334-1111;100334-1111;100334-1111;100334-1111;100334-1111;100334-1111;100334-1111;100334-1111;
07.03.11;Mario Jansen van Vuuren;08:00:00;16:30:00;30;100023-91;100023-91;100023-91;100023-91;100023-91;100023-91;100023-91;100023-91;
07.03.11;Nico Claassen;07:00:00;16:00:00;60;110025-363;110025-363;110025-363;110025-363;110025-363;110025-363;110025-363;110025-363;
07.03.11;Malcolm Vorster;07:00:00;16:00:00;60;110018-29;110018-29;100334-1048;100334-1048;100334-1049;100334-1049;100334-1049;100334-1049;
07.03.11;Graham Meyer;07:00:00;16:00:00;60;100023-0;100023-0;100023-0;100023-0;100023-0;100023-0;100023-0;100023-0;
07.03.11;Thando Katywa;08:00:00;16:30:00;30;100023-0;100023-0;100023-0;100023-0;100023-0;100023-0;100023-0;100023-0;
07.03.11;Ludumo Sankobe;07:00:00;16:00:00;60;100334-1083;100334-1083;100334-1083;100334-1083;100334-1083;100334-1083;100334-1083;100334-1083;
07.03.11;Paul Helliwell;07:00:00;16:00:00;60;100334-1084;100334-1084;100334-1084;100334-1084;100334-1084;100334-1084;100334-1084;100334-1084;
07.03.11;Ntombenkosi Maldaki;07:00:00;16:00:00;60;100334-1367;100334-1367;100334-1367;100334-1367;100334-1367;100334-1367;100334-1367;100334-1367;
07.03.11;Mark Britten;07:00:00;16:00:00;60;110025-0;110025-0;110025-0;110025-0;110025-0;110025-0;110025-0;110025-0;
07.03.11;Wesley Saunders;07:00:00;16:00:00;60;100334-1369;100334-1369;100334-1369;100334-1369;100334-1369;100334-1369;100334-1369;100334-1369;
07.03.11;Francois Sayster;07:00:00;16:00:00;60;100334-1004;100334-1004;100334-1004;100334-1004;100334-1004;100334-1004;100334-1194;100334-1194;
07.03.11;Odwa Dyantyi;07:00:00;16:00:00;60;100023-0;100023-0;100023-0;100023-0;100023-0;100023-0;100023-0;100023-0;
07.03.11;Sesetu Mtukulu;07:00:00;16:00:00;60;100334-1338;100334-1338;100334-1338;100334-1338;100334-1338;100334-1338;100334-1338;100334-1338;
08.03.11;Brendan van Zyl;07:00:00;16:00:00;60;100334-1111;100334-1111;100334-1111;100334-1111;100334-1111;100334-1111;100334-1111;100334-1111;
08.03.11;Mario Jansen van Vuuren;08:00:00;16:30:00;30;110036-91;110036-91;110036-91;110036-91;110036-91;110036-91;110036-91;110036-91;
08.03.11;Nico Claassen;07:00:00;16:00:00;60;110025-363;110025-363;110025-363;110025-363;110025-363;110025-363;110025-363;110025-363;
08.03.11;Malcolm Vorster;07:00:00;16:00:00;60;110018-29;110018-29;100334-894;100334-894;100334-894;100334-894;100334-1049;100334-1049;
08.03.11;Graham Meyer;08:00:00;16:30:00;30;110036-89;110036-89;110036-89;110036-89;110036-89;110036-89;110036-89;110036-89;
08.03.11;Thando Katywa;08:00:00;16:30:00;30;110036-0;110036-0;110036-0;110036-0;110036-0;110036-0;110036-0;110036-0;
08.03.11;Ludumo Sankobe;07:00:00;16:00:00;60;100334-1086;100334-1086;100334-1086;100334-1086;100334-1086;100334-1086;100334-1086;100334-1086;
08.03.11;Paul Helliwell;07:00:00;16:00:00;60;110025-0;110025-0;110025-0;110025-0;110025-0;110025-0;110025-0;110025-0;
08.03.11;Ntombenkosi Maldaki;07:00:00;16:00:00;60;100334-1367;100334-1367;100334-1367;100334-1367;100334-1367;100334-1367;100334-1367;100334-1367;
08.03.11;Mark Britten;07:00:00;16:00:00;60;100334-1081;100334-1081;100334-1081;100334-1081;100334-1055;100334-1055;100334-1055;100334-1055;
08.03.11;Wesley Saunders;07:00:00;16:00:00;60;100334-1369;100334-1369;100334-1369;100334-1369;100334-1369;100334-1369;100334-1369;100334-1369;
08.03.11;Francois Sayster;07:00:00;16:00:00;60;100334-1004;100334-1004;100334-1004;100334-1004;100334-1194;100334-1194;100334-1194;100334-1194;
08.03.11;Odwa Dyantyi;07:00:00;16:00:00;60;100023-0;100023-0;100023-0;100023-0;100023-0;100023-0;100023-0;100023-0;
08.03.11;Sesetu Mtukulu;07:00:00;16:00:00;60;100334-1081;100334-1081;100334-1081;100334-1081;100334-1081;100334-1081;100334-1081;100334-1081;
09.03.11;Brendan van Zyl;07:00:00;16:00:00;60;100334-1111;100334-1111;100334-1111;100334-1111;100334-1111;100334-1111;100334-1111;100334-1111;
09.03.11;Mario Jansen van Vuuren;08:00:00;16:30:00;30;110036-91;110036-91;110036-91;110036-91;110036-91;110036-91;110036-91;110036-91;
09.03.11;Nico Claassen;07:00:00;16:00:00;60;110018-28;110018-28;110018-28;110018-28;110025-363;110025-363;110025-363;110025-363;
09.03.11;Malcolm Vorster;07:00:00;16:00:00;60;100334-1050;100334-1050;110025-0;110025-0;110025-0;110025-0;100334-1048;100334-1048;
09.03.11;Graham Meyer;08:00:00;16:30:00;30;110036-89;110036-89;110036-89;110036-89;110036-89;110036-89;110036-89;110036-89;
09.03.11;Thando Katywa;08:00:00;16:30:00;30;110036-0;110036-0;110036-0;110036-0;110036-0;110036-0;110036-0;110036-0;
09.03.11;Ludumo Sankobe;07:00:00;16:00:00;60;100334-1086;100334-1086;100334-1086;100334-1086;100334-1086;100334-1086;100334-1086;100334-1086;
09.03.11;Paul Helliwell;07:00:00;16:00:00;60;100334-1084;100334-1084;100334-1084;100334-1084;100334-1084;100334-1084;100334-1084;100334-1084;
09.03.11;Ntombenkosi Maldaki;07:00:00;16:00:00;60;100334-1367;100334-1367;100334-1367;100334-1367;100334-1367;100334-1367;100334-1367;100334-1367;
09.03.11;Mark Britten;07:00:00;16:00:00;60;100334-901;100334-901;100334-901;100334-901;100334-1081;100334-1081;100334-1081;100334-1081;
09.03.11;Wesley Saunders;07:00:00;16:00:00;60;100334-1369;100334-1369;100334-1369;100334-1369;100334-1369;100334-1369;100334-1369;100334-1369;
09.03.11;Francois Sayster;07:00:00;16:00:00;60;100334-894;100334-894;100334-894;100334-894;100334-894;100334-894;100334-894 / 100334-1324;100334-1324;
09.03.11;Odwa Dyantyi;07:00:00;16:00:00;60;100023-0;100023-0;100023-0;100023-0;100023-0;100023-0;100023-0;100023-0;
09.03.11;Sesetu Mtukulu;07:00:00;16:00:00;60;100334-1081;100334-1081;100334-1081;100334-1081;100334-1081;100334-1081;100334-1081;100334-1081;
10.03.11;Brendan van Zyl;07:00:00;16:00:00;60;100334-1111;100334-1111;100334-1111;100334-1111;100334-1363;100334-1363;100334-1363;100334-1363;
10.03.11;Mario Jansen van Vuuren;08:00:00;16:30:00;30;110036-91;110036-91;110036-91;110036-91;110036-91;110036-91;110036-91;110036-91;
10.03.11;Nico Claassen;07:00:00;16:00:00;60;110025-363;110025-363;110025-363;110025-363;110025-363;110025-363;110025-363;110025-363 / 100334-52;
10.03.11;Malcolm Vorster;07:00:00;16:00:00;60;110025-0;110025-0;110025-0;110025-0;110025-0;110025-0;110025-0;110025-0;
10.03.11;Graham Meyer;08:00:00;16:30:00;30;110036-89;110036-89;110036-89;110036-89;110036-89;110036-89;110036-89;110036-89;
10.03.11;Thando Katywa;08:00:00;16:30:00;30;110036-0;110036-0;110036-0;110036-0;110036-0;110036-0;110036-0;110036-0;
10.03.11;Ludumo Sankobe;07:00:00;16:00:00;60;100334-1086;100334-1086;100334-1086;100334-1086;100334-1086;100334-1086;100334-1086;100334-1086;
10.03.11;Paul Helliwell;07:00:00;16:00:00;60;100334-941;100334-941;100334-941;100334-941;100334-941;110018-33;100334-33;100334-33;
10.03.11;Ntombenkosi Maldaki;07:00:00;16:00:00;60;100334-1367;100334-1367;100334-1367;100334-1367;100334-1367;100334-1367;100334-1367;100334-1367;
10.03.11;Mark Britten;07:00:00;16:00:00;60;100334-901;100334-901;100334-901;100334-901;100334-901;100334-901;100334-901;100334-901;
10.03.11;Wesley Saunders;07:00:00;16:00:00;60;100334-1369;100334-1369;100334-1369;100334-1369;100334-1369;100334-1369;100334-1369;100334-1369;
10.03.11;Francois Sayster;07:00:00;16:00:00;60;100334-894;100334-894;100334-894;100334-894;100334-894;100334-894;100334-894;100334-894;
10.03.11;Odwa Dyantyi;07:00:00;16:00:00;60;100023-0;100023-0;100023-0;100023-0;100023-0;100023-0;100023-0;100023-0;
10.03.11;Sesetu Mtukulu;07:00:00;16:00:00;60;100334-1081;100334-1081;100334-1081;100334-1081;100334-1081;100334-1081;100334-1081;100334-1081;
11.03.11;Brendan van Zyl;07:00:00;16:00:00;60;100334-990;100334-990;100334-990 / 100334-1362;100334-1362;100334-1362;100334-1362;110018-24;110018-24 / 100023-0;
11.03.11;Mario Jansen van Vuuren;08:00:00;16:30:00;30;110036-91;110036-91;110036-91;110036-91;110036-91;110036-91;110036-91;110036-91;
11.03.11;Nico Claassen;07:00:00;16:00:00;60;110018-28;110018-28;110025-363;110025-363;110025-363;110025-363;110025-363;110018-26;
11.03.11;Malcolm Vorster;07:00:00;16:00:00;60;110018-29;110018-29;110025-0;110025-0;110025-0;110025-0;110025-0;110025-0;
11.03.11;Graham Meyer;08:00:00;16:30:00;30;110036-89;110036-89;110036-89;110036-89;110036-89;110036-89;110036-89;110036-89;
11.03.11;Thando Katywa;08:00:00;16:30:00;30;110036-0;110036-0;110036-0;110036-0;110036-0;110036-0;110036-0;110036-0;
11.03.11;Ludumo Sankobe;07:00:00;16:00:00;60;110025-0;110025-0;110025-0;110025-0;110025-0;110025-0;110025-0;110025-0;
11.03.11;Paul Helliwell;07:00:00;16:00:00;60;100334-1005;100334-1005;100334-1005;100334-1005;100334-941;100334-941;100334-941;110018-34 / 110018-34;
11.03.11;Ntombenkosi Maldaki;07:00:00;16:00:00;60;110018-35;110018-35 / 100334-948;100334-948;100334-948 / 100334-947;100334-947;100334-891;100334-891 / 100334-1367;100334-1367;
11.03.11;Mark Britten;07:00:00;16:00:00;60;100334-901;100334-901;100334-901;100334-901;100334-987;100334-987;100334-987;100334-987;
11.03.11;Wesley Saunders;07:00:00;16:00:00;60;100334-1369;100334-1369;110018-39;110018-39;110018-39;110018-39;110018-39;110018-39;
11.03.11;Francois Sayster;07:00:00;16:00:00;60;110018-40;110018-40 / 110018-40;110018-40;110018-40;110018-40;110018-40;110018-40;110018-40;
11.03.11;Odwa Dyantyi;07:00:00;16:00:00;60;100023-0;100023-0;100023-0;100023-0;100023-0;100023-0;100023-0;100023-0;
11.03.11;Sesetu Mtukulu;07:00:00;16:00:00;60;100334-911;100334-911;100334-911;100334-911;100334-911;100334-911;100334-911;100334-911;
12.03.11;Brendan van Zyl;
12.03.11;Mario Jansen van Vuuren;
12.03.11;Nico Claassen;
12.03.11;Malcolm Vorster;
12.03.11;Graham Meyer;
12.03.11;Thando Katywa;
12.03.11;Ludumo Sankobe;
12.03.11;Paul Helliwell;
12.03.11;Ntombenkosi Maldaki;
12.03.11;Mark Britten;
12.03.11;Wesley Saunders;
12.03.11;Francois Sayster;07:00:00;16:00:00;60;100334-894;100334-894;100334-894;100334-894;100334-894;100334-894;100334-894;100334-894;
12.03.11;Odwa Dyantyi;
12.03.11;Sesetu Mtukulu;
13.03.11;Brendan van Zyl;
13.03.11;Mario Jansen van Vuuren;
13.03.11;Nico Claassen;
13.03.11;Malcolm Vorster;
13.03.11;Graham Meyer;
13.03.11;Thando Katywa;
13.03.11;Ludumo Sankobe;
13.03.11;Paul Helliwell;
13.03.11;Ntombenkosi Maldaki;
13.03.11;Mark Britten;
13.03.11;Wesley Saunders;
13.03.11;Francois Sayster;
13.03.11;Odwa Dyantyi;
13.03.11;Sesetu Mtukulu;
14.03.11;Brendan van Zyl;07:00:00;16:00:00;60;100334-1108;100334-1108;100334-1108;100334-1108;100334-1108;100334-1108;100334-1108;100334-1108;
14.03.11;Mario Jansen van Vuuren;08:00:00;16:30:00;30;110036-91;110036-91;110036-91;110036-91;110036-91;110036-91;110036-91;110036-91;
14.03.11;Nico Claassen;07:00:00;16:00:00;60;110025-363;110025-363;110025-363;110025-363;110025-363;110025-363;110025-363;110025-363;
14.03.11;Malcolm Vorster;07:00:00;16:00:00;60;110025-367;110025-367;110025-367;110025-367;110025-367;110025-367;110025-367;110025-367;
14.03.11;Graham Meyer;08:00:00;16:30:00;30;110036-89;110036-89;110036-89;110036-89;110036-89;110036-89;110036-89;110036-89;
14.03.11;Thando Katywa;08:00:00;16:30:00;30;110036-90;110036-90;110036-90;110036-90;110036-90;110036-90;110036-90;110036-90;
14.03.11;Ludumo Sankobe;07:00:00;16:00:00;60;110025-375;110025-375;110025-375;110025-375;110025-375;110025-375;110025-375;110025-375;
14.03.11;Paul Helliwell;07:00:00;16:00:00;60;100334-941;100334-941;100334-941;100334-941;100334-941;100334-941;100334-941;100334-941;
14.03.11;Ntombenkosi Maldaki;07:00:00;16:00:00;60;100334-1123;100334-1123;100334-1123;100334-1123;110025-186;110025-186;110025-186;110025-186;
14.03.11;Mark Britten;07:00:00;16:00:00;60;100334-987;100334-987;100334-987;100334-987;100334-987;100334-987;100334-987;100334-987;
14.03.11;Wesley Saunders;07:00:00;16:00:00;60;110025-187;110025-187;110025-187;110025-187;110025-187;110025-187;110025-187;110025-187;
14.03.11;Francois Sayster;07:00:00;16:00:00;60;100334-894;100334-894;100334-894;100334-894;100334-894;100334-894;100334-894;100334-894;
14.03.11;Odwa Dyantyi;07:00:00;16:00:00;60;100023-0;100023-0;100023-0;100023-0;100023-0;100023-0;100023-0;100023-0;
14.03.11;Sesetu Mtukulu;07:00:00;16:00:00;60;110034-911;110034-911;110034-911;110034-911;110034-911;110034-911;110034-911;110034-911;
15.03.11;Brendan van Zyl;07:00:00;16:00:00;60;100334-1119;100334-1119;100334-1119;100334-1108;100334-1108;100334-1108;100334-1108;100334-1108;
15.03.11;Mario Jansen van Vuuren;08:00:00;16:30:00;30;110036-91;110036-91;110036-91;110036-91;110036-91;110036-91;110036-91;110036-91;
15.03.11;Nico Claassen;07:00:00;16:00:00;60;110025-363;110025-363;110025-363;110025-363;110025-363;110025-363;110025-363;110025-363;
15.03.11;Malcolm Vorster;07:00:00;16:00:00;60;110018-29;110025-367;110025-367;110025-367;110025-367;110025-367;110025-367;110025-367;
15.03.11;Graham Meyer;08:00:00;16:30:00;30;110036-89;110036-89;110036-89;110036-89;110036-89;110036-89;110036-89 / 110036-89;110036-89;
15.03.11;Thando Katywa;08:00:00;16:30:00;30;110036-90;110036-90;110036-90;110036-90;110036-90;110036-90;110036-90;110036-90;
15.03.11;Ludumo Sankobe;07:00:00;16:00:00;60;110025-375;110025-375;110025-375;110025-375;110025-375;110025-375;110025-375;110025-375;
15.03.11;Paul Helliwell;07:00:00;16:00:00;60;100334-941;100334-941;100334-941;100334-941;100334-941;100334-941;100334-941;100334-941;
15.03.11;Ntombenkosi Maldaki;07:00:00;16:00:00;60;100334-981;100334-981;100334-981;100334-1123;100334-1123;100334-1123;110025-186;110025-186;
15.03.11;Mark Britten;07:00:00;16:00:00;60;100334-987;100334-987;100334-987;100334-987;100334-987;100334-987;100334-987;100334-987;
15.03.11;Wesley Saunders;07:00:00;16:00:00;60;100334-1125;100334-1125;100334-1125;100334-1125;100334-1125;100334-1125;100334-1125;100334-1125;
15.03.11;Francois Sayster;07:00:00;16:00:00;60;100334-894;100334-894;100334-894;100334-894;100334-894;100334-894;100334-894;100334-894;
15.03.11;Odwa Dyantyi;07:00:00;16:00:00;60;100023-0;100023-0;100023-0;100023-0;100023-0;100023-0;100023-0;100023-0;
15.03.11;Sesetu Mtukulu;07:00:00;16:00:00;60;100334-911;100334-911;100334-911;100334-911;100334-911;100334-911;100334-911;100334-911;
16.03.11;Brendan van Zyl;07:00:00;16:00:00;60;100334-1107;100334-1119;100334-1119;100334-1119;100334-1119;100334-1111;100334-1111;100334-1111;
16.03.11;Mario Jansen van Vuuren;08:00:00;16:30:00;30;110036-91;110036-91;110036-91;110036-91;110036-91;110036-91;110036-91;110036-91 / 110036-91;
16.03.11;Nico Claassen;07:00:00;16:00:00;60;100334-52 / 110018-27;110018-27;110018-27;110018-27;110018-27 / 110025-363;110025-363;110025-363;110025-363;
16.03.11;Malcolm Vorster;07:00:00;16:00:00;60;110025-367;110025-367;110025-367;110025-367;110025-367;110025-367;110025-367;110025-367;
16.03.11;Graham Meyer;08:00:00;16:30:00;30;110036-89 / 110036-89;110036-89;110036-89;110036-89;110036-89;110036-89;110036-89;110036-89;
16.03.11;Thando Katywa;08:00:00;16:30:00;30;110036-90;110036-90;110036-90;110036-90;110036-90;110036-90;110036-90;110036-90 / 110036-90;
16.03.11;Ludumo Sankobe;07:00:00;16:00:00;60;110025-375;110025-375;110025-375;110025-375;110025-375;110025-375;110025-375;110025-375;
16.03.11;Paul Helliwell;07:00:00;16:00:00;60;100334-941;100334-941;100334-941;100334-941;100334-941;100334-941;100334-941;100334-941;
16.03.11;Ntombenkosi Maldaki;07:00:00;16:00:00;60;110025-186;110025-186;110025-186;110025-186;110025-186;100334-1123;100334-1123;100334-1123;
16.03.11;Mark Britten;07:00:00;16:00:00;60;100334-987;100334-987;100334-987;100334-987;100334-987;100334-987;100334-987;100334-987;
16.03.11;Wesley Saunders;07:00:00;16:00:00;60;100334-1125;100334-1125;100334-1125;100334-1125;100334-882;100334-882;100334-882;100334-882;
16.03.11;Francois Sayster;07:00:00;16:00:00;60;100334-894;100334-894;100334-894;100334-894;100334-894;100334-894;100334-894;100334-894;
16.03.11;Odwa Dyantyi;07:00:00;16:00:00;60;110025-372;110025-372;110025-372;110025-372;110025-372;110025-372;110025-372;110025-372;
16.03.11;Sesetu Mtukulu;07:00:00;16:00:00;60;110025-373;110025-373;110025-373;110025-373;110025-373;110025-373;110025-373;110025-373;
17.03.11;Brendan van Zyl;07:00:00;16:00:00;60;100334-1358;100334-1358;100334-1358;100334-1358;100334-1358;100334-1358;100334-1358;100334-1358;
17.03.11;Mario Jansen van Vuuren;08:00:00;16:30:00;30;110036-91;110036-91;110036-91;110036-91;110036-91;110036-91;110036-91;110036-91;
17.03.11;Nico Claassen;07:00:00;16:00:00;60;110018-26;110025-363;110025-363;110025-363;110025-363;110025-363;110025-363;110025-363;
17.03.11;Malcolm Vorster;07:00:00;16:00:00;60;100334-62;100334-62;100334-62;110025-367;110025-367;110025-367;110025-367;110025-367;
17.03.11;Graham Meyer;08:00:00;16:30:00;30;110036-89;110036-89;110036-89;110036-89;110036-89;110036-89;110036-89;110036-89;
17.03.11;Thando Katywa;08:00:00;16:30:00;30;110036-90;110036-90;110036-90;110036-90;110036-90;110036-90;110036-90;110036-90;
17.03.11;Ludumo Sankobe;07:00:00;16:00:00;60;110025-375;110025-375;110025-375;110025-375;110025-375;110025-375;110025-375;110025-375;
17.03.11;Paul Helliwell;07:00:00;16:00:00;60;100334-1360;100334-1360;100334-1360;100334-1360;100334-1360;100334-1360;100334-1360;100334-1360;
17.03.11;Ntombenkosi Maldaki;07:00:00;16:00:00;60;100334-1123;100334-1123;100334-1123;100334-1193;100334-1193 / 110025-186;110025-186;110025-186;110025-186;
17.03.11;Mark Britten;07:00:00;16:00:00;60;100334-1007;100334-1007;100334-1007;100334-1007;100334-1007;100334-1007;100334-1007;100334-1007;
17.03.11;Wesley Saunders;07:00:00;16:00:00;60;100334-893;100334-893;100334-893;100334-893;100334-893;100334-893;100334-893;100334-893;
17.03.11;Francois Sayster;07:00:00;16:00:00;60;100334-894;100334-894;100334-894;100334-894;100334-894;100334-894;100334-894;100334-894;
17.03.11;Odwa Dyantyi;07:00:00;16:00:00;60;110025-372;110025-372;110025-372;110025-372;110025-372;110025-372;110025-372;110025-372;
17.03.11;Sesetu Mtukulu;07:00:00;16:00:00;60;110025-373;110025-373;110025-373;110025-373;110025-373;110025-373;110025-373;110025-373;
18.03.11;Brendan van Zyl;07:00:00;16:00:00;60;110018-24;110018-24 / 100334-1358;100334-1358;100334-1358;100334-883;100334-883;100334-883;100334-1119;
18.03.11;Mario Jansen van Vuuren;08:00:00;16:30:00;30;110036-91;110036-91;110036-91;110036-91;110036-91;110036-91;110036-91;110036-91;
18.03.11;Nico Claassen;07:00:00;16:00:00;60;110025-363;110025-363;110025-363;110025-363;110025-363;110025-363;110025-363;110025-363;
18.03.11;Malcolm Vorster;07:00:00;16:00:00;60;110018-29;110018-29;110025-367;110025-367;110025-367;110025-367;110025-367;110025-367;
18.03.11;Graham Meyer;08:00:00;16:30:00;30;110036-89;110036-89;110036-89;110036-89;110036-89;110036-89;110036-89;110036-89;
18.03.11;Thando Katywa;08:00:00;16:30:00;30;110036-90;110036-90;110036-90;110036-90;110036-90;110036-90;110036-90;110036-90;
18.03.11;Ludumo Sankobe;07:00:00;16:00:00;60;110025-375;110025-375;110025-375;110025-375;110025-375;110025-375;110025-375;110025-375;
18.03.11;Paul Helliwell;07:00:00;16:00:00;60;100334-1360;100334-1360;100334-1360;100334-1360;100334-1361;100334-1361;100334-1361;100334-1361;
18.03.11;Ntombenkosi Maldaki;07:00:00;16:00:00;60;110018-35;110018-35;100334-1090;100334-1090;100334-1090 / 110025-186;110025-186;110025-186;110025-186;
18.03.11;Mark Britten;07:00:00;16:00:00;60;100334-1007;100334-1007;110025-369;110025-369;110025-369;110025-369;110025-369;110025-369 / 110018-37;
18.03.11;Wesley Saunders;07:00:00;16:00:00;60;100334-893;100334-893;100334-893;100334-893;110025-187;110025-187;110025-187;110025-187;
18.03.11;Francois Sayster;07:00:00;16:00:00;60;110018-40;110018-40 / 100334-894;100334-894;100334-894;100334-894;100334-894;100334-894;100334-894;
18.03.11;Odwa Dyantyi;07:00:00;16:00:00;60;110025-372;110025-372;110025-372;110025-372;110025-372;110025-372;110025-372;110025-372;
18.03.11;Sesetu Mtukulu;07:00:00;16:00:00;60;110034-1359;110034-1359;110034-1359;110034-1359;110034-1359;110034-1359;110034-1359;110034-1359;
19.03.11;Brendan van Zyl;
19.03.11;Mario Jansen van Vuuren;
19.03.11;Nico Claassen;
19.03.11;Malcolm Vorster;
19.03.11;Graham Meyer;
19.03.11;Thando Katywa;
19.03.11;Ludumo Sankobe;
19.03.11;Paul Helliwell;
19.03.11;Ntombenkosi Maldaki;
19.03.11;Mark Britten;
19.03.11;Wesley Saunders;
19.03.11;Francois Sayster;
19.03.11;Odwa Dyantyi;
19.03.11;Sesetu Mtukulu;
20.03.11;Brendan van Zyl;
20.03.11;Mario Jansen van Vuuren;
20.03.11;Nico Claassen;
20.03.11;Malcolm Vorster;
20.03.11;Graham Meyer;
20.03.11;Thando Katywa;
20.03.11;Ludumo Sankobe;
20.03.11;Paul Helliwell;
20.03.11;Ntombenkosi Maldaki;
20.03.11;Mark Britten;
20.03.11;Wesley Saunders;
20.03.11;Francois Sayster;
20.03.11;Odwa Dyantyi;
20.03.11;Sesetu Mtukulu;
21.03.11;Brendan van Zyl;07:00:00;16:00:00;60;110023-0;110023-0;110023-0;110023-0;110023-0;110023-0;110023-0;110023-0;
21.03.11;Mario Jansen van Vuuren;09:00:00;17:30:00;30;110036-91;110036-91;110036-91;110036-91;110036-91;110036-91;110036-91;110036-91;
21.03.11;Nico Claassen;07:00:00;16:00:00;60;110023-0;110023-0;110023-0;110023-0;110023-0;110023-0;110023-0;110023-0;
21.03.11;Malcolm Vorster;07:00:00;16:00:00;60;110023-0;110023-0;110023-0;110023-0;110023-0;110023-0;110023-0;110023-0;
21.03.11;Graham Meyer;09:00:00;17:30:00;30;110036-89;110036-89;110036-89;110036-89;110036-89;110036-89;110036-89;110036-89;
21.03.11;Thando Katywa;09:00:00;17:30:00;30;110036-90;110036-90;110036-90;110036-90;110036-90;110036-90;110036-90;110036-90;
21.03.11;Ludumo Sankobe;07:00:00;16:00:00;60;110023-0;110023-0;110023-0;110023-0;110023-0;110023-0;110023-0;110023-0;
21.03.11;Paul Helliwell;07:00:00;16:00:00;60;110023-0;110023-0;110023-0;110023-0;110023-0;110023-0;110023-0;110023-0;
21.03.11;Ntombenkosi Maldaki;07:00:00;16:00:00;60;110023-0;110023-0;110023-0;110023-0;110023-0;110023-0;110023-0;110023-0;
21.03.11;Mark Britten;07:00:00;16:00:00;60;110023-0;110023-0;110023-0;110023-0;110023-0;110023-0;110023-0;110023-0;
21.03.11;Wesley Saunders;07:00:00;16:00:00;60;110023-0;110023-0;110023-0;110023-0;110023-0;110023-0;110023-0;110023-0;
21.03.11;Francois Sayster;07:00:00;16:00:00;60;110023-0;110023-0;110023-0;110023-0;110023-0;110023-0;110023-0;110023-0;
21.03.11;Odwa Dyantyi;07:00:00;16:00:00;60;110023-0;110023-0;110023-0;110023-0;110023-0;110023-0;110023-0;110023-0;
21.03.11;Sesetu Mtukulu;07:00:00;16:00:00;60;110023-0;110023-0;110023-0;110023-0;110023-0;110023-0;110023-0;110023-0;
22.03.11;Brendan van Zyl;07:00:00;16:00:00;60;100334-1358;100334-1358;100334-1358;100334-883;100334-883;100334-883;100334-882;100334-882;
22.03.11;Mario Jansen van Vuuren;09:00:00;17:30:00;30;110036-91;110036-91;110036-91;110036-91;110036-91;110036-91;110036-91;110036-91;
22.03.11;Nico Claassen;07:00:00;16:00:00;60;110025-363;110025-363;110025-363;110025-363;110025-363;110025-363;110025-363;110025-363;
22.03.11;Malcolm Vorster;07:00:00;16:00:00;60;110025-367;110025-367;110025-367;110025-367;110025-367;110025-367;110025-367;110025-367;
22.03.11;Graham Meyer;09:00:00;17:30:00;30;110036-89;110036-89;110036-89;110036-89;110036-89;110036-89;110036-89;110036-89;
22.03.11;Thando Katywa;09:00:00;17:30:00;30;110036-90;110036-90;110036-90;110036-90;110036-90;110036-90;110036-90;110036-90;
22.03.11;Ludumo Sankobe;07:00:00;16:00:00;60;110025-375;110025-375;110025-375;110025-375;110025-375;110025-375;110025-375;110025-375;
22.03.11;Paul Helliwell;07:00:00;16:00:00;60;100334-941;100334-941;100334-941;100334-941;100023-0;100023-0;100023-0;100023-0;
22.03.11;Ntombenkosi Maldaki;07:00:00;16:00:00;60;100334-962;100334-962;100334-962;100334-1090;100334-1090;100334-1090;100334-1090;100334-1090;
22.03.11;Mark Britten;07:00:00;16:00:00;60;110025-369;110025-369;110025-369;110025-369;110025-369;110025-369;110025-369;110025-369;
22.03.11;Wesley Saunders;07:00:00;16:00:00;60;100334-1125;100334-1125;100334-1125;100334-1125;100334-1125;100334-1125;100334-1125;100334-1125;
22.03.11;Francois Sayster;07:00:00;16:00:00;60;100334-1597;100334-1597;100334-1597;100334-1597;100334-1597;100334-1597;100334-1597;100334-1597;
22.03.11;Odwa Dyantyi;07:00:00;16:00:00;60;110025-327;110025-327;110025-327;110025-327;110025-327;110025-327;110025-327;110025-327;
22.03.11;Sesetu Mtukulu;07:00:00;16:00:00;60;100334-1359;100334-1359;100334-1359;100334-1359;100334-1359;100334-1359;100334-1359;100334-1359;
23.03.11;Brendan van Zyl;07:00:00;16:00:00;60;100334-1358;100334-1358;100334-1358;100334-1358;100334-882;100334-882;100334-883;100334-883;
23.03.11;Mario Jansen van Vuuren;08:00:00;17:30:00;30;110036-91;110036-91;110036-91;110036-91;110036-91;110036-91;110036-91;110036-91;
23.03.11;Nico Claassen;07:00:00;16:00:00;60;110025-363;110025-363;110025-363;110025-363;110025-363;110025-363;110025-363;110025-363;
23.03.11;Malcolm Vorster;07:00:00;16:00:00;60;110025-367;110025-367;110025-367;110025-367;110025-367;110025-367;110025-367;110025-367;
23.03.11;Graham Meyer;09:00:00;17:30:00;30;110036-89;110036-89;110036-89;110036-89;110036-89;110036-89;110036-89;110036-89;
23.03.11;Thando Katywa;09:00:00;17:30:00;30;110036-90;110036-90;110036-90;110036-90;110036-90;110036-90;110036-90;110036-90;
23.03.11;Ludumo Sankobe;07:00:00;16:00:00;60;100334-1097;100334-1097;100334-1097;100334-1097;100334-1097;100334-1097;100334-1097;100334-1097;
23.03.11;Paul Helliwell;07:00:00;16:00:00;60;100334-941;100334-941;100334-941;100334-941;100334-1361;100334-1361;100334-1361;100334-1361;
23.03.11;Ntombenkosi Maldaki;07:00:00;16:00:00;60;100334-962;100334-962;100334-962;100334-962;100334-1090;100334-1090;100334-1090;100334-1090;
23.03.11;Mark Britten;07:00:00;16:00:00;60;100334-1179;100334-1179;100334-1179;100334-1179;100334-1179;100334-1179;100334-1179;100334-1179;
23.03.11;Wesley Saunders;07:00:00;16:00:00;60;100334-1125;100334-1125;100334-1125;100334-1125;100334-1169;100334-1169;100334-1169;100334-1169;
23.03.11;Francois Sayster;07:00:00;16:00:00;60;100334-1597;100334-1126;100334-1126;100334-1126;100334-1126;100334-1126;100334-1126;100334-1126;
23.03.11;Odwa Dyantyi;07:00:00;16:00:00;60;100334-1389;100334-1389;100334-1389;100334-1389;100334-1389;100334-1389;100334-1389;100334-1389;
23.03.11;Sesetu Mtukulu;07:00:00;16:00:00;60;100334-1133;100334-1133;100334-1133;100334-1133;100334-1338;100334-1338;100334-1338;100334-1338;
24.03.11;Brendan van Zyl;07:00:00;16:00:00;60;100334-1358;100334-883;100334-883;100334-883;100334-883;100334-883;100334-882;100334-1119;
24.03.11;Mario Jansen van Vuuren;08:00:00;16:30:00;30;110036-91;110036-91;110036-91;110036-91;110036-91;110036-91;110036-91;110036-91;
24.03.11;Nico Claassen;07:00:00;16:00:00;60;110025-363;110025-363;110025-363;110025-363;110025-363;110025-363;110025-363;110018-26;
24.03.11;Malcolm Vorster;07:00:00;16:00:00;60;100334-1214;100334-1214;100334-1214;100334-1214;100334-1214;100334-1214;100334-1214;100334-1214;
24.03.11;Graham Meyer;08:00:00;16:30:00;30;110036-89;110036-89;110036-89;110036-89;110036-89;110036-89;110036-89;110036-89;
24.03.11;Thando Katywa;08:00:00;16:30:00;30;110036-90;110036-90;110036-90;110036-90;110036-90;110036-90;110036-90;110036-90;
24.03.11;Ludumo Sankobe;07:00:00;16:00:00;60;
24.03.11;Paul Helliwell;07:00:00;16:00:00;60;100334-880;100334-880;100334-880;100334-880;100334-880;100334-880;100334-880;100334-880;
24.03.11;Ntombenkosi Maldaki;07:00:00;16:00:00;60;100334-1123;100334-1123;100334-1123;100334-1123;100334-1123;100334-1123;100334-1123;100334-1123;
24.03.11;Mark Britten;07:00:00;16:00:00;60;100334-1179;100334-1179;100334-1179;100334-1179;100334-1179;100334-965;100334-965;100334-965;
24.03.11;Wesley Saunders;07:00:00;16:00:00;60;100334-1125;100334-1125;100334-1125;100334-1125;110025-187;110025-187;110025-187;110025-187;
24.03.11;Francois Sayster;07:00:00;16:00:00;60;100334	-1126;100334	-1126;100334	-1126;110025-371;110025-371;110025-371;110025-371;110025-371;
24.03.11;Odwa Dyantyi;07:00:00;16:00:00;60;100334-1389;100334-1389;100334-1389;100334-1389;100334-1389;100334-1389;100334-1389;100334-1389;
24.03.11;Sesetu Mtukulu;07:00:00;16:00:00;60;100334-1214;100334-1214;100334-1214;100334-1214;100334-1214;100334-1214;100334-1214;100334-1214;
25.03.11;Brendan van Zyl;07:00:00;16:00:00;60;100334-1119;100334-1119;100334-1119;100334-1119;100334-1119;100334-1119;100334-1119 / 110018-24;110018-24;
25.03.11;Mario Jansen van Vuuren;08:00:00;16:30:00;30;110036-91;110036-91;110036-91;110036-91;110036-91;110036-91;110036-91;110036-91;
25.03.11;Nico Claassen;07:00:00;16:00:00;60;110025-363;110025-363;110025-363;110025-363;110025-363;110025-363;110025-363;110025-363;
25.03.11;Malcolm Vorster;07:00:00;16:00:00;60;100334-1214;100334-1214;100334-1214;100334-1214;110025-367;110025-367;110025-367;110025-367;
25.03.11;Graham Meyer;08:00:00;16:30:00;30;110036-89;110036-89;110036-89;110036-89;110036-89;110036-89;110036-89;110036-89;
25.03.11;Thando Katywa;08:00:00;16:30:00;30;110036-90;110036-90;110036-90;110036-90;110036-90;110036-90;110036-90;110036-90;
25.03.11;Ludumo Sankobe;07:00:00;16:00:00;60;100334-1097;100334-1097;100334-1097;100334-1097;100334-1097;100334-1097;110018-32;110018-32;
25.03.11;Paul Helliwell;07:00:00;16:00:00;60;100334-878;100334-878;100334-878;100334-877;110018-34;110018-34 / 100334-881;100334-881;100334-881;
25.03.11;Ntombenkosi Maldaki;07:00:00;16:00:00;60;100334-1123;100334-1123;100334-1123;100334-1123;100334-1123;100334-1123;110018-35;110018-35;
25.03.11;Mark Britten;07:00:00;16:00:00;60;100334-965;100334-965;100334-965;100334-965;100334-965;100334-965;100334-965;110018-37;
25.03.11;Wesley Saunders;07:00:00;16:00:00;60;110025-187;110025-187;110025-187;110025-187;110025-187;110025-187;110025-187;110025-187;
25.03.11;Francois Sayster;07:00:00;16:00:00;60;110018-40;110018-40 / 110025-371;110025-371;110025-371;110025-371;110025-371;110025-371;110025-371;
25.03.11;Odwa Dyantyi;07:00:00;16:00:00;60;
25.03.11;Sesetu Mtukulu;07:00:00;16:00:00;60;100334-1214;100334-1214;100334-1214;100334-1214;100334-1214;100334-1214;100334-1214;100334-1214;
26.03.11;Brendan van Zyl;
26.03.11;Mario Jansen van Vuuren;
26.03.11;Nico Claassen;
26.03.11;Malcolm Vorster;
26.03.11;Graham Meyer;
26.03.11;Thando Katywa;
26.03.11;Ludumo Sankobe;
26.03.11;Paul Helliwell;
26.03.11;Ntombenkosi Maldaki;
26.03.11;Mark Britten;
26.03.11;Wesley Saunders;
26.03.11;Francois Sayster;
26.03.11;Odwa Dyantyi;
26.03.11;Sesetu Mtukulu;
27.03.11;Brendan van Zyl;
27.03.11;Mario Jansen van Vuuren;
27.03.11;Nico Claassen;
27.03.11;Malcolm Vorster;
27.03.11;Graham Meyer;
27.03.11;Thando Katywa;
27.03.11;Ludumo Sankobe;
27.03.11;Paul Helliwell;
27.03.11;Ntombenkosi Maldaki;
27.03.11;Mark Britten;
27.03.11;Wesley Saunders;
27.03.11;Francois Sayster;
27.03.11;Odwa Dyantyi;
27.03.11;Sesetu Mtukulu;
28.03.11;Brendan van Zyl;07:00:00;16:00:00;60;100334-1119;100334-1119;100334-1119;100334-1119;100334-1119;100334-1119;100334-1119;100334-1119;
28.03.11;Mario Jansen van Vuuren;09:00:00;17:30:00;30;110036-91;110036-91;110036-91;110036-91;110036-91;110036-91;110036-91;110036-91;
28.03.11;Nico Claassen;07:00:00;16:00:00;60;110025-363;110025-363;110025-363;110025-363;110025-363;110025-363;110025-363;110025-363;
28.03.11;Malcolm Vorster;07:00:00;16:00:00;60;110025-367;110025-367;110025-367;110025-367;110025-367;110025-367;110025-367;110018-29;
28.03.11;Graham Meyer;09:00:00;17:30:00;30;110036-89;110036-89;110036-89;110036-89;110036-89;110036-89;110036-89;110036-89;
28.03.11;Thando Katywa;08:00:00;16:30:00;30;110036-90;110036-90;110036-90;110036-90;110036-90;110036-90;110036-90;110036-90;
28.03.11;Ludumo Sankobe;07:00:00;16:00:00;60;100334-1097;100334-1097;100334-1097;100334-1097;100334-1097;100334-1097;100334-1097;100334-1097;
28.03.11;Paul Helliwell;
28.03.11;Ntombenkosi Maldaki;07:00:00;16:00:00;60;100334-962;100334-962;100334-962;100334-962;100334-962;100334-962;100334-962;100334-962;
28.03.11;Mark Britten;07:00:00;16:00:00;60;100334-965;100334-965;100334-965;100334-965;100334-965;100334-965;100334-965;100334-965;
28.03.11;Wesley Saunders;07:00:00;16:00:00;60;100334-1599;100334-1599;100334-1599;100334-1599;100334-1599;100334-1599;100334-1599;100334-1599;
28.03.11;Francois Sayster;07:00:00;16:00:00;60;110025-371;110025-371;110025-371;110025-371;110025-371;110025-371;110025-371;110025-371;
28.03.11;Odwa Dyantyi;07:00:00;16:00:00;60;110025-372;110025-372;110025-372;110025-372;110025-372;110025-372;110025-372;110025-372;
28.03.11;Sesetu Mtukulu;07:00:00;16:00:00;60;100334-1214;100334-1214;100334-1214;100334-1214;100334-1214;100334-1214;100334-1214;100334-1214;
29.03.11;Brendan van Zyl;07:00:00;16:00:00;60;100334-1119;100334-1119;100334-1119;100334-1119;100334-1119;100334-1119;100334-1119;100334-1119;
29.03.11;Mario Jansen van Vuuren;08:00:00;16:30:00;30;110036-91;110036-91;110036-91;110036-91;110036-91;110036-91;110036-91;110036-91;
29.03.11;Nico Claassen;07:00:00;16:00:00;60;110025-363;110025-363;110025-363;110025-363;110025-363;110025-363;110025-363;110025-363;
29.03.11;Malcolm Vorster;07:00:00;16:00:00;60;110025-367;110025-367;110025-367;110025-367;110025-367;110025-367;110025-367;110025-367;
29.03.11;Graham Meyer;08:00:00;16:30:00;30;110036-89;110036-89;110036-89;110036-89;110036-89;110036-89;110036-89;110036-89;
29.03.11;Thando Katywa;08:00:00;16:30:00;30;110036-90;110036-90;110036-90;110036-90;110036-90;110036-90;110036-90;110036-90;
29.03.11;Ludumo Sankobe;07:00:00;16:00:00;60;100334-1097;100334-1097;100334-1097;100334-1097;100334-1097;100334-1097;100334-1097;100334-1097;
29.03.11;Paul Helliwell;
29.03.11;Ntombenkosi Maldaki;07:00:00;16:00:00;60;100334-1652;100334-1652;110025-0;110025-0;110025-0;110025-0;110025-0;110025-0;
29.03.11;Mark Britten;07:00:00;16:00:00;60;100334-965;100334-965;100334-965;100334-965;100334-965;100334-965;100334-965;100334-965;
29.03.11;Wesley Saunders;07:00:00;16:00:00;60;100334-1599;100334-1599;100334-1603;110025-187;110025-187;110025-187;110025-187;110025-187;
29.03.11;Francois Sayster;07:00:00;16:00:00;60;110025-371;110025-371;110025-371;110025-371;110025-371;110025-371;110025-371;110025-371;
29.03.11;Odwa Dyantyi;07:00:00;16:00:00;60;110025-372;110025-372;110025-372;110025-372;110025-372;110025-372;110025-372;110025-372;
29.03.11;Sesetu Mtukulu;07:00:00;16:00:00;60;110023-0;110023-0;110023-0;110023-0;110023-0;110023-0;110023-0;110023-0;
30.03.11;Brendan van Zyl;07:00:00;16:00:00;60;100334-1119;100334-1119;100334-1119 / 110025-374;110025-374;110025-374 / 110025-374;110025-374;110025-374;110025-374;
30.03.11;Mario Jansen van Vuuren;08:00:00;16:30:00;30;110036-91;110036-91;110036-91;110036-91;110036-91;110036-91;110036-91;110036-91;
30.03.11;Nico Claassen;07:00:00;16:00:00;60;110025-363;110025-363;110025-363;110025-363;110025-363;110025-363;110025-363;110025-363;
30.03.11;Malcolm Vorster;07:00:00;16:00:00;60;110025-367;110025-367;110025-367;110025-367;110025-367;110025-367;100334-1186;100334-1186;
30.03.11;Graham Meyer;08:00:00;16:30:00;30;110036-89;110036-89;110036-89;110036-89;110036-89;110036-89;110036-89;110036-89;
30.03.11;Thando Katywa;08:00:00;16:30:00;30;110036-90;110036-90;110036-90;110036-90;110036-90;110036-90;110036-90;110036-90;
30.03.11;Ludumo Sankobe;07:00:00;16:00:00;60;100334-963;100334-963;100334-963;100334-963;100334-963 / 110025-375;110025-375;110025-375;110025-375;
30.03.11;Paul Helliwell;
30.03.11;Ntombenkosi Maldaki;07:00:00;16:00:00;60;110023-0;110023-0;110023-0;110023-0;110023-0;110023-0;110023-0;110023-0;
30.03.11;Mark Britten;07:00:00;16:00:00;60;100334-965;100334-965;100334-965;100334-965 / 110025-369;110025-369;110025-369;110025-369;110025-369;
30.03.11;Wesley Saunders;07:00:00;16:00:00;60;110025-187;110025-187;110025-187;110025-187;110025-187;110025-187;110025-187;110025-187;
30.03.11;Francois Sayster;07:00:00;16:00:00;60;110025-371;110025-371;110025-371;110025-371;110025-371;110025-371;110025-371;110025-371;
30.03.11;Odwa Dyantyi;07:00:00;16:00:00;60;110025-372;110025-372;110025-372;110025-372;110025-372;110025-372;110025-372;110025-372;
30.03.11;Sesetu Mtukulu;07:00:00;16:00:00;60;110025-373;110025-373;110025-373;110025-373;110025-373;110025-373;110025-373;110025-373;
31.03.11;Brendan van Zyl;07:00:00;16:00:00;60;110023-0 / 100334-1119;100334-1119;100334-1119;100334-1119 / 110025-374;110025-374;110025-374;110025-374;110025-374;
31.03.11;Mario Jansen van Vuuren;09:00:00;17:30:00;30;110036-91;110036-91;110036-91;110036-91;110036-91;110036-91;110036-91;110036-91;
31.03.11;Nico Claassen;07:00:00;16:00:00;60;110018-28;110018-28;110018-28;110018-28;110018-28;110018-28;110018-28;110018-28;
31.03.11;Malcolm Vorster;07:00:00;16:00:00;60;100334-1186;100334-1186;100334-1186;100334-1186;100334-1186;100334-1600;100334-1600;100334-1600;
31.03.11;Graham Meyer;08:00:00;16:30:00;30;110036-89;110036-89;110036-89;110036-89;110036-89;110036-89;110036-89;110036-89;
31.03.11;Thando Katywa;09:00:00;17:30:00;30;110036-90;110036-90;110036-90;110036-90;110036-90;110036-90;110036-90;110036-90;
31.03.11;Ludumo Sankobe;07:00:00;16:00:00;60;100334-963;100334-963;100334-963;100334-963;100334-963;100334-963;100334-963;100334-963;
31.03.11;Paul Helliwell;
31.03.11;Ntombenkosi Maldaki;07:00:00;16:00:00;60;100334-1090;100334-1090;100334-1090;110025-0;110025-0;110025-0;110025-0;110025-0;
31.03.11;Mark Britten;07:00:00;16:00:00;60;100334-965;100334-965;100334-965;100334-965;100334-965;100334-965;100334-965;100334-965;
31.03.11;Wesley Saunders;07:00:00;16:00:00;60;110025-187;110025-187;110025-187;110025-187;110025-187;110025-187;110025-187;110025-187;
31.03.11;Francois Sayster;07:00:00;16:00:00;60;110025-371;110025-371;110025-371;110025-371;110025-371;110025-371;100334-1600;100334-1600;
31.03.11;Odwa Dyantyi;07:00:00;16:00:00;60;110023-0;110023-0;110023-0;110023-0;110023-0;110023-0;110023-0;110023-0;
31.03.11;Sesetu Mtukulu;07:00:00;16:00:00;60;100334-1214;100334-1214;100334-1214;100334-1214;100334-1214;100334-1214;100334-1214;100334-1214;