"10.10.11","1","110023","0","401","Travel","","100","Travel. Travel","07:00","16:00","8","60",
"11.10.11","2","110036","415","170","Schulung","","0","Einarbeitung FSD Setup Tool  Installation Configuration. Getting into subject - Install P.Office + Runtime. DB fix","09:00","17:00","3","30",
"11.10.11","2","110036","417","170","Schulung","","0","Einarbeitung Fisker Aftersales: get into subject. Initial training with kl, we.","","","4","0",
"11.10.11","2","110018","26","101","PM/Mod/Meetings","","0","Wochenaufgaben AES. Introduction","","","0,5","0",
"12.10.11","3","110310","72","181","Fehlerbes. vor Ausl. (Bugzilla)","","0","MainCTS: Minimal Main_CTS: Bugfixing B2.11/pa10. (from S58) Testing and fixing CTS updating.","09:00","17:00","1","30",
"12.10.11","3","110310","72","181","Fehlerbes. vor Ausl. (Bugzilla)","","0","MainCTS: Minimal Main_CTS: Bugfixing B2.11/pa10. (from S58) Updating Main_CTS screen texts + buttons","","","2,5","0",
"12.10.11","3","110036","417","170","Schulung","","0","Einarbeitung Fisker Aftersales: get into subject. Get into subject","","","2","0",
"12.10.11","3","110036","415","170","Schulung","","0","Einarbeitung FSD Setup Tool  Installation Configuration. Get into subject","","","2","0",
"13.10.11","4","110310","72","181","Fehlerbes. vor Ausl. (Bugzilla)","","0","MainCTS: Minimal Main_CTS: Bugfixing B2.11/pa10. Testing and fixing ODX updating","09:00","17:00","3","30",
"13.10.11","4","110036","417","170","Schulung","","0","Einarbeitung Fisker Aftersales: get into subject. Get into subject","","","3","0",
"13.10.11","4","110036","415","170","Schulung","","0","Einarbeitung FSD Setup Tool  Installation Configuration. Setup MDIG-2","","","1,5","0",
"14.10.11","5","110310","70","120","Codierung","","0","MainCTS: Impl. Printing & Statistics B2.9/pa10. (from S58)  Adding example CTS for statistics and printing","09:00","17:00","2","30",
"14.10.11","5","110310","71","140","Test","","0","MainCTS: Minimal Main_CTS: Test the Main_CTS B2.10/pa10. (from S58) Test features + setup test server","","","4","0",
"14.10.11","5","110018","26","101","PM/Mod/Meetings","","0","Wochenaufgaben AES. Timesheets","","","0,5","0",
"14.10.11","5","110036","415","170","Schulung","","0","Einarbeitung FSD Setup Tool  Installation Configuration. Setting up Release Tool + MDIG-2","","","1","0",
