"14.02.11","1","09.00582","2873","182","Fehlerbes. nach Ausl. (Bugzilla)","","100","	6226: Bugfixing: BF+Test 1.0.2: #28092,#28104. From s53: working on bugzilla bugs 28332 and fixing corrupt Kombi 03 odx","07:00","16:00","8","60",
"15.02.11","2","09.00582","2873","182","Fehlerbes. nach Ausl. (Bugzilla)","","0","6226: Bugfixing: BF+Test 1.0.2: #28092,#28104. Task already closed from s53: working on bugzilla Bug 28332, 28410 and fixing corrupted kombi 03 odx","07:00","16:00","8","60",
"16.02.11","3","09.00582","2873","182","Fehlerbes. nach Ausl. (Bugzilla)","","100","	6226: Bugfixing: BF+Test 1.0.2: #28092,#28104. BF+Test 1.0.2: #28092,#28104	Task already closed from s53: working on bugzilla Bug 28410","07:00","16:00","8","60",
"17.02.11","4","100334","890","120","Codierung","","0","3001: Alt-BR: Motronic: ODX Bedat. Implementation: Environment Data Job on ABR_DME_M05","07:00","16:00","8","60",
"18.02.11","5","100334","890","120","Codierung","","100","3001: Alt-BR: Motronic: ODX Bedat. Implementation: Environment Data Job on ABR_DME_M05","07:00","16:00","6","60",
"18.02.11","5","110018","31","101","PM/Mod/Meetings","","0","Wochenaufgaben AES. Common project tasks, meetings and completing timesheets","","","2","0",
