"21.02.11","1","100334","1134","181","Fehlerbes. vor Ausl. (Bugzilla)","","0","3081:Alt-BR: EZK: ODX bugfixing. Changing  DTC implementation","07:00","16:00","8","60",
"22.02.11","2","100334","1134","181","Fehlerbes. vor Ausl. (Bugzilla)","","0","3081:Alt-BR: EZK: ODX bugfixing. Changing  DTC implementation","07:00","16:00","8","60",
"23.02.11","3","100334","1134","181","Fehlerbes. vor Ausl. (Bugzilla)","","0","3081:Alt-BR: EZK: ODX bugfixing. Changing  DTC implementation","07:00","16:00","4","60",
"23.02.11","3","100334","898","104","Test-Spezifikation","","0","3002: Alt-BR: Motronic: Kurztest Sekundärluft: Testspec + erw. Sim. Creating test spec for M05 and M07","","","4","0",
"24.02.11","4","100334","898","104","Test-Spezifikation","","0","3002: Alt-BR: Motronic: Kurztest Sekundärluft: Testspec + erw. Sim. Creating test spec for M14 and creating simulation","07:00","16:00","8","60",
"25.02.11","5","100334","898","104","Test-Spezifikation","","0","3002: Alt-BR: Motronic: Kurztest Sekundärluft: Testspec + erw. Sim. Creating simulation","07:00","16:00","4","60",
"25.02.11","5","100334","1133","140","Test","","0","3081:Alt-BR: EZK: ODX Test. doing MOTR for E00, E01 and E02","","","4","0",
