"07.02.11","1","100334","1110","120","Codierung","","90","6022: Alt-Br: Heizung: Stellglieder: Implementierung. CTS implementation","07:00","16:00","8","60",
"08.02.11","2","100023","0","910","Urlaub","","0","Urlaub. Time-off","07:00","16:00","2,5","60",
"08.02.11","2","100334","1110","120","Codierung","","90","6022: Alt-Br: Heizung: Stellglieder: Implementierung. CTS implementation","","","2","0",
"08.02.11","2","100334","1141","181","Fehlerbes. vor Ausl. (Bugzilla)","","0","3021: Alt-BR: LH: ODX Bug-fixing. ODX bug-fixing based on MOTR","","","3,5","0",
"09.02.11","3","100334","1141","181","Fehlerbes. vor Ausl. (Bugzilla)","","0","3021: Alt-BR: LH: ODX Bug-fixing. ODX bug-fixing and testing","07:00","16:00","1","60",
"09.02.11","3","100334","1110","120","Codierung","","95","6022: Alt-Br: Heizung: Stellglieder: Implementierung. CTS implementation","","","7","0",
"10.02.11","4","100023","0","910","Urlaub","","0","Urlaub. Time-off","07:00","16:00","3,75","60",
"10.02.11","4","100334","1110","120","Codierung","","100","6022: Alt-Br: Heizung: Stellglieder: Implementierung. CTS implementation","","","4,25","0",
"11.02.11","5","09.00582","2872","182","Fehlerbes. nach Ausl. (Bugzilla)","","0","6026: 9x6: Bug-fixing: BF-test 1.0.2. Bug 28336","07:00","16:00","3","60",
"11.02.11","5","110018","24","101","PM/Mod/Meetings","","0","Wochenaufgaben AES. Weekly timesheet report, department meeting.","","","1","0",
"11.02.11","5","100334","1324","120","Codierung","","0","4021: Alt-Br: PDAS; ODX Bedat. ODX creation","","","4","0",
