DATE;NAME;PROJECT;ACTIVITY;DESCRIPTION;NORMAL HOURS;LUNCH HOURS;OVERTIME HOURS;
06.06.11;Brendan van Zyl;100540-0;120;NA-Tester: IO-Control. Engineering and testing of NA-tester sequence against simulation in private workspace.;8;1;0;
06.06.11;Brendan van Zyl;09.00790-2883;120;Auto Testsuites. Closure of completed task;0;0;0;
06.06.11;Brendan van Zyl;100540-68;104;Tab. Widgets: Testspec erstellen. Closure of completed task;0;0;0;
06.06.11;Brendan van Zyl;100540-69;140;Tab. Widgets: Tests implementieren. Closure of completed task;0;0;0;
06.06.11;Nico Claassen;110025-451;170;Production: Environment. Training for S53;2.00;1;0;
06.06.11;Nico Claassen;110025-450;170;Production: IDT. Training for S53;1.00;0;0;
06.06.11;Nico Claassen;110025-449;170;Production: ECOS. Training for S53;1.00;0;0;
06.06.11;Nico Claassen;110025-448;170;Production: Basic Diagnostic. Training for S53;0.50;0;0;
06.06.11;Nico Claassen;110025-447;170;Coldstart: Concept, Server, Tester. Training for S53;0.50;0;0;
06.06.11;Nico Claassen;110025-446;170;MTS: Concepts. Training for S53;0.50;0;0;
06.06.11;Nico Claassen;110025-445;170;MFT: Hardware, Configuration. Training for S53;0.50;0;0;
06.06.11;Nico Claassen;110018-27;101;S4 Technical Support / Troubleshoot. Supporting colleagues;2;0;0;
06.06.11;Graham Meyer;110117-221;120;1002: Seq.: (CR033hz2): Hauptmodul: Ergebnis-Screen: Impl.. Implementing user selection screen;8;1;0;
06.06.11;Thando Katywa;110036-188;170;Sicherung Flashjob Log /s63-anlrn. From s63: Sicherung Flashjob Log task;8;1;0;
06.06.11;Ludumo Sankobe;100540-68;104;NA-Tester. Creating TestCases for NATester Building Blocks and Scripts;8;1;0;
06.06.11;Paul Helliwell;110018-33;101;S4/DSA overall tasks. Assisting collegue with Authoring.ODX and Mancats;5.00;1;0;
06.06.11;Paul Helliwell;110018-33;101;S4/DSA overall tasks. assisting collegue with Prodis Automation and NA Tester;2.00;0;0;
06.06.11;Paul Helliwell;110018-33;101;S4/DSA overall tasks. Assisting collegue with AltBr LH Systemanpassung;1;0;0;
06.06.11;Ntombenkosi Maldaki;110036-256;170;Production: get into subject, practice in production. Training;5.00;1;0;
06.06.11;Ntombenkosi Maldaki;110025-0;170;Training: P.Authouring. Training;3;0;0;
06.06.11;Mark Britten;110025-369;170;Training. Reading the JVM specification section on startup.;7.00;1;0;
06.06.11;Mark Britten;100540-87;102;WebStatistik: Spezif. Bausteine C9.1/AE20. Filling in polarion work item details;1;0;0;
06.06.11;Wesley Saunders;110025-403;170;Training: P.Automation. Training on MSL debugging;8;1;0;
06.06.11;Francois Sayster;110025-371;170;Training. Researched and implemented a filesystemwatcher;8;1;0;
06.06.11;Mario Jansen van Vuuren;110036-189;170;DaigFunktionen /s63-anlrn. Worked on Bug  #29682;4.00;1;0;
06.06.11;Mario Jansen van Vuuren;110036-189;170;DaigFunktionen /s63-anlrn. Changed the way screen step gets the string resources;4;0;0;
07.06.11;Brendan van Zyl;100498-0;182;Bug 29934. Bug 29934: Fixed Text-table conversion for Alarm Verriegeln all variants.;2.00;1;0;
07.06.11;Brendan van Zyl;100540-0;120;NA-Tester: IO-Control. Engineering and testing of NA-tester sequence against simulation in private workspace.;5.00;0;0;
07.06.11;Brendan van Zyl;110101-95;120;1016: OBD ScanTool: Mode9: Reporting. OBD reporting integration and simulation;1;0;0;
07.06.11;Nico Claassen;110025-451;170;Production: Environment. Training for S58;2.00;1;0;
07.06.11;Nico Claassen;110025-450;170;Production: IDT. Training for S53 and S58;1.00;0;0;
07.06.11;Nico Claassen;110025-449;170;Production: ECOS. Training for S53 and S58;1.00;0;0;
07.06.11;Nico Claassen;110025-448;170;Production: Basic Diagnostic. Training for S53 and S58;0.50;0;0;
07.06.11;Nico Claassen;110025-447;170;Coldstart: Concept, Server, Tester. Training for S58;0.50;0;0;
07.06.11;Nico Claassen;110025-446;170;MTS: Concepts. Training for S58;0.50;0;0;
07.06.11;Nico Claassen;110025-445;170;MFT: Hardware, Configuration. Training for S58;0.50;0;0;
07.06.11;Nico Claassen;110018-27;101;S4 Technical Support / Troubleshoot. Supporting colleagues;2;0;0;
07.06.11;Graham Meyer;110117-224;120;1002: Seq.: (CR033hz2): Regelflashen: autom. Programmierung: Impl.. Adapting Flasing CTS;8;1;0;
07.06.11;Thando Katywa;110117-269;120;1004: FlashJob Logfile: (CR109da3): FlashJob Logfile: Impl.. Working on Sicherung Flashjob Log task and Working on bug 29947;4.00;1;0;
07.06.11;Thando Katywa;110117-270;120;1004: FlashJob Logfile: (CR109da3): Log-Name: Impl.. Working on Sicherung Flashjob Log task and Working on bug 29947;4;0;0;
07.06.11;Ludumo Sankobe;110025-391;170;Training: P.Automation. P.Automation: Training;8;1;0;
07.06.11;Paul Helliwell;110025-452;170;General Training: Preparation TIme. Training preperation;8;1;0;
07.06.11;Ntombenkosi Maldaki;110036-256;170;Production: get into subject, practice in production. Training;5.00;1;0;
07.06.11;Ntombenkosi Maldaki;110025-0;170;Training: P.Authouring. Training;3;0;0;
07.06.11;Mark Britten;110025-369;170;Training. Preparing presentation materials for SVN presentation.;8;1;0;
07.06.11;Wesley Saunders;110036-257;170;Production: get into subject, practice in production. Training in production at General Motors;8;1;0;
07.06.11;Francois Sayster;110025-371;170;Training. Created classes and data access layer to communicate with database;8;1;0;
07.06.11;Mario Jansen van Vuuren;110036-189;170;DaigFunktionen /s63-anlrn. Worked on Bug #30066;6.00;1;0;
07.06.11;Mario Jansen van Vuuren;110036-189;170;DaigFunktionen /s63-anlrn. Worked on Bug  #29682;2;0;0;
08.06.11;Brendan van Zyl;100540-0;120;NA-Tester: Clear DTC. Extension to the Clear DTC service into a new CTS, update to HandleService;8;1;0;
08.06.11;Nico Claassen;110018-27;101;S4 Technical Support / Troubleshoot. Supporting colleagues;8;1;0;
08.06.11;Graham Meyer;110117-222;120;1002: Seq.: (CR033hz2): Regelflashen: Attribut ''Optional'': Impl.. Implementing optional flashing step;8;1;0;
08.06.11;Thando Katywa;110117-270;120;1004: FlashJob Logfile: (CR109da3): Log-Name: Impl.. Working on Sicherung Flashjob Log task and Working on bug 30358;8;1;0;
08.06.11;Ludumo Sankobe;100334-1852;181;1104 P1 #29707 (major) LH: Systemanpassung: Different workflows in PIDT and PIWIS, LH. Fixing Bugs - LH # 29707;8;1;0;
08.06.11;Paul Helliwell;110025-368;170;Training. Prodis office training and examples with S41;8;1;0;
08.06.11;Ntombenkosi Maldaki;110025-0;170;Training: P.Office. Training: fiilling_dt2_mip_LibMain;8;1;0;
08.06.11;Mark Britten;110025-369;170;Training. Reading about the SVN;8;1;0;
08.06.11;Wesley Saunders;110025-403;170;Training: P.Automation. Starting fixing XML IO building blocks;8;1;0;
08.06.11;Francois Sayster;110025-371;170;Training. Created tables and related stored procedures;8;1;0;
08.06.11;Mario Jansen van Vuuren;110036-189;170;DaigFunktionen /s63-anlrn. Fixing bugs;8;1;0;
09.06.11;Brendan van Zyl;110025-374;170;Training. SVN training for PRODIS.Automation;0.50;1;0;
09.06.11;Brendan van Zyl;100540-0;120;NA-Tester. Measurement value and ComplexTableWidget problem solutions implementation;7.5;0;0;
09.06.11;Nico Claassen;110025-0;170;Schulung. SVN Training;1.00;1;0;
09.06.11;Nico Claassen;110018-27;101;S4 Technical Support / Troubleshoot. Supporting colleagues;7;0;0;
09.06.11;Graham Meyer;110117-223;120;1002: Seq.: (CR033hz2): Regelflashen: Fehlerbehandlung: Impl.. Implementing error behaviour;8;1;0;
09.06.11;Thando Katywa;110036-178;170;Write-Only Coding /s44-anlrn. Working on PIDT SWE Bugs;8;1;0;
09.06.11;Ludumo Sankobe;100334-1852;181;1104 P1 #29707 (major) LH: Systemanpassung: Different workflows in PIDT and PIWIS, LH. Fixing Bugs - LH # 29707;8;1;0;
09.06.11;Paul Helliwell;110025-368;170;Training. Prodis office training and examples with S41;8;1;0;
09.06.11;Ntombenkosi Maldaki;110025-0;170;Training: P.Office. Training: fiilling_dt2_mip_LibMain;8;1;0;
09.06.11;Mark Britten;110025-369;170;Training. Presenting SVN information, helping other colleagues with their work;8;1;0;
09.06.11;Mark Britten;100540-87;102;WebStatistik: Spezif. Bausteine C9.1/AE20. Closing Task;0;0;0;
09.06.11;Mark Britten;100540-88;120;WebStatistik: Umsetzung der Bausteine (incl. Doku - Polarion) C9.2/AE20. Closing Task.;0;0;0;
09.06.11;Mark Britten;09.00790-2875;120;2240: P.Autom: R4: P.Lib F5-36: DTOBJ. Closing Task.;0;0;0;
09.06.11;Wesley Saunders;110025-403;170;Training: P.Automation. Starting fixing XML IO test sequence;8;1;0;
09.06.11;Francois Sayster;110025-371;170;Training. Training on the operation of Tortoise SVN;1.00;1;0;
09.06.11;Francois Sayster;110025-371;170;Training. Problem solving filesystemwatch bug;7;0;0;
09.06.11;Mario Jansen van Vuuren;110036-189;170;DaigFunktionen /s63-anlrn. Fixing bugs;8;1;0;
10.06.11;Brendan van Zyl;110018-24;101;Wochenaufgaben AES. Weekly timesheet report.;0.50;1;0;
10.06.11;Brendan van Zyl;110025-0;170;P.Automation: get into subject. Web Statistik HTML Toolkit;7.5;0;0;
10.06.11;Nico Claassen;110023-0;910;Urlaub. Day Off;8;1;0;
10.06.11;Graham Meyer;110117-227;120;1002: Seq.: (CR033hz2): MCR-Codierung: autom. Codierung: Impl.. Adapting Coding CTS;8;1;0;
10.06.11;Thando Katywa;110036-178;170;Write-Only Coding /s44-anlrn. Working on PIDT SWE Bugs;8;1;0;
10.06.11;Ludumo Sankobe;110025-185;170;Training: CTS Impl.. Self Study;2.00;1;0;
10.06.11;Ludumo Sankobe;100540-123;104;Tab. Widgets: TestSpec erstellen C3.3/AE20. Doing Tab Widgest Test Spec;6;0;0;
10.06.11;Paul Helliwell;110018-33;101;S4/DSA overall tasks. Assisting collegue with P-office;3.00;1;0;
10.06.11;Paul Helliwell;110025-452;170;General Training: Preparation TIme. Training preperation;4.50;0;0;
10.06.11;Paul Helliwell;110018-34;101;Wochenaufgaben AES. Timesheets;0.5;0;0;
10.06.11;Ntombenkosi Maldaki;110025-0;170;Training: P.Office. Training: fiilling_dt2_mip_LibMain;8;1;0;
10.06.11;Mark Britten;110036-255;170;Production: get into subject, practice in production. Training f2 on HTML webkit and updating DSA wiki;6.00;1;0;
10.06.11;Mark Britten;110018-37;101;Wochenaufgaben AES. Filling out timesheets and closing tasks;2;0;0;
10.06.11;Wesley Saunders;110018-39;101;Wochenaufgaben AES. Meetings and Timesheets;2.00;1;0;
10.06.11;Wesley Saunders;110025-403;170;Training: P.Automation. Starting fixing XML IO building blocks and test sequences;5.00;0;0;
10.06.11;Wesley Saunders;110025-403;170;Training: P.Automation. SVN training;1;0;0;
10.06.11;Francois Sayster;110018-40;101;Wochenaufgaben AES. Timesheets and meeting;1.50;1;0;
10.06.11;Francois Sayster;110025-371;170;Training. Creating forms and related code for bin picking system;6.5;0;0;
10.06.11;Mario Jansen van Vuuren;110036-189;170;DaigFunktionen /s63-anlrn. Fixing bugs;8;1;0;