"03.01.11","1","100023","1690","910","Urlaub","","0","Urlaub 17.12.2010-09.01.2011. Holiday","07:00","16:00","8","60",
"04.01.11","2","100023","1690","910","Urlaub","","0","Urlaub 17.12.2010-09.01.2011. Holiday","07:00","16:00","8","60",
"05.01.11","3","100023","1690","910","Urlaub","","0","Urlaub 17.12.2010-09.01.2011. Holiday","07:00","16:00","8","60",
"06.01.11","4","100023","1690","910","Urlaub","","0","Urlaub 17.12.2010-09.01.2011. Holiday","07:00","16:00","8","60",
"07.01.11","5","100023","1690","910","Urlaub","","100","Urlaub 17.12.2010-09.01.2011. Holiday","07:00","16:00","8","60",
