"28.03.11","1","100334","1097","181","Fehlerbes. vor Ausl. (Bugzilla)","","0","5020: Alt-BR: Alarm: Bugfixing zu Integrationstest. Fixing Bugs - Alarm # 29099, Alarm # 28976, Alarm # 29103","07:00","16:00","8","60",
"29.03.11","2","100334","1097","181","Fehlerbes. vor Ausl. (Bugzilla)","","0","5020: Alt-BR: Alarm: Bugfixing zu Integrationstest. Fixing Bugs - Alarm # 29034, DME # 29213, DME # 29141","07:00","16:00","8","60",
"30.03.11","3","100334","963","181","Fehlerbes. vor Ausl. (Bugzilla)","","0","3000: Alt-BR: Motronic: Bugfixing zu Integrationstest. Fixinf Bugs - DME # 29269,  DME # 29200","07:00","16:00","4,5","60",
"30.03.11","3","110025","375","170","Schulung","","0","P.Automation: get into subject. P.Automation training","","","3,5","0",
"31.03.11","4","100334","963","181","Fehlerbes. vor Ausl. (Bugzilla)","","0","3000: Alt-BR: Motronic: Bugfixing zu Integrationstest. Fixing Bugs - DME # 29161,DME # 29153, DME # 29162","07:00","16:00","8","60",
"01.04.11","5","110018","32","101","PM/Mod/Meetings","","0","Wochenaufgaben AES. Department Meeting and Doing Timesheets","07:00","16:00","2","60",
"01.04.11","5","100334","963","181","Fehlerbes. vor Ausl. (Bugzilla)","","0","3000: Alt-BR: Motronic: Bugfixing zu Integrationstest. Fixinf Bugs - DME # 29162","","","6","0",
