"23.05.11","1","100369","2225","101","PM/Mod/Meetings","","0","8900: Q-Absicher.: Vorbereitungszeit MAN /em118sc1. Creation of DocBook for Authoring ODX","07:00","16:00","3","60",
"23.05.11","1","110023","0","910","Urlaub","","0","Urlaub. Holiday","","","5","0",
"24.05.11","2","100369","2225","101","PM/Mod/Meetings","","20","8900: Q-Absicher.: Vorbereitungszeit MAN /em118sc1. Creation of DocBook for Authoring ODX","07:00","16:00","8","60",
"25.05.11","3","100369","2225","101","PM/Mod/Meetings","","40","8900: Q-Absicher.: Vorbereitungszeit MAN /em118sc1. Creation of DocBook for Authoring ODX","07:00","16:00","8","60",
"26.05.11","4","100369","2225","101","PM/Mod/Meetings","","50","8900: Q-Absicher.: Vorbereitungszeit MAN /em118sc1. Creation of DocBook for Authoring ODX","07:00","16:00","8","60",
"27.05.11","5","100369","2225","101","PM/Mod/Meetings","","76","8900: Q-Absicher.: Vorbereitungszeit MAN /em118sc1. Creation of DocBook for Authoring ODX","07:00","16:00","8","60",
