"28.02.11","1","0","0","170","Schulung","","0","Working on bug 28190. Worked on bug 28190","08:00","16:30","8","30",
"01.03.11","2","0","0","170","Schulung","","0","Working on bug 28190. Worked on bug 28190","08:00","16:30","8","30",
"02.03.11","3","0","0","170","Schulung","","0","Working on bug 28190. Worked on bug 28190","08:00","16:30","8","30",
"03.03.11","4","0","0","170","Schulung","","0","Working on bug 28190. Worked on bug 28190","08:00","16:30","8","30",
