"31.10.11","1","110292","42","120","Codierung","","40","1002: Mask_Liste_DML: XML Schema und Parser (CR130mp2) E2.1/pa10. Updates to DML","07:00","16:00","8","60",
"01.11.11","2","110292","42","120","Codierung","","90","1002: Mask_Liste_DML: XML Schema und Parser (CR130mp2) E2.1/pa10. Updates to DML","07:00","16:00","8","60",
"02.11.11","3","110292","42","120","Codierung","","95","1002: Mask_Liste_DML: Auswertungsalgorithmus (CR130mp2) E2.2/pa10. Updates to DML","07:00","16:00","4,5","60",
"02.11.11","3","110292","19","120","Codierung","","100","1000: LIN Slaves: SG deaktivieren (CR129my1) E1.3pa10. CLOSING TASK","","","0","0",
"02.11.11","3","110292","10","101","PM/Mod/Meetings","","0","8501: weekly telephone conference. Weekly telco","","","0,5","0",
"02.11.11","3","110292","9","182","Fehlerbes. nach Ausl. (Bugzilla)","","0","1010: Bugfixing aus Vorreleases. Bug 29806","","","3","0",
"03.11.11","4","110292","9","182","Fehlerbes. nach Ausl. (Bugzilla)","","0","1010: Bugfixing aus Vorreleases. Bug 29806","07:00","16:00","8","60",
"04.11.11","5","110292","0","170","Schulung","","0","CR136my3: Progressbar in PIDT Splash-Screen. Getting into Subject","07:00","16:00","8","60",
