"04.04.11","1","100334","1600","181","Fehlerbes. vor Ausl. (Bugzilla)","","100","6020: Alt-BR: Heizung: Bugfixing zu Integrationstest. Bug #29278 Updated CTS to display 0,00 when the stop service is executed.","07:00","16:00","2","60",
"04.04.11","1","110025","371","170","Schulung","","75","Training. Going through training material and application","","","6","0",
"05.04.11","2","100334","1727","181","Fehlerbes. vor Ausl. (Bugzilla)","","100","1027: P3 #29324 (normal) Heizung : H08 : Actuator KondensatorgeblA¤se wrong, Heizung / Klima. fixed bug waiting for retest results","07:00","16:00","4","60",
"05.04.11","2","100334","1600","181","Fehlerbes. vor Ausl. (Bugzilla)","","95","6020: Alt-BR: Heizung: Bugfixing zu Integrationstest. Bug #29439 upadted sequence and xml file","","","2","0",
"05.04.11","2","110025","371","170","Schulung","","83","Training. Going through training material and application","","","2","0",
"06.04.11","3","100334","962","181","Fehlerbes. vor Ausl. (Bugzilla)","","100","3000: Alt-BR: Motronic: Bugfixing zu Integrationstest. (from s53) Fixed ODX, MOTS, MOTR and verified testlink for DME M04 and M06. Pttd measure. value.","07:00","16:00","8","60",
"07.04.11","4","110018","40","101","PM/Mod/Meetings","","60","Wochenaufgaben AES. Waiting for CTS Authoring","07:00","16:00","8","60",
"08.04.11","5","110018","40","101","PM/Mod/Meetings","","0","Wochenaufgaben AES. Timesheets and meeting","07:00","16:00","1,5","60",
"08.04.11","5","110025","371","170","Schulung","","85","DSA AAC	Training. Going through training material and application","","","3,5","0",
"08.04.11","5","100334","1600","181","Fehlerbes. vor Ausl. (Bugzilla)","","95","6020: Alt-BR: Heizung: Bugfixing zu Integrationstest. Bug#29276 Complete and test","","","3","0",
