"07.03.11","1","100334","1109","110","Engineering","","100","6022: Alt-BR: Heizung: Stellglieder: PH, Testspec Review. Task closed.","07:00","16:00","0","60",
"07.03.11","1","100334","1363","110","Engineering","","100","4062: Alt-BR: ABS: stat Test: PH+Testspec Review. Task closed.","","","0","0",
"07.03.11","1","110025","363","170","Schulung","","0","P.Automation: get into subject. Create release config, add PRODIS.Office files + releasing.","","","8","0",
"08.03.11","2","110025","363","170","Schulung","","0","P.Automation: get into subject. Executing cts's through runapp.ini + JRTS + MSL","07:00","16:00","8","60",
"09.03.11","3","110018","28","101","PM/Mod/Meetings","","0","S4 Administrative Tasks. Misc. S4 admin work","07:00","16:00","4","60",
"09.03.11","3","110025","363","170","Schulung","","0","P.Automation: get into subject. IDT Communcations. Working with MSL building blocks.","","","4","0",
"10.03.11","4","110025","363","170","Schulung","","0","P.Automation: get into subject. Threads, Publishing, Stringresources, Screens","07:00","16:00","7,5","60",
"10.03.11","4","100334","52","101","PM/Mod/Meetings","","0","8501: Alt-BR: ProjStatus + Bespr C1.1/ae14. Telco with md","","","0,5","0",
"11.03.11","5","110018","28","101","PM/Mod/Meetings","","0","S4 Administrative Tasks. S4 Server admin","07:00","16:00","2","60",
"11.03.11","5","110025","363","170","Schulung","","0","P.Automation: get into subject. LAS conditions, vehicle data","","","5","0",
"11.03.11","5","110018","26","101","PM/Mod/Meetings","","0","Wochenaufgaben AES. Timesheets + Weekly meetings","","","1","0",
