"23.05.11","1","110018","27","101","PM/Mod/Meetings","","0","S4 Technical Support / Troubleshoot. Supporting colleagues","07:00","16:00","8","60",
"24.05.11","2","110018","27","101","PM/Mod/Meetings","","0","S4 Technical Support / Troubleshoot. Supporting colleagues","07:00","16:00","8","60",
"25.05.11","3","110018","27","101","PM/Mod/Meetings","","0","S4 Technical Support / Troubleshoot. Supporting colleagues","07:00","16:00","4","60",
"25.05.11","3","110023","0","910","Urlaub","","100","Urlaub. Helping with S4 problem at VWSA","","","4","0",
"26.05.11","4","110023","0","910","Urlaub","","100","Urlaub. Helping with S4 problem at VWSA","07:00","16:00","6","60",
"26.05.11","4","110018","27","101","PM/Mod/Meetings","","0","S4 Technical Support / Troubleshoot. Supporting colleagues","","","2","0",
"27.05.11","5","110018","26","101","PM/Mod/Meetings","","0","Wochenaufgaben AES. Timesheets + Weekly meetings","07:00","16:00","2","60",
"27.05.11","5","110018","27","101","PM/Mod/Meetings","","0","S4 Technical Support / Troubleshoot. Assisting colleagues","","","6","0",
