"19.12.11","1","110023","0","910","Urlaub","","0","Holiday. Holiday","07:00","16:00","8","60",
"20.12.11","2","110023","0","920","Krankheit","","0","Holiday. Holiday","07:00","16:00","8","60",
"21.12.11","3","110023","0","910","Urlaub","","0","Holiday. Holiday","07:00","16:00","8","60",
"22.12.11","4","110023","0","910","Urlaub","","0","Holiday. Holiday","07:00","16:00","8","60",
"23.12.11","5","110023","0","910","Urlaub","","0","Holiday. Holiday","07:00","16:00","8","60",
