"05.12.11","1","110036","413","170","Schulung","","0","Einarbeitung Ablaufentwicklung mit Authoring.ODX. Fisker Authoring training","07:00","16:00","8","60",
"06.12.11","2","110036","413","170","Schulung","","0","Einarbeitung Ablaufentwicklung mit Authoring.ODX. Fisker Authoring training","07:00","16:00","8","60",
"07.12.11","3","110036","413","170","Schulung","","0","Einarbeitung Ablaufentwicklung mit Authoring.ODX. Fisker Authoring training","07:00","16:00","8","60",
"08.12.11","4","110036","413","170","Schulung","","0","Einarbeitung Ablaufentwicklung mit Authoring.ODX. Fisker Authoring training","07:00","16:00","8","60",
"09.12.11","5","110018","35","101","PM/Mod/Meetings","","0","Wochenaufgaben AES. Meetings and updating timesheets","07:00","16:00","2,5","60",
"09.12.11","5","110618","0","120","Codierung","","0","FISKER: PWR-MODE-PRE-COND. CTS implementation","","","5,5","0",
