"09.05.11","1","100334","1848","181","Fehlerbes. vor Ausl. (Bugzilla)","","100","1104 P1 #29831 (critical) Heizung_H08: Actuators: Index out of bound Exception, Heizung / Klima. Bugfix #29831","07:00","16:00","4","60",
"09.05.11","1","110025","371","170","Schulung","","98","Training. Going through training material and application for building blocks","","","4","0",
"10.05.11","2","110025","371","170","Schulung","","98","Training. Going through training material and application","07:00","16:00","8","60",
"11.05.11","3","110025","371","170","Schulung","","98","Training. trying to implement mft building blocks","07:00","16:00","8","60",
"12.05.11","4","110025","371","170","Schulung","","98","Training. auto geration of test specification","07:00","16:00","1","60",
"12.05.11","4","110025","371","170","Schulung","","0","Training. create and test mft and fcalc building blocks","","","7","0",
"13.05.11","5","110018","40","101","PM/Mod/Meetings","","0","Wochenaufgaben AES. Timesheets and meeting","07:00","16:00","1,5","60",
"13.05.11","5","110025","371","170","Schulung","","98","Training. creat and test building blocks","","","6,5","0",
