"28.11.11","1","110023","0","910","Urlaub","","0","Holiday. Annual leave","07:00","16:00","8","60",
"29.11.11","2","110023","0","910","Urlaub","","0","Holiday. Annual leave","07:00","16:00","8","60",
"30.11.11","3","110676","34","120","Codierung","","0","PTTD 1.5.0: Implement additional requriements.. Requirement 2.3","07:00","16:00","8","60",
"01.12.11","4","110676","34","120","Codierung","","0","PTTD 1.5.0: Implement additional requriements.. Requirements 2.3 and 2.5","07:00","16:00","8","60",
"02.12.11","5","110022","307","101","PM/Mod/Meetings","","0","Wochenaufgaben SDR 2011. Weekly timesheet report, meetings","07:00","16:00","1","60",
"02.12.11","5","110023","0","910","Urlaub","","0","Urlaub. Afternoon leave","","","3","0",
"02.12.11","5","110676","34","120","Codierung","","100","PTTD 1.5.0: Implement additional requriements.. Requirements 2.3 and 2.8","","","4","0",
