"21.02.11","1","0","0","170","Schulung","","100","Getting into Subject Pidt SWE. Getting ready for setting up our development environment","08:30","17:00","6","30",
"21.02.11","1","0","0","100","SOFTWARE-ENTWICKLUNG (SWE)","","100","Travelling. Travelling to DSA","","","2","0",
"22.02.11","2","0","0","170","Schulung","","100","Getting into Subject Pidt SWE. Imported PIDT projects into Eclipse and fixed errors","08:30","17:00","8","30",
"23.02.11","3","0","0","170","Schulung","","100","Getting into Subject Pidt SWE. Introduction to PIDT classes","08:30","17:00","8","30",
"24.02.11","4","0","0","170","Schulung","","100","Getting into Subject Pidt SWE. Run and debug PIDT and got access to the correct Authoring","08:30","17:00","8","30",
"25.02.11","5","0","0","170","Schulung","","0","Getting into Subject Pidt SWE. Retest a validated bug and PTTD","08:30","17:00","8","30",
