"18.04.11","1","110025","0","170","Schulung","","100","P.Automation: Training. P.Automation: Training","07:00","16:00","2","60",
"18.04.11","1","110025","0","170","Schulung","","0","P.Automation: get into subject. Installing and going through P.Automation matirial","","","6","0",
"19.04.11","2","110025","0","170","Schulung","","0","P.Automation: get into subject. Installing and going through P.Automation training matirial","07:00","16:00","8","60",
"20.04.11","3","100334","1207","181","Fehlerbes. vor Ausl. (Bugzilla)","","0","1104: Alt-BR: RegrTests Bugfixing. Fixinf Bugs - Alarm # 29011,# 29038","07:00","16:00","8","60",
"21.04.11","4","100334","1207","181","Fehlerbes. vor Ausl. (Bugzilla)","","0","1104: Alt-BR: RegrTests Bugfixing. Fixinf Bugs - Alarm # 29707","07:00","16:00","8","60",
"22.04.11","5","110023","0","910","Urlaub","","0","Holiday. Public Holiday","07:00","16:00","8","60",
