"14.02.11","1","100334","1107","102","Spez: LH/PH/Design","","100","6022: Alt-Br: Heizung: Stellglieder: PH. Task already closed, updates to PH after review","07:00","16:00","8","60",
"15.02.11","2","110018","24","101","PM/Mod/Meetings","","0","Wochenaufgaben AES. Staff meeting","07:00","16:00","0,5","60",
"15.02.11","2","100334","1110","120","Codierung","","100","6022: Alt-Br: Heizung: Stellglieder: Implementierung. Task already closed; changes to CTS after review","","","4,5","0",
"15.02.11","2","100334","1107","102","Spez: LH/PH/Design","","100","6022: Alt-Br: Heizung: Stellglieder: PH. Task already closed; changes to PH after review","","","3","0",
"16.02.11","3","100023","0","910","Urlaub","","0","Urlaub. Time-off","07:00","16:00","1,25","60",
"16.02.11","3","100334","1110","120","Codierung","","100","6022: Alt-Br: Heizung: Stellglieder: Implementierung. Task already closed; changes to CTS after review","","","6,75","0",
"17.02.11","4","100023","0","910","Urlaub","","0","Urlaub. Time-off","07:00","16:00","0,5","60",
"17.02.11","4","100334","1110","120","Codierung","","100","6022: Alt-Br: Heizung: Stellglieder: Implementierung. Task already closed, bug-fixing and updates after PH review","","","7,5","0",
"18.02.11","5","110018","24","101","PM/Mod/Meetings","","0","Wochenaufgaben AES. Weekly timesheet report, department meeting.","07:00","16:00","1,5","60",
"18.02.11","5","100334","1141","181","Fehlerbes. vor Ausl. (Bugzilla)","","0","3021: Alt-BR: LH: ODX Bug-fixing. Bug-fixing after testing vs sim: Bug 28436","","","3","0",
"18.02.11","5","100334","1163","140","Test","","0","3042; Alt-Br: PSD; Stellglieder: Module test + bug-fixing. Testing and bug-fixing","","","3,5","0",
