"10.01.11","1","09.00582","2838","182","Fehlerbes. nach Ausl. (Bugzilla)","","0","6026: 9x6: Bug-fixing: BF-test 1.0.1. Implementation and bug-fixing of Klima GT ECU.","07:00","16:00","8","60",
"11.01.11","2","09.00582","2838","182","Fehlerbes. nach Ausl. (Bugzilla)","","0","6026: 9x6: Bug-fixing: BF-test 1.0.1. Bug 27514: Klima GT impl and bug-fixing","07:00","16:00","8","60",
"12.01.11","3","100023","0","910","Urlaub","","0","Urlaub. Time-off","07:00","16:00","1","60",
"12.01.11","3","09.00582","2838","182","Fehlerbes. nach Ausl. (Bugzilla)","","0","6026: 9x6: Bug-fixing: BF-test 1.0.1. Bug 27514: Klima GT impl and bug-fixing","","","7","0",
"13.01.11","4","09.00582","2838","182","Fehlerbes. nach Ausl. (Bugzilla)","","0","6026: 9x6: Bug-fixing: BF-test 1.0.1. Bug 27514: Klima GT impl and bug-fixing","07:00","16:00","7,75","60",
"13.01.11","4","100023","0","910","Urlaub","","0","Urlaub. Time-off","","","0,25","0",
"14.01.11","5","110018","24","101","PM/Mod/Meetings","","0","Wochenaufgaben AES. Weekly timesheet report, department meeting.","07:00","16:00","1,5","60",
"14.01.11","5","100334","1253","120","Codierung","","75","3021: Alt-BR: LH: ODX Bedat. ODX implementation","","","4,5","0",
"14.01.11","5","09.00582","2838","182","Fehlerbes. nach Ausl. (Bugzilla)","","100","6026: 9x6: Bug-fixing: BF-test 1.0.1. Klima GT ODX MOTS creation and simulations","","","2","0",
