"06.06.11","1","100540","68","104","Test-Spezifikation","","0","NA-Tester. Creating TestCases for NATester Building Blocks and Scripts","07:00","16:00","8","60",
"07.06.11","2","110025","391","170","Schulung","","0","Training: P.Automation. P.Automation: Training","07:00","16:00","8","60",
"08.06.11","3","100334","1852","181","Fehlerbes. vor Ausl. (Bugzilla)","","0","1104 P1 #29707 (major) LH: Systemanpassung: Different workflows in PIDT and PIWIS, LH. Fixing Bugs - LH # 29707","07:00","16:00","8","60",
"09.06.11","4","100334","1852","181","Fehlerbes. vor Ausl. (Bugzilla)","","0","1104 P1 #29707 (major) LH: Systemanpassung: Different workflows in PIDT and PIWIS, LH. Fixing Bugs - LH # 29707","07:00","16:00","8","60",
"10.06.11","5","110025","185","170","Schulung","","0","Training: CTS Impl.. Self Study","07:00","16:00","2","60",
"10.06.11","5","100540","123","104","Test-Spezifikation","","0","Tab. Widgets: TestSpec erstellen C3.3/AE20. Doing Tab Widgest Test Spec","","","6","0",
