"21.02.11","1","100334","907","102","Spez: LH/PH/Design","","100","3004: Alt-BR: Motronic: Zyklusflag: PH. PH updated after Review from s53","07:00","16:00","8","60",
"22.02.11","2","100334","1030","140","Test","","80","5003: Alt-BR: Airbag: Verriegeln: Modultest+Bugfixing. Testing and Bugfixing Verriegeln CTS","07:00","16:00","8","60",
"23.02.11","3","100334","1030","140","Test","","100","5003: Alt-BR: Airbag: Verriegeln: Modultest+Bugfixing. Testing and Bugfixing Verriegeln CTS","07:00","16:00","5","60",
"23.02.11","3","100334","1085","120","Codierung","","0","5026: Alt-BR: Alarm: Codierungen: Implementierung. Implementing  Alarm Codierungen CTS from s61","","","3","0",
"24.02.11","4","100334","1085","120","Codierung","","20","5026: Alt-BR: Alarm: Codierungen: Implementierung. Implementing  Alarm Codierungen CTS from s61","07:00","16:00","8","60",
"25.02.11","5","100334","1085","120","Codierung","","50","5026: Alt-BR: Alarm: Codierungen: Implementierung. Implementing  Alarm Codierungen CTS","07:00","16:00","6","60",
"25.02.11","5","110018","32","101","PM/Mod/Meetings","","0","Wochenaufgaben AES. Department Meeting and Doing Timesheets","","","2","0",
