"10.01.11","1","09.00582","2835","182","Fehlerbes. nach Ausl. (Bugzilla)","","100","6026: 9x6: Bugfixing: BF-Test 1.0.1. From s54: working on bugs 27162, 27510 and 27357","07:00","16:00","8","60",
"11.01.11","2","100023","0","920","Krankheit","","0","Sick leave. Sick leave","07:00","16:00","8","60",
"12.01.11","3","100334","1154","120","Codierung","","0","3041: Alt-BR: PSD: ODX Bedat. Adding missing ODX","07:00","16:00","3","60",
"12.01.11","3","09.00582","2835","182","Fehlerbes. nach Ausl. (Bugzilla)","","100","6026: 9x6: Bugfixing: BF-Test 1.0.1. From s54: working on bugs 27510 and 27353","","","5","0",
"13.01.11","4","09.00582","2835","182","Fehlerbes. nach Ausl. (Bugzilla)","","100","6026: 9x6: Bugfixing: BF-Test 1.0.1. From s54: working on bugs 27510","07:00","16:00","3","60",
"13.01.11","4","100334","1154","120","Codierung","","100","3041: Alt-BR: PSD: ODX Bedat. Adding missing ODX","","","5","0",
"14.01.11","5","110018","31","101","PM/Mod/Meetings","","0","Wochenaufgaben AES. Common project tasks, meetings and completing timesheets","07:00","16:00","1,5","60",
"14.01.11","5","100334","890","120","Codierung","","100","3001: Alt-BR: Motronic: ODX Bedat. Adding missing ODX and assisting with measument implementation changes","","","6,5","0",
