"11.07.11","1","110117","360","181","Fehlerbes. vor Ausl. (Bugzilla)","","0","1002: Seq.: (CR033hz2): Bugfixing Puffer. Bug: 30681, 30682","07:00","16:00","8","60",
"12.07.11","2","110117","360","181","Fehlerbes. vor Ausl. (Bugzilla)","","0","1002: Seq.: (CR033hz2): Bugfixing Puffer. Bug: 30723, 30681","07:00","16:00","8","60",
"13.07.11","3","110117","361","101","PM/Mod/Meetings","","0","8501: weekly telephone conference. Weekly telco","07:00","16:00","0,5","60",
"13.07.11","3","110117","360","181","Fehlerbes. vor Ausl. (Bugzilla)","","0","1002: Seq.: (CR033hz2): Bugfixing Puffer. Bug: 30680","","","7,5","0",
"14.07.11","4","110023","0","920","Krankheit","","0","Sick Leave. Sick Leave","07:00","16:00","8","60",
"15.07.11","5","110117","360","181","Fehlerbes. vor Ausl. (Bugzilla)","","0","1002: Seq.: (CR033hz2): Bugfixing Puffer. Bugfixing","07:00","16:00","4","60",
"15.07.11","5","110117","203","104","Test-Spezifikation","","90","1001: Kodierung o. Lesedienst (CR033hz3): Testspec. Creating Test Spec","","","4","0",
