"11.04.11","1","110025","0","170","Schulung","","100","Training. P.Automation: learning and testing java classes in P.Automation","07:00","16:00","8","60",
"12.04.11","2","110025","0","170","Schulung","","0","Training. P.Automation: Self learning and practice on ''ODX with error handling''","07:00","16:00","8","60",
"13.04.11","3","110025","0","170","Schulung","","0","Training. P.Automation: Self learning ''Building Statistic Context Hierarchy'' and ''Defining Statistic data''","07:00","16:00","8","60",
"14.04.11","4","110025","0","170","Schulung","","0","Training. P.Automation: Run existing sequences that handle statistics to grasp understanding","07:00","16:00","8","60",
"15.04.11","5","110025","0","170","Schulung","","0","Training. P.Automation: learn and test statistical evaluation in Test sequence.","07:00","16:00","8","60",
