"09.05.11","1","09.00790","2784","120","Codierung","","0","2340: P.Autom: R4: P.Lib F5-31: PROT2X Impl. Implementing Building Blocks","07:00","16:00","2","60",
"09.05.11","1","110025","0","170","Schulung","","0","Schulung. Polarion training","","","2","0",
"09.05.11","1","100018","27","101","PM/Mod/Meetings","","0","S4 Technical Support / Troubleshooting. Supporting colleagues","","","4","0",
"10.05.11","2","09.00790","2784","120","Codierung","","60","2340: P.Autom: R4: P.Lib F5-31: PROT2X Impl. Creating Building Blocks","07:00","16:00","3","60",
"10.05.11","2","110018","28","101","PM/Mod/Meetings","","0","S4 Administrative Tasks. Network and server setup changes","","","5","0",
"11.05.11","3","110018","28","101","PM/Mod/Meetings","","0","S4 Administrative Tasks. Network changeover","07:00","16:00","4","60",
"11.05.11","3","110025","0","170","Schulung","","0","Schulung. Polarion training","","","4","0",
"12.05.11","4","09.00790","2784","120","Codierung","","90","2340: P.Autom: R4: P.Lib F5-31: PROT2X Impl. Creating Test Cases and Polarion entries","07:00","16:00","3","60",
"12.05.11","4","110018","27","101","PM/Mod/Meetings","","0","S4 Technical Support / Troubleshooting. Troubleshooting DT-2. DT-2 has burnt component.","","","2","0",
"12.05.11","4","110018","27","101","PM/Mod/Meetings","","0","S4 Technical Support / Troubleshooting. Supporting colleagues","","","3","0",
"13.05.11","5","09.00790","2785","140","Test","","50","2340: P.Autom: R4: P.Lib F5-31: PROT2X Test. Testing Building Blocks","07:00","16:00","3","60",
"13.05.11","5","110018","27","101","PM/Mod/Meetings","","0","S4 Technical Support / Troubleshooting. Supporting colleagues","","","3","0",
"13.05.11","5","110018","26","101","PM/Mod/Meetings","","0","Wochenaufgaben AES. Timesheets + Weekly meetings","","","2","0",
