"10.01.11","1","110018","27","101","PM/Mod/Meetings","","0","S4 Technical Support / Troubleshooting. Supporting colleagues","07:00","16:00","8","60",
"11.01.11","2","110018","27","101","PM/Mod/Meetings","","0","S4 Technical Support / Troubleshooting. Supporting colleagues","07:00","16:00","8","60",
"12.01.11","3","100334","1013","110","Engineering","","90","5000: Alt-BR: Airbag: ODX Analyse Review. Airbag analysis review","07:00","16:00","3","60",
"12.01.11","3","110018","27","101","PM/Mod/Meetings","","0","S4 Technical Support / Troubleshooting. Supporting colleagues","","","5","0",
"13.01.11","4","110018","28","101","PM/Mod/Meetings","","0","S4 Administrative Tasks. S4 admin work","07:00","16:00","5","60",
"13.01.11","4","110018","27","101","PM/Mod/Meetings","","0","S4 Technical Support / Troubleshooting. Assisting colleagues","","","3","0",
"14.01.11","5","100334","1054","110","Engineering","","100","5020: Alt-BR: Alarm: ODX Analyse Review. Alarm ODX analysis review completed.","07:00","16:00","4","60",
"14.01.11","5","100334","1056","110","Engineering","","60","5020: Alt-BR: Alarm: CTS Analyse Review. Verriegeln review","","","1","0",
"14.01.11","5","110018","26","101","PM/Mod/Meetings","","0","Wochenaufgaben AES. Weekly meetings + Timesheets","","","2","0",
"14.01.11","5","100334","52","101","PM/Mod/Meetings","","0","8501: Alt-BR: ProjStatus + Bespr C1.1/ae14. Weekly Telco with md, sc.","","","1","0",
