"17.01.11","1","100334","1279","120","Codierung","","100","3001: Alt-BR: Motronic: ODX Bedat. Finilised checks and closed task","07:00","16:00","7","60",
"17.01.11","1","100334","62","101","PM/Mod/Meetings","","0","8501: Alt-BR: allg. Projekttätigkeit C1.3/ae14. Project discussion with nc","","","1","0",
"18.01.11","2","100334","1041","110","Engineering","","10","5040: Alt-BR: Airbag (Übernahme 9x6): Analyse. Carried simulations over from 9x6, analysis stage, same dll's used - From f2","07:00","16:00","8","60",
"19.01.11","3","100334","614","110","Engineering","","100","5000: Alt-BR: Airbag: ODX Analyse. Rework simulation menu's and calling methods","07:00","16:00","8","60",
"20.01.11","4","100334","614","110","Engineering","","100","5000: Alt-BR: Airbag: ODX Analyse. Rework simulation menu's and calling methods","07:00","16:00","6","60",
"20.01.11","4","100334","894","140","Test","","5","3001: Alt-BR: Motronic: ODX Test. Assisting with the Test specification reworks before testing can commence","","","2","0",
"21.01.11","5","110018","29","101","PM/Mod/Meetings","","0","Wochenaufgaben AES. Morning meetings","07:00","16:00","1","60",
"21.01.11","5","110018","29","101","PM/Mod/Meetings","","0","Wochenaufgaben AES. Timesheets and checking","","","1","0",
"21.01.11","5","100334","1041","110","Engineering","","20","5040: Alt-BR: Airbag (Übernahme 9x6): Analyse. Migration of the 9x6 Airbag documents into ABR - From f2","","","6","0",
