"29.08.11","1","110101","159","120","Codierung","","100","1102: Enable F1 Help: Integrate into Measurements Z120/pa30. Enabling F1 functionality in Measurement values for DEIS","07:00","16:00","8","60",
"30.08.11","2","110101","161","120","Codierung","","100","1102: Enable F1 Help: Integrate into IOLI Z122/pa30. Enabling F1 functionality in IO control for DEIS","07:00","16:00","8","60",
"31.08.11","3","110292","14","101","PM/Mod/Meetings","","0","8501: weekly tel. conference. Weekly telephone conference","07:00","16:00","0,5","60",
"31.08.11","3","110101","160","120","Codierung","","100","1102: Enable F1 Help: Integrate into DTCs Z121/pa30. Enabling F1 functionality in DTCs for DEIS","","","7,5","0",
"01.09.11","4","110101","162","104","Test-Spezifikation","","0","1102: Enable F1 Help: Extend Testspec Z123/pa30. Creating test cases, simulations and PTTD for DEIS Test spec","07:00","16:00","8","60",
"02.09.11","5","110292","7","182","Fehlerbes. nach Ausl. (Bugzilla)","","0","1010: Bugfixing aus Vorreleases. Working on Bug 30849","07:00","16:00","4","60",
"02.09.11","5","110101","162","104","Test-Spezifikation","","100","1102: Enable F1 Help: Extend Testspec Z123/pa30. Creating test cases, simulations and PTTD for DEIS Test spec","","","4","0",
