"10.10.11","1","110036","392","170","Schulung","","0","Authoring bugs 29699, 29892, 26494, 30110. Bugs 29699, 29892, 26494, 30110","07:00","16:00","8","60",
"11.10.11","2","110036","392","170","Schulung","","0","Authoring bugs 29699, 29892, 26494, 30110. Bugs 29699, 29892, 26494, 30110","07:00","16:00","8","60",
"12.10.11","3","110036","392","170","Schulung","","100","Authoring bugs 29699, 29892, 26494, 30110. Bugs 29699, 29892, 26494, 30110","07:00","16:00","2","60",
"12.10.11","3","110036","393","170","Schulung","","0","Authoring bugs 29699, 29892, 26494, 30110. Bugs 29699, 29892, 26494, 30110","","","6","0",
"13.10.11","4","110036","393","170","Schulung","","0","Authoring bugs 29699, 29892, 26494, 30110. Bugs 29699, 29892, 26494, 30110","07:00","16:00","8","60",
"14.10.11","5","110036","393","170","Schulung","","0","Authoring bugs 29699, 29892, 26494, 30110. Bugs 29699, 29892, 26494, 30110","07:00","16:00","7","60",
"14.10.11","5","110022","307","101","PM/Mod/Meetings","","0","Wochenaufgaben SDR 2011. Weekly timesheet report, SWE team meeting","","","1","0",
