"11.04.11","1","100334","963","181","Fehlerbes. vor Ausl. (Bugzilla)","","0","3000: Alt-BR: Motronic: Bugfixing zu Integrationstest. Fixinf Bugs - DME # 29443","07:00","16:00","8","60",
"12.04.11","2","100334","963","181","Fehlerbes. vor Ausl. (Bugzilla)","","0","3000: Alt-BR: Motronic: Bugfixing zu Integrationstest. Fixinf Bugs - DME # 29443","07:00","16:00","8","60",
"13.04.11","3","100334","1735","120","Codierung","","50","3023: Alt-BR: LH: Systemanpassung: Implementierung. Implementing LH Systemanpassung CTS","07:00","16:00","8","60",
"14.04.11","4","100334","1735","120","Codierung","","100","3023: Alt-BR: LH: Systemanpassung: Implementierung. Implementing LH Systemanpassung CTS","07:00","16:00","8","60",
"15.04.11","5","100334","963","181","Fehlerbes. vor Ausl. (Bugzilla)","","0","3000: Alt-BR: Motronic: Bugfixing zu Integrationstest. Fixinf Bugs - DME # 29701, #29707","07:00","16:00","8","60",
