"25.04.11","1","110023","0","910","Urlaub","","0","Holiday. Time-Off","07:00","16:00","8","60",
"26.04.11","2","110023","0","910","Urlaub","","0","Holiday. Time-Off","07:00","16:00","8","60",
"27.04.11","3","110023","0","170","Schulung","","0","Holiday. Time-Off","07:00","16:00","8","60",
