"03.01.11","1","100023","0","920","Krankheit","","0","Sick leave. Sick Leave","07:00","16:00","8","60",
"04.01.11","2","100334","1269","120","Codierung","","100","3001: Alt-BR: Motronic: ODX Bedat. Tracing problems why services was not executing and installing new PIDT and Baur. setup","07:00","16:00","8","60",
"05.01.11","3","100334","1269","120","Codierung","","80","3001: Alt-BR: Motronic: ODX Bedat. Updated the services for DME M04, M03 according to the updated analysis document","07:00","16:00","4","60",
"05.01.11","3","100334","1269","120","Codierung","","80","3001: Alt-BR: Motronic: ODX Bedat. Tested the services for  M04, M03 and made changes to the simulations","","","4","0",
"06.01.11","4","100334","1269","120","Codierung","","60","3001: Alt-BR: Motronic: ODX Bedat. Updated the services for DME M07, M06 according to the updated analysis document","07:00","16:00","4","60",
"06.01.11","4","100334","1269","120","Codierung","","60","3001: Alt-BR: Motronic: ODX Bedat. Tested the services for  M06, M07 and made changes to the simulations","","","4","0",
"07.01.11","5","100334","1269","120","Codierung","","60","3001: Alt-BR: Motronic: ODX Bedat. Update and test changes to DME M14","07:00","16:00","1","60",
