"18.07.11","1","110117","235","282","Fehlerbes. nach Ausl. (Bugzilla)","","100","Worked on bug 30722. Worked on Bug 30722","07:00","16:00","5","60",
"18.07.11","1","110117","236","104","Test-Spezifikation","","100","1002: Seq.: (CR033hz2): Testspec FAP. Completed FAP Step Test Spec","","","3","0",
"19.07.11","2","110117","238","120","Codierung","","0","1002: Seq.: (CR033hz2): Step FAP: Impl.. Worked on FAP step CTS","07:00","16:00","8","60",
"20.07.11","3","110117","363","101","PM/Mod/Meetings","","0","8501: weekly telephone conference. Meeting","07:00","16:00","1","60",
"20.07.11","3","110117","238","120","Codierung","","0","1002: Seq.: (CR033hz2): Step FAP: Impl.. Reverted changes made to scripts/building blocks and created new script and building block","","","3","0",
"20.07.11","3","110117","220","104","Test-Spezifikation","","0","1002: Seq.: (CR033hz2): Testspec. Worked on extended test cases","","","4","0",
"21.07.11","4","110117","238","281","Fehlerbes. vor Auslieferung","","0","1002: Seq.: (CR033hz2): Step FAP: Impl.. Fixed problems found in code review","07:00","16:00","8","60",
"22.07.11","5","110117","238","181","Fehlerbes. vor Ausl. (Bugzilla)","","0","1002: Seq.: (CR033hz2): Step FAP: Impl.. Fixing problems found in code review","07:00","16:00","4","60",
"22.07.11","5","110117","220","104","Test-Spezifikation","","0","1002: Seq.: (CR033hz2): Testspec. Worked on extended test cases","","","4","0",
