"15.08.11","1","110292","6","102","Spez: LH/PH/Design","","0","1001: Seq.: Spec (CR130mp1). Creating initial Spec","07:00","16:00","8","60",
"16.08.11","2","110292","0","181","Fehlerbes. vor Ausl. (Bugzilla)","","0","Bugfixing. Bug 29806","07:00","16:00","8","60",
"17.08.11","3","110292","6","102","Spez: LH/PH/Design","","100","1001: Seq.: Spec (CR130mp1). Creating initial Spec","07:00","16:00","3","60",
"17.08.11","3","110292","0","181","Fehlerbes. vor Ausl. (Bugzilla)","","0","Bugfixing. Bug 29806","","","4,5","0",
"17.08.11","3","110292","0","101","PM/Mod/Meetings","","0","8501: weekly telephone conference. Weekly telco","","","0,5","0",
"18.08.11","4","110036","0","170","Schulung","","100","Getting into subject. CR130mp2 and CR129my1","07:00","16:00","8","60",
"19.08.11","5","110117","0","181","Fehlerbes. vor Ausl. (Bugzilla)","","0","Bugfixing. Bugfixing","07:00","16:00","8","60",
