"04.04.11","1","110036","89","170","Schulung","","0","allg.Einarbeitung. Getting into subject: PIDT SWE","08:00","16:30","8","30",
"05.04.11","2","110036","89","170","Schulung","","0","allg.Einarbeitung. Getting into subject: PIDT SWE","08:00","16:30","8","30",
"06.04.11","3","110036","89","170","Schulung","","0","allg.Einarbeitung. Getting into subject: PIDT SWE","08:00","16:30","8","30",
"07.04.11","4","110036","89","170","Schulung","","0","allg.Einarbeitung. Getting into subject: PIDT SWE","08:00","16:30","8","30",
"08.04.11","5","110036","89","170","Schulung","","0","allg.Einarbeitung. Getting into subject: PIDT SWE","08:00","16:30","8","30",
