"25.04.11","1","110023","0","910","Urlaub","","0","Urlaub 25.04.2011. South Africa Public holiday 25-04-2011","07:00","16:00","8","60",
"26.04.11","2","110101","93","104","Test-Spezifikation","","0","1015: OBD ScanTool: Mode5&6: Create Testspec E6.4/pa11. Testspec creation","07:00","16:00","1,5","60",
"26.04.11","2","110101","83","104","Test-Spezifikation","","0","1012: OBD ScanTool: Mode1: Create testspec E3.1/pa11. Testspec creation","","","1,5","0",
"26.04.11","2","110101","86","104","Test-Spezifikation","","0","1013: OBD-ScanTool: Mode2: Create test spec E4.1/pa11. Testspec creation","","","1,5","0",
"26.04.11","2","110101","89","104","Test-Spezifikation","","0","1014: OBD ScanTool: Mode3,4,7&A: Create test spec E4.1/pa11. Testspec creation","","","1,5","0",
"26.04.11","2","110101","96","104","Test-Spezifikation","","0","1016: OBD ScanTool: Mode9: Create test spec E7.1/pa11. Testspec creation","","","1,5","0",
"26.04.11","2","110101","80","104","Test-Spezifikation","","0","1011: OBD ScanTool: Vehicle Inform: Create test spec E2.1/pa11. Testspec creation","","","0,5","0",
"27.04.11","3","110023","0","910","Urlaub","","0","Urlaub 27.04.2011. South Africa Public holiday 27-04-2011","07:00","16:00","8","60",
"28.04.11","4","110101","93","104","Test-Spezifikation","","0","1015: OBD ScanTool: Mode5&6: Create Testspec E6.4/pa11. Testspec creation","07:00","16:00","1,5","60",
"28.04.11","4","110101","83","104","Test-Spezifikation","","0","1012: OBD ScanTool: Mode1: Create testspec E3.1/pa11. Testspec creation","","","1,5","0",
"28.04.11","4","110101","86","104","Test-Spezifikation","","0","1013: OBD-ScanTool: Mode2: Create test spec E4.1/pa11. Testspec creation","","","1,5","0",
"28.04.11","4","110101","89","104","Test-Spezifikation","","0","1014: OBD ScanTool: Mode3,4,7&A: Create test spec E4.1/pa11. Testspec creation","","","1,5","0",
"28.04.11","4","110101","96","104","Test-Spezifikation","","0","1016: OBD ScanTool: Mode9: Create test spec E7.1/pa11. Testspec creation","","","1,5","0",
"28.04.11","4","110101","80","104","Test-Spezifikation","","0","1011: OBD ScanTool: Vehicle Inform: Create test spec E2.1/pa11. Testspec creation","","","0,5","0",
"29.04.11","5","110018","24","101","PM/Mod/Meetings","","0","Wochenaufgaben AES. Weekly timesheet report.","07:00","16:00","0,5","60",
"29.04.11","5","110101","80","104","Test-Spezifikation","","0","1011: OBD ScanTool: Vehicle Inform: Create test spec E2.1/pa11. Testspec creation","","","5","0",
"29.04.11","5","110101","93","104","Test-Spezifikation","","0","1015: OBD ScanTool: Mode5&6: Create Testspec E6.4/pa11. Testspec creation","","","0,5","0",
"29.04.11","5","110101","83","104","Test-Spezifikation","","0","1012: OBD ScanTool: Mode1: Create testspec E3.1/pa11. Testspec creation","","","0,5","0",
"29.04.11","5","110101","86","104","Test-Spezifikation","","0","1013: OBD-ScanTool: Mode2: Create test spec E4.1/pa11. Testspec creation","","","0,5","0",
"29.04.11","5","110101","89","104","Test-Spezifikation","","0","1014: OBD ScanTool: Mode3,4,7&A: Create test spec E4.1/pa11. Testspec creation","","","0,5","0",
"29.04.11","5","110101","96","104","Test-Spezifikation","","0","1016: OBD ScanTool: Mode9: Create test spec E7.1/pa11. Testspec creation","","","0,5","0",
