"24.01.11","1","100334","953","120","Codierung","","100","3062: Alt-BR: Getr Tiptronic: Stellglieder: Implementierung. Actutor implementation","07:00","16:00","8","60",
"25.01.11","2","100334","905","120","Codierung","","40","3003: Alt-BR: Motronic: Tankentlüftung: Implementierung. Short test implementation","07:00","16:00","8","60",
"26.01.11","3","100334","905","120","Codierung","","100","3003: Alt-BR: Motronic: Tankentlüftung: Implementierung. Short test implementation","07:00","16:00","8","60",
"27.01.11","4","100334","940","120","Codierung","","100","3010: Alt-BR: Motronic: Stellglieder: Implementierung. Assisting collegue with Actuator GESiC's (from s61)","07:00","16:00","8","60",
"28.01.11","5","09.00582","2831","181","Fehlerbes. vor Ausl. (Bugzilla)","","100","6104: 9x6: RegrTests Bugfixing. 28054; 28050 (from s53)","07:00","16:00","6,5","60",
"28.01.11","5","110018","34","101","PM/Mod/Meetings","","0","Wochenaufgaben AES. Morning meeting","","","1","0",
"28.01.11","5","110018","34","101","PM/Mod/Meetings","","0","Wochenaufgaben AES. Timesheets","","","0,5","0",
