"25.07.11","1","110025","0","170","Schulung","","0","Training: MAN- ODX Get into subject. Working with In2Soft database designer HDS ECU","07:00","16:00","8","60",
"26.07.11","2","110025","0","170","Schulung","","0","Training: MAN- ODX Get into subject. Working with In2Soft database designer HDS ECU","07:00","16:00","8","60",
"27.07.11","3","110025","0","170","Schulung","","0","Training: MAN- ODX Get into subject. Working with In2Soft database designer HDS ECU","07:00","16:00","8","60",
"28.07.11","4","110025","0","170","Schulung","","0","Training: MAN- ODX Get into subject. Working with In2Soft database designer HDS ECU","07:00","16:00","8","60",
"29.07.11","5","110018","35","101","PM/Mod/Meetings","","0","Wochenaufgaben AES. Meeting and updating timesheets","07:00","16:00","2","60",
"29.07.11","5","110025","0","170","Schulung","","0","Training: MAN- ODX Get into subject. Working with In2Soft database designer HDS ECU","","","6","0",
