"21.02.11","1","100334","915","120","Codierung","","50","3005: Alt-BR: Motronic: CO-Einstellung: Implementierung. Implementing of Co-Einstellung sequence(from s53)","07:00","16:00","8","60",
"22.02.11","2","100334","915","120","Codierung","","100","3005: Alt-BR: Motronic: CO-Einstellung: Implementierung. Implementing of Co-Einstellung sequence (from s53)","07:00","16:00","4","60",
"22.02.11","2","100334","913","104","Test-Spezifikation","","25","3005: Alt-BR: Motronic: CO-Einstellung: Testspec + erw. Sim. Creation of test specification (from tn)","","","4","0",
"23.02.11","3","100334","913","104","Test-Spezifikation","","100","3005: Alt-BR: Motronic: CO-Einstellung: Testspec + erw. Sim. Creation of test specification(from tn)","07:00","16:00","4","60",
"23.02.11","3","100334","1080","120","Codierung","","10","5025: Alt-BR: Alarm: Stellglieder: Implementierung. Implemenation of GESiC (from s61)","","","4","0",
"24.02.11","4","100334","1080","120","Codierung","","30","5025: Alt-BR: Alarm: Stellglieder: Implementierung. Implemenation of GESiC (from s61)","07:00","16:00","8","60",
"25.02.11","5","100023","0","910","Urlaub","","0","Holiday. Day off","07:00","16:00","8","60",
