"03.01.11","1","100334","888","120","Codierung","","0","3001: Alt-BR: Motronic: ODX Bedat. Creating ABR_DME Ext DTC's","07:00","16:00","8","60",
"04.01.11","2","100334","888","120","Codierung","","0","3001: Alt-BR: Motronic: ODX Bedat. Creating ABR_DME Ext DTC's","07:00","16:00","8","60",
"05.01.11","3","100334","888","120","Codierung","","0","3001: Alt-BR: Motronic: ODX Bedat. Creating ABR_DME Ext DTC's","07:00","16:00","8","60",
"06.01.11","4","100025","1808","170","Schulung","","0","Training: ODX Creation&Simulation. Trying a different way to implement Ext DTC's for M05","07:00","16:00","3","60",
"06.01.11","4","100334","888","120","Codierung","","0","3001: Alt-BR: Motronic: ODX Bedat. Waiting for Authoring","","","1","0",
"06.01.11","4","100334","888","120","Codierung","","0","3001: Alt-BR: Motronic: ODX Bedat. Creating ABR_DME Ext DTC's","","","4","0",
"07.01.11","5","110018","39","101","PM/Mod/Meetings","","0","Wochenaufgaben AES. Meetings and Timesheets","07:00","16:00","1,5","60",
"07.01.11","5","100334","888","120","Codierung","","40","3001: Alt-BR: Motronic: ODX Bedat. Creating ABR_DME Ext DTC's","","","5","0",
"07.01.11","5","100025","1808","170","Schulung","","0","Training: ODX Creation&Simulation. Trying a different way to implement Ext DTC's for M05","","","1,5","0",
