"29.10.12","1","120222","0","182","Fehlerbes. nach Ausl. (Bugzilla)","","0","Worked on bug 37262. Worked on bug 37262","07:00","16:00","8","60",
"30.10.12","2","120222","0","182","Fehlerbes. nach Ausl. (Bugzilla)","","100","Worked on bug 37262. Worked on bug 37262","07:00","16:00","3","60",
"30.10.12","2","120222","0","182","Fehlerbes. nach Ausl. (Bugzilla)","","100","Worked on bug 38331. Worked on bug 38331","","","2","0",
"30.10.12","2","120222","0","181","Fehlerbes. vor Ausl. (Bugzilla)","","100","Worked on bug 39174. Worked on bug 39174","","","1","0",
"30.10.12","2","120222","0","182","Fehlerbes. nach Ausl. (Bugzilla)","","100","Worked on bug  37695. Worked on bug  37695","","","2","0",
"30.10.12","2","120222","67","182","Fehlerbes. nach Ausl. (Bugzilla)","","100","1080: #37052. Closing task","","","0","0",
"31.10.12","3","120222","0","182","Fehlerbes. nach Ausl. (Bugzilla)","","0","Worked on bug 33436. Worked on bug 33436","07:00","16:00","4","60",
"31.10.12","3","0","0","170","Schulung","","0","Training Marizanne with regards to PIDT. Training Marizanne with regards to PIDT","","","4","0",
"01.11.12","4","120222","0","182","Fehlerbes. nach Ausl. (Bugzilla)","","0","Worked on bug 33436. Worked on bug 33436","07:00","16:00","5","60",
"01.11.12","4","120023","0","910","Urlaub","","0","Holiday. Holiday","","","3","0",
"02.11.12","5","120222","0","910","Urlaub","","0","Holiday. Holiday","07:00","16:00","8","60",
