"16.01.12","1","110408","191","140","Test","","100","3110: BaseLib: Stufe 3: SKG: Review/Bugfix. completing bugfix/ review. closing task","08:00","16:00","0,8","30",
"16.01.12","1","110408","179","140","Test","","100","3110: BaseLib: Stufe 3: EDC64: Review/Bugfix. (from mi) Review for baselib 2.5.03. Closing task","","","3,3","0",
"16.01.12","1","110408","181","140","Test","","100","3110: BaseLib: Stufe 3: MFR: Review/Bugfix. (from mi) completing bugfix/ review. closing task","","","3,4","0",
"17.01.12","2","110408","189","140","Test","","100","3110: BaseLib: Stufe 3: GKR: Review/Bugfix. (from mi) completing bugfix/ review. closing task","08:00","16:00","2","30",
"17.01.12","2","110408","193","140","Test","","100","3110: BaseLib: Stufe 3: TBM: Review/Bugfix. (from hd) completing bugfix/ review. closing task","","","1,6","0",
"17.01.12","2","120025","22","170","Schulung","","0","Training 2012. Training 2012 - Documentation","","","3,9","0",
"18.01.12","3","120036","2","170","Schulung","","0","Scripting Objects and Editors  - Einarb. in AAC. Training 2012","08:00","16:00","7,5","30",
"19.01.12","4","110408","252","120","Codierung","","100","4110: BaseLib: Stufe 4a: TRW: Update. (from s53) updating to baselib 2.5.03. Closing task","08:00","16:00","7,5","30",
"20.01.12","5","110408","246","120","Codierung","","75","4110: BaseLib: Stufe 4a: LGS: Update. (from s53) updating to baselib 2.5.03","08:00","16:00","6","30",
"20.01.12","5","120018","25","101","PM/Mod/Meetings","","0","S4/DSA overall tasks. Weekly meeting and timesheets","","","1,5","0",
