"20.02.12","1","110665","0","140","Test","","100","Testing CR150my4 feature and retesting Bug 34480. Testing and creating test protocol for CR150my4 feature. Verifying bug 34480. Opening Bug 34489.","07:00","16:00","7,25","60",
"20.02.12","1","110665","95","181","Fehlerbes. vor Ausl. (Bugzilla)","","0","1191: PIDT: 12.0: Bugfixing after CF. Working on bug 34488","","","0,75","0",
"21.02.12","2","110665","95","181","Fehlerbes. vor Ausl. (Bugzilla)","","0","1191: PIDT: 12.0: Bugfixing after CF. Working on bug 34497 and fixing  CR150my3 and CR203my1 Test Spec","07:00","16:00","8","60",
"22.02.12","3","120023","0","920","Krankheit","","0","Sick leave. Sick leave","07:00","16:00","8","60",
"23.02.12","4","110665","85","120","Codierung","","100","1160: PIDT 12.0: CR148my1: Alternativ: Simulation generation. Closing finished task","07:00","16:00","0","60",
"23.02.12","4","110665","92","181","Fehlerbes. vor Ausl. (Bugzilla)","","100","1191: PIDT: 12.0: Bugfixing before CF. Closing old task","","","0","0",
"23.02.12","4","110665","95","181","Fehlerbes. vor Ausl. (Bugzilla)","","0","1191: PIDT: 12.0: Bugfixing after CF. Working on bugs 34527, 34528","","","8","0",
"24.02.12","5","120018","38","101","PM/Mod/Meetings","","0","Wochenaufgaben SWS. Weekly tele-conference meeting","07:00","16:00","0,75","60",
"24.02.12","5","110665","0","140","Test","","0","PIDT 12.0.0 Regression Testing. Working on PIDT 12.0.0 codefreeze Regression Testing tests in PIDT Test Spec","","","3,25","0",
"24.02.12","5","110665","95","181","Fehlerbes. vor Ausl. (Bugzilla)","","0","1191: PIDT: 12.0: Bugfixing after CF. Working on bugs 34547, 34553","","","4","0",
