"22.10.12","1","100369","8148","120","Codierung","","0","RESERVIERUNG: 5100: Stellgliedtest: Impl.. Implementing changes to CTS","07:00","16:00","8","60",
"23.10.12","2","120023","0","920","Krankheit","","0","Sick Leave. Sick Leave","07:00","16:00","8","60",
"24.10.12","3","120023","0","920","Krankheit","","0","Sick Leave. Sick Leave","07:00","16:00","8","60",
"25.10.12","4","100498","0","182","Fehlerbes. nach Ausl. (Bugzilla)","","0","8080: P3 #37290 (major)  PCM3-MOST-Systemprüfung/Systemreserve. Bug analysis and fix","07:00","16:00","8","60",
"26.10.12","5","100498","0","182","Fehlerbes. nach Ausl. (Bugzilla)","","0","8080: P3 #38997 (normal)  Erstellung des Arbeitsprotokoll in ''Russisch'' nicht moeglich. Bug analysis and fix","07:00","16:00","7","60",
"26.10.12","5","120022","183","101","PM/Mod/Meetings","","0","Wochenaufgaben SWS. Timesheets","","","1","0",
