"16.07.12","1","09.00790","1037","140","Test","","0","9999: Testing P.Automation OTX support. Testing P.Automation OTX support","07:00","16:00","8","60",
"17.07.12","2","09.00790","1037","140","Test","","100","9999: Testing P.Automation OTX support. Testing P.Automation OTX support","07:00","16:00","8","60",
"18.07.12","3","120018","18","101","PM/Mod/Meetings","","0","S4 Administrative Tasks. Meeting with S4 Managment","07:00","16:00","1","60",
"18.07.12","3","120018","19","101","PM/Mod/Meetings","","0","S4 Technical Support / Troubleshoot. Supporting Team Members","","","2","0",
"18.07.12","3","120023","0","910","Urlaub","","0","Urlaub. Power cuts.","","","5","0",
"19.07.12","4","100655","9","120","Codierung","","100","'As Built Data': Create  statistic data for as-built export in production sequence F1.3/ae20. Production elements update","07:00","16:00","2","60",
"19.07.12","4","100655","11","120","Codierung","","100","'As Built Data': Creation of example sequence rework procedure including 'as-built' update F1.5/ae20. Updates done.","","","2","0",
"19.07.12","4","110437","394","101","PM/Mod/Meetings","","0","Rel2: Nacharbeitstester: Spezifikation DSA NA Tester F5.1/ae12. Long term run to check memory usage and stability","","","4","0",
"20.07.12","5","120018","21","101","PM/Mod/Meetings","","0","Management group AES. Timesheets + Meetings","07:00","16:00","2","60",
"20.07.12","5","120018","56","101","PM/Mod/Meetings","","0","S4 General Project Management. Telco with my and SWE.","","","0,5","0",
"20.07.12","5","110437","394","110","Engineering","","0","Rel2: Nacharbeitstester: Spezifikation DSA NA Tester F5.1/ae12. Updating updte CTS's due to requests","","","3,5","0",
"20.07.12","5","120018","19","101","PM/Mod/Meetings","","0","S4 Technical Support / Troubleshoot. Supporting Team Members","","","2","0",
