"28.05.12","1","120023","0","920","Krankheit","","100","Sick Leave. Sick Leave","07:00","16:00","8","60",
"29.05.12","2","120171","110","140","Test","","100","4110: BaseLib: Stufe 4a: MTS: Review/Bugfix. ECU review","07:00","16:00","3,2","60",
"29.05.12","2","110408","332","182","Fehlerbes. nach Ausl. (Bugzilla)","","0","5180: Bugfixing. worked on bugs #34218, 31492, 34217","","","4,8","0",
"30.05.12","3","110408","332","182","Fehlerbes. nach Ausl. (Bugzilla)","","0","5180: Bugfixing. worked on bugs #35465, 35470,29554","07:00","16:00","8","60",
"31.05.12","4","120018","24","101","PM/Mod/Meetings","","0","S4/DSA overall tasks. installing P.Automation 3.2.0, configuring PC.","07:00","16:00","2,5","60",
"31.05.12","4","110408","332","182","Fehlerbes. nach Ausl. (Bugzilla)","","0","5180: Bugfixing. worked on bugs # 31416, 29554","","","5,5","0",
"01.06.12","5","120018","24","101","PM/Mod/Meetings","","0","S4/DSA overall tasks. Meetings and updating timesheets","07:00","16:00","2","60",
"01.06.12","5","110408","332","182","Fehlerbes. nach Ausl. (Bugzilla)","","0","5180: Bugfixing. worked on bugs #35475, 35476, 35473, 35472, 35468,","","","6","0",
