"20.02.12","1","120025","21","170","Schulung","","0","Training 2012. MAN getting into subject MFR ecu","07:00","16:00","8","60",
"21.02.12","2","120025","21","170","Schulung","","0","Training 2012. MAN getting into subject ECAM ecu","07:00","16:00","8","60",
"22.02.12","3","120025","21","170","Schulung","","0","Training 2012. MAN getting into subject ECAM ecu and review","07:00","16:00","7,5","60",
"22.02.12","3","120026","21","101","PM/Mod/Meetings","","0","QW 2012. MAN project meeting","","","0,5","0",
"23.02.12","4","120025","21","170","Schulung","","0","Training 2012. MAN getting into subject Hydronic ecu and review","07:00","16:00","8","60",
"24.02.12","5","120018","24","101","PM/Mod/Meetings","","0","S4/DSA overall tasks. Meetings and updating timesheets","07:00","16:00","2,5","60",
"24.02.12","5","110408","0","180","Fehlerbes. nach Auslieferung (SA)","","0","4185: BaseLib: Stufe 4c: Bugfixing nach Auslieferung. bug# 33529, 33531, 33532","","","5,5","0",
