"03.12.12","1","120280","241","110","Engineering","","0","1122: EOL: Repair Framework: Rework/Finish F13.2/ae11. Reworking Repair and  Flashframework","07:00","16:00","8","60",
"04.12.12","2","120280","241","110","Engineering","","0","1122: EOL: Repair Framework: Rework/Finish F13.2/ae11. Working on Repair Framework","07:00","16:00","4","60",
"04.12.12","2","120280","110","120","Codierung","","0","1114: EOL: Flash Framework: Implementation Generic Flash Sequence F5.2/ae10. Reworking Flashframework","","","4","0",
"05.12.12","3","120023","0","920","Krankheit","","0","Sick Leave. Sick Leave","07:00","16:00","8","60",
"06.12.12","4","120280","114","181","Fehlerbes. vor Ausl. (Bugzilla)","","0","1114: EOL: Flash Framework: Bugfixing Buffer F5.6/ae11.  Rework flashframework and Bugfixing","07:00","16:00","4","60",
"06.12.12","4","120280","241","110","Engineering","","0","1122: EOL: Repair Framework: Bugfix Buffer F13.5/ae11. P.A Crashes rebiulding workspace.","","","2","0",
"06.12.12","4","120280","243","140","Test","","0","1122: EOL: Repair Framework: Test new Features F13.4/ae11. from s41 Testing Repair Framwork","","","2","0",
"07.12.12","5","120018","68","101","PM/Mod/Meetings","","0","S4/DSA overall tasks. Meeting and TimeSheets","07:00","16:00","2","60",
"07.12.12","5","120280","244","181","Fehlerbes. vor Ausl. (Bugzilla)","","0","1122: EOL: Repair Framework: Bugfix Buffer F13.5/ae11. from s41 troubelshooting a bug with webster for repairframwork dispaly","","","2","0",
"07.12.12","5","120280","242","104","Test-Spezifikation","","0","1122: EOL: Repair Framework: Create TestSpec (TestLink) and TestData F13.3/ae11. Creating test spek for repair frame work","","","4","0",
