"26.11.12","1","120222","49","181","Fehlerbes. vor Ausl. (Bugzilla)","","0","1090: Bugfixing nach CF. Working on bugs: 39624, 39589, 39615, 39557, 39622","07:00","16:00","8","60",
"27.11.12","2","120222","49","181","Fehlerbes. vor Ausl. (Bugzilla)","","0","1090: Bugfixing nach CF. Working on bugs: 39622, 39648, 39649","07:00","16:00","8","60",
"28.11.12","3","120222","0","102","Spez: LH/PH/Design","","0","1082: Testspec- u. Code-Review. Reviewing/merging Bugs: 39557,  39640","07:00","16:00","2,5","60",
"28.11.12","3","120222","49","181","Fehlerbes. vor Ausl. (Bugzilla)","","0","1090: Bugfixing nach CF. Working on bugs: 39648, 39649","","","3","0",
"28.11.12","3","120559","0","102","Spez: LH/PH/Design","","0","Working on PIDT OTX design document. Working on PIDT OTX design document","","","2,5","0",
"29.11.12","4","120222","0","102","Spez: LH/PH/Design","","0","1082: Testspec- u. Code-Review. Reviewing/merging Integration of final PTTD Deliverable and updating test spec","07:00","16:00","1,25","60",
"29.11.12","4","120559","0","102","Spez: LH/PH/Design","","0","Working on PIDT OTX design document. Working on PIDT OTX design document","","","6,75","0",
"30.11.12","5","120022","184","101","PM/Mod/Meetings","","0","Wochenaufgaben SWS. Weekly general tasks","07:00","16:00","1","60",
"30.11.12","5","120559","0","102","Spez: LH/PH/Design","","0","Working on PIDT OTX design document. Working on PIDT OTX design document","","","4","0",
"30.11.12","5","120222","49","181","Fehlerbes. vor Ausl. (Bugzilla)","","0","1090: Bugfixing nach CF. Working on bugs","","","3","0",
