"23.04.12","1","120112","20","120","Codierung","","0","1005: CR150my3: Implementierung. Rework after review - Wrapper consistancy check implimentation","07:00","16:00","8","60",
"24.04.12","2","120112","20","120","Codierung","","0","1005: CR150my3: Implementierung. Rework after review - MCR file check and diagnostic mode","07:00","16:00","8","60",
"25.04.12","3","120112","20","120","Codierung","","0","1005: CR150my3: Implementierung. Rework after review - Fallback Handling and Manual coding behaviour","07:00","16:00","8","60",
"26.04.12","4","120112","20","120","Codierung","","0","1005: CR150my3: Implementierung. Rework after review - Fallback Handling and Manual coding behaviour","07:00","16:00","7,5","60",
"26.04.12","4","120022","183","101","PM/Mod/Meetings","","0","Wochenaufgaben SWS. Timesheets","","","0,5","0",
"27.04.12","5","120023","0","910","Urlaub","","0","Holiday. Public Holiday","07:00","16:00","8","60",
