"04.06.12","1","120112","169","120","Codierung","","100","1015: CR143my1: Implementierung Split. Closing finished task","07:00","16:00","0","60",
"04.06.12","1","120112","133","120","Codierung","","100","1008: CR210my3: Implementierung. Closing finished task","","","0","0",
"04.06.12","1","120112","2","120","Codierung","","0","CR214da1: Implementation. CR214da1-191_APuC_Split feature: implementing programming sequence split","","","8","0",
"04.06.12","1","120112","137","120","Codierung","","100","1005: CR150my3: Implementierung. Closing finished task","","","0","0",
"04.06.12","1","120112","166","182","Fehlerbes. nach Ausl. (Bugzilla)","","100","1080: #34051, #36094. Closing finished tasks","","","0","0",
"05.06.12","2","120112","20","120","Codierung","","100","1005: CR150my3: Implementierung. From s43: assisting with task: working on implementation review points","07:00","16:00","7,25","60",
"05.06.12","2","120022","184","101","PM/Mod/Meetings","","0","S4 Meeting. S4 Meeting","","","0,75","0",
"06.06.12","3","120112","20","120","Codierung","","100","1005: CR150my3: Implementierung. From s43: assisting with task: working on implementation review points","07:00","16:00","4","60",
"06.06.12","3","120112","164","120","Codierung","","100","1016: CR210my6: Implementierung. Updating implementation according to review","","","4","0",
"07.06.12","4","120022","184","101","PM/Mod/Meetings","","0","S4 Meeting. S4 Meeting","07:00","16:00","0,5","60",
"07.06.12","4","120112","20","120","Codierung","","100","1005: CR150my3: Implementierung. From s43: assisting with task: working on implementation review points","","","5,5","0",
"07.06.12","4","120112","168","104","Test-Spezifikation","","0","1016: CR210my6: Testspezifikation. Adding more test cases and creating a new test sequence according to review","","","2","0",
"08.06.12","5","120112","168","104","Test-Spezifikation","","100","1016: CR210my6: Testspezifikation. Adding more test cases and creating a new test sequence according to review","07:00","16:00","3","60",
"08.06.12","5","120022","184","101","PM/Mod/Meetings","","0","Wochenaufgaben SWS. Weekly tele-conference meeting","","","0,75","0",
"08.06.12","5","120112","0","182","Fehlerbes. nach Ausl. (Bugzilla)","","0","PIDT: 12.4 Bugfixing before CF. Working on Bug 36228","","","4,25","0",
