"26.03.12","1","110408","333","182","Fehlerbes. nach Ausl. (Bugzilla)","","0","5180: Bugfixing. Bugs 34494, 35238, 35239","07:00","16:00","8","60",
"27.03.12","2","110408","333","182","Fehlerbes. nach Ausl. (Bugzilla)","","0","5180: Bugfixing. Bugs 35237, 35240, 34857, 33989","07:00","16:00","8","60",
"28.03.12","3","110408","333","182","Fehlerbes. nach Ausl. (Bugzilla)","","0","5180: Bugfixing. Bugs 35191, 35192, 35193, 35194, 35195, 35196","07:00","16:00","8","60",
"29.03.12","4","110408","333","182","Fehlerbes. nach Ausl. (Bugzilla)","","0","5180: Bugfixing. Bugs 35179, 35182, 35183","07:00","16:00","5","60",
"29.03.12","4","120018","25","101","PM/Mod/Meetings","","0","S4/DSA overall tasks. Setting up for importing, testing and fixing odx data","","","3","0",
"30.03.12","5","120026","22","101","PM/Mod/Meetings","","0","QW 2012. Meetings and Timesheets","07:00","16:00","2","60",
