"06.02.12","1","110408","279","120","Codierung","","0","4120: BaseLib: Stufe 4b: T50: Update. (from s53) Updating to baselib 2.5.03.","07:00","16:00","3","60",
"06.02.12","1","110408","270","120","Codierung","","100","4120: BaseLib: Stufe 4b: HYD: Update. (from s53) Updating to baselib 2.5.03. Closing task","","","5","0",
"07.02.12","2","110023","0","920","Krankheit","","0","Sick Leave. Sick Leave","07:00","16:00","8","60",
"08.02.12","3","110408","282","120","Codierung","","100","4120: BaseLib: Stufe 4b: THERMO_S: Update. (from s53) Updating to baselib 2.5.03. Closing task","07:00","16:00","6","60",
"08.02.12","3","110408","279","120","Codierung","","100","4120: BaseLib: Stufe 4b: T50: Update. (from s53) Updating to baselib 2.5.03. Closing task","","","2","0",
"09.02.12","4","110408","276","120","Codierung","","100","4120: BaseLib: Stufe 4b: RET: Update. (from s53) Updating to baselib 2.5.03. Closing task","07:00","16:00","8","60",
"10.02.12","5","120018","25","101","PM/Mod/Meetings","","0","S4/DSA overall tasks. Meetings and Timesheets","07:00","16:00","2","60",
"10.02.12","5","110408","292","120","Codierung","","0","4120: BaseLib: Stufe 4b: ZBRO: Update. (from mi) Updating to baselib 2.5.03.","","","6","0",
