"24.09.12","1","120023","0","910","Urlaub","","0","Urlaub. South Africa banked public holiday","07:00","16:00","8","60",
"25.09.12","2","100769","0","181","Fehlerbes. vor Ausl. (Bugzilla)","","100","SWE: PIDT-Automation: PIDT runtime bug fixing. Bug 38193","07:00","16:00","4","60",
"25.09.12","2","120036","0","170","Schulung","","0","SWE: PIDT/D3 Automation: Get into subject. Training on how to use PIDT, Java VisualVM,  assistance with Event vs Condition task.","","","3","0",
"25.09.12","2","100769","0","110","Engineering","","0","SWE: PIDT/D3 automation: PIDT.Automation. ReferanceManager analysis task for 9x7","","","1","0",
"26.09.12","3","120036","0","170","Schulung","","0","SWE: PIDT/D3 Automation: Training. Training and assistance: PIDT performance, Event vs Condition comparison","07:00","16:00","4","60",
"26.09.12","3","100769","0","110","Engineering","","0","SWE: PIDT/D3 Automation. ReferanceManager analysis task for 9x7","","","4","0",
"27.09.12","4","120036","0","170","Schulung","","0","SWE: PIDT/D3 Automation: Training. Training and assistance: PIDT performance, Decision mode comparison task","07:00","16:00","4","60",
"27.09.12","4","100769","0","110","Engineering","","0","SWE: PIDT/D3 Automation. ReferanceManager analysis task for 9x7","","","4","0",
"28.09.12","5","120022","29","101","PM/Mod/Meetings","","0","Wochenaufgaben SWS 2012. Weekly timesheet report, meetings","07:00","16:00","2,5","60",
"28.09.12","5","100769","0","110","Engineering","","100","SWE: PIDT/D3 Automation. ReferenceManager analysis task completion","","","1,5","0",
"28.09.12","5","100769","0","181","Fehlerbes. vor Ausl. (Bugzilla)","","100","SWE: PIDT/D3 automation: PIDT.Automation bug-fixing. PIDT Automation bugs","","","2","0",
"28.09.12","5","120036","0","170","Schulung","","0","SWE: PIDT/D3 Automation. Training and assistance","","","2","0",
