"19.11.12","1","100769","0","181","Fehlerbes. vor Ausl. (Bugzilla)","","0","PIDT.Automation. String sorting","07:00","16:00","8","60",
"20.11.12","2","100769","0","181","Fehlerbes. vor Ausl. (Bugzilla)","","0","PIDT.Automation. String sorting","07:00","16:00","4","60",
"20.11.12","2","100769","0","181","Fehlerbes. vor Ausl. (Bugzilla)","","0","PIDT.Automation. PIDT migration tasks","","","4","0",
"21.11.12","3","100769","0","181","Fehlerbes. vor Ausl. (Bugzilla)","","0","PIDT.Automation. PIDT migration tasks","07:00","16:00","8","60",
"22.11.12","4","100769","0","181","Fehlerbes. vor Ausl. (Bugzilla)","","0","PIDT.Automation. PIDT migration tasks","07:00","16:00","6","60",
"22.11.12","4","0","0","170","Schulung","","0","PIDT training. PIDT development training with Mario","","","2","0",
"23.11.12","5","100769","0","181","Fehlerbes. vor Ausl. (Bugzilla)","","0","PIDT.Automation. PIDT migration tasks","07:00","16:00","8","60",
