"01.10.12","1","110437","343","102","Spez: LH/PH/Design","","0","(task already closed) Rel1: Erw. Anlagenkonfig: Specification F1.1/ae11. Rework Polarion descriptions.","07:00","16:00","6","60",
"01.10.12","1","120018","18","101","PM/Mod/Meetings","","0","S4 Technical Support / Troubleshoot. Supporting Team Members","","","2","0",
"02.10.12","2","110437","343","102","Spez: LH/PH/Design","","0","(task already closed) Rel1: Erw. Anlagenkonfig: Specification F1.1/ae11. Rework Polarion descriptions.","07:00","16:00","5","60",
"02.10.12","2","110437","343","102","Spez: LH/PH/Design","","0","(task already closed) Rel1: Erw. Anlagenkonfig: Specification F1.1/ae11. Rework Technical Documentation","","","1","0",
"02.10.12","2","120018","19","101","PM/Mod/Meetings","","0","S4 Technical Support / Troubleshoot. Supporting Team Members","","","2","0",
"03.10.12","3","100369","7476","120","Codierung","","100","3122: Gen. Tester: ECU: Implementierung F3.3/ae10. Assist with tooling issues","07:00","16:00","2","60",
"03.10.12","3","100369","7831","120","Codierung","","0","3122: OBD Tool: Start-Screen: Implementierung F2.3/ae10. Assist with tooling issues","","","2","0",
"03.10.12","3","120018","19","101","PM/Mod/Meetings","","0","S4 Technical Support / Troubleshoot. Supporting Team Members","","","4","0",
"04.10.12","4","110437","179","181","Fehlerbes. vor Ausl. (Bugzilla)","","100","(from S65, already closed)  Rel1: Erw. Anlagenkonfig: Bugfixing F1.8/ae11. Assit with bugfix / feature of AFD update process.","07:00","16:00","2","60",
"04.10.12","4","120018","57","101","PM/Mod/Meetings","","0","S4 HR management. Interviews for new staff members","","","3","0",
"04.10.12","4","120018","19","101","PM/Mod/Meetings","","0","S4 Technical Support / Troubleshoot. Supporting Team Members","","","3","0",
"05.10.12","5","120023","0","910","Urlaub","","100","Urlaub. Time Off","07:00","16:00","2","60",
"05.10.12","5","120018","21","101","PM/Mod/Meetings","","0","Management group AES. Timesheets + Meetings","","","1,5","0",
"05.10.12","5","120018","18","101","PM/Mod/Meetings","","0","S4 Administrative Tasks. Monthly reports","","","1,5","0",
"05.10.12","5","120253","24","120","Codierung","","0","ITS SG: Erstellung Ablauf Monitoring Engine F1.9/ae10. Working on Monitoring Engine","","","3","0",
