"12.11.12","1","120010","79","120","Codierung","","0","MTS3: mts3_adjust_isum F2.11/pa10. Implemented sequence","07:00","16:00","8","60",
"13.11.12","2","120010","71","120","Codierung","","0","MTS3: mts3_adjust_isum F2.11/pa10. Implemented sequence","07:00","16:00","8","60",
"14.11.12","3","120010","71","120","Codierung","","0","MTS3: mts3_ps_check F2.3/pa10. Implemented sequence","07:00","16:00","8","60",
"15.11.12","4","120010","69","120","Codierung","","0","MTS3: mts3_check_adap F2.2/pa10. Implemented sequence","07:00","16:00","8","60",
"16.11.12","5","120018","62","101","PM/Mod/Meetings","","0","S4/DSA overall tasks. Meetings and Timesheets","07:00","16:00","2","60",
"16.11.12","5","120010","83","120","Codierung","","0","MTS3: mts3control_tsuite.xml F2.16/pa10. Edited the xml config file","","","6","0",
