"14.05.12","1","120023","0","910","Urlaub","","0","Holiday. Time-Off","07:00","16:00","8","60",
"15.05.12","2","120023","0","910","Urlaub","","0","Holiday. Time-Off","07:00","16:00","8","60",
"16.05.12","3","120023","0","910","Urlaub","","0","Holiday. Time-Off","07:00","16:00","8","60",
"17.05.12","4","120171","91","120","Codierung","","100","4110: BaseLib: Stufe 4a: HDS: Update. Update to RC4. Closing task.","07:00","16:00","3","60",
"17.05.12","4","120171","105","120","Codierung","","100","4110: BaseLib: Stufe 4a: BHTC: Update. Update to RC4. Closing task.","","","4,5","0",
"17.05.12","4","120018","25","101","PM/Mod/Meetings","","0","S4/DSA overall tasks. Bi-Weekly AE Meeting","","","0,5","0",
"18.05.12","5","120023","0","910","Urlaub","","0","Holiday. Time-Off","07:00","16:00","4","60",
"18.05.12","5","120171","58","120","Codierung","","100","3110: BaseLib: Stufe 3: ECAS: Update. Closing task.","","","0","0",
"18.05.12","5","120018","25","101","PM/Mod/Meetings","","0","S4/DSA overall tasks. Meetings and Timesheets","","","1","0",
"18.05.12","5","120171","121","120","Codierung","","100","4120: BaseLib: Stufe 4b: HVA: Update. Update to RC4. Closing task.","","","3","0",
