"27.08.12","1","100769","719","181","Fehlerbes. vor Ausl. (Bugzilla)","","0","1691: Delivery: Bugfixing G1.1/pa35. Working on  bugs: 37708, 37654, 37628","07:00","16:00","8","60",
"28.08.12","2","100769","719","181","Fehlerbes. vor Ausl. (Bugzilla)","","0","1691: Delivery: Bugfixing G1.1/pa35. Working on bugs: 37704, 37705, 37703","07:00","16:00","8","60",
"29.08.12","3","100769","719","181","Fehlerbes. vor Ausl. (Bugzilla)","","0","1691: Delivery: Bugfixing G1.1/pa35. G1.1/pa35 Working on bugs:  37682, 37628, 37766, 37765","07:00","16:00","7","60",
"29.08.12","3","120112","305","181","Fehlerbes. vor Ausl. (Bugzilla)","","0","1090: Release 1 12.4: Bugfixing nach CF. Working on PIDT 12.5.0 bug: 37470","","","1","0",
"30.08.12","4","100769","719","181","Fehlerbes. vor Ausl. (Bugzilla)","","0","1691: Delivery: Bugfixing G1.1/pa35. Working on bugs: 37682, 37778, 37761","07:00","18:00","10","60",
"31.08.12","5","100769","719","181","Fehlerbes. vor Ausl. (Bugzilla)","","0","1691: Delivery: Bugfixing G1.1/pa35. Working on PIDT Automation bugs","07:00","16:00","7,5","60",
"31.08.12","5","120022","184","101","PM/Mod/Meetings","","0","Wochenaufgaben SWS. Weekly general tasks","","","0,5","0",
