"30.01.12","1","120100","0","182","Fehlerbes. nach Ausl. (Bugzilla)","","0","SWE: Ferrari DEIS: Bugfixingpuffer (Vorrelease). Bug 26443","07:00","16:00","8","60",
"31.01.12","2","120100","0","182","Fehlerbes. nach Ausl. (Bugzilla)","","0","SWE: Ferrari DEIS: Bugfixingpuffer (Vorrelease). Bug 26443","07:00","16:00","4","60",
"31.01.12","2","120100","0","182","Fehlerbes. nach Ausl. (Bugzilla)","","0","SWE: Ferrari DEIS: Bugfixingpuffer (Vorrelease). Bug 25808","","","4","0",
"01.02.12","3","120100","0","182","Fehlerbes. nach Ausl. (Bugzilla)","","0","SWE: Ferrari DEIS: Bugfixingpuffer (Vorrelease). Bug 25808","07:00","16:00","4","60",
"01.02.12","3","120100","0","182","Fehlerbes. nach Ausl. (Bugzilla)","","100","SWE: Ferrari DEIS: Bugfixingpuffer (Vorrelease). Bug 25708","","","4","0",
"02.02.12","4","120100","0","182","Fehlerbes. nach Ausl. (Bugzilla)","","0","SWE: Ferrari DEIS: Bugfixingpuffer (Vorrelease). Bug 25808, 26443","07:00","16:00","8","60",
"03.02.12","5","120022","29","101","PM/Mod/Meetings","","0","Wochenaufgaben SWS 2012. Weekly timesheet report, meetings","07:00","16:00","2","60",
"03.02.12","5","120100","0","182","Fehlerbes. nach Ausl. (Bugzilla)","","0","SWE: Ferrari DEIS: Bugfixingpuffer (Vorrelease). Bug 25808, 26443, 25586","","","6","0",
