"13.02.12","1","09.00790","3982","160","Dokumentation","","0","P.Automation: creating Test Cases for HWControl. Creating Teast Cases for HWControl(Helpers) in Automation","07:00","16:00","8","60",
"14.02.12","2","09.00790","3982","160","Dokumentation","","0","P.Automation: creating Test Cases. Creating Teast Cases for in files in Automation and uploading Testcases into testLink","07:00","16:00","8","60",
"15.02.12","3","09.00790","3982","120","Codierung","","0","Creating CTS for plant Configuration. Creating UserLogin CTS for Plant configuratiom","07:00","16:00","8","60",
"16.02.12","4","09.00790","3982","160","Dokumentation","","0","P.Automation: creating Test Cases for HWControl. Creating Test Cases for HWControl(Helpers) in Automation","07:00","16:00","8","60",
"17.02.12","5","110023","0","910","Urlaub","","0","Holiday. Time-Off","07:00","16:00","8","60",
