"03.12.12","1","100369","7476","120","Codierung","","0","3122: Gen. Tester: ECU: Implementierung F3.3/ae10. Working on Outdated DTC and Identification CCTS's","07:00","16:00","8","60",
"04.12.12","2","100369","7476","120","Codierung","","0","3122: Gen. Tester: ECU: Implementierung F3.3/ae10. Having problems with DTC CTS","07:00","16:00","4","60",
"04.12.12","2","100369","7476","120","Codierung","","0","3122: Gen. Tester: ECU: Implementierung F3.3/ae10. Having problems with DTC's CTS  plugins and SVG","","","4","0",
"05.12.12","3","100369","7492","120","Codierung","","0","3122: Gen. Tester: DTC: Implementierung F5.3/ae10. Implementation of DTC and Identification CTS","07:00","16:00","8","60",
"06.12.12","4","100369","7508","120","Codierung","","0","3122: Gen. Tester: Routinen: Implementierung F7.3/ae10. Implementing Acuator Sequence.","07:00","16:00","8","60",
"07.12.12","5","120018","22","101","PM/Mod/Meetings","","0","S4/DSA overall. Department Meeting and Doing Timesheets","07:00","16:00","3","60",
"07.12.12","5","100369","7508","120","Codierung","","0","3122: Gen. Tester: Routinen: Implementierung F7.3/ae10. Implementing Acuator Sequence.","","","5","0",
