"27.02.12","1","110665","95","181","Fehlerbes. vor Ausl. (Bugzilla)","","0","1191: PIDT: 12.0: Bugfixing after CF. Working on bug 34553","07:00","16:00","3","60",
"27.02.12","1","110665","0","182","Fehlerbes. nach Ausl. (Bugzilla)","","0","PIDT: 12.4 Bugfixing before CF. Working on bug 34547","","","5","0",
"28.02.12","2","110665","95","181","Fehlerbes. vor Ausl. (Bugzilla)","","0","1191: PIDT: 12.0: Bugfixing after CF. Fixing CR148my1 test cases/files to avoid HSX problems","07:00","16:00","6","60",
"28.02.12","2","110665","0","182","Fehlerbes. nach Ausl. (Bugzilla)","","100","PIDT: 12.4 Bugfixing before CF. Working on bug 34547","","","2","0",
"29.02.12","3","110665","95","181","Fehlerbes. vor Ausl. (Bugzilla)","","0","1191: PIDT: 12.0: Bugfixing after CF. Working on bug 34602","07:00","16:00","8","60",
"01.03.12","4","110665","95","181","Fehlerbes. vor Ausl. (Bugzilla)","","0","1191: PIDT: 12.0: Bugfixing after CF. Working on bug 34668 and updating code according to review of Bug 34553 fix","07:00","16:00","8","60",
"02.03.12","5","120018","38","101","PM/Mod/Meetings","","0","Wochenaufgaben SWS. Weekly tele-conference meeting","07:00","16:00","0,75","60",
"02.03.12","5","110665","95","181","Fehlerbes. vor Ausl. (Bugzilla)","","0","1191: PIDT: 12.0: Bugfixing after CF. Working on bugs","","","7,25","0",
