"30.07.12","1","100769","499","181","Fehlerbes. vor Ausl. (Bugzilla)","","0","1110: Autom. Exporter: Extend Authoring Export f. Autom.: Bugfixing. Bugs 37077, 37088, 37080","07:00","16:00","8","60",
"31.07.12","2","100769","499","101","PM/Mod/Meetings","","0","1110: Autom. Exporter: Extend Authoring Export f. Autom.: Bugfixing. Bugs 37077, 37078, 37106","07:00","16:00","8","60",
"01.08.12","3","120023","0","910","Urlaub","","0","Urlaub. Time off","07:00","16:00","5","60",
"01.08.12","3","100769","499","181","Fehlerbes. vor Ausl. (Bugzilla)","","0","1110: Autom. Exporter: Extend Authoring Export f. Autom.: Bugfixing. Bugs 37077, 37078, 37106","","","3","0",
"02.08.12","4","100769","499","181","Fehlerbes. vor Ausl. (Bugzilla)","","0","1110: Autom. Exporter: Extend Authoring Export f. Autom.: Bugfixing. Bugs 37077, 37078, 37106","07:00","16:00","8","60",
"03.08.12","5","120022","29","101","PM/Mod/Meetings","","0","Wochenaufgaben SWS 2012. Weekly timesheet report, meetings","07:00","16:00","1,5","60",
"03.08.12","5","100769","499","181","Fehlerbes. vor Ausl. (Bugzilla)","","0","1110: Autom. Exporter: Extend Authoring Export f. Autom.: Bugfixing. Continued bug-fixing on Exporter","","","6,5","0",
