"06.02.12","1","100876","355","181","Fehlerbes. vor Ausl. (Bugzilla)","","0","(from S58) 1540: HUA-MSL: Funktionale Diagnose: Bugfixing (Puffer) F5.10/ae10. Additional features added and functional communication updated and fixed.","07:00","16:00","6","60",
"06.02.12","1","120018","19","101","PM/Mod/Meetings","","0","S4 Technical Support / Troubleshoot. Supporting colleagues","","","2","0",
"07.02.12","2","100876","349","104","Test-Spezifikation","","100","1540: HUA-MSL: Funktionale Diagnose: Erstellung TestSpec. Re-create testcase due to new features. Task already closed.","07:00","16:00","4","60",
"07.02.12","2","100876","323","104","Test-Spezifikation","","0","(from S58) 1510: HUA-MSL: Live Wert Anzeige: Erstellung TestSpec. Re-create testcase due to implementation changes","","","4","0",
"08.02.12","3","120018","19","101","PM/Mod/Meetings","","0","S4 Technical Support / Troubleshoot. Supporting colleagues","07:00","16:00","8","60",
"09.02.12","4","120018","19","101","PM/Mod/Meetings","","0","S4 Technical Support / Troubleshoot. Supporting colleagues","07:00","16:00","8","60",
"10.02.12","5","120018","21","101","PM/Mod/Meetings","","0","Management group AES. Weekly meetings + timesheets","07:00","16:00","2","60",
"10.02.12","5","120018","57","101","PM/Mod/Meetings","","0","S4 HR management. Meeting with S4 Management + s43","","","1","0",
"10.02.12","5","120018","19","101","PM/Mod/Meetings","","0","S4 Technical Support / Troubleshoot. Setup Automation 3.0.8 + checkout library","","","1","0",
"10.02.12","5","100876","323","104","Test-Spezifikation","","100","(from S58) 1510: HUA-MSL: Live Wert Anzeige: Erstellung TestSpec. FSD:INTERMEDIATE Finalize Test Spec for Intermediate Results","","","1","0",
"10.02.12","5","100876","349","101","PM/Mod/Meetings","","100","1540: HUA-MSL: Funktionale Diagnose: Erstellung TestSpec. FSD:FUNCTIONAL Finalize Test Spec. Task already closed.","","","1","0",
"10.02.12","5","09.00790","2785","140","Test","","0","2340: P.Autom: R4: P.Lib *F5-31: PROT2X Test. Re-test of prot2x. Task already closed.","","","1","0",
"10.02.12","5","120018","19","101","PM/Mod/Meetings","","0","S4 Technical Support / Troubleshoot. Supporting colleagues","","","1","0",
