"23.01.12","1","120100","0","110","Engineering","","0","SWE: Ferrari DEIS: Setup Development Environment. Eclipse setup","07:00","16:00","3","60",
"23.01.12","1","110023","0","910","Urlaub","","0","Urlaub. Time off","","","1","0",
"23.01.12","1","100369","5847","180","Fehlerbes. nach Auslieferung (SA)","","100","SWE: Authoring.ODX: Bug fix 29434. Completion of bugfix 29434.","","","4","0",
"24.01.12","2","120100","0","110","Engineering","","0","SWE: Ferrari DEIS: Setup Development Environment, Get into subject. Getting into subject, Eclipse Development setup","07:00","16:00","8","60",
"25.01.12","3","120100","0","110","Engineering","","0","SWE: Ferrari DEIS: Get into subject, Eclipse Development setup. Eclipse setup and getting into subject","07:00","16:00","6","60",
"25.01.12","3","120100","0","182","Fehlerbes. nach Ausl. (Bugzilla)","","0","SWE: Ferrari DEIS: Get into subject, Bugfixingpuffer (Vorrelease). Bug 32074","","","2","0",
"26.01.12","4","120100","0","182","Fehlerbes. nach Ausl. (Bugzilla)","","0","SWE: Ferrari DEIS: Bugfixingpuffer (Vorrelease). Bugs 25586, 25616, 26443","07:00","16:00","8","60",
"27.01.12","5","120022","29","101","PM/Mod/Meetings","","0","Wochenaufgaben SWS 2012. Weekly timesheet report, meetings","07:00","16:00","2","60",
"27.01.12","5","120100","0","182","Fehlerbes. nach Ausl. (Bugzilla)","","0","SWE: Ferrari DEIS: Bugfixingpuffer (Vorrelease). Bugs 25586, 25616, 26443","","","6","0",
