"13.08.12","1","120112","305","181","Fehlerbes. vor Ausl. (Bugzilla)","","0","1090: Release 1 12.4: Bugfixing nach CF. Working on PIDT 12.5.0 bugs: 37379, 37381","07:00","16:00","5","60",
"13.08.12","1","120222","1","182","Fehlerbes. nach Ausl. (Bugzilla)","","0","PIDT 12.8: Bugfixing vor CF. Working on PIDT 12.8.0 bugs: 37007","","","3","0",
"14.08.12","2","120022","184","101","PM/Mod/Meetings","","0","Wochenaufgaben SWS. Tele-conference meeting: Merge process for PIDT Automation","07:00","16:00","1","60",
"14.08.12","2","120112","305","181","Fehlerbes. vor Ausl. (Bugzilla)","","0","1090: Release 1 12.4: Bugfixing nach CF. Working on PIDT 12.5.0 bugs: 37393, 37403, 37392","","","7","0",
"15.08.12","3","120112","305","181","Fehlerbes. vor Ausl. (Bugzilla)","","0","1090: Release 1 12.4: Bugfixing nach CF. Working on PIDT 12.5.0 bugs: 37417, 37445, 37448, 37411, 37449, 33803","07:00","16:00","8","60",
"16.08.12","4","120112","305","181","Fehlerbes. vor Ausl. (Bugzilla)","","0","1090: Release 1 12.4: Bugfixing nach CF. Working on PIDT 12.5.0 bugs: 37455, 37475 , 37424, 37470","07:00","16:00","8","60",
"17.08.12","5","120022","184","101","PM/Mod/Meetings","","0","Wochenaufgaben SWS. Weekly tele-conference meeting","07:00","16:00","0,75","60",
"17.08.12","5","120112","305","181","Fehlerbes. vor Ausl. (Bugzilla)","","0","1090: Release 1 12.4: Bugfixing nach CF. Working on PIDT 12.5.0 bugs","","","7,25","0",
