"29.10.12","1","120010","82","120","Codierung","","0","MTS3: mts3_store_adjus_pow F2.14/pa10. Implemented sequence","07:00","16:00","8","60",
"30.10.12","2","120010","75","120","Codierung","","0","MTS3: mts3_adjust_ui F2.7/pa10. Implemented sequence","07:00","16:00","8","60",
"31.10.12","3","120010","75","120","Codierung","","0","MTS3: mts3_adjust_ui F2.7/pa10. Implemented sequence","07:00","16:00","5","60",
"31.10.12","3","120036","960","170","Schulung","","0","Training S4 KW44/45. java training : Java basics","","","3","0",
"01.11.12","4","120010","75","120","Codierung","","0","MTS3: mts3_adjust_ui F2.7/pa10. Implemented sequence","07:00","16:00","5","60",
"01.11.12","4","120036","960","170","Schulung","","0","Training S4 KW44/45. Java Training : Screens, semaphore, etc","","","3","0",
"02.11.12","5","120018","62","101","PM/Mod/Meetings","","0","S4/DSA overall tasks. Meetings and Timesheets","07:00","16:00","2","60",
"02.11.12","5","120036","960","170","Schulung","","0","Training S4 KW44/45. Java Training : Statistics, etc","","","3","0",
"02.11.12","5","120010","133","120","Codierung","","0","9999: MTS3: Statistics, remodelling ststistic contents. Adding new Statistic context functions","","","3","0",
