"01.10.12","1","09.00790","4608","120","Codierung","","0","PRODIS.LIB R7: TestCases: Implementierung Masterframework F2.8/ae10. Modified for proper run in virtual machine","07:00","16:00","8","60",
"02.10.12","2","09.00790","0","120","Codierung","","0","PRODIS.LIB R7: TestCases: LoopCheck/ListTest/zip. modified  test cases","07:00","16:00","8","60",
"03.10.12","3","120036","0","170","Schulung","","0","5 MT : Einarbeitung in MTS3 (Automation). MTS training","07:00","16:00","8","60",
"04.10.12","4","120036","0","170","Schulung","","0","5 MT : Einarbeitung in MTS3 (Automation). MTS training","07:00","16:00","8","60",
"05.10.12","5","120018","62","101","PM/Mod/Meetings","","0","S4/DSA overall tasks. Meetings and Timesheets","07:00","16:00","2","60",
"05.10.12","5","120036","0","170","Schulung","","0","5 MT : Einarbeitung in MTS3 (Automation). MTS3 training","","","6","0",
