"09.04.12","1","120023","0","910","Urlaub","","0","Holiday. Public Holiday","07:00","16:00","8","60",
"10.04.12","2","120112","20","120","Codierung","","0","1005: CR150my3: Implementierung. Initial Main CTS implimentation","07:00","16:00","8","60",
"11.04.12","3","120112","20","120","Codierung","","0","1005: CR150my3: Implementierung. Rework after review","07:00","16:00","8","60",
"12.04.12","4","120112","20","120","Codierung","","0","1005: CR150my3: Implementierung. Rework after review","07:00","16:00","8","60",
"13.04.12","5","120018","37","101","PM/Mod/Meetings","","0","Wochenaufgaben SWS. Weekly telco","07:00","16:00","0,5","60",
"13.04.12","5","120018","37","101","PM/Mod/Meetings","","0","Wochenaufgaben SWS. Timesheets","","","0,5","0",
"13.04.12","5","120112","20","120","Codierung","","0","1005: CR150my3: Implementierung. Rework after review","","","7","0",
