"13.08.12","1","110437","348","110","Engineering","","0","(Task previously closed)Rel2: Nacharbeitstester: Spezifikation DSA NA Tester F5.1/ae12. RepairTester: Implementing and testing GWAVerbau","07:00","16:00","5","60",
"13.08.12","1","120025","688","170","Schulung","","0","Training 2012. Training: CAN Bus","","","3","0",
"14.08.12","2","110437","348","110","Engineering","","0","(Task previously closed)Rel2: Nacharbeitstester: Spezifikation DSA NA Tester F5.1/ae12. RepairTester: Removing the referenced AU37X services and replacing them with generic scripts","07:00","16:00","8","60",
"15.08.12","3","110437","348","110","Engineering","","0","(Task previously closed)Rel2: Nacharbeitstester: Spezifikation DSA NA Tester F5.1/ae12. RepairTester: Removing the referenced AU37X services and replacing them with generic scripts","07:00","16:00","8","60",
"16.08.12","4","110437","348","110","Engineering","","0","(Task previously closed)Rel2: Nacharbeitstester: Spezifikation DSA NA Tester F5.1/ae12. RepairTester: Changing where lists are stored in the shared memory and fixing event signals","07:00","16:00","3","60",
"16.08.12","4","110437","348","110","Engineering","","0","(Task previously closed)Rel2: Nacharbeitstester: Spezifikation DSA NA Tester F5.1/ae12. RepairTester: Implementing and testing a tester for the BackgroundTesterState","","","3","0",
"16.08.12","4","110437","348","110","Engineering","","0","(Task previously closed)Rel2: Nacharbeitstester: Spezifikation DSA NA Tester F5.1/ae12. RepairTester: Fixing the error label for the UserLogin CTS","","","2","0",
"17.08.12","5","110437","348","110","Engineering","","0","(Task previously closed)Rel2: Nacharbeitstester: Spezifikation DSA NA Tester F5.1/ae12. RepairTester: Implementing and testing SetDefaultIcons CTS","07:00","16:00","2","60",
"17.08.12","5","120018","66","101","PM/Mod/Meetings","","0","S4/DSA overall tasks. Meetings and Timesheet","","","2","0",
"17.08.12","5","110437","348","110","Engineering","","0","(Task previously closed)Rel2: Nacharbeitstester: Spezifikation DSA NA Tester F5.1/ae12. RepairTester: Creating scripts that will be used to get the state from each of the Background CTSs","","","4","0",
