"19.03.12","1","120171","16","140","Test","","100","40: AGU: Upgrade auf neue Base.Lib 2.6: Review 18_HDS. Updating to baselib 2.6.00. Closing task","07:00","16:00","8","60",
"20.03.12","2","110408","330","182","Fehlerbes. nach Ausl. (Bugzilla)","","0","4210: Bugfixing. Bugfixing bug 34476, 34474, 34490, 34493, 34494","07:00","16:00","8","60",
"21.03.12","3","120023","0","910","Urlaub","","0","Holiday. Public Holiday","07:00","16:00","8","60",
"22.03.12","4","110408","330","182","Fehlerbes. nach Ausl. (Bugzilla)","","0","4210: Bugfixing. Bugfixing bug 34474, 34857, 34494, 35144, 33989, 34398","07:00","16:00","8,5","30",
"23.03.12","5","120026","22","101","PM/Mod/Meetings","","0","QW 2012. Meetings and Timesheets","07:00","16:00","2","60",
"23.03.12","5","110408","330","182","Fehlerbes. nach Ausl. (Bugzilla)","","0","4210: Bugfixing. Bugfixing bug 34399, 34494, 35144, 34400","","","6","0",
