"09.07.12","1","100769","499","181","Fehlerbes. vor Ausl. (Bugzilla)","","0","1110: Autom. Exporter: Extend Authoring Export f. Autom.: Bugfixing. Bug 36640: resolving the case of non-breaking space char in entity display name.","07:00","16:00","5","60",
"09.07.12","1","100769","643","181","Fehlerbes. vor Ausl. (Bugzilla)","","0","1410: BF: Authoring: PIDT Data Migration to 3,2. Merge fixes for compilation bugs for PIDT Diagnoseapplikation into dsa18a prior to migration.","","","3","0",
"10.07.12","2","100769","643","181","Fehlerbes. vor Ausl. (Bugzilla)","","0","1410: BF: Authoring: PIDT Data Migration to 3,2. Merge fixes for compilation bugs for PIDT Diagnoseapplikation into dsa18a prior to migration.","07:00","16:00","4","60",
"10.07.12","2","100769","499","181","Fehlerbes. vor Ausl. (Bugzilla)","","0","1110: Autom. Exporter: Extend Authoring Export f. Autom.: Bugfixing. Bug 36640: Refactored filename character filter to better handle all illegal file system characters","","","4","0",
"11.07.12","3","100769","643","181","Fehlerbes. vor Ausl. (Bugzilla)","","0","1410: BF: Authoring: PIDT Data Migration to 3,2. Merge fixes for compilation bugs for PIDT Diagnoseapplikation into dsa18a prior to migration.","07:00","16:00","4","60",
"11.07.12","3","100769","649","120","Codierung","","0","1411: Auth.: PIDT 12.1 Data Migration from D3 to P1-Authoring. Migrate data from 53 to 109, from dsa18a to gdat3a","","","4","0",
"12.07.12","4","100769","643","181","Fehlerbes. vor Ausl. (Bugzilla)","","0","1410: BF: Authoring: PIDT Data Migration to 3,2. Export/import bug 36789, problem solved, bug found to be invalid","07:00","16:00","3","60",
"12.07.12","4","100769","649","120","Codierung","","0","	1411: Auth.: PIDT 12.1 Data Migration from D3 to P1-Authoring. Perform migration on gdat3a according to migration guide.","","","5","0",
"13.07.12","5","120023","0","910","Urlaub","","0","Urlaub. Holiday","07:00","16:00","2","60",
"13.07.12","5","120022","29","101","PM/Mod/Meetings","","0","Wochenaufgaben SWS 2012. Weekly timesheet report, meetings","","","1,5","0",
"13.07.12","5","100769","649","120","Codierung","","100","1411: Auth.: PIDT 12.1 Data Migration from D3 to P1-Authoring. Final steps of migration task","","","4,5","0",
