"23.04.12","1","120171","42","120","Codierung","","100","1110: BaseLib: Stufe 1: KSM: Update. 37_KSM update to BL 2.6.00 RC3","07:00","16:00","3,2","60",
"23.04.12","1","110408","332","182","Fehlerbes. nach Ausl. (Bugzilla)","","0","5180: Bugfixing. worked on bugs #35651, 35652, 35653, 35655, 35657","","","4,8","0",
"24.04.12","2","120171","159","101","PM/Mod/Meetings","","0","8501: BaseLib: Projektgespräche Team. MAN project meeting","07:00","16:00","0,5","60",
"24.04.12","2","120171","45","140","Test","","100","1110: BaseLib: Stufe 1: MMDS: Review/Bugfix. MMDS review, from s58","","","1","0",
"24.04.12","2","120171","38","120","Codierung","","100","1110: BaseLib: Stufe 1: AST: Update. 20_AST update to BL 2.6.00 RC3","","","4,5","0",
"24.04.12","2","120171","28","120","Codierung","","0","1110: BaseLib: Stufe 1: EDC7C32: Update. 09_EDC7C32 update to BL 2.6.00 RC3","","","2","0",
"25.04.12","3","120171","43","140","Test","","100","1110: BaseLib: Stufe 1: KSM: Review/Bugfix. KSM Review, from s53","07:00","16:00","1","60",
"25.04.12","3","120171","28","120","Codierung","","0","1110: BaseLib: Stufe 1: EDC7C32: Update. 09_EDC7C32 update to BL 2.6.00 RC3","","","7","0",
"26.04.12","4","120018","24","101","PM/Mod/Meetings","","0","S4/DSA overall tasks. Meetings and updating timesheets","07:00","16:00","1,5","60",
"26.04.12","4","110408","332","182","Fehlerbes. nach Ausl. (Bugzilla)","","0","5180: Bugfixing. worked on bugs # 33515, 33513, 31453","","","6","0",
"26.04.12","4","120171","39","140","Test","","0","1110: BaseLib: Stufe 1: AST: Review/Bugfix. AST review, from s58","","","0,5","0",
"27.04.12","5","120023","0","910","Urlaub","","100","Public Holiday. Public Holiday","07:00","16:00","8","60",
