"04.06.12","1","120112","20","120","Codierung","","0","1005: CR150my3: Implementierung. Rework after review","07:00","16:00","8","60",
"05.06.12","2","120022","183","101","PM/Mod/Meetings","","0","Wochenaufgaben SWS. Meeting","07:00","16:00","0,5","60",
"05.06.12","2","120112","20","120","Codierung","","0","1005: CR150my3: Implementierung. Rework after review","","","7,5","0",
"06.06.12","3","120112","20","120","Codierung","","0","1005: CR150my3: Implementierung. Rework after review","07:00","16:00","8","60",
"07.06.12","4","120022","183","101","PM/Mod/Meetings","","0","Wochenaufgaben SWS. Meeting","07:00","16:00","0,5","60",
"07.06.12","4","120112","20","120","Codierung","","0","1005: CR150my3: Implementierung. Rework after review","","","7,5","0",
"08.06.12","5","120112","173","182","Fehlerbes. nach Ausl. (Bugzilla)","","0","9999: #34643. Bugfixing","07:00","16:00","3","60",
"08.06.12","5","120022","183","101","PM/Mod/Meetings","","0","Wochenaufgaben SWS. Weekly telco and Timesheets","","","1","0",
"08.06.12","5","120112","20","120","Codierung","","0","1005: CR150my3: Implementierung. Rework after review","","","4","0",
