"09.07.12","1","120112","0","120","Codierung","","0","CR227my6: RuecksetzenKundenwunschkodierung. Creating factory class","07:00","16:00","8","60",
"10.07.12","2","120112","79","181","Fehlerbes. vor Ausl. (Bugzilla)","","0","1008: CR210my3: Bugfixing Integrationstests vor CF. Bugs - 36722, 36723","07:00","16:00","3","60",
"10.07.12","2","120112","79","181","Fehlerbes. vor Ausl. (Bugzilla)","","0","1008: CR210my3: Bugfixing Integrationstests vor CF. Bug 36724","","","5","0",
"11.07.12","3","120112","79","181","Fehlerbes. vor Ausl. (Bugzilla)","","0","1008: CR210my3: Bugfixing Integrationstests vor CF. Bug 36727","07:00","16:00","5","60",
"11.07.12","3","120112","0","120","Codierung","","0","CR227my6: RuecksetzenKundenwunschkodierung. Creating factory class","","","3","0",
"12.07.12","4","120112","0","120","Codierung","","0","CR227my6: RuecksetzenKundenwunschkodierung. Creating factory class","07:00","16:00","8","60",
"13.07.12","5","120023","0","910","Urlaub","","0","Leave. Leave - Power Outage","07:00","16:00","2","60",
"13.07.12","5","120022","183","101","PM/Mod/Meetings","","0","Wochenaufgaben SWS. Weekly telco and Timesheets","","","1","0",
"13.07.12","5","120112","0","120","Codierung","","0","CR227my6: RuecksetzenKundenwunschkodierung. Adapting CTS","","","5","0",
