"19.11.12","1","120222","49","181","Fehlerbes. vor Ausl. (Bugzilla)","","0","1090: Bugfixing nach CF. Working on bugs: 39463, 39467, 39379","07:00","16:00","8","60",
"20.11.12","2","120222","49","181","Fehlerbes. vor Ausl. (Bugzilla)","","0","1090: Bugfixing nach CF. Working on bugs: 39469, 39471, 39493, 39496","07:00","16:00","8","60",
"21.11.12","3","120222","49","181","Fehlerbes. vor Ausl. (Bugzilla)","","0","1090: Bugfixing nach CF. Working on bugs: 39514, 39528, 39490, 39470, 39470","07:00","16:00","8","60",
"22.11.12","4","120222","49","180","Fehlerbes. nach Auslieferung (SA)","","0","1090: Bugfixing nach CF. Working on bugs: 39532, 39471, 39557","07:00","16:00","8","60",
"23.11.12","5","120222","49","180","Fehlerbes. nach Auslieferung (SA)","","0","1090: Bugfixing nach CF. CF Working on bugs: 39496, 38460","07:00","16:00","7","60",
"23.11.12","5","120022","184","101","PM/Mod/Meetings","","0","Wochenaufgaben SWS. Weekly general tasks","","","1","0",
