"02.01.12","1","110023","0","910","Urlaub","","0","Public Holiday. Time-Off","07:00","16:00","8","60",
"03.01.12","2","110408","186","120","Codierung","","0","3110: BaseLib: Stufe 3: INTA: Update. (from s53) Updating to baselib 2.5.03.","07:00","16:00","8","60",
"04.01.12","3","120025","22","170","Schulung","","0","Training 2012. Training new colleague","07:00","16:00","8","60",
"05.01.12","4","120025","22","170","Schulung","","0","Training 2012. Training new colleague","07:00","16:00","4","60",
"05.01.12","4","110408","190","120","Codierung","","0","3110: BaseLib: Stufe 3: SKG: Update. (from s53) Updating to baselib 2.5.03.","","","4","0",
"06.01.12","5","120018","25","101","PM/Mod/Meetings","","0","S4/DSA overall tasks. Meetings and Timesheets","07:00","16:00","2","60",
"06.01.12","5","110408","190","120","Codierung","","0","3110: BaseLib: Stufe 3: SKG: Update. (from s53) Updating to baselib 2.5.03.","","","2","0",
"06.01.12","5","120018","25","101","PM/Mod/Meetings","","0","S4/DSA overall tasks. Getting laptop set up for colleague and myself for trip to Aachen.","","","3","0",
"06.01.12","5","100553","1666","181","Fehlerbes. vor Ausl. (Bugzilla)","","0","MAN Migration Bugfixing. Bugs 31924,31925,31926","","","1","0",
