"02.01.12","1","110023","0","910","Urlaub","","100","Public Holiday. Time Off","07:00","16:00","8","60",
"03.01.12","2","110023","0","910","Urlaub","","100","Time Off. Time Off - Annual leave","07:00","16:00","8","60",
"04.01.12","3","120025","21","170","Schulung","","0","Training 2012. Training new colleague","07:00","16:00","5","60",
"04.01.12","3","110018","126","120","Codierung","","0","FISKER: VCM - TYRE: Implementation C2.2/pa10. CTS implementation, implemented failed to read values step","","","3","0",
"05.01.12","4","110618","126","120","Codierung","","0","FISKER: VCM - TYRE: Implementation C2.2/pa10. CTS implementation, implemented failed to read values step","07:00","16:00","4","60",
"05.01.12","4","120025","21","170","Schulung","","0","Training 2012. Training new colleague","","","4","0",
"06.01.12","5","120018","24","101","PM/Mod/Meetings","","0","S4/DSA overall tasks. Meetings and updating timesheets","07:00","16:00","2","60",
"06.01.12","5","110018","125","102","Spez: LH/PH/Design","","100","FISKER: VCM - TYRE: Specification C2.1/pa10. wrote sequence specification","","","5","0",
"06.01.12","5","120025","21","170","Schulung","","0","Training 2012. Training new colleague","","","1","0",
