"23.04.12","1","09.00790","3940","120","Codierung","","0","6212: P.Autom. R6: *F33 Task Magr: Update: Impl Release Update F3.5/ae10. Waiting for feedback","07:00","16:00","4","60",
"23.04.12","1","120018","21","101","PM/Mod/Meetings","","0","Management group AES. Telco with sc and md","","","0,5","0",
"23.04.12","1","09.00790","3944","120","Codierung","","0","6212: P.Autom. R6: *F33 Task Magr: Update: Impl DL24 Update F3.9/ae10. Implementing changes to DL24 and Flash updates.","","","3,5","0",
"24.04.12","2","09.00790","3973","181","Fehlerbes. vor Ausl. (Bugzilla)","","100","6212: P.Autom. R6: *F33 Task Magr: Update: Bugfixing Buffer F3.12/ae10. Updating VehicleIdentification and MainUpdate CTS to fix issues and changed requirements","07:00","16:00","6","60",
"24.04.12","2","120018","18","101","PM/Mod/Meetings","","0","S4 Administrative Tasks. Meeting with S4 Managment","","","1","0",
"24.04.12","2","120018","19","101","PM/Mod/Meetings","","0","S4 Technical Support / Troubleshoot. Supporting Team Members","","","1","0",
"25.04.12","3","09.00790","3944","120","Codierung","","100","6212: P.Autom. R6: *F33 Task Magr: Update: Impl DL24 Update F3.9/ae10. Implementation of correct Flash and DL24 symbolic link creation","07:00","16:00","4","60",
"25.04.12","3","120018","18","101","PM/Mod/Meetings","","0","S4 Administrative Tasks. Meeting with S4 Managment","","","1","0",
"25.04.12","3","120018","19","101","PM/Mod/Meetings","","0","S4 Technical Support / Troubleshoot. Supporting Team Members","","","3","0",
"26.04.12","4","120018","21","101","PM/Mod/Meetings","","0","Management group AES. Timesheets + Daily Meetings","07:00","16:00","1","60",
"26.04.12","4","09.00790","3935","181","Fehlerbes. vor Ausl. (Bugzilla)","","100","6211: P.Autom. R6: *F33 Task Magr: Init.: Bugfixing Buffer F2.9/ae10. Building Plant Configuration and fixing issues found","","","7","0",
"27.04.12","5","120023","0","910","Urlaub","","100","Urlaub. Public Holiday","07:00","16:00","1","60",
