"02.07.12","1","120025","19","170","Schulung","","0","Training 2012. Waiting for the task to do from DSA","07:00","16:00","8","60",
"03.07.12","2","120025","19","170","Schulung","","0","Training 2012. Waiting for the task to do from DSA","07:00","16:00","8","60",
"04.07.12","3","100369","0","104","Test-Spezifikation","","0","MAN Generic Tester. Going through and updating generic tester Specification","07:00","16:00","6","60",
"04.07.12","3","120246","0","181","Fehlerbes. vor Ausl. (Bugzilla)","","0","Integrationstest. Bugfixing bugzilla MIA Bug 36617","","","2","0",
"05.07.12","4","100369","0","104","Test-Spezifikation","","0","MAN Generic Tester. Creating Man Genirc Tester Specification - DTC Read / Delete","07:00","16:00","6","60",
"05.07.12","4","120246","0","181","Fehlerbes. vor Ausl. (Bugzilla)","","0","Integrationstest. Bugfixing bugzilla MIA Bug 36617","","","2","0",
"06.07.12","5","120018","22","101","PM/Mod/Meetings","","0","S4/DSA overall tasks. Department Meeting and Doing Timesheets","07:00","16:00","3","60",
"06.07.12","5","100369","0","104","Test-Spezifikation","","0","MAN Generic Tester. Creating Man Genirc Tester Specification - DTC Read / Delete","","","5","0",
