"06.08.12","1","100769","0","181","Fehlerbes. vor Ausl. (Bugzilla)","","0","Worked on bug 37223. Worked on bug 37223","07:00","16:00","8","60",
"07.08.12","2","100769","0","181","Fehlerbes. vor Ausl. (Bugzilla)","","0","Worked on bug 37257. Worked on bug 37257","07:00","16:00","4","60",
"07.08.12","2","100769","0","181","Fehlerbes. vor Ausl. (Bugzilla)","","0","Worked on bug 37223. Worked on bug 37223","","","4","0",
"08.08.12","3","100769","0","181","Fehlerbes. vor Ausl. (Bugzilla)","","0","Worked on bug 37257. Worked on bug 37257","07:00","16:00","5","60",
"08.08.12","3","100769","0","181","Fehlerbes. vor Ausl. (Bugzilla)","","0","Worked on bug 37304. Worked on bug 37304","","","3","0",
"09.08.12","4","120023","0","910","Urlaub","","0","Urlaub. Urlaub","07:00","16:00","8","60",
"10.08.12","5","120023","0","910","Urlaub","","0","Urlaub. Urlaub","07:00","16:00","8","60",
