"15.10.12","1","120010","76","120","Codierung","","0","MTS3: mts3_adjust_res(_def) F2.8/pa10. (from s65) Implemeted the CTS","07:00","16:00","8","60",
"16.10.12","2","120010","76","120","Codierung","","0","MTS3: mts3_adjust_res(_def) F2.8/pa10. (from s65) Implemeted the CTS","07:00","16:00","8","60",
"17.10.12","3","120010","74","120","Codierung","","0","MTS3: mts3_ovcp_test F2.6/pa10. (from s65) Implemeted the CTS","07:00","16:00","8","60",
"18.10.12","4","120010","74","120","Codierung","","0","MTS3: mts3_ovcp_test F2.6/pa10. (from s65) Implemeted the CTS","07:00","16:00","8","60",
"19.10.12","5","120018","62","101","PM/Mod/Meetings","","0","S4/DSA overall tasks. Meetings and Timesheets","07:00","16:00","1","60",
"19.10.12","5","120010","74","120","Codierung","","0","MTS3: mts3_ovcp_test F2.6/pa10. (from s65) Implemeted the CTS","","","7","0",
