"23.07.12","1","100769","0","110","Engineering","","0","Getting PIDT 12.0P to run on my PC. Getting PIDT 12.0P to run on my PC","07:00","16:00","8","60",
"24.07.12","2","100769","0","120","Codierung","","0","Investigated bug 36989. Investigated bug 36989","07:00","16:00","8","60",
"25.07.12","3","100769","0","120","Codierung","","0","Investigated bug 36989. Investigated bug 36989","07:00","16:00","3","60",
"25.07.12","3","100769","0","120","Codierung","","0","Investigated bug 37039. Investigated bug 37039","","","3","0",
"25.07.12","3","100769","0","120","Codierung","","0","Investigated bug 37044. Investigated bug 37044","","","2","0",
"26.07.12","4","100769","0","120","Codierung","","100","Fixed bug 37044. Fixed bug 37044","07:00","16:00","2","60",
"26.07.12","4","100769","0","120","Codierung","","0","Investigated bug 37039. Fixed first part of 37039","","","6","0",
"27.07.12","5","100769","0","120","Codierung","","0","Fix bug 37039. Fix bug 37039","07:00","16:00","3","60",
"27.07.12","5","100769","0","120","Codierung","","0","Test PIDT 12.0P and fix bugs. Test PIDT 12.0P and fix bugs","","","5","0",
