"19.11.12","1","100498","243","182","Fehlerbes. nach Ausl. (Bugzilla)","","0","5082: 9x6: Gewährleistung 2012: Bugfixing. Bugfixing 9x6 Bugs from dk","07:00","16:00","8","60",
"20.11.12","2","100498","243","182","Fehlerbes. nach Ausl. (Bugzilla)","","0","5082: 9x6: Gewährleistung 2012: Bugfixing. Bugfixing 9x6 Bugs from dk","07:00","16:00","8","60",
"21.11.12","3","100498","243","182","Fehlerbes. nach Ausl. (Bugzilla)","","0","5082: 9x6: Gewährleistung 2012: Bugfixing. Bugfixing 9x6 Bugs from dk","07:00","16:00","8","60",
"22.11.12","4","100498","243","182","Fehlerbes. nach Ausl. (Bugzilla)","","0","5082: 9x6: Gewährleistung 2012: Bugfixing. Bugfixing 9x6 Bugs from dk","07:00","16:00","8","60",
"23.11.12","5","100498","243","182","Fehlerbes. nach Ausl. (Bugzilla)","","0","5082: 9x6: Gewährleistung 2012: Bugfixing. Bugfixing 9x6 Bugs from dk","07:00","16:00","5","60",
"23.11.12","5","120018","22","101","PM/Mod/Meetings","","0","S4/DSA overall. Department Meeting and Doing Timesheets","","","3","0",
