"19.08.13","1","120762","231","102","Spez: LH/PH/Design","","100","9999: Source-Code Review: #42716. Closinng finished task","07:00","16:00","0","60",
"19.08.13","1","120600","884","181","Fehlerbes. vor Ausl. (Bugzilla)","","100","8190: P4 #41148 (trivial) Project explorer tree shows empty row after deleting last entity, Project. Closing old task","","","0","0",
"19.08.13","1","120762","183","181","Fehlerbes. vor Ausl. (Bugzilla)","","0","20-1090: Release 13.4: Bugfixing nach CF. Working on Bug 42376","","","3","0",
"19.08.13","1","120762","227","140","Test","","0","20-1090: Release 13.4: Regressionstests nach CF. Supporting PIDT 13.4.0 regression tests. Supporting PIDT 13.4.0 regression tests","","","5","0",
"20.08.13","2","120762","183","181","Fehlerbes. vor Ausl. (Bugzilla)","","0","20-1090: Release 13.4: Bugfixing nach CF. Working on Bugs 42376, 45441 & 45432","07:00","16:00","6","60",
"20.08.13","2","120762","227","140","Test","","0","20-1090: Release 13.4: Regressionstests nach CF. Supporting PIDT 13.4.0 regression tests. Supporting PIDT 13.4.0 regression tests","","","2","0",
"21.08.13","3","120762","227","140","Test","","0","20-1090: Release 13.4: Regressionstests nach CF. Supporting PIDT 13.4.0 regression tests. Supporting PIDT 13.4.0 regression tests","07:00","18:00","3","60",
"21.08.13","3","120762","183","181","Fehlerbes. vor Ausl. (Bugzilla)","","0","20-1090: Release 13.4: Bugfixing nach CF. Working on Bugs 42376, 45439 & other bugs found during regression tests","","","7","0",
"22.08.13","4","120762","227","140","Test","","0","20-1090: Release 13.4: Regressionstests nach CF. Supporting PIDT 13.4.0 regression tests. Supporting PIDT 13.4.0 regression tests","07:00","16:00","4","60",
"22.08.13","4","120762","183","181","Fehlerbes. vor Ausl. (Bugzilla)","","0","20-1090: Release 13.4: Bugfixing nach CF. Working on Bugs 45521","","","4","0",
"23.08.13","5","120762","183","181","Fehlerbes. vor Ausl. (Bugzilla)","","0","20-1090: Release 13.4: Bugfixing nach CF. Working on Bugs 45521, 45576","07:00","16:00","4","60",
"23.08.13","5","120762","227","140","Test","","0","20-1090: Release 13.4: Regressionstests nach CF. Supporting PIDT 13.4.0 regression tests. Supporting PIDT 13.4.0 regression tests","","","2,5","0",
"23.08.13","5","130051","12","101","PM/Mod/Meetings","","0","S4/DSA overall tasks 2013. Weekly general tasks","","","1,5","0",
