"01.04.13","1","130023","0","910","Urlaub","","0","Urlaub. Urlaub","07:00","16:00","8","60",
"02.04.13","2","110635","39","120","Codierung","","0","1101: Dialoge: Impl. CTS 4-line Dialog F1.3/ae10. Impl. CTS 4-line Dialog F1.3/ae10","07:00","16:00","6","60",
"02.04.13","2","130051","24","101","PM/Mod/Meetings","","0","S4/DSA Training 2013. Training, indexBitmap, screens","","","2","0",
"03.04.13","3","110635","39","120","Codierung","","0","1101: Dialoge: Impl. CTS 4-line Dialog F1.3/ae10. Impl. CTS 4-line Dialog F1.3/ae10","07:00","16:00","5","60",
"03.04.13","3","130023","0","910","Urlaub","","0","Urlaub. Urlaub","","","3","0",
"04.04.13","4","130023","0","920","Krankheit","","0","Krankheit. Krankheit","07:00","16:00","8","60",
"05.04.13","5","130051","9","101","PM/Mod/Meetings","","0","S4/DSA overall tasks 2013. Meetings and Timesheet","07:00","16:00","1","60",
"05.04.13","5","110635","39","120","Codierung","","0","1101: Dialoge: Impl. CTS 4-line Dialog F1.3/ae10. Impl. CTS 4-line Dialog F1.3/ae10","","","4","0",
"05.04.13","5","110635","42","140","Test","","0","1101: Dialoge: Tests Functions/Examples F1.6/ae10. Dialoge: Tests Functions/Examples F1.6/ae10","","","3","0",
