"25.11.13","1","130023","1657","910","Urlaub","","0","Time Off. Time Off","07:00","16:00","3","60",
"25.11.13","1","130252","15","181","Fehlerbes. vor Ausl. (Bugzilla)","","0","CR ODX (#255): EDC17: Bugfixing vor Auslieferung. CR ODX (#255): EDC17: Bugfixing vor Auslieferung","","","5","0",
"26.11.13","2","130252","15","181","Fehlerbes. vor Ausl. (Bugzilla)","","0","CR ODX (#255): EDC17: Bugfixing vor Auslieferung. CR ODX (#255): EDC17: Bugfixing vor Auslieferung","07:00","16:00","4","60",
"26.11.13","2","130025","0","170","Schulung","","0","Self Study. ODX training","","","4","0",
"27.11.13","3","130051","21","101","PM/Mod/Meetings","","0","S4/DSA Training 2013. Training Siima on Vector ODXStudio","07:00","16:00","3","60",
"27.11.13","3","130025","0","170","Schulung","","0","Self Study. ascs training DTC, Measurements, Indentifications","","","2","0",
"27.11.13","3","130252","15","181","Fehlerbes. vor Ausl. (Bugzilla)","","0","CR ODX (#255): EDC17: Bugfixing vor Auslieferung. CR ODX (#255): EDC17: Bugfixing vor Auslieferung","","","3","0",
"28.11.13","4","130051","21","101","PM/Mod/Meetings","","0","S4/DSA Training 2013. Assisting colleague","07:00","16:00","1","60",
"28.11.13","4","130025","0","170","Schulung","","0","Self Study. ascs training","","","2","0",
"28.11.13","4","130168","371","182","Fehlerbes. nach Ausl. (Bugzilla)","","0","Bugfixing bis Ende 2013 /BI-Pos. 13. bug 47617","","","1,5","0",
"28.11.13","4","120714","841","120","Codierung","","0","P.Authoring: lack of performance (waiting). wait for authoring - lack of performance, creating deliverables","","","1","0",
"28.11.13","4","130252","15","181","Fehlerbes. vor Ausl. (Bugzilla)","","0","CR ODX (#255): EDC17: Bugfixing vor Auslieferung. CR ODX (#255): EDC17: Bugfixing vor Auslieferung","","","1","0",
"28.11.13","4","130056","301","120","Codierung","","0","1102: ASCS II: AP7: Rework existing appl.: Identification F6.3/ae11. rework Identifications, measurements, DTCs CTSs","","","1,5","0",
"29.11.13","5","130051","7","101","PM/Mod/Meetings","","0","S4/DSA overall tasks 2013. Meeting and updating time sheets","07:00","16:00","1,5","60",
"29.11.13","5","130051","21","101","PM/Mod/Meetings","","0","S4/DSA Training 2013. Assisting colleague","","","1,5","0",
"29.11.13","5","130025","0","170","Schulung","","0","Self Study. ascs training DTCs, Identifications","","","5","0",
