"21.01.13","1","120760","53","120","Codierung","","0","1001: Codierworkaround Implementierung / CR248my2. Working on implementation of feature","07:00","16:00","8","60",
"22.01.13","2","120760","53","120","Codierung","","0","1001: Codierworkaround Implementierung / CR248my2. Working on implementation of feature","07:00","16:00","8","60",
"23.01.13","3","120559","109","102","Spez: LH/PH/Design","","0","9999: PIDT OTX Ext.:Design document. Working on PIDT OTX design documents: fixing review issues","07:00","16:00","5","60",
"23.01.13","3","120760","53","120","Codierung","","0","1001: Codierworkaround Implementierung / CR248my2. Working on implementation of feature","","","1","0",
"23.01.13","3","120760","71","182","Fehlerbes. nach Ausl. (Bugzilla)","","0","1080: Bugfixing (Puffer). Working on Bug 39987","","","2","0",
"24.01.13","4","120559","109","102","Spez: LH/PH/Design","","0","9999: PIDT OTX Ext.:Design document. Working on PIDT OTX design documents: fixing review issues","07:00","16:00","4","60",
"24.01.13","4","120760","71","182","Fehlerbes. nach Ausl. (Bugzilla)","","0","080: Bugfixing (Puffer). Working on Bug 39987","","","4","0",
"25.01.13","5","130051","12","101","PM/Mod/Meetings","","0","S4/DSA overall tasks 2013. Weekly general tasks","07:00","16:00","1","60",
"25.01.13","5","120559","109","102","Spez: LH/PH/Design","","0","9999: PIDT OTX Ext.:Design document. Working on PIDT OTX design documents: fixing review issues","","","7","0",
