"21.01.13","1","130023","0","920","Krankheit","","0","Sick. Sick","07:00","16:00","8","60",
"22.01.13","2","120760","70","120","Codierung","","0","1004: PDXInstallerFehlerrobustheit Implemementierung / CR248my1. Worked on PDX Installer feature","07:00","16:00","5","60",
"22.01.13","2","120760","69","104","Test-Spezifikation","","0","1004: PDXInstallerFehlerrobustheit Testspezifikation / CR248my1. Worked on test spec for CR248my1","","","3","0",
"23.01.13","3","120760","69","104","Test-Spezifikation","","0","1004: PDXInstallerFehlerrobustheit Testspezifikation / CR248my1. Worked on CR248my1 test spec","07:00","16:00","4","60",
"23.01.13","3","100769","0","120","Codierung","","0","Exported entities from the D5 PIDT 12.8.0 Database. Exported entities from the D5 PIDT 12.8.0 Database","","","4","0",
"24.01.13","4","100769","0","120","Codierung","","0","Exported entities from the D5 PIDT 12.8.0 Database. Exported entities from the D5 PIDT 12.8.0 Database","07:00","16:00","2","60",
"24.01.13","4","120760","69","104","Test-Spezifikation","","0","LUB	1004: PDXInstallerFehlerrobustheit Testspezifikation / CR248my1. Fixed test spec problems found in review","","","2","0",
"24.01.13","4","100769","867","181","Fehlerbes. vor Ausl. (Bugzilla)","","0","1210: Bugfixing vor CF. Worked on bug 40307","","","2","0",
"24.01.13","4","100769","867","181","Fehlerbes. vor Ausl. (Bugzilla)","","0","1210: Bugfixing vor CF. Worked on bug 40294","","","2","0",
"25.01.13","5","100769","0","120","Codierung","","0","Merging PIDT 12.8.0 entities. Merging PIDT 12.8.0 entities","07:00","16:00","6","60",
"25.01.13","5","130051","13","101","PM/Mod/Meetings","","0","S4/DSA overall tasks 2013. Meeting","","","1","0",
"25.01.13","5","100769","853","120","Codierung","","100","1120: Merge ChangeSet 9 (APuC). Closing task","","","0","0",
"25.01.13","5","120760","70","120","Codierung","","0","1004: PDXInstallerFehlerrobustheit Implemementierung / CR248my1. Fixing code review points","","","1","0",
