"25.11.13","1","130598","13","102","Spez: LH/PH/Design","","0","DiPAS: Performanceanalyse PIDT /BI-Pos. 4. PIDT Performance Analysis","07:00","16:00","8","60",
"26.11.13","2","130598","13","102","Spez: LH/PH/Design","","0","DiPAS: Performanceanalyse PIDT /BI-Pos. 4. PIDT Performance Analysis","07:00","16:00","8","60",
"27.11.13","3","130598","13","102","Spez: LH/PH/Design","","0","DiPAS: Performanceanalyse PIDT /BI-Pos. 4. PIDT Performance Analysis","07:00","16:00","8","60",
"28.11.13","4","130598","13","102","Spez: LH/PH/Design","","0","DiPAS: Performanceanalyse PIDT /BI-Pos. 4. PIDT Performance Analysis","07:00","16:00","8","60",
"29.11.13","5","130023","0","910","Urlaub","","0","Holiday. Time off","07:00","16:00","8","60",
