"31.12.12","1","120023","0","910","Urlaub","","0","Urlaub. Urlaub","07:00","16:00","8","60",
"01.01.13","2","120023","0","910","Urlaub","","0","Urlaub. Urlaub","07:00","16:00","8","60",
"02.01.13","3","120023","0","910","Urlaub","","0","Urlaub. Urlaub","07:00","16:00","8","60",
"03.01.13","4","120023","0","910","Urlaub","","0","Urlaub. Urlaub","07:00","16:00","8","60",
"04.01.13","5","120023","0","910","Urlaub","","0","Urlaub. Urlaub","07:00","16:00","8","60",
