"11.03.13","1","100769","995","120","Codierung","","0","2120: 13.0P Merge Automation Entities. Exporting of entities","07:00","16:00","8","60",
"12.03.13","2","100769","995","120","Codierung","","0","2120: 13.0P Merge Automation Entities. Export and merge of entities","07:00","16:00","8","60",
"13.03.13","3","100769","995","120","Codierung","","0","2120: 13.0P Merge Automation Entities. Merging of entities","07:00","16:00","8","60",
"14.03.13","4","100769","995","120","Codierung","","0","2120: 13.0P Merge Automation Entities. Merging of entities and testing","07:00","16:00","8","60",
