"25.03.13","1","100769","0","110","Engineering","","0","Setting up Eclipse workspace for Automation bugs. Setting up Eclipse workspace for Automation bugs","07:00","16:00","8","60",
"26.03.13","2","100769","0","110","Engineering","","0","Setting up Eclipse workspace for Automation bugs. Setting up Eclipse workspace for Automation bugs","07:00","16:00","4","60",
"26.03.13","2","100769","0","182","Fehlerbes. nach Ausl. (Bugzilla)","","0","Worked on bug 40776. Worked on bug 40776","","","4","0",
"27.03.13","3","130023","0","920","Krankheit","","0","Sick Leave. Sick Leave","07:00","16:00","8","60",
"28.03.13","4","130023","0","910","Urlaub","","0","Holiday. Holiday","07:00","16:00","8","60",
"29.03.13","5","130023","0","910","Urlaub","","0","Holiday. Holiday","07:00","16:00","8","60",
