"02.09.13","1","130051","0","101","PM/Mod/Meetings","","100","Meeting. Meeting","07:00","16:00","1","60",
"02.09.13","1","120762","0","181","Fehlerbes. vor Ausl. (Bugzilla)","","50","Bug Fixing. Bug 45592 Analysis","","","4","0",
"02.09.13","1","120762","0","130","Installation + Konfiguration","","5","Workspace Setup. Workspace Setup","","","3","0",
"03.09.13","2","120762","0","130","Installation + Konfiguration","","5","Workspace Setup. Workspace Setup","07:00","16:00","8","60",
"04.09.13","3","120762","0","130","Installation + Konfiguration","","100","Workspace Setup. Workspace Setup","07:00","16:00","4","60",
"04.09.13","3","120762","0","181","Fehlerbes. vor Ausl. (Bugzilla)","","60","Bug Fixing. Bug 45592","","","4","0",
"05.09.13","4","120762","0","181","Fehlerbes. vor Ausl. (Bugzilla)","","70","Bug Fixing. Bug 45592","07:00","16:00","8","60",
"06.09.13","5","130051","0","101","PM/Mod/Meetings","","100","Meeting. Meeting","07:00","16:00","1","60",
"06.09.13","5","120762","0","181","Fehlerbes. vor Ausl. (Bugzilla)","","0","Bug Fixing. Bug 44005","","","7","0",
