"07.10.13","1","130550","153","120","Codierung","","0","10-1002: CR307my5-186: PDXInstODXEF: Anpassung Screen F1.4/pa10. Changing PDX Installer screens","07:00","16:00","8","60",
"08.10.13","2","130550","153","120","Codierung","","100","10-1002: CR307my5-186: PDXInstODXEF: Anpassung Screen F1.4/pa10. Changing PDX Installer screens","07:00","16:00","8","60",
"09.10.13","3","130550","155","120","Codierung","","0","10-1002: CR307my5-186: PDXInstODXEF: Anpassung Installationsablauf F1.6/pa10. Changing installation logic","07:00","16:00","8","60",
"10.10.13","4","130550","155","120","Codierung","","0","10-1002: CR307my5-186: PDXInstODXEF: Anpassung Installationsablauf F1.6/pa10. Changing installation logic","07:00","16:00","8","60",
"11.10.13","5","130550","155","120","Codierung","","0","10-1002: CR307my5-186: PDXInstODXEF: Anpassung Installationsablauf F1.6/pa10. Changing installation logic","07:00","16:00","7","60",
"11.10.13","5","130051","13","101","PM/Mod/Meetings","","0","S4/DSA overall tasks 2013. Meeting","","","1","0",
