"04.02.13","1","120760","71","182","Fehlerbes. nach Ausl. (Bugzilla)","","0","1080: Bugfixing (Puffer). Working on Bug 40612","07:00","16:00","5","60",
"04.02.13","1","120760","53","120","Codierung","","100","1001: Codierworkaround Implementierung / CR248my2. Working on implementation of feature: fixing review points","","","3","0",
"05.02.13","2","120760","51","104","Test-Spezifikation","","100","1001: Codierworkaround Simulationserstellung / CR248my2. Fixing test cases and simulation based on review","07:00","16:00","5","60",
"05.02.13","2","120760","71","182","Fehlerbes. nach Ausl. (Bugzilla)","","0","1080: Bugfixing (Puffer). Working on Bug 40612, 40630","","","3","0",
"06.02.13","3","120760","71","182","Fehlerbes. nach Ausl. (Bugzilla)","","0","1080: Bugfixing (Puffer). Working on Bug 40649","07:00","16:00","1,5","60",
"06.02.13","3","120559","109","102","Spez: LH/PH/Design","","0","9999: PIDT OTX Ext.:Design document. Working on PIDT OTX design documents: fixing review issues","","","6,5","0",
"07.02.13","4","120760","71","182","Fehlerbes. nach Ausl. (Bugzilla)","","0","1080: Bugfixing (Puffer). Working on Bugs 40677 & 40690","07:00","16:00","3","60",
"07.02.13","4","120036","0","170","Schulung","","0","SWE: PIDT-Automation. Workspace setup and getting into subject for PIDT.Automation","","","5","0",
"08.02.13","5","120023","0","920","Krankheit","","0","Sick leave. Sick leave","07:00","16:00","8","60",
