"24.06.13","1","100369","8764","120","Codierung","","0","5307: OBD-II: ODX-Sequ. Systemstatus: Impl. F13.1/ae10. 5307: OBD-II: ODX-Sequ. Systemstatus: Impl. F13.1/ae10","07:00","16:00","7","60",
"24.06.13","1","120714","1228","120","Codierung","","0","P.Authoring: lack of performance (waiting). P.Authoring: lack of performance (waiting)","","","1","0",
"25.06.13","2","100369","8764","120","Codierung","","0","5307: OBD-II: ODX-Sequ. Systemstatus: Impl. F13.1/ae10. 5307: OBD-II: ODX-Sequ. Systemstatus: Impl. F13.1/ae10","07:00","16:00","7","60",
"25.06.13","2","120714","1228","120","Codierung","","0","P.Authoring: lack of performance (waiting). P.Authoring: lack of performance (waiting)","","","1","0",
"26.06.13","3","100369","8764","120","Codierung","","100","5307: OBD-II: ODX-Sequ. Systemstatus: Impl. F13.1/ae10. 5307: OBD-II: ODX-Sequ. Systemstatus: Impl. F13.1/ae10","07:00","16:00","7","60",
"26.06.13","3","120714","1228","120","Codierung","","0","P.Authoring: lack of performance (waiting). P.Authoring: lack of performance (waiting)","","","1","0",
"27.06.13","4","120714","1228","120","Codierung","","0","P.Authoring: lack of performance (waiting). P.Authoring: lack of performance (waiting)","07:00","16:00","2","60",
"27.06.13","4","100369","8707","140","Test","","0","4092: OBD/WWH: ODX-Sequ.: Bugfix zu Integrationstest F15.2/ae10	. 4092: OBD/WWH: ODX-Sequ.: Bugfix zu Integrationstest F15.2/ae10	","","","2","0",
"27.06.13","4","100369","8761","140","Test","","0","5305: OBD-II: ODX-Sequ. Diagn.speicher: Modultest, Bugfix F11.2/ae10. 5305: OBD-II: ODX-Sequ. Diagn.speicher: Modultest, Bugfix F11.2/ae10","","","1","0",
"27.06.13","4","100369","8706","140","Test","","100","4092: OBD/WWH: ODX-Sequ.: Integrationstest F15.1/ae10. 4092: OBD/WWH: ODX-Sequ.: Integrationstest F15.1/ae10","","","3","0",
"28.06.13","5","120714","1228","120","Codierung","","0","P.Authoring: lack of performance (waiting). P.Authoring: lack of performance (waiting)","07:00","16:00","1,5","60",
"28.06.13","5","130051","10","101","PM/Mod/Meetings","","0","S4/DSA overall tasks 2013. S4/DSA overall tasks 2013","","","1","0",
"28.06.13","5","100369","8707","140","Test","","0","4092: OBD/WWH: ODX-Sequ.: Bugfix zu Integrationstest F15.2/ae10		2.9. 4092: OBD/WWH: ODX-Sequ.: Bugfix zu Integrationstest F15.2/ae10		2.9","","","2,5","0",
"28.06.13","5","100369","8765","140","Test","","0","5307: OBD-II: ODX-Sequ. Systemstatus: Modultest, Bugfix F13.2/ae10 	2.0. 5307: OBD-II: ODX-Sequ. Systemstatus: Modultest, Bugfix F5307: OBD-II: ODX-Sequ. Syste13.2/ae10 	2.0","","","3","0",
