"30.09.13","1","130127","81","120","Codierung","","0","10-1101: ZBRO32: ODX: Job: Monitoring/IOControl exe F1.8/pa10. Modifications after review","07:00","16:00","8","60",
"01.10.13","2","130127","81","120","Codierung","","0","10-1101: ZBRO32: ODX: Job: Monitoring/IOControl exe F1.8/pa10. modifications after review","07:00","16:00","8","60",
"02.10.13","3","130127","37","120","Codierung","","0","10-1101: ZBRO32: ODX: Bugfixing F1.11/pa10. progress for a2l excecution, rerun handling","07:00","16:00","8","60",
"02.10.13","3","130127","36","120","Codierung","","100","10-1101: ZBRO32: ODX: Job: A2L upload/parsen F1.7/pa10. closing task","","","0","0",
"03.10.13","4","130127","81","120","Codierung","","0","10-1101: ZBRO32: ODX: Job: Monitoring/IOControl exe F1.8/pa10. renaming of service and parameters, removing validation errors for jobs, adding build.xml","07:00","16:00","8","60",
"04.10.13","5","130127","29","102","Spez: LH/PH/Design","","0","10-1101: ZBRO32: ODX: PH F1.2/pa10. Adding new modifications of the specification file","07:00","16:00","7","60",
"04.10.13","5","130051","8","101","PM/Mod/Meetings","","0","S4/DSA overall tasks 2013. Meetings and timesheets","","","1","0",
