"08.07.13","1","100369","8670","101","PM/Mod/Meetings","","0","8501: OBD/WWH: Mod A1.2/ae10. Supporting team members","07:00","16:00","8","60",
"09.07.13","2","100369","8670","101","PM/Mod/Meetings","","0","8501: OBD/WWH: Mod A1.2/ae10. Supporting team members","07:00","16:00","8","60",
"10.07.13","3","100369","8670","101","PM/Mod/Meetings","","0","8501: OBD/WWH: Mod A1.2/ae10. Supporting team members","07:00","16:00","8","60",
"11.07.13","4","100369","8679","101","PM/Mod/Meetings","","0","8501: OBD/WWH: Releasemanagement A2.4/ae10. Release management","07:00","16:00","4","60",
"11.07.13","4","100369","8751","101","PM/Mod/Meetings","","0","8501: OBD/WWH: Testkoordination A2.1/ae10. Test management","","","4","0",
"12.07.13","5","100369","8679","101","PM/Mod/Meetings","","100","8501: OBD/WWH: Releasemanagement A2.4/ae10. Release management","07:00","16:00","5","60",
"12.07.13","5","100369","8751","101","PM/Mod/Meetings","","0","8501: OBD/WWH: Testkoordination A2.1/ae10. Test management","","","2","0",
"12.07.13","5","130051","2","101","PM/Mod/Meetings","","0","Management group AES 2013. Timesheets + Meetings","","","1","0",
