"22.04.13","1","100369","8779","120","Codierung","","0","5213: OBD: IUPR Daten: Impl F17.6/ae10. Implementing IURPData CTS","07:00","16:00","6,5","60",
"22.04.13","1","130051","9","101","PM/Mod/Meetings","","0","S4/DSA overall tasks 2013. No internet, server down","","","1,5","0",
"23.04.13","2","100369","8779","120","Codierung","","0","5213: OBD: IUPR Daten: Impl F17.6/ae10. Implementing IURPData CTS","07:00","16:00","8","60",
"24.04.13","3","130023","0","910","Urlaub","","0","Urlaub. Urlaub","07:00","16:00","8","60",
"25.04.13","4","120246","183","140","Test","","100","MIA AS: B.M.S: Integrationstest F3.8/ae10. BMS Configuration Editing","07:00","16:00","6","60",
"25.04.13","4","120246","120","120","Codierung","","100","1203: ABS/B.M.S: B.M.S: Integration into customer database F2.8/pa20. ABS, BMS Editing","","","2","0",
"26.04.13","5","130051","9","101","PM/Mod/Meetings","","0","S4/DSA overall tasks 2013. Meetings and Timesheet","07:00","16:00","1","60",
"26.04.13","5","120246","211","181","Fehlerbes. vor Ausl. (Bugzilla)","","100","1202: ABS/B.M.S: ABS: Bugfixing Integrationstest F1.10/pa20. ABS, BMS Bugfixing","","","4","0",
"26.04.13","5","100369","8779","120","Codierung","","0","5213: OBD: IUPR Daten: Impl F17.6/ae10. Implementing IURPData CTS","","","3","0",
