"18.03.13","1","100769","0","110","Engineering","","0","PIDT Automation bug fixing getting into subject. Setting up PIDT Automation workspace and development environment","07:00","16:00","8","60",
"19.03.13","2","120600","886","182","Fehlerbes. nach Ausl. (Bugzilla)","","0","8180: P3 #41161 (normal) Simple workflow leaves workspace in unusable state, Common Editors. Working on Bug 41161","07:00","16:00","4","60",
"19.03.13","2","100769","0","110","Engineering","","0","PIDT Automation bug fixing getting into subject. Setting up PIDT Automation workspace and development environment","","","4","0",
"20.03.13","3","130051","12","101","PM/Mod/Meetings","","0","S4/DSA overall tasks 2013. Weekly general tasks","07:00","16:00","1","60",
"20.03.13","3","120600","886","182","Fehlerbes. nach Ausl. (Bugzilla)","","100","8180: P3 #41161 (normal) Simple workflow leaves workspace in unusable state, Common Editors. Working on Bug 41161","","","7","0",
"21.03.13","4","130023","0","910","Urlaub","","0","Holiday. Holiday","07:00","16:00","8","60",
"22.03.13","5","130023","438","910","Urlaub","","0","Urlaub 22.03.-24.03.2013. Time off","07:00","16:00","8","60",
