"14.01.13","1","120246","101","102","Spez: LH/PH/Design","","0","MIA AS: EGV Config.: Rework Specification F1.2/ae10. Rework After review","07:00","16:00","4","60",
"14.01.13","1","120556","29","110","Engineering","","100","PAGMIG: 9x6: Ermittlung Delta-Daten (12P --> 12.8P) F3.1/ae10. Creating list of changed entities","","","4","0",
"15.01.13","2","120246","101","102","Spez: LH/PH/Design","","0","MIA AS: EGV Config.: Rework Specification F1.2/ae10. Rework After review","07:00","16:00","8","60",
"16.01.13","3","120246","109","120","Codierung","","0","MIA AS: History: Data Management Implementierung u. Modultests F2.7/ae10. Implementing CTS with updated ODX","07:00","16:00","8","60",
"17.01.13","4","120246","109","120","Codierung","","0","MIA AS: History: Data Management Implementierung u. Modultests F2.7/ae10. Implementing CTS with updated ODX","07:00","16:00","8","60",
"18.01.13","5","130051","4","101","PM/Mod/Meetings","","0","S4/DSA overall tasks 2013. Timesheets","07:00","16:00","1","60",
"18.01.13","5","120246","87","120","Codierung","","0","MIA AS: EGV Key Type:  Implementierung u. Modultests F5.7/ae10. Updating CTS for new ODX","","","7","0",
