"26.08.13","1","120762","230","140","Test","","100","20-1090: Release 13.4: Regressionstests nach CF. PIDT 13.4.0 Regression Testing. DLS 3 Regression Testing","07:00","20:00","12","60",
"27.08.13","2","120762","0","182","Fehlerbes. nach Ausl. (Bugzilla)","","0","PIDT 13.4.0 Bug fixing. Working on bug 41130","07:00","16:00","8","60",
"28.08.13","3","120762","0","182","Fehlerbes. nach Ausl. (Bugzilla)","","0","PIDT 13.4.0 Bug fixing. Working on bug 41130","07:00","16:00","3","60",
"28.08.13","3","120762","0","182","Fehlerbes. nach Ausl. (Bugzilla)","","0","PIDT 13.4.0 Bug fixing. Working on bug 45612","","","5","0",
"29.08.13","4","120762","0","182","Fehlerbes. nach Ausl. (Bugzilla)","","0","PIDT 13.4.0 Bug fixing. Working on bug 45629","07:00","16:00","3,5","60",
"29.08.13","4","120762","0","182","Fehlerbes. nach Ausl. (Bugzilla)","","0","PIDT 13.8.0 Bug fixing. Working on bug 45593","","","4,5","0",
"30.08.13","5","120762","0","182","Fehlerbes. nach Ausl. (Bugzilla)","","0","PIDT 13.4.0 Bug fixing. Working on bug 44296","07:00","16:00","8","60",
