"10.06.13","1","120363","119","181","Fehlerbes. vor Ausl. (Bugzilla)","","0","81: MCD/PIDT: Conv/PIDT: Bugfixing PIDT-Anpassungen (Risikopuffer) F1.5/pa41. Working on bugs 43463, 43380","07:00","16:00","8","60",
"11.06.13","2","120363","119","181","Fehlerbes. vor Ausl. (Bugzilla)","","0","81: MCD/PIDT: Conv/PIDT: Bugfixing PIDT-Anpassungen (Risikopuffer) F1.5/pa41. Working on bugs 43463, 42121","07:00","16:00","8","60",
"12.06.13","3","120363","119","181","Fehlerbes. vor Ausl. (Bugzilla)","","0","81: MCD/PIDT: Conv/PIDT: Bugfixing PIDT-Anpassungen (Risikopuffer) F1.5/pa41. Working on bug 43463","07:00","16:00","7","60",
"12.06.13","3","130051","12","101","PM/Mod/Meetings","","0","S4/DSA overall tasks 2013. Weekly general tasks","","","1","0",
"13.06.13","4","120363","119","181","Fehlerbes. vor Ausl. (Bugzilla)","","0","81: MCD/PIDT: Conv/PIDT: Bugfixing PIDT-Anpassungen (Risikopuffer) F1.5/pa41. Working on bugs 43463, 43649 & 43282","07:00","16:00","8","60",
"14.06.13","5","130051","12","101","PM/Mod/Meetings","","0","S4/DSA overall tasks 2013. Weekly general tasks","07:00","16:00","1,5","60",
"14.06.13","5","120363","119","181","Fehlerbes. vor Ausl. (Bugzilla)","","0","81: MCD/PIDT: Conv/PIDT: Bugfixing PIDT-Anpassungen (Risikopuffer) F1.5/pa41. Working on bugs","","","6,5","0",
