"10.06.13","1","0","0","120","Codierung","","0","Gyor. HLA Gyor","07:00","16:00","8","60",
"11.06.13","2","0","0","120","Codierung","","0","Gyor. HLA Gyor","07:00","16:00","8","60",
"12.06.13","3","0","0","120","Codierung","","0","Gyor. HLA Gyor","07:00","16:00","8","60",
"13.06.13","4","0","0","120","Codierung","","0","Gyor. HLA Gyor","07:00","16:00","8","60",
"14.06.13","5","130023","0","910","Urlaub","","0","Day off. Day off","07:00","16:00","8","60",
