"27.05.13","1","120363","0","181","Fehlerbes. vor Ausl. (Bugzilla)","","0","Worked on bug 42831. Investigated and implemented the use of MCDProject.execIOControl()","07:00","16:00","3","60",
"27.05.13","1","120363","95","181","Fehlerbes. vor Ausl. (Bugzilla)","","0","Worked on bug 43233. Investigated changing of the PDXInstaller version and creating a release management build file","","","1","0",
"27.05.13","1","120762","171","182","Fehlerbes. nach Ausl. (Bugzilla)","","0","Worked on bug 42335. Removed KernelTypes, changed plugin and package names and changed ApplicationStart CTS","","","4","0",
"28.05.13","2","120363","0","181","Fehlerbes. vor Ausl. (Bugzilla)","","0","Worked on bug 43269. Tried to reproduce but was unsuccessful","07:00","16:00","3","60",
"28.05.13","2","120762","171","182","Fehlerbes. nach Ausl. (Bugzilla)","","100","Worked on bug 42335. Completed the removal of old KernelTypes from all classes and then testing PIDT after changes","","","2,5","0",
"28.05.13","2","120363","0","181","Fehlerbes. vor Ausl. (Bugzilla)","","0","Worked on bug 42831. Implemented changes to get- and setProgrammingVoltage() because of new information","","","2,5","0",
"29.05.13","3","120363","0","181","Fehlerbes. vor Ausl. (Bugzilla)","","100","Worked on bug 42477. Investigated, implemented fix and tested","07:00","16:00","4","60",
"29.05.13","3","120363","0","181","Fehlerbes. vor Ausl. (Bugzilla)","","0","Worked on bug 42831. Investigated problems with execIOControl() method and reimplemented fix","","","4","0",
"30.05.13","4","120363","0","181","Fehlerbes. vor Ausl. (Bugzilla)","","0","Worked on bug 43282. Investigated and tried to reproduce. Tested in both D3 and Automation PIDT","07:00","16:00","5","60",
"30.05.13","4","120363","0","181","Fehlerbes. vor Ausl. (Bugzilla)","","0","Worked on bug 42831. Worked on get- and setProgrammingVoltage() methods to fix errors in the PDUApi","","","3","0",
"31.05.13","5","120363","0","181","Fehlerbes. vor Ausl. (Bugzilla)","","0","Worked on bug 43282. Attempting to reproduce with the latest PIDT build","07:00","16:00","4","60",
"31.05.13","5","130051","13","101","PM/Mod/Meetings","","0","S4/DSA overall tasks 2013. Meeting and admin","","","2","0",
"31.05.13","5","120363","95","181","Fehlerbes. vor Ausl. (Bugzilla)","","0","Worked on bug 43233. Create build file to increment the jar file version for PDXInstaller","","","2","0",
