"09.09.13","1","120762","0","182","Fehlerbes. nach Ausl. (Bugzilla)","","0","PIDT: 13.5: Bugfixing before CF. Working on PIDT 13.5 bugs: 45200","07:00","16:00","8","60",
"10.09.13","2","120762","0","182","Fehlerbes. nach Ausl. (Bugzilla)","","0","PIDT: 13.5: Bugfixing before CF. Working on PIDT 13.5 bugs: 45200, 45613","07:00","16:00","8","60",
"11.09.13","3","130023","0","910","Urlaub","","0","Holiday. Time off","07:00","16:00","3","60",
"11.09.13","3","120762","0","182","Fehlerbes. nach Ausl. (Bugzilla)","","0","PIDT: 13.5: Bugfixing before CF. Working on PIDT 13.5 bugs: 45613, 45603","","","5","0",
"12.09.13","4","120762","0","182","Fehlerbes. nach Ausl. (Bugzilla)","","0","IDT: 13.5: Bugfixing before CF. Working on PIDT 13.5 bugs: 45622, 45448","07:00","16:00","8","60",
"13.09.13","5","130051","12","101","PM/Mod/Meetings","","0"," S4/DSA overall tasks 2013. Weekly general tasks","07:00","16:00","1,5","60",
"13.09.13","5","120762","0","182","Fehlerbes. nach Ausl. (Bugzilla)","","0","PIDT: 13.5: Bugfixing before CF. Working on PIDT 13.5 bugs","","","3","0",
"13.09.13","5","130550","1","182","Fehlerbes. nach Ausl. (Bugzilla)","","0","PIDT: 13.8: Bugfixing before CF. Working on PIDT 13.8 bugs","","","3,5","0",
