"09.12.13","1","120600","1141","120","Codierung","","0","40-2002: P.Lib R9: Test Cases: Konfiguration Testframework F2.5/ae11.. Testing XML file from IDT Spec and adjusting PLib releases.","07:00","16:00","8","60",
"10.12.13","2","120600","1149","140","Test","","0","40-2000: P.Lib R9: Tests: Sonstiges F3.7/ae11. (from sz)Testing PLib Test Cases.","07:00","16:00","8","60",
"11.12.13","3","120600","1149","140","Test","","100","40-2000: P.Lib R9: Tests: Sonstiges F3.7/ae11. (from sz)Testing PLib Test Cases.","07:00","16:00","8","60",
"12.12.13","4","120600","1145","140","Test","","0","40-2000: P.Lib R9: Tests: DTM/Comlete/FTP F3.3/ae11. (from ep)Testing PLib DTM and FTP Test Cases.","07:00","16:00","6","60",
"12.12.13","4","120600","1144","140","Test","","0","40-2000: P.Lib R9: Tests: VCI/MTS/MCD F3.2/ae11. (from sz)Testing PLib MCD Test Cases.","","","2","0",
"13.12.13","5","120600","1144","140","Test","","0","40-2000: P.Lib R9: Tests: VCI/MTS/MCD F3.2/ae11. (from sz)Testing PLib MCD Test Cases.","07:00","16:00","8","60",
