"18.03.13","1","130051","3","101","PM/Mod/Meetings","","0","S4 Technical Support / Troubleshoot 2013. Supporting Team Members","07:00","16:00","8","60",
"19.03.13","2","130051","3","101","PM/Mod/Meetings","","0","S4 Technical Support / Troubleshoot 2013. Supporting Team Members","07:00","16:00","7","60",
"19.03.13","2","100369","8670","101","PM/Mod/Meetings","","0","8501: OBD/WWH: Mod A1.2/ae10. Weekly project report","","","1","0",
"20.03.13","3","130051","2","101","PM/Mod/Meetings","","0","Management group AES 2013. Timesheets + Meetings","07:00","16:00","1","60",
"20.03.13","3","130051","2","101","PM/Mod/Meetings","","0","S4 Technical Support / Troubleshoot 2013. Supporting Team Members","","","7","0",
"21.03.13","4","130023","0","910","Urlaub","","100","Urlaub. Public Holiday","07:00","16:00","8","60",
"22.03.13","5","130023","1","910","Urlaub","","100","Urlaub. Time Off","07:00","16:00","8","60",
