"25.11.13","1","130867","1","182","Fehlerbes. nach Ausl. (Bugzilla)","","0","PIDT 14.0: Bug #45328. Worked on bug 45328","07:00","16:00","8","60",
"26.11.13","2","130867","1","182","Fehlerbes. nach Ausl. (Bugzilla)","","0","PIDT 14.0: Bug #45328. Worked on bug 45328","07:00","16:00","8","60",
"27.11.13","3","130867","0","182","Fehlerbes. nach Ausl. (Bugzilla)","","100","Worked on bug 47335. Worked on bug 47335 and checked out new Eclipse workspace for PIDT","07:00","16:00","6","60",
"27.11.13","3","130867","0","182","Fehlerbes. nach Ausl. (Bugzilla)","","100","Worked on bug 47335. Worked on bug 47335","","","1","0",
"27.11.13","3","130867","0","182","Fehlerbes. nach Ausl. (Bugzilla)","","100","Worked on bug 47527. Worked on bug 47527","","","1","0",
"28.11.13","4","130867","0","120","Codierung","","0","Fixing CR123my1 review points. Setting up eclipse 3.8 and fixing CR123my1 review points","07:00","16:00","8","60",
"29.11.13","5","130867","0","181","Fehlerbes. vor Ausl. (Bugzilla)","","0","Working on bugs. Working on bugs","07:00","16:00","3,5","60",
"29.11.13","5","130051","13","101","PM/Mod/Meetings","","0","S4/DSA overall tasks 2013. Meetings and admin","","","1,5","0",
"29.11.13","5","130867","0","120","Codierung","","100","CR123my1: Fixing review problems. CR123my1: Fixing review problems","","","3","0",
