"14.10.13","1","130550","155","120","Codierung","","0","10-1002: CR307my5-186: PDXInstODXEF: Anpassung Installationsablauf F1.6/pa10. Changed the installation to handle the new file types","07:00","16:00","8","60",
"15.10.13","2","130550","155","120","Codierung","","100","10-1002: CR307my5-186: PDXInstODXEF: Anpassung Installationsablauf F1.6/pa10. Changed the PIDT installation code to handle all the new file types","07:00","16:00","8","60",
"16.10.13","3","130550","0","120","Codierung","","100","Changed the PDX Installer install cancel/revert code. Changed the PDX Installer install cancel/revert code","07:00","16:00","8","60",
"17.10.13","4","130550","0","120","Codierung","","100","Changed the way PDX Installer handles PDX type recognition. Changed the way PDX Installer handles PDX type recognition","07:00","16:00","8","60",
"18.10.13","5","130051","13","101","PM/Mod/Meetings","","0","S4/DSA overall tasks 2013. Meetings and admin","07:00","16:00","1,5","60",
"18.10.13","5","130550","102","104","Test-Spezifikation","","0","10-1002: CR307my5-186: PDXInstODXEF: Testspezifikation E1.3/pa10. Working on test spec","","","6,5","0",
