"12.08.13","1","120600","1763","140","Test","","0","21-3811: OTX Produkttest. Testing OTX in PIDT Automation","07:00","16:00","8","60",
"13.08.13","2","120600","1763","140","Test","","0","21-3811: OTX Produkttest. Testing OTX in PIDT Automation","07:00","16:00","8","60",
"14.08.13","3","130023","0","920","Krankheit","","0","Sick Leave. Sick Leave","07:00","16:00","8","60",
"15.08.13","4","130023","0","920","Krankheit","","0","Sick Leave. Sick Leave","07:00","16:00","8","60",
"16.08.13","5","130051","5","101","PM/Mod/Meetings","","0","S4/DSA overall tasks 2013. Department Meeting and Doing Timesheets","07:00","16:00","2","60",
"16.08.13","5","120600","1763","140","Test","","0","21-3811: OTX Produkttest. Testing OTX in PIDT Automation","","","6","0",
