"26.08.13","1","120762","227","140","Test","","0","20-1090: Release 13.4: Regressionstests nach CF. Supporting PIDT 13.4.0 regression tests. Supporting PIDT 13.4.0 regression tests","07:00","20:00","12","60",
"27.08.13","2","120762","0","182","Fehlerbes. nach Ausl. (Bugzilla)","","0","PIDT: 13.3: Bugfixing before CF. Working on bugs 45619, 45521,","07:00","16:00","8","60",
"28.08.13","3","120762","0","182","Fehlerbes. nach Ausl. (Bugzilla)","","0","PIDT: 13.3: Bugfixing before CF. Working on bugs 45200, 45576 and ZDC vci connection lost Cup log bug","07:00","17:00","9","60",
"29.08.13","4","120762","0","182","Fehlerbes. nach Ausl. (Bugzilla)","","0","PIDT: 13.3: Bugfixing before CF. Working on bugs 45448 & 45613","07:00","17:00","9","60",
"30.08.13","5","130051","12","101","PM/Mod/Meetings","","0","S4/DSA overall tasks 2013. Weekly general tasks","07:00","16:00","1,5","60",
"30.08.13","5","120762","0","182","Fehlerbes. nach Ausl. (Bugzilla)","","0","PIDT: 13.3: Bugfixing before CF. Working on PIDT 13.5 bugs","","","6,5","0",
