DATE;NAME;START;END;LUNCH;1;2;3;4;5;6;7;8;9;10;11;12;13;14;15;16;17;18;19;20;21;22;23;24;
01.07.13;Andre Esterhuyse;07:00:00;16:00:00;60;0-0;0-0;0-0;0-0;0-0;0-0;0-0;0-0;
01.07.13;Nico Claassen;07:00:00;16:00:00;60;100369-8670;100369-8670;100369-8670;100369-8670;100369-8670;100369-8670;100369-8670;100369-8670;
01.07.13;Thando Katywa;07:00:00;16:00:00;60;120762-112;120762-112;120762-112;120762-112;120762-112;120762-112;120762-112;120762-112;
01.07.13;Ludumo Sankobe;07:00:00;16:00:00;60;120363-109;120363-109;120363-109;120363-109;120363-109;120363-109;120363-109;120363-109;
01.07.13;Paul Helliwell;
01.07.13;Ntombenkosi Yokwana;07:00:00;16:00:00;60;130017-999;130017-998;130017-998 / 130017-997;130017-997 / 130017-996;130017-996 / 100369-8693;100369-8693;100369-8693;100369-8693;
01.07.13;Mario Jansen van Vuuren;07:00:00;16:00:00;60;120762-158;120762-158;120762-158;120762-158;120762-158;120762-158;120762-158;120762-158;
01.07.13;Webster Ndlovu;07:00:00;16:00:00;60;120714-1227;130425-44;130425-44;130425-44;130425-44;130425-44;130425-44;130425-44;
01.07.13;Ibrahim Arends;07:00:00;16:00:00;60;100380-692;100380-692;100380-692;100380-692;100380-692;100380-692;100380-692;100380-692 / 120714-1384;
01.07.13;Francois van Vuuren;07:00:00;16:00:00;60;130023-0;130023-0;130023-0;130023-0;130023-0;130023-0;130023-0;130023-0;
01.07.13;Tafadzwa Mvindi;07:00:00;16:00:00;60;120714-1950;120714-1950;120714-1950 / 130425-23;130425-23;130425-23;130425-23;
01.07.13;Tashinga Chivasa;07:00:00;16:00:00;60;130425 -37;130425 -37;130425 -37;130425 -37;130425 -37;130425 -37;120714-1975;120714-1975;
01.07.13;Muya Mwansa;
02.07.13;Andre Esterhuyse;07:00:00;16:00:00;60;0-0;0-0;0-0;0-0;0-0;0-0;0-0;0-0;
02.07.13;Nico Claassen;07:00:00;16:00:00;60;100369-8670;100369-8670;100369-8670;100369-8670;100369-8670;100369-8670;100369-8670;100369-8670;
02.07.13;Thando Katywa;07:00:00;18:00:00;60;120762-107;120762-107;120762-107;120762-107;120762-107;120762-107;120762-111;120762-111;120762-111;120762-111;
02.07.13;Ludumo Sankobe;07:00:00;16:00:00;60;120363-109;120363-109;120363-109;120363-109;120363-109;120363-109;120363-109;120363-109;
02.07.13;Paul Helliwell;
02.07.13;Ntombenkosi Yokwana;07:00:00;16:00:00;60;130252-7;130252-7;130252-7;130252-7;130252-8;130252-8;130252-8;130252-8;
02.07.13;Mario Jansen van Vuuren;07:00:00;16:00:00;60;120762-158;120762-158;120762-158;120762-158;120762-158;120762-158;120762-158;120762-158;
02.07.13;Webster Ndlovu;07:00:00;16:00:00;60;120714-1227;130425-44;130425-44;130425-44;130425-44;130425-44;130425-44;130425-44;
02.07.13;Ibrahim Arends;07:00:00;16:00:00;60;130425-48;130425-48;130425-48;130425-48;130425-48;130425-48;130425-48;130425-48 / 120714-1384;
02.07.13;Francois van Vuuren;07:00:00;16:00:00;60;100369-8692;100369-8692;100369-8692;100369-8692;100369-8692;100369-8692;100369-8692;100369-8692;
02.07.13;Tafadzwa Mvindi;07:00:00;16:00:00;60;100369-8693;100369-8693;100369-8693;100369-8693;100369-8693;100369-8693;100369-8693;120714-1950;
02.07.13;Tashinga Chivasa;07:00:00;16:00:00;60;130425-36;130425-36;130425-36;130425-36;130425-36;130425-36;130425-36;120714 -1975;
02.07.13;Muya Mwansa;
03.07.13;Andre Esterhuyse;07:00:00;16:00:00;60;0-0;0-0;0-0;0-0;0-0;0-0;0-0;0-0;
03.07.13;Nico Claassen;07:00:00;16:00:00;60;100369-8670;100369-8670;100369-8670;100369-8670;100369-8670;100369-8670;100369-8670;100369-8670 / 100369-8675;
03.07.13;Thando Katywa;07:00:00;18:00:00;60;120762-111;120762-111;120762-111;120762-111;120762-111;120762-111;120762-111;120762-111;120762-111;120762-111;
03.07.13;Ludumo Sankobe;07:00:00;16:00:00;60;120363-109;120363-109;120363-109;120363-109;120363-109;120363-109;120363-109;120363-109;
03.07.13;Paul Helliwell;
03.07.13;Ntombenkosi Yokwana;07:00:00;16:00:00;60;130017-11;130017-11;130017-11;130017-11;130017-11;130017-11;130017-11;130017-11;
03.07.13;Mario Jansen van Vuuren;07:00:00;16:00:00;60;120762-158;120762-158;120762-158;120762-158;120762-158;120762-158;120762-158;120762-158;
03.07.13;Webster Ndlovu;07:00:00;16:00:00;60;120714-1227;130425-44;130425-44;130425-44;130425-44;130425-44;130425-44;130425-44;
03.07.13;Ibrahim Arends;07:00:00;16:00:00;60;130425-48;130425-48;130425-48;130425-48;130425-48;130425-48;100380-794;100380-794 / 120714-1384;
03.07.13;Francois van Vuuren;07:00:00;16:00:00;60;100369-8761;100369-8761;100369-8761;100369-8761;100369-8761;100369-8761;100369-8761;120714-1228 / 100369-8763;
03.07.13;Tafadzwa Mvindi;07:00:00;16:00:00;60;100369-8693;100369-8693;100369-8693;100369-8693;100369-8693;100369-8693;100369-8693;100369-8693 / 120714-1950;
03.07.13;Tashinga Chivasa;07:00:00;16:00:00;60;130023-0;130023-0;130023-0;130023-0;130023-0;130023-0;130023-0;130023-0;
03.07.13;Muya Mwansa;
04.07.13;Andre Esterhuyse;07:00:00;16:00:00;60;0-0;0-0;0-0;0-0;0-0;0-0;0-0;0-0;
04.07.13;Nico Claassen;07:00:00;16:00:00;60;100369-8694;100369-8694;100369-8694;100369-8694;100369-8675;100369-8675;100369-8675;130051-2;
04.07.13;Thando Katywa;07:00:00;18:00:00;60;120762-113;120762-113;120762-113;120762-113;120762-113;120762-113;120762-113;120762-113;120762-113;120762-113;
04.07.13;Ludumo Sankobe;07:00:00;16:00:00;60;120363-109;120363-109;120363-109;120363-109;120363-109;120363-109;120363-109;120363-109;
04.07.13;Paul Helliwell;
04.07.13;Ntombenkosi Yokwana;07:00:00;16:00:00;60;130252-11;130252-11;130252-11;130252-11;130252-11;130252-11;130252-11;130252-11;
04.07.13;Mario Jansen van Vuuren;07:00:00;16:00:00;60;120762-158;120762-159;120762-159;120762-159;120762-159;120762-159;120762-159;120762-159;
04.07.13;Webster Ndlovu;07:00:00;16:00:00;60;120714-1227;130425-44;130425-44;130425-44;130425-44;130425-44;130425-44;130425-44;
04.07.13;Ibrahim Arends;07:00:00;16:00:00;60;120246-209;120246-209;120246-209;120246-209;100380-692;100380-692;100380-692;100380-692;
04.07.13;Francois van Vuuren;07:00:00;16:00:00;60;100369-8763;100369-8763;100369-8763;100369-8763 / 120714-1929;120714-1929;120714-1929;120714-1929;120714-1929;
04.07.13;Tafadzwa Mvindi;07:00:00;16:00:00;60;120246-173;120246-173;120246-173;120246-173;120246-173;120246-173;120246-173;120714-1950;
04.07.13;Tashinga Chivasa;07:00:00;16:00:00;60;130425-21;130425-21;130425-21;130425-21;130425-21;130425-21;120714-1975;120714-1975;
04.07.13;Muya Mwansa;
05.07.13;Andre Esterhuyse;07:00:00;16:00:00;60;0-0;0-0;0-0;0-0;0-0;0-0;0-0;0-0;
05.07.13;Nico Claassen;07:00:00;16:00:00;60;130023-0;130023-0;130023-0;130023-0;130023-0;130023-0;130023-0;130023-0;
05.07.13;Thando Katywa;07:00:00;16:00:00;60;130051-12;130051-12 / 120762-113;120762-113;120762-113;120762-113;120762-113;120762-113;120762-113;
05.07.13;Ludumo Sankobe;07:00:00;16:00:00;60;130051-5;130051-5;120363-109;120363-109;120363-109;120363-109;120363-109;120363-109;
05.07.13;Paul Helliwell;
05.07.13;Ntombenkosi Yokwana;07:00:00;16:00:00;60;130051-7;130051-7;130051-7;130252-12;130252-12;130252-12;130252-12;130252-12;
05.07.13;Mario Jansen van Vuuren;07:00:00;16:00:00;60;120762-159;120762-159;120762-159;120762-159;120762-159;120762-159;120762-159 / 130051-13;130051-13;
05.07.13;Webster Ndlovu;07:00:00;16:00:00;60;120714-1227;120714-1227;130425-44;130425-44;130425-44;130425-44;130425-44;130051-8;
05.07.13;Ibrahim Arends;07:00:00;16:00:00;60;120714-1384 / 130051-9;130051-9 / 100380-794;100380-794;100380-794 / 100380-692;100380-692;100380-692;100380-692;100380-692;
05.07.13;Francois van Vuuren;07:00:00;16:00:00;60;100369-8765;100369-8765;100369-8765;100369-8765;120714-1228;120714-1228;120714-1228;130051-10;
05.07.13;Tafadzwa Mvindi;07:00:00;16:00:00;60;120714-1950;120714-1950;120714-1950;130051-0;120328-301 / 120328-303 / 120328-291 / 120328-295 / 130425-31;130425-31;130425-31;130425-31 / 120246-173;
05.07.13;Tashinga Chivasa;07:00:00;16:00:00;60;130425 -21;130425 -21;120714-1975;120714-1975;120714-1975;130425-36;130425-36;130425-36;
05.07.13;Muya Mwansa;
06.07.13;Andre Esterhuyse;
06.07.13;Nico Claassen;
06.07.13;Thando Katywa;
06.07.13;Ludumo Sankobe;
06.07.13;Paul Helliwell;
06.07.13;Ntombenkosi Yokwana;
06.07.13;Mario Jansen van Vuuren;
06.07.13;Webster Ndlovu;
06.07.13;Ibrahim Arends;
06.07.13;Francois van Vuuren;
06.07.13;Tafadzwa Mvindi;
06.07.13;Tashinga Chivasa;
06.07.13;Muya Mwansa;
07.07.13;Andre Esterhuyse;
07.07.13;Nico Claassen;
07.07.13;Thando Katywa;
07.07.13;Ludumo Sankobe;
07.07.13;Paul Helliwell;
07.07.13;Ntombenkosi Yokwana;
07.07.13;Mario Jansen van Vuuren;
07.07.13;Webster Ndlovu;
07.07.13;Ibrahim Arends;
07.07.13;Francois van Vuuren;
07.07.13;Tafadzwa Mvindi;
07.07.13;Tashinga Chivasa;
07.07.13;Muya Mwansa;
08.07.13;Andre Esterhuyse;07:00:00;16:00:00;60;0-0;0-0;0-0;0-0;0-0;0-0;0-0;0-0;
08.07.13;Nico Claassen;07:00:00;16:00:00;60;100369-8670;100369-8670;100369-8670;100369-8670;100369-8670;100369-8670;100369-8670;100369-8670;
08.07.13;Thando Katywa;07:00:00;18:00:00;60;120762-113;120762-113;120762-113;120762-113;120762-113;120762-113;120762-113;120762-113;120762-113;120762-113;
08.07.13;Ludumo Sankobe;07:00:00;16:00:00;60;120363-109;120363-109;120363-109;120363-109;120363-109;120363-109;120363-109;120363-109;
08.07.13;Paul Helliwell;
08.07.13;Ntombenkosi Yokwana;07:00:00;16:00:00;60;130252-10;130252-10;130252-10;130252-10;130252-10;130252-10;130252-10;130252-10;
08.07.13;Mario Jansen van Vuuren;07:00:00;16:00:00;60;120762-166;120762-166;120762-166;120762-166;120762-166;120762-166;120762-166;120762-166;
08.07.13;Webster Ndlovu;07:00:00;16:00:00;60;130425-44;130425-44;130425-44;130425-44;130425-44;130425-44;130425-44;120714-1227;
08.07.13;Ibrahim Arends;07:00:00;16:00:00;60;100380-692;100380-692;100380-692;100380-692;100380-692;100380-794;100380-794;100380-794;
08.07.13;Francois van Vuuren;07:00:00;16:00:00;60;100369-8692;100369-8692;100369-8692;100369-8692;100369-8692;100369-8692;100369-8692;100369-8692;
08.07.13;Tafadzwa Mvindi;07:00:00;16:00:00;60;120328-290;120328-290;120328-290;120328-309;120328-309;120328-297;120328-297;120328-307;
08.07.13;Tashinga Chivasa;07:00:00;16:00:00;60;120328-306;120328-306;120328-306;120328-306;120328-306;120328-306;120328-306;120328-306;
08.07.13;Muya Mwansa;
09.07.13;Andre Esterhuyse;07:00:00;16:00:00;60;0-0;0-0;0-0;0-0;0-0;0-0;0-0;0-0;
09.07.13;Nico Claassen;07:00:00;16:00:00;60;100369-8670;100369-8670;100369-8670;100369-8670;100369-8670;100369-8670;100369-8670;100369-8670;
09.07.13;Thando Katywa;07:00:00;18:00:00;60;120762-113;120762-113;120762-113;120762-113;120762-113;120762-113;120762-113;120762-113;120762-113;120762-113;
09.07.13;Ludumo Sankobe;07:00:00;16:00:00;60;120363-109;120363-109;120363-109;120363-109;100369-8794;100369-8794;100369-8794;100369-8794;
09.07.13;Paul Helliwell;
09.07.13;Ntombenkosi Yokwana;07:00:00;16:00:00;60;120714-852;120714-852 / 130252-10;130252-10;130252-10;130252-10;130252-10;130252-10;130252-10;
09.07.13;Mario Jansen van Vuuren;07:00:00;16:00:00;60;120762-166;120762-166;120762-166;120762-166;120762-166;120762-166;120762-166;120762-166;
09.07.13;Webster Ndlovu;07:00:00;16:00:00;60;130425-44;130425-44;130425-44;130425-44;130425-44;130425-44;130425-44;130425-44;
09.07.13;Ibrahim Arends;07:00:00;16:00:00;60;100380-692;100380-692;100380-692;100380-692;100380-692;100380-794;100380-794;100380-794;
09.07.13;Francois van Vuuren;07:00:00;16:00:00;60;100369-8707;100369-8707;100369-8707;100369-8707;100369-8707;100369-8707;100369-8707;120714-1228;
09.07.13;Tafadzwa Mvindi;07:00:00;16:00:00;60;120328-296;120328-296;120328-301;120328-303;120328-303;120328-292;120328-292 / 120328-295;120328-295;
09.07.13;Tashinga Chivasa;07:00:00;16:00:00;60;120328-308;120328-308;120328-308;120328-308;120328-304;120328-304;120328-304;120328-304;
09.07.13;Muya Mwansa;
10.07.13;Andre Esterhuyse;07:00:00;16:00:00;60;0-0;0-0;0-0;0-0;0-0;0-0;0-0;0-0;
10.07.13;Nico Claassen;07:00:00;16:00:00;60;100369-8670;100369-8670;100369-8670;100369-8670;100369-8670;100369-8670;100369-8670;100369-8670;
10.07.13;Thando Katywa;07:00:00;16:00:00;60;120762-113;120762-113;120762-113;120762-113;120762-41;120762-41;120762-41;120762-41;
10.07.13;Ludumo Sankobe;07:00:00;16:00:00;60;100369-8794;100369-8794;100369-8794;100369-8794;100369-8794;100369-8794;100369-8794;100369-8794;
10.07.13;Paul Helliwell;
10.07.13;Ntombenkosi Yokwana;07:00:00;16:00:00;60;130017-999;130017-998;130017-998;130017-998;130252-12;130252-12;130252-12;130252-12;
10.07.13;Mario Jansen van Vuuren;07:00:00;16:00:00;60;120762-169;120762-169;120762-169;120762-169;120762-169;120762-169;120762-169;120762-169;
10.07.13;Webster Ndlovu;07:00:00;16:00:00;60;130301-17;130301-17;130301-17;130301-17;130301-17;130301-17;130301-17;130301-17;
10.07.13;Ibrahim Arends;07:00:00;19:45:00;60;100380-692;120246-209;120246-209;120246-209;120246-209;120246-209;120246-209;120246-209 / 100380-794;100380-794;100380-794;100380-794;100380-794;
10.07.13;Francois van Vuuren;07:00:00;16:00:00;60;120714-1228 / 100369-8707;100369-8707;100369-8707;100369-8707;100369-8707;100369-8707;100369-8707;100369-8707;
10.07.13;Tafadzwa Mvindi;07:00:00;16:00:00;60;120328-302;120328-302 / 120328-301;120328-303;120328-303;120328-296;120328-296;120328-298;120328-298;
10.07.13;Tashinga Chivasa;07:00:00;16:00:00;60;120328-300;120328-300;120328-300;120328-300;120328-304;120328-307;120328-307;120328-305;
10.07.13;Muya Mwansa;
11.07.13;Andre Esterhuyse;07:00:00;16:00:00;60;0-0;0-0;0-0;0-0;0-0;0-0;0-0;0-0;
11.07.13;Nico Claassen;07:00:00;16:00:00;60;100369-8679;100369-8679;100369-8679;100369-8679;100369-8751;100369-8751;100369-8751;100369-8751;
11.07.13;Thando Katywa;07:00:00;18:00:00;60;120762-41;120762-41;120762-41;120762-41;120762-41;120762-41;120762-41;120762-41;120762-41;120762-41;
11.07.13;Ludumo Sankobe;07:00:00;16:00:00;60;120363-109;120363-109;120363-109;120363-109;100369-8794;100369-8794;100369-8794;100369-8794;
11.07.13;Paul Helliwell;
11.07.13;Ntombenkosi Yokwana;07:00:00;16:00:00;60;130252-13;130252-13;130252-13;130252-13;130252-13;130252-13;130252-13;130252-13;
11.07.13;Mario Jansen van Vuuren;07:00:00;16:00:00;60;120762-169;120762-169;120762-169;120762-169;120762-169;120762-169;120762-169;120762-169;
11.07.13;Webster Ndlovu;07:00:00;16:00:00;60;130301-18;130301-18;130301-18;130301-18;130301-18;130301-18;130301-18;130051-8;
11.07.13;Ibrahim Arends;07:00:00;16:00:00;60;120246-209;120246-209;120246-209;120246-209;100380-692;100380-692;100380-692;100380-692;
11.07.13;Francois van Vuuren;07:00:00;16:00:00;60;100369-8707;100369-8707;100369-8707;100369-8707;100369-8707;120714-1929;120714-1929;120714-1228;
11.07.13;Tafadzwa Mvindi;07:00:00;16:00:00;60;120328-299;120328-299;120328-299 / 120328-291;120328-291;120328-291 / 120328-292;120328-292;120328-292 / 120328-295;120328-295;
11.07.13;Tashinga Chivasa;07:00:00;16:00:00;60;120328-308;120328-308;120328	-307;120328	-307;120328-304;120328-304;120328-306;120328-306;
11.07.13;Muya Mwansa;
12.07.13;Andre Esterhuyse;07:00:00;16:00:00;60;0-0;0-0;0-0;0-0;0-0;0-0;0-0;0-0;
12.07.13;Nico Claassen;07:00:00;16:00:00;60;100369-8679;100369-8679;100369-8679;100369-8679;100369-8679;100369-8751;100369-8751;130051-2;
12.07.13;Thando Katywa;07:00:00;16:00:00;60;120762-41;120762-41;130051-12;130051-12 / 120762-114;120762-114;120762-114;120762-114;120762-114;
12.07.13;Ludumo Sankobe;07:00:00;16:00:00;60;130051-5;130051-5;120363-109;120363-109;120363-109;100369-8794;100369-8794;100369-8794;
12.07.13;Paul Helliwell;
12.07.13;Ntombenkosi Yokwana;07:00:00;16:00:00;60;130051-7;130051-7;130051-7;130252-13;130252-13;130252-13;130252-13;130252-13;
12.07.13;Mario Jansen van Vuuren;07:00:00;16:00:00;60;130023-1361;130023-1361;130023-1361;130023-1361;130023-1361;130023-1361;130023-1361;130023-1361;
12.07.13;Webster Ndlovu;07:00:00;16:00:00;60;130023-0;130023-0;130023-0;130023-0;130023-0;130023-0;130023-0;130023-0;
12.07.13;Ibrahim Arends;07:00:00;16:00:00;60;100380-794;100380-794;100380-794;100380-794;100380-794;100380-692;100380-692;100380-692 / 130051-9;
12.07.13;Francois van Vuuren;07:00:00;16:00:00;60;100369-8707;100369-8707;100369-8707;100369-8707;100369-8707;100369-8707;130051-10;120714-1228;
12.07.13;Tafadzwa Mvindi;07:00:00;16:00:00;60;130051-31 / 120328-298;120328-298;120328-298 / 120328-303;120328-303;120328-303 / 120328-291;120328-291;120328-291 / 120328-298;120328-298 / 120328-292;
12.07.13;Tashinga Chivasa;07:00:00;16:00:00;60;120328-305;120328-305;120328-305;120328-305;120328-305;120328-290;120328-300;130051-0;
12.07.13;Muya Mwansa;
13.07.13;Andre Esterhuyse;
13.07.13;Nico Claassen;
13.07.13;Thando Katywa;
13.07.13;Ludumo Sankobe;
13.07.13;Paul Helliwell;
13.07.13;Ntombenkosi Yokwana;
13.07.13;Mario Jansen van Vuuren;
13.07.13;Webster Ndlovu;
13.07.13;Ibrahim Arends;
13.07.13;Francois van Vuuren;
13.07.13;Tafadzwa Mvindi;
13.07.13;Tashinga Chivasa;
13.07.13;Muya Mwansa;
14.07.13;Andre Esterhuyse;
14.07.13;Nico Claassen;
14.07.13;Thando Katywa;
14.07.13;Ludumo Sankobe;
14.07.13;Paul Helliwell;
14.07.13;Ntombenkosi Yokwana;
14.07.13;Mario Jansen van Vuuren;
14.07.13;Webster Ndlovu;
14.07.13;Ibrahim Arends;
14.07.13;Francois van Vuuren;
14.07.13;Tafadzwa Mvindi;
14.07.13;Tashinga Chivasa;
14.07.13;Muya Mwansa;
15.07.13;Andre Esterhuyse;07:00:00;16:00:00;60;0-0;0-0;0-0;0-0;0-0;0-0;0-0;0-0;
15.07.13;Nico Claassen;07:00:00;16:00:00;60;130051-3;130051-3;130051-3;130051-3;130051-3;130051-3;130051-3;130051-3;
15.07.13;Thando Katywa;07:00:00;16:00:00;60;120762-0;120762-0;120762-0;120762-0;120762-0;120762-0;120762-0;120762-0;
15.07.13;Ludumo Sankobe;07:00:00;16:00:00;60;120363-109;120363-109;120363-109;120363-109;120363-109;120363-109;120363-109;120363-109;
15.07.13;Paul Helliwell;
15.07.13;Ntombenkosi Yokwana;07:00:00;16:00:00;60;130252-13;130252-13;130252-13;130252-13;130252-13;130252-13;130252-13;130252-13;
15.07.13;Mario Jansen van Vuuren;07:00:00;16:00:00;60;130051-0;130051-0;130051-0;120762-157;120762-157;120762-157;120762-157;120762-157;
15.07.13;Webster Ndlovu;07:00:00;16:00:00;60;130023-0;130023-0;130023-0;130023-0;130301-18;130301-18;130301-18;130301-18;
15.07.13;Ibrahim Arends;07:00:00;16:00:00;60;130023-0;130023-0 / 100380-701;100380-701;100380-701;100380-701;100380-701 / 100380-794;100380-794;100380-794;
15.07.13;Francois van Vuuren;07:00:00;16:00:00;60;100369-0;100369-0;100369-0;100369-0;100369-0;100369-0;100369-0;120714-1228;
15.07.13;Tafadzwa Mvindi;07:00:00;16:00:00;60;120328-295;120328-295 / 120328-296;120328-296;120328-309;120328-309;120328-309 / 120328-301;120328-301;120328-301;
15.07.13;Tashinga Chivasa;07:00:00;16:00:00;60;120328-306;120328-306;120328-306;120328-300;120328-300;120328-300;120328-307;120328-307;
15.07.13;Muya Mwansa;
16.07.13;Andre Esterhuyse;07:00:00;16:00:00;60;0-0;0-0;0-0;0-0;0-0;0-0;0-0;0-0;
16.07.13;Nico Claassen;07:00:00;16:00:00;60;130051-3;130051-3;130051-3;130051-3;130051-3;130051-3;130051-3;130051-3;
16.07.13;Thando Katywa;07:00:00;16:00:00;60;120762-130;120762-130;120762-130;120762-130;120762-130;120762-130;120762-130;120762-130;
16.07.13;Ludumo Sankobe;07:00:00;16:00:00;60;130023-0;130023-0;130023-0;130023-0;130023-0;130023-0;130023-0;130023-0;
16.07.13;Paul Helliwell;
16.07.13;Ntombenkosi Yokwana;07:00:00;16:00:00;60;130252-9;130252-9;130252-9;130252-9;130252-9;130252-9;130252-9;130252-9;
16.07.13;Mario Jansen van Vuuren;07:00:00;16:00:00;60;120762-157;120762-157;120762-157;120762-157;120762-157;120762-157;120762-157;120762-157;
16.07.13;Webster Ndlovu;07:00:00;16:00:00;60;130023-0;130023-0;130023-0;130301-21;130301-21;130301-21;130301-21;130301-21;
16.07.13;Ibrahim Arends;07:00:00;16:00:00;60;100380-699;100380-699;100380-699;100380-701;100380-701;100380-701;100380-701;100380-701;
16.07.13;Francois van Vuuren;07:00:00;16:00:00;60;120600-1153;120600-1153;120600-1153;120600-1153;120600-1153;120600-1153;120600-1153;120600-1153;
16.07.13;Tafadzwa Mvindi;07:00:00;16:00:00;60;120328-291;120328-291;120328-301;120328-301;120328-297;120328-297;120328-296;120328-296;
16.07.13;Tashinga Chivasa;07:00:00;16:00:00;60;120328-306;120328-306;120328-306;120328-306;120328-304;120328-304;120328-304;120328-304;
16.07.13;Muya Mwansa;
17.07.13;Andre Esterhuyse;07:00:00;16:00:00;60;130023-0;130023-0;130023-0;130023-0;130023-0;130023-0;130023-0;130023-0;
17.07.13;Nico Claassen;07:00:00;16:00:00;60;130051-3;130051-3;130051-3;130051-3;130051-3;130051-3;130051-3;130051-3;
17.07.13;Thando Katywa;07:00:00;16:00:00;60;120762-130;120762-130;120762-130;120762-130;120762-130;120762-130;120762-130;120762-130;
17.07.13;Ludumo Sankobe;07:00:00;16:00:00;60;130023-0;130023-0;130023-0;130023-0;130023-0;130023-0;130023-0;130023-0;
17.07.13;Paul Helliwell;
17.07.13;Ntombenkosi Yokwana;07:00:00;16:00:00;60;130252-13;130252-13;130252-13;130252-13;130252-13;130252-13;130252-13;130252-13;
17.07.13;Mario Jansen van Vuuren;07:00:00;16:00:00;60;120762-150;120762-150;120762-150;120762-150;120762-150;120762-150;120762-150;120762-150;
17.07.13;Webster Ndlovu;07:00:00;16:00:00;60;130301-22;130301-22;130301-22;130301-22;130301-22;130301-22;130301-22;130301-22;
17.07.13;Ibrahim Arends;07:00:00;16:00:00;60;100380-794;100380-794;100380-701;100380-701;100380-701;100380-699;100380-699;130051-9;
17.07.13;Francois van Vuuren;07:00:00;16:00:00;60;120600-1153;120600-1153;120600-1153;120600-1153;120600-1153;120600-1153;130051-25;130051-25;
17.07.13;Tafadzwa Mvindi;07:00:00;16:00:00;60;120328-296;120328-296;120328-296 / 120328-292;120328-292;120328-292 / 120328-303;120328-303;120328-303;120328-298;
17.07.13;Tashinga Chivasa;07:00:00;16:00:00;60;120328-306;120328-306;120328-306;120328-304;120328-304;120328-300;120328-300;120328-305;
17.07.13;Muya Mwansa;
18.07.13;Andre Esterhuyse;07:00:00;16:00:00;60;130023-0;130023-0;130023-0;130023-0;130023-0;130023-0;130023-0;130023-0;
18.07.13;Nico Claassen;07:00:00;16:00:00;60;130051-3;130051-3;130051-3;130051-3;130051-3;130051-3;130051-3;130051-3;
18.07.13;Thando Katywa;07:00:00;16:00:00;60;120762-130;120762-130;120762-130;120762-130;120762-130;120762-130;120762-130;120762-130;
18.07.13;Ludumo Sankobe;07:00:00;16:00:00;60;120363-109;120363-109;120363-109;120363-109;120363-109;120363-109;120363-109;120363-109;
18.07.13;Paul Helliwell;
18.07.13;Ntombenkosi Yokwana;07:00:00;16:00:00;60;130252-13;130252-13;130252-13;130252-13;130252-13;130252-13;130252-13;130252-13;
18.07.13;Mario Jansen van Vuuren;07:00:00;16:00:00;60;120762-150;120762-150;120762-150;120762-150;120762-150;120762-150;120762-150;120762-150;120762-158;120762-158;120762-158;
18.07.13;Webster Ndlovu;07:00:00;16:00:00;60;130301-22;130301-22;130301-22;130301-22;130425-44;130425-44;130425-44;130425-44;
18.07.13;Ibrahim Arends;07:00:00;16:00:00;60;130023-0;130023-0;130023-0;130023-0;130023-0;130023-0;130023-0;130023-0;
18.07.13;Francois van Vuuren;07:00:00;16:00:00;60;120714-1929;120714-1929;120714-1929;120714-1228 / 130051-25;130051-25;130051-25;130051-25;130051-25;
18.07.13;Tafadzwa Mvindi;07:00:00;16:00:00;60;120328-290;120328-290;120328-296;120328-296;120328-296 / 120328-302;120328-302;120328-302 / 120328-295;120328-295;
18.07.13;Tashinga Chivasa;07:00:00;16:00:00;60;120328-305;120328-305;120328-308;120328-308;120328-308;120328-300;120328-300;120328-300;
18.07.13;Muya Mwansa;
19.07.13;Andre Esterhuyse;07:00:00;16:00:00;60;130023-0;130023-0;130023-0;130023-0;130023-0;130023-0;130023-0;130023-0;
19.07.13;Nico Claassen;07:00:00;16:00:00;60;130051-3;130051-3;130051-3;130051-3;130051-3;130051-3;130051-2;130051-1;
19.07.13;Thando Katywa;07:00:00;16:00:00;60;130023-0;130023-0;130023-0;130023-0;130023-0;130023-0;130023-0;130023-0;
19.07.13;Ludumo Sankobe;07:00:00;16:00:00;60;130051-5;130051-5;120363-109;120363-109;120363-109;120363-109;120363-109;120363-109;
19.07.13;Paul Helliwell;
19.07.13;Ntombenkosi Yokwana;07:00:00;16:00:00;60;130051-7;130051-7;130051-7;130252-13;130252-13;130252-13;130252-13;130252-13;
19.07.13;Mario Jansen van Vuuren;07:00:00;16:00:00;60;120762-150;120762-150;120762-150;120762-150;120762-150;120762-150;120762-150;120762-150;
19.07.13;Webster Ndlovu;07:00:00;16:00:00;60;130051-8;130301-13;130301-13;130301-13;130425-44;130425-44;130425-44;130425-44;
19.07.13;Ibrahim Arends;07:00:00;16:00:00;60;130023-0;130023-0;130023-0;130023-0;130023-0;130023-0;130023-0;130023-0;
19.07.13;Francois van Vuuren;07:00:00;16:00:00;60;130051-10;120600-1153;120600-1153;120600-1153;120600-1153;120600-1153;120600-1153;120600-1153;
19.07.13;Tafadzwa Mvindi;07:00:00;16:00:00;60;130051-31;120328-302;120328-302;120328-302 / 120328-297;120328-297;120328-297 / 120328-299;120328-299 / 120328-303;120328-303;
19.07.13;Tashinga Chivasa;07:00:00;16:00:00;60;120328-308;120328-304;120328-300;120328-307;120328-305;120328-305;120328-306;120328-306;
19.07.13;Muya Mwansa;07:00:00;12:00:00;60;120762-0;120762-0;120762-0;120762-0;120762-0;
20.07.13;Andre Esterhuyse;
20.07.13;Nico Claassen;
20.07.13;Thando Katywa;
20.07.13;Ludumo Sankobe;
20.07.13;Paul Helliwell;
20.07.13;Ntombenkosi Yokwana;
20.07.13;Mario Jansen van Vuuren;
20.07.13;Webster Ndlovu;
20.07.13;Ibrahim Arends;
20.07.13;Francois van Vuuren;
20.07.13;Tafadzwa Mvindi;
20.07.13;Tashinga Chivasa;
20.07.13;Muya Mwansa;
21.07.13;Andre Esterhuyse;
21.07.13;Nico Claassen;
21.07.13;Thando Katywa;
21.07.13;Ludumo Sankobe;
21.07.13;Paul Helliwell;
21.07.13;Ntombenkosi Yokwana;
21.07.13;Mario Jansen van Vuuren;
21.07.13;Webster Ndlovu;
21.07.13;Ibrahim Arends;
21.07.13;Francois van Vuuren;
21.07.13;Tafadzwa Mvindi;
21.07.13;Tashinga Chivasa;
21.07.13;Muya Mwansa;
22.07.13;Andre Esterhuyse;07:00:00;16:00:00;60;0-0;0-0;0-0;0-0;0-0;0-0;0-0;0-0;
22.07.13;Nico Claassen;07:00:00;16:00:00;60;130051-3;130051-3;130051-3;130051-3;130051-3;130051-3;130051-3;130051-3;
22.07.13;Thando Katywa;07:00:00;16:00:00;60;120762-215;120762-215;120762-215;120762-215;120762-215;120762-215;120762-215;120762-215;
22.07.13;Ludumo Sankobe;07:00:00;16:00:00;60;120363-109;120363-109;120363-109;120363-109;120363-109;120363-109;120363-109;120363-109;
22.07.13;Paul Helliwell;
22.07.13;Ntombenkosi Yokwana;07:00:00;16:00:00;60;130252-9;130252-9;130252-9;130252-9;130252-10;130252-10;130252-10;130252-10;
22.07.13;Mario Jansen van Vuuren;07:00:00;16:00:00;60;120762-150;120762-150;120762-150;120762-150;120762-150;120762-150;120762-150;120762-150;
22.07.13;Webster Ndlovu;07:00:00;16:00:00;60;130023-0;130023-0;130023-0;130023-0;130023-0;130425-44;130425-44;130425-44;
22.07.13;Ibrahim Arends;07:00:00;16:00:00;60;100380-696;100380-696;100380-696;100380-696;100380-693;100380-693;100380-693;100380-693;
22.07.13;Francois van Vuuren;07:00:00;16:00:00;60;120600-1153;120600-1153;120600-1153;120600-1153;120600-1153;120600-1153;120600-1153;120600-1153;
22.07.13;Tafadzwa Mvindi;07:00:00;16:00:00;60;130127-25;130127-25;130127-25;130127-25;120600-9999;120600-9999;120600-9999;120600-9999;
22.07.13;Tashinga Chivasa;07:00:00;16:00:00;60;130127-25;130127-25;130127-25;130127-25;120600-9999;120600-9999;120600-9999;120600-9999;
22.07.13;Muya Mwansa;07:00:00;16:00:00;60;120762-0;120762-0;120762-0;120762-0;120762-0;120762-0;120762-0;120762-0;
23.07.13;Andre Esterhuyse;07:00:00;16:00:00;60;0-0;0-0;0-0;0-0;0-0;0-0;0-0;0-0;
23.07.13;Nico Claassen;07:00:00;16:00:00;60;130051-3;130051-3;130051-3;130051-3;130051-3;130051-3;130051-3;130051-3;
23.07.13;Thando Katywa;07:00:00;16:00:00;60;120762-215;120762-215;120762-215;120762-215;120762-215;120762-215;120762-215;120762-215;
23.07.13;Ludumo Sankobe;07:00:00;16:00:00;60;120363-109;120363-109;120363-109;120363-109;120363-109;120363-109;120363-109;120363-109;
23.07.13;Paul Helliwell;
23.07.13;Ntombenkosi Yokwana;07:00:00;16:00:00;60;130252-13;130252-13;130252-13;130252-13;130252-13;130252-13;130252-13;130252-13;
23.07.13;Mario Jansen van Vuuren;07:00:00;16:00:00;60;120762-159;120762-159;120762-159;120762-159;120762-159;120762-159;120762-159;120762-159;
23.07.13;Webster Ndlovu;07:00:00;16:00:00;60;130425-44;130425-44;130425-44;130425-44;130425-44;130301-18;130301-18;130301-18;
23.07.13;Ibrahim Arends;07:00:00;16:00:00;60;100380-693;100380-693;100380-693;100380-693;130023-0;130023-0;130023-0;130023-0;
23.07.13;Francois van Vuuren;07:00:00;16:00:00;60;120600-1153;120600-1153;120600-1153;120600-1153;120600-1153;120600-1153;120600-1153;120600-1153;
23.07.13;Tafadzwa Mvindi;07:00:00;16:00:00;60;120600-9999;120600-9999;120600-9999;120600-9999;120600-9999;120600-9999;120600-9999;120600-9999;
23.07.13;Tashinga Chivasa;07:00:00;16:00:00;60;120600-9999;120600-9999;120600-9999;120600-9999;120600-9999;120600-9999;120600-9999;120600-9999;
23.07.13;Muya Mwansa;07:00:00;16:00:00;60;120762-0;120762-0;120762-0;120762-0;120762-0;120762-0;120762-0;120762-0;
24.07.13;Andre Esterhuyse;07:00:00;16:00:00;60;0-0;0-0;0-0;0-0;0-0;0-0;0-0;0-0;
24.07.13;Nico Claassen;07:00:00;16:00:00;60;130051-3;130051-3;130051-3;130051-3;130051-3;130051-3;130051-3;130127-25;
24.07.13;Thando Katywa;07:00:00;16:00:00;60;120762-0;120762-0;120762-0;120762-0;120762-0;120762-0;120762-0;120762-0;
24.07.13;Ludumo Sankobe;07:00:00;16:00:00;60;120363-109;120363-109;120363-109;120363-109;120363-109;120363-109;120363-109;120363-109;
24.07.13;Paul Helliwell;
24.07.13;Ntombenkosi Yokwana;07:00:00;16:00:00;60;130252-13;130252-13;130252-13;130252-13;130252-13;130252-13;130252-13;130252-13;
24.07.13;Mario Jansen van Vuuren;07:00:00;16:00:00;60;120762-159;120762-159;120762-159;120762-159;120762-159;120762-159;120762-159;120762-159;
24.07.13;Webster Ndlovu;07:00:00;16:00:00;60;130301-18;130301-18;130301-18;130301-18;130301-18;130301-18;130301-18;130301-18;
24.07.13;Ibrahim Arends;07:00:00;16:00:00;60;130023-0;130023-0;130023-0;130023-0;130023-0;130023-0;130023-0;130023-0;
24.07.13;Francois van Vuuren;07:00:00;16:00:00;60;120600-1153;120600-1153;120600-1153;120600-1153;120600-1153;120600-1153;120600-1153;120600-1153;
24.07.13;Tafadzwa Mvindi;07:00:00;16:00:00;60;120600-9999;120600-9999;120600-9999;120600-9999;120600-9999;120600-9999;120600-9999;120600-9999;
24.07.13;Tashinga Chivasa;07:00:00;16:00:00;60;120600-9999;120600-9999;120600-9999;120600-9999;120600-9999;120600-9999;120600-9999;120600-9999;
24.07.13;Muya Mwansa;07:00:00;16:00:00;60;120762-1;120762-1;120762-1;120762-1;120762-1;120762-1;120762-1;120762-1;
25.07.13;Andre Esterhuyse;07:00:00;16:00:00;60;0-0;0-0;0-0;0-0;0-0;0-0;0-0;0-0;
25.07.13;Nico Claassen;07:00:00;16:00:00;60;130051-3;130051-3;130051-3;130051-3;130051-3;130051-3;130127-25;130127-25;
25.07.13;Thando Katywa;07:00:00;16:00:00;60;130023-0;130023-0;120762-0;120762-0;120762-0;120762-0;120762-0;120762-0;
25.07.13;Ludumo Sankobe;07:00:00;16:00:00;60;120363-109;120363-109;120363-109;120363-109;120363-109;120363-109;120363-109;120363-109;
25.07.13;Paul Helliwell;
25.07.13;Ntombenkosi Yokwana;07:00:00;16:00:00;60;130168-26;130168-26;130168-26;130168-26;130168-26;130168-26 / 130252-13;130252-13;130252-13;
25.07.13;Mario Jansen van Vuuren;07:00:00;16:00:00;60;120762-159;120762-159;120762-159;120762-159;120762-150;120762-150;120762-150;120762-150;
25.07.13;Webster Ndlovu;07:00:00;16:00:00;60;130051-23;130051-23;130051-23;130051-23;130051-23;130051-23;130051-23;130051-23;
25.07.13;Ibrahim Arends;07:00:00;16:00:00;60;100380-693;100380-693;100380-693;100380-693;100380-696;100380-696 / 100830-876;100830-876;100830-876;
25.07.13;Francois van Vuuren;07:00:00;16:00:00;60;120600-1153;120600-1153;120600-1153;120600-1153;120714-1929;120714-1929;120714-1929;120714-1929;
25.07.13;Tafadzwa Mvindi;07:00:00;16:00:00;60;120600-9999;120600-9999;120600-9999;120600-9999;120600-9999;120600-9999;120600-9999;120600-9999;
25.07.13;Tashinga Chivasa;07:00:00;16:00:00;60;120600-9999;120600-9999;120600-9999;120600-9999;120600-9999;120600-9999;120600-9999;120600-9999;
25.07.13;Muya Mwansa;07:00:00;16:00:00;60;120762-1;120762-1;120762-1;120762-1;120762-1;120762-1;120762-1;120762-1;
26.07.13;Andre Esterhuyse;07:00:00;16:00:00;60;0-0;0-0;0-0;0-0;0-0;0-0;0-0;0-0;
26.07.13;Nico Claassen;07:00:00;16:00:00;60;130023-0;130023-0;130023-0;130023-0;130023-0;130023-0;130023-0;130023-0;
26.07.13;Thando Katywa;07:00:00;16:00:00;60;130051-12;120762-114;120762-114;120762-114;120762-114;120762-114;120762-114;120762-114;
26.07.13;Ludumo Sankobe;07:00:00;16:00:00;60;130051-5;130051-5;120363-109;120363-109;120363-109;120363-109;120363-109;120363-109;
26.07.13;Paul Helliwell;
26.07.13;Ntombenkosi Yokwana;07:00:00;16:00:00;60;130051-7;130051-7;130051-7;130168-26;130168-26;130168-26;130168-26;130168-26;
26.07.13;Mario Jansen van Vuuren;07:00:00;16:00:00;60;120762-0;120762-0;120762-0;120762-0;120762-0;120762-0;120762-0;120762-0;
26.07.13;Webster Ndlovu;07:00:00;16:00:00;60;130051-8;130301-14;130301-14;130301-14;130301-14;130301-14;130301-14;130301-14;
26.07.13;Ibrahim Arends;07:00:00;16:00:00;60;130051-9;100380-881;100380-881;100380-881;100380-881;100380-881;100380-881;100380-881;
26.07.13;Francois van Vuuren;07:00:00;16:00:00;60;130051-10;120600-1153;120600-1153;120600-1153;120600-1153;120600-1153;120600-1153;120600-1153;
26.07.13;Tafadzwa Mvindi;07:00:00;16:00:00;60;130051-31;120600-9999;120600-9999;120600-9999;120600-9999;120600-9999;120600-9999;120600-9999;
26.07.13;Tashinga Chivasa;07:00:00;16:00:00;60;120600-9999;120600-9999;120600-9999;120600-9999;120600-9999;120600-9999;120600-9999;120600-9999;
26.07.13;Muya Mwansa;07:00:00;16:00:00;60;120762-1;120762-1;120762-1;120762-1;120762-0;120762-0;120762-0;120762-0;
27.07.13;Andre Esterhuyse;
27.07.13;Nico Claassen;
27.07.13;Thando Katywa;
27.07.13;Ludumo Sankobe;
27.07.13;Paul Helliwell;
27.07.13;Ntombenkosi Yokwana;
27.07.13;Mario Jansen van Vuuren;
27.07.13;Webster Ndlovu;
27.07.13;Ibrahim Arends;
27.07.13;Francois van Vuuren;
27.07.13;Tafadzwa Mvindi;
27.07.13;Tashinga Chivasa;
27.07.13;Muya Mwansa;
28.07.13;Andre Esterhuyse;
28.07.13;Nico Claassen;
28.07.13;Thando Katywa;
28.07.13;Ludumo Sankobe;
28.07.13;Paul Helliwell;
28.07.13;Ntombenkosi Yokwana;
28.07.13;Mario Jansen van Vuuren;
28.07.13;Webster Ndlovu;
28.07.13;Ibrahim Arends;
28.07.13;Francois van Vuuren;
28.07.13;Tafadzwa Mvindi;
28.07.13;Tashinga Chivasa;
28.07.13;Muya Mwansa;
29.07.13;Andre Esterhuyse;07:00:00;16:00:00;60;0-0;0-0;0-0;0-0;0-0;0-0;0-0;0-0;
29.07.13;Nico Claassen;07:00:00;16:00:00;60;130051-3;130051-3;130051-3;130051-3;130051-3;130051-3;130051-3;130051-3;
29.07.13;Thando Katywa;07:00:00;16:00:00;60;120762-81;120762-81;120762-81;120762-81;120762-81;120762-81;120762-81;120762-81;
29.07.13;Ludumo Sankobe;07:00:00;16:00:00;60;120363-109;120363-109;120363-109;120363-109;120363-109;120363-109;120363-109;120363-109;
29.07.13;Paul Helliwell;
29.07.13;Ntombenkosi Yokwana;07:00:00;16:00:00;60;130168-338;130168-338;130168-338;130168-338;130168-998;130168-998 / 130252-15;130252-15;130252-15;
29.07.13;Mario Jansen van Vuuren;07:00:00;16:00:00;60;120762-0;120762-0;120762-0;120762-0;120762-0;120762-0;120762-0;120762-0;
29.07.13;Webster Ndlovu;07:00:00;16:00:00;60;130301-14;130301-14;130301-14;130301-14;130301-14;130301-14;130301-14;130301-14;
29.07.13;Ibrahim Arends;07:00:00;16:00:00;60;100380-872;100380-872;100380-872;100380-872;100380-872;100380-872;100380-872;100380-872 / 120714-1384;
29.07.13;Francois van Vuuren;07:00:00;16:00:00;60;120600-1153;120600-1153;120600-1153;120600-1153;120600-1153;120600-1153;120600-1153;120600-1153;
29.07.13;Tafadzwa Mvindi;07:00:00;16:00:00;60;130425-49;130425-49;120600-1139;120600-1139;120600-1139;120600-1139;120600-1139;120600-1139;
29.07.13;Tashinga Chivasa;07:00:00;16:00:00;60; 120600-1139; 120600-1139; 120600-1139; 120600-1139; 120600-1139; 120600-1139; 120600-1139; 120600-1139;
29.07.13;Muya Mwansa;07:00:00;16:00:00;60;120762-0;120762-0;120762-0;120762-0;120762-0;120762-0;120762-0;120762-0;
30.07.13;Andre Esterhuyse;07:00:00;16:00:00;60;0-0;0-0;0-0;0-0;0-0;0-0;0-0;0-0;
30.07.13;Nico Claassen;07:00:00;16:00:00;60;130051-3;130051-3;130051-3;130051-3;130051-3;130051-3;130051-3;130051-3;
30.07.13;Thando Katywa;07:00:00;16:00:00;60;120762-81;120762-81;120762-81;120762-81;120762-81;120762-81;120762-81;120762-81;
30.07.13;Ludumo Sankobe;07:00:00;16:00:00;60;120363-109;120363-109;120363-109;120363-109;120363-109;120363-109;120363-109;120363-109;
30.07.13;Paul Helliwell;
30.07.13;Ntombenkosi Yokwana;07:00:00;16:00:00;60;130252-13;130252-13;130252-13;130252-13;130252-13;130252-13;130252-13;130252-13;
30.07.13;Mario Jansen van Vuuren;07:00:00;16:00:00;60;120762-0;120762-0;120762-0;120762-0;120762-0;120762-0;120762-0;120762-0;
30.07.13;Webster Ndlovu;07:00:00;16:00:00;60;130301-14;130301-14;130301-14;130301-14;130301-14;130301-14;130301-14;130301-14;
30.07.13;Ibrahim Arends;07:00:00;16:00:00;60;100380-873;100380-873;100380-873;100380-873;100380-0;100380-0;100380-0;100380-0 / 120714-1384;
30.07.13;Francois van Vuuren;07:00:00;16:00:00;60;120600-1153;120600-1153;120600-1153;120600-1153;120600-1153;120600-1153;120600-1153;120600-1153;
30.07.13;Tafadzwa Mvindi;07:00:00;16:00:00;60;120600-1139;120600-1139;120600-1139;120600-1139;120600-1139;120600-1139;120600-1139;120600-1139;
30.07.13;Tashinga Chivasa;07:00:00;16:00:00;60;120600-1139;120600-1139;120600-1139;120600-1139;120600-1139;120600-1139;120600-1139;120600-1139;
30.07.13;Muya Mwansa;07:00:00;16:00:00;60;120762-0;120762-0;120762-0;120762-0;120762-0;120762-0;120762-0;120762-0;
31.07.13;Andre Esterhuyse;07:00:00;16:00:00;60;0-0;0-0;0-0;0-0;0-0;0-0;0-0;0-0;
31.07.13;Nico Claassen;07:00:00;16:00:00;60;130051-3;130051-3;130051-3;130051-3;130051-3;130051-3;130051-3;130051-3;
31.07.13;Thando Katywa;07:00:00;16:00:00;60;120762-81;120762-81;120762-81;120762-81;120762-81;120762-81;120762-81;120762-81;
31.07.13;Ludumo Sankobe;07:00:00;16:00:00;60;120363-109;120363-109;120363-109;120363-109;120363-109;120363-109;120363-109;120363-109;
31.07.13;Paul Helliwell;
31.07.13;Ntombenkosi Yokwana;07:00:00;16:00:00;60;130168-350;130168-350;130252-15;130252-15;130252-15;130252-15;130252-15;130252-15;
31.07.13;Mario Jansen van Vuuren;07:00:00;16:00:00;60;120762-221;120762-221;120762-221;120762-221;120762-221;130051-22;130051-22;130051-22;
31.07.13;Webster Ndlovu;07:00:00;16:00:00;60;130023-0;130023-0;130023-0;130023-0;130023-0;130023-0;130023-0;130023-0;
31.07.13;Ibrahim Arends;07:00:00;16:00:00;60;100380-0;100380-0;100380-0;100380-0;100380-0 / 100380-881;100380-881;100380-881;100380-881 / 120714-1384;
31.07.13;Francois van Vuuren;07:00:00;16:00:00;60;120600-1159;120600-1159;120600-1159;120600-1159;100369-0;100369-0;100369-0;100369-0;
31.07.13;Tafadzwa Mvindi;07:00:00;16:00:00;60;120600-1139;120600-1139;120600-1139;120600-1139;120600-1139;120600-1139;120600-1139;120600-1139;
31.07.13;Tashinga Chivasa;07:00:00;16:00:00;60;130425-50;130425-50;130425-50;130425-50;130425-50;130425-50;130425-50;130425-50;
31.07.13;Muya Mwansa;07:00:00;16:00:00;60;120762-0;120762-0;120762-0;120762-0;120762-0;120762-0;120762-0;120762-0;