"11.03.13","1","130051","3","101","PM/Mod/Meetings","","0","S4 Technical Support / Troubleshoot 2013. Supporting Team Members","07:00","16:00","8","60",
"12.03.13","2","100369","8670","101","PM/Mod/Meetings","","0","8501: OBD/WWH: Mod A1.2/ae10. Weekly report","07:00","16:00","1","60",
"12.03.13","2","130051","3","101","PM/Mod/Meetings","","0","S4 Technical Support / Troubleshoot 2013. Supporting Team Members","","","7","0",
"13.03.13","3","120246","168","102","Spez: LH/PH/Design","","100","1203: ABS/B.M.S: B.M.S: Ablauf BMS Config Review PH F2.3/pa20. PH review","07:00","16:00","3","60",
"13.03.13","3","130051","3","101","PM/Mod/Meetings","","0","S4 Technical Support / Troubleshoot 2013. Supporting Team Members","","","5","0",
"14.03.13","4","120246","159","102","Spez: LH/PH/Design","","0","1202: ABS/B.M.S: ABS: Ablauf Bleeding Review PH F1.3/pa20. PH review","07:00","16:00","2,5","60",
"14.03.13","4","130051","3","101","PM/Mod/Meetings","","0","S4 Technical Support / Troubleshoot 2013. Supporting Team Members","","","4,5","0",
"14.03.13","4","130051","1","101","PM/Mod/Meetings","","0","S4 General Project Management. Meeting with S4 Management and s46","","","1","0",
"15.03.13","5","130051","3","101","PM/Mod/Meetings","","0","S4 Technical Support / Troubleshoot 2013. Supporting Team Members","07:00","16:00","7","60",
"15.03.13","5","130051","2","101","PM/Mod/Meetings","","0","Management group AES 2013. Timesheets + Meetings","","","1","0",
