"15.07.13","1","120328","295","120","Codierung","","0","20-1111: Repair Framework : Impl.. rework/testing","07:00","16:00","1,5","60",
"15.07.13","1","120328","296","120","Codierung","","0","20-1111:Location CTSs Rework : Impl. (done in Single Location Items). rework/testing","","","1,5","0",
"15.07.13","1","120328","309","120","Codierung","","0","20-1111:VisualTests : Rework/Clean : Impl.. rework/testing","","","2,5","0",
"15.07.13","1","120328","301","120","Codierung","","0","20-1111: Doors Rework/Clean : Impl.. rework/testing","","","2,5","0",
"16.07.13","2","130425","31","120","Codierung","","100","DLS-Tester - Implementation(#221). Closing the task.","07:00","16:00","0","60",
"16.07.13","2","120328","291","120","Codierung","","0","20-1111: DTCClear / DTCRead Rework : Impl. rework and testing","","","2","0",
"16.07.13","2","120328","301","120","Codierung","","0","20-1111: Doors Rework/Clean : Impl. rework","","","2","0",
"16.07.13","2","120328","297","120","Codierung","","0","20-1111: PlantConfig Rework : Impl.. rework and testing","","","2","0",
"16.07.13","2","120328","296","120","Codierung","","0","20-1111:Location CTSs Rework : Impl. (done in Single Location Items). rework and testing","","","2","0",
"17.07.13","3","120328","296","120","Codierung","","0","20-1111:Location CTSs Rework : Impl. (done in Single Location Items). rework and testing","07:00","16:00","2,5","60",
"17.07.13","3","120328","292","120","Codierung","","0","20-1111: AssemblyCheck Rework : Impl. rework and testing","","","2","0",
"17.07.13","3","120328","303","120","Codierung","","0","20-1111: MainGUI Rework/Clean : Impl. rework and testing","","","2,5","0",
"17.07.13","3","120328","298","120","Codierung","","0","20-1111: VerhicleData Rework : Impl.. rework and testing","","","1","0",
"18.07.13","4","120328","290","120","Codierung","","0","20-1111: Copy and clean Workspace : Impl.. clean workspace to test BDNT chanegs.","07:00","16:00","2","60",
"18.07.13","4","120328","296","120","Codierung","","0","20-1111:Location CTSs Rework : Impl. (done in Single Location Items). Testing sequence on virtual machine.","","","2,5","0",
"18.07.13","4","120328","302","120","Codierung","","0","20-1111:Statistics Handling Rework : Impl.. implemanting Statistics in BDNT sequences.","","","2","0",
"18.07.13","4","120328","295","120","Codierung","","0","20-1111: Repair Framework : Impl.. Testing sequence on virtual machine.","","","1,5","0",
"19.07.13","5","130051","31","101","PM/Mod/Meetings","","0","S4/DSA overall tasks 2013. timesheets","07:00","16:00","1","60",
"19.07.13","5","120328","302","120","Codierung","","0","20-1111: Cockpit Rework/Clean : Impl.. rework","","","2,4","0",
"19.07.13","5","120328","297","120","Codierung","","0","20-1111: PlantConfig Rework : Impl.. Testing PlantConfig on virtual machine.","","","2","0",
"19.07.13","5","120328","299","120","Codierung","","0","20-1111:Statistics Handling Rework : Impl.. implemanting Statistics in BDNT sequences.","","","1,5","0",
"19.07.13","5","120328","303","120","Codierung","","0","20-1111: MainGUI Rework/Clean : Impl. Testing sequence on virtual machine.","","","1,1","0",
