"24.06.13","1","130051","3","101","PM/Mod/Meetings","","0","S4 Technical Support / Troubleshoot 2013. Supporting team members","07:00","16:00","8","60",
"25.06.13","2","130051","1","101","PM/Mod/Meetings","","0","S4 General project management 2013. Interviews for new staff","07:00","16:00","6","60",
"25.06.13","2","130051","3","101","PM/Mod/Meetings","","0","S4 Technical Support / Troubleshoot 2013. Supporting team members","","","2","0",
"26.06.13","3","130051","3","101","PM/Mod/Meetings","","0","S4 Technical Support / Troubleshoot 2013. Supporting team members","07:00","16:00","7,5","60",
"26.06.13","3","100369","8675","101","PM/Mod/Meetings","","0","8501: OBD/WWH: Project Schedule A1.6/ae10. Weekly report","","","0,5","0",
"27.06.13","4","130051","3","101","PM/Mod/Meetings","","0","S4 Technical Support / Troubleshoot 2013. Supporting team members","07:00","16:00","8","60",
"28.06.13","5","130051","3","101","PM/Mod/Meetings","","0","S4 Technical Support / Troubleshoot 2013. Supporting team members","07:00","16:00","6","60",
"28.06.13","5","130051","16","101","PM/Mod/Meetings","","0","S4/DSA Training 2013. Authoring + working with two ECU's in the same CTS","","","0,5","0",
"28.06.13","5","130051","2","101","PM/Mod/Meetings","","0","Management group AES 2013. Timesheets + Meetings","","","0,5","0",
"28.06.13","5","130051","1","101","PM/Mod/Meetings","","0","S4 General project management 2013. S4 meeting","","","1","0",
