"28.01.13","1","100769","873","120","Codierung","","0","Entity merge: 12.5.3 - 12.8. Entity merge: 12.5.3 - 12.8","07:00","16:00","8","60",
"29.01.13","2","100769","873","120","Codierung","","0","Entity merge: 12.5.3 - 12.8. Entity merge: 12.5.3 - 12.8","07:00","16:00","8","60",
"30.01.13","3","100769","873","120","Codierung","","0","Entity merge: 12.5.3 - 12.8. Entity merge: 12.5.3 - 12.8","07:00","16:00","3","60",
"30.01.13","3","100769","862","104","Test-Spezifikation","","0","TestSpec: AAxx Applikation Allg.. Replicating testSpec problem","","","4","0",
"30.01.13","3","100769","888","181","Fehlerbes. vor Ausl. (Bugzilla)","","0","Bug 40004. Looking into bug","","","1","0",
"31.01.13","4","100769","888","181","Fehlerbes. vor Ausl. (Bugzilla)","","0","Bug 40540. Downloading files needed for Bug 40540, replicating the bug","07:00","16:00","4","60",
"31.01.13","4","0","0","920","Krankheit","","0","Sick. Sick","","","4","0",
"01.02.13","5","0","0","920","Krankheit","","0","Sick. Sick","07:00","16:00","1","60",
"01.02.13","5","130051","14","101","PM/Mod/Meetings","","0","Meetings. Weekly meeting","","","1","0",
"01.02.13","5","100769","888","181","Fehlerbes. vor Ausl. (Bugzilla)","","0","Bug 40540. Replicate bug and attempt solutions","","","6","0",
