"22.07.13","1","130252","9","120","Codierung","","100","CR ODX (#255):EDC17: Migration IOControls F1.3/ae10. ODX IOControls implementation","07:00","16:00","4","60",
"22.07.13","1","130252","10","120","Codierung","","100","CR ODX (#255): EDC17: Migration Routinen F1.4/ae10. ODX Routine Implementation","","","4","0",
"23.07.13","2","130252","13","120","Codierung","","0","CR ODX (#255): EDC17: Migration Erweiterte Umweltdaten F1.7/ae10. ODX Umweltdaten implementation","07:00","16:00","8","60",
"24.07.13","3","130252","13","120","Codierung","","0","CR ODX (#255): EDC17: Migration Erweiterte Umweltdaten F1.7/ae10. ODX Umweltdaten implementation","07:00","16:00","8","60",
"25.07.13","4","130168","26","181","Fehlerbes. vor Ausl. (Bugzilla)","","0","Bugfixing #44128, #44083, #44037, #44038, #44028, #43672, #44061, #44162, #44166, #44733 Bi-Pos7. bugs  #44535, 44208, 44768, 44809","07:00","16:00","5,5","60",
"25.07.13","4","130252","13","120","Codierung","","0","CR ODX (#255): EDC17: Migration Erweiterte Umweltdaten F1.7/ae10. ODX Umweltdaten implementation","","","2,5","0",
"26.07.13","5","130051","7","101","PM/Mod/Meetings","","0","S4/DSA overall tasks 2013. Meeting and updating time sheets","07:00","16:00","3","60",
"26.07.13","5","130168","26","181","Fehlerbes. vor Ausl. (Bugzilla)","","0","Bugfixing #44128, #44083, #44037, #44038, #44028, #43672, #44061, #44162, #44166, #44733 Bi-Pos7. bugs #39872, 44641, 44735, 44698, 44733","","","5","0",
