"10.06.13","1","120714","841","120","Codierung","","0","P.Authoring: lack of performance (waiting). waiting, downloading and installing authoring 3.8.20","07:00","16:00","3","60",
"10.06.13","1","130056","294","120","Codierung","","0","1101: ASCS II: AP2: ODX-BaseLib: Simulation F2.1/ae11. creating PDU simulations for ASCS ECUs","","","0,5","0",
"10.06.13","1","100369","8770","102","Spez: LH/PH/Design","","0","5212: OBD: Gen. Monitoring CTS: Spezifikationserw. F16.1/ae10. creation of Testlink Testspec","","","4,5","0",
"11.06.13","2","120714","841","120","Codierung","","0","P.Authoring: lack of performance (waiting). installing and configuring MANCATSIII 3.8.19","07:00","16:00","1,5","60",
"11.06.13","2","100369","8770","102","Spez: LH/PH/Design","","0","5212: OBD: Gen. Monitoring CTS: Spezifikationserw. F16.1/ae10. creation of Testlink Testspec","","","6,5","0",
"12.06.13","3","130017","0","182","Fehlerbes. nach Ausl. (Bugzilla)","","0","8080: #Bug 43644 - Bedatung/Nachbedatung der Service 34, 35, 36 und37. bugfixing","07:00","16:00","1,5","60",
"12.06.13","3","130017","0","182","Fehlerbes. nach Ausl. (Bugzilla)","","0","8080: #Bug 43616 - Falsche Parameterbedatung bei der ECAS2 Variante ER01_0010001. bugfixing","","","1","0",
"12.06.13","3","100369","8776","104","Test-Spezifikation","","0","5213: OBD: IUPR Daten: Testspezifikation F17.3/ae10. creation of Testlink Testspec","","","5,5","0",
"13.06.13","4","130017","0","182","Fehlerbes. nach Ausl. (Bugzilla)","","0","8080:# Bug 43535 - ZBR older than E6: error-message:SEND_KEY_FAILED. bugfixing","07:00","16:00","2","60",
"13.06.13","4","130017","0","182","Fehlerbes. nach Ausl. (Bugzilla)","","0","8080: #Bug 43644 - Bedatung/Nachbedatung der Service 34, 35, 36 und37. bugfixing","","","1,5","0",
"13.06.13","4","130056","294","120","Codierung","","0","1101: ASCS II: AP2: ODX-BaseLib: Simulation F2.1/ae11. creating PDU simulations for ASCS ECUs","","","1,5","0",
"13.06.13","4","130017","317","182","Fehlerbes. nach Ausl. (Bugzilla)","","0","8180: P3 #43312 (normal) Creation of MAN delivery Milestone 3.0.6, 00_AllECUs. creation of MAN delivery for Milestone 3.0.6","","","3","0",
"14.06.13","5","130051","7","101","PM/Mod/Meetings","","0","S4/DSA overall tasks 2013. Meeting and updating time sheets","07:00","16:00","3","60",
"14.06.13","5","130017","0","182","Fehlerbes. nach Ausl. (Bugzilla)","","0","8180: Bug 43675 - Services DC_InputOutpuContrByLocalIdent DEFAULT-sessions to be removed.. bugfixing","","","1","0",
"14.06.13","5","130017","317","182","Fehlerbes. nach Ausl. (Bugzilla)","","0","8180: P3 #43312 (normal) Creation of MAN delivery Milestone 3.0.6, 00_AllECUs. creation of MAN delivery for Milestone 3.0.6","","","4","0",
