"21.10.13","1","100369","8983","181","Fehlerbes. vor Ausl. (Bugzilla)","","0","Bugfixing vor CF. Bugs 44253,44243,44244,44251,43141,44255","07:00","16:00","8","60",
"22.10.13","2","100369","8983","181","Fehlerbes. vor Ausl. (Bugzilla)","","0","Bugfixing vor CF. Bugs 44253,44243,44244,44251,43141,44255","07:00","16:00","8","60",
"23.10.13","3","100369","8983","181","Fehlerbes. vor Ausl. (Bugzilla)","","0","Bugfixing vor CF. Bugs 44253,44243,44244,44251,43141,44255 testing","07:00","16:00","8","60",
"24.10.13","4","100369","8983","181","Fehlerbes. vor Ausl. (Bugzilla)","","0","Bugfixing vor CF. Bugs 44253,44243,44244,44251,43141,44255 testlink fix and test","07:00","16:00","8","60",
"25.10.13","5","100369","8983","181","Fehlerbes. vor Ausl. (Bugzilla)","","0","Bugfixing vor CF. Bugs 46930,46931,46932,46933 fix and test","07:00","16:00","7","60",
"25.10.13","5","130051","8","101","PM/Mod/Meetings","","0","S4/DSA overall tasks 2013. meatings and timesheets","","","1","0",
