"23.09.13","1","130051","1","101","PM/Mod/Meetings","","0","S4 General project management 2013. Supporting colleagues","07:00","16:00","8","60",
"24.09.13","2","130023","1151","910","Urlaub","","100","Public Holiday 24.09.2013. Holiday","07:00","16:00","8","60",
"25.09.13","3","130127","18","101","PM/Mod/Meetings","","0","00-9120: ZBRO32: Mod A1.2/pa10. Weekly demo","07:00","16:00","1","60",
"25.09.13","3","130051","1","101","PM/Mod/Meetings","","0","S4 General project management 2013. Supporting colleagues","","","7","0",
"26.09.13","4","130051","1","101","PM/Mod/Meetings","","0","S4 General project management 2013. Supporting colleagues","07:00","16:00","8","60",
"27.09.13","5","130051","2","101","PM/Mod/Meetings","","0","Management group AES 2013. Timesheets + Meetings","07:00","16:00","1","60",
"27.09.13","5","130051","16","101","PM/Mod/Meetings","","0","S4/DSA Training 2013. ECOS training with S68","","","1","0",
"27.09.13","5","130051","1","101","PM/Mod/Meetings","","0","S4 General project management 2013. Supporting colleagues","","","6","0",
