"21.01.13","1","100369","7494","104","Test-Spezifikation","","0","3122: Gen. Tester: DTC: Integrationstestspec F5.5/ae10. Writing Generic Tester intergation testspec on testlink","07:00","16:00","4","60",
"21.01.13","1","100553","0","181","Fehlerbes. vor Ausl. (Bugzilla)","","0","Bugfix Release MAN Migration ODX: Bearbeitung von Bugs. worked on bugs #39734, 39736, 39873","","","4","0",
"22.01.13","2","100369","7494","104","Test-Spezifikation","","0","3122: Gen. Tester: DTC: Integrationstestspec F5.5/ae10. Writing Generic Tester intergation testspec on testlink","07:00","16:00","4","60",
"22.01.13","2","100553","0","181","Fehlerbes. vor Ausl. (Bugzilla)","","0","Bugfix Release MAN Migration ODX: Bearbeitung von Bugs. worked on bugs #39736, 39829, 39826","","","4","0",
"23.01.13","3","100553","0","181","Fehlerbes. vor Ausl. (Bugzilla)","","0","Bugfix Release MAN Migration ODX: Bearbeitung von Bugs. worked on bugs #39733, 39734, 39873, 39826","07:00","16:00","6,5","60",
"23.01.13","3","100369","7502","104","Test-Spezifikation","","0","3122: Gen. Tester: Messwerte: Integrationstestspec F6.5/ae10. Writing Generic Tester intergation testspec on testlink","","","1,5","0",
"24.01.13","4","100553","0","181","Fehlerbes. vor Ausl. (Bugzilla)","","0","Bugfix Release MAN Migration ODX: Bearbeitung von Bugs. worked on bug # 40429, 39734, 39733","07:00","16:00","4","60",
"24.01.13","4","100369","7494","104","Test-Spezifikation","","0","3122: Gen. Tester: DTC: Integrationstestspec F5.5/ae10. Writing intergation testspec on testlink","","","1,5","0",
"24.01.13","4","100369","7478","104","Test-Spezifikation","","0","3122: Gen. Tester: ECU: Integrationstestspec F3.5/ae10. Writing intergation testspec on testlink","","","1","0",
"24.01.13","4","100369","7486","104","Test-Spezifikation","","0","3122: Gen. Tester: Ids: Integrationstestspec F4.5/ae10. Writing intergation testspec on testlink","","","1,5","0",
"25.01.13","5","130051","7","101","PM/Mod/Meetings","","0","S4/DSA overall tasks 2013. Meetings and updating timesheets","07:00","16:00","2","60",
"25.01.13","5","100553","0","181","Fehlerbes. vor Ausl. (Bugzilla)","","0","Bugfix Release MAN Migration ODX: Bearbeitung von Bugs. worked on bugs #39429, 40304, 39873, 39826, 39733","","","6","0",
