"28.01.13","1","120246","109","120","Codierung","","0","MIA AS: History: Data Management Implementierung u. Modultests F2.7/ae10. Split CTS for EGV and BMS","07:00","16:00","8","60",
"29.01.13","2","120246","109","120","Codierung","","0","MIA AS: History: Data Management Implementierung u. Modultests F2.7/ae10. Split CTS for EGV and BMS","07:00","16:00","8","60",
"30.01.13","3","120246","105","120","Codierung","","0","MIA AS: EGV Configuration: Implementierung u. Modultests F5.7/ae10. Testing against sim and CTS Export","07:00","16:00","3,5","60",
"30.01.13","3","120246","109","120","Codierung","","0","MIA AS: History: Data Management Implementierung u. Modultests F2.7/ae10. Testing against sim","","","4,5","0",
"31.01.13","4","120246","101","102","Spez: LH/PH/Design","","0","MIA AS: EGV Config.: Rework Specification F1.2/ae10. Rework Sepec for customers changes","07:00","16:00","5","60",
"31.01.13","4","130051","4","101","PM/Mod/Meetings","","0","S4/DSA overall tasks 2013. Meeting/telco","","","1","0",
"31.01.13","4","120246","105","120","Codierung","","0","MIA AS: EGV Configuration: Implementierung u. Modultests F5.7/ae10. Rework CTS for Customer cahnges","","","2","0",
"01.02.13","5","120246","105","120","Codierung","","0","MIA AS: EGV Configuration: Implementierung u. Modultests F5.7/ae10. Rework CTS for Customer cahnges","07:00","16:00","7","60",
"01.02.13","5","130051","4","101","PM/Mod/Meetings","","0","S4/DSA overall tasks 2013. Timesheets","","","1","0",
