"08.04.13","1","100553","1682","120","Codierung","","0","1101: ODX-Bedatung: ODX Bedatung 57 ECU lt. Liste F1.1/pa10. Modification of the Actuator Tes","07:00","16:00","6","60",
"08.04.13","1","120714","852","182","Fehlerbes. nach Ausl. (Bugzilla)","","0","P.Authoring: problem analysis. Testing P.Athoring performance","","","2","0",
"09.04.13","2","120714","852","182","Fehlerbes. nach Ausl. (Bugzilla)","","0","P.Authoring: problem analysis. Testing P.Athoring performance","07:00","16:00","2","60",
"09.04.13","2","100553","1682","120","Codierung","","0","1101: ODX-Bedatung: ODX Bedatung 57 ECU lt. Liste F1.1/pa10. Modification of the Actuator Tes","","","6","0",
"10.04.13","3","130007","920","930","Seminar / Messe","","0","Seminar 10.04.-11.04.2013. Leadership and management training","07:00","16:00","8","60",
"11.04.13","4","130007","920","930","Seminar / Messe","","100","Seminar 10.04.-11.04.2013. Leadership and management training","07:00","16:00","8","60",
"12.04.13","5","130051","7","101","PM/Mod/Meetings","","0","S4/DSA overall tasks 2013. Meeting and updating time sheets","07:00","16:00","2","60",
"12.04.13","5","120246","160","102","Spez: LH/PH/Design","","0","1202: ABS/B.M.S: ABS: Ablauf Bleeding Sim + Testspec F1.4/pa20. creation of Testlink Testspec","","","2","0",
"12.04.13","5","100553","1682","120","Codierung","","0","1101: ODX-Bedatung: ODX Bedatung 57 ECU lt. Liste F1.1/pa10. Modification of the Actuator Tes","","","4","0",
