"16.09.13","1","130051","1","101","PM/Mod/Meetings","","0","S4 General project management 2013. Supporting colleagues","07:00","16:00","8","60",
"17.09.13","2","130051","1","101","PM/Mod/Meetings","","0","S4 General project management 2013. Supporting colleagues","07:00","16:00","8","60",
"18.09.13","3","130127","33","120","Codierung","","0","10-1101: ZBRO32: ODX: ODX Bedatung F1.6/pa10 /BI-Pos. 4. Tooling update (jafto)","07:00","16:00","2","60",
"18.09.13","3","130051","1","101","PM/Mod/Meetings","","0","S4 General project management 2013. Supporting colleagues","","","6","0",
"19.09.13","4","130127","33","120","Codierung","","0","10-1101: ZBRO32: ODX: ODX Bedatung F1.6/pa10 /BI-Pos. 4. Tooling update","07:00","16:00","1","60",
"19.09.13","4","130051","1","101","PM/Mod/Meetings","","0","S4 General project management 2013. Supporting colleagues","","","7","0",
"20.09.13","5","120023","0","910","Urlaub","","0","Time off. Power outage","07:00","16:00","2","60",
"20.09.13","5","130051","1","101","PM/Mod/Meetings","","0","S4 General project management 2013. Supporting colleagues","","","6","0",
