"22.07.13","1","120762","215","120","Codierung","","0","0-1002: ZDCInteg.: Kundenwunschkodierung / CR310my1-186a. Implementing ZDC customer coding file creation","07:00","16:00","8","60",
"23.07.13","2","120762","215","120","Codierung","","100","20-1002: ZDCInteg.: Kundenwunschkodierung / CR310my1-186a. Fixing ZDC customer coding file implementation","07:00","16:00","8","60",
"24.07.13","3","120762","0","110","Engineering","","0","Getting into subject: PIDT Bug-fixing with local SVN. Setting up PIDT development, assisting colleague with setup and testing local SVN-repository.","07:00","16:00","8","60",
"25.07.13","4","130023","0","910","Urlaub","","0","Holiday. Time off","07:00","16:00","2","60",
"25.07.13","4","120762","0","110","Engineering","","100","Getting into subject: PIDT Bug-fixing with local SVN. Setting up PIDT development, assisting colleague with setup and testing local SVN-repository.","","","6","0",
"26.07.13","5","130051","12","101","PM/Mod/Meetings","","0","S4/DSA overall tasks 2013. Weekly general tasks","07:00","16:00","1","60",
"26.07.13","5","120762","114","120","Codierung","","0","20-1001: CuPLog: Modultest implementieren / CR307my2-218. Working on JUnit tests for feature","","","7","0",
