"23.09.13","1","130023","0","910","Urlaub","","100","Time Off. Time Off","07:00","16:00","8","60",
"24.09.13","2","130023","1848","910","Urlaub","","100","Public Holiday 24.09.2013. Time Off","07:00","16:00","8","60",
"25.09.13","3","130168","371","182","Fehlerbes. nach Ausl. (Bugzilla)","","0","Bugfixing bis Ende 2013 /BI-Pos. 13. bugfixing","07:00","16:00","1,5","60",
"25.09.13","3","130127","35","120","Codierung","","0","10-1101: ZBRO32: ODX: Job: Monitoring/IOControl exe F1.8/pa10. 10-1101: ZBRO32: ODX: Job: Monitoring/IOControl exe F1.8/pa10","","","6,5","0",
"26.09.13","4","130127","35","120","Codierung","","0","10-1101: ZBRO32: ODX: Job: Monitoring/IOControl exe F1.8/pa10. 10-1101: ZBRO32: ODX: Job: Monitoring/IOControl exe F1.8/pa10","07:00","16:00","8","60",
"27.09.13","5","130051","7","101","PM/Mod/Meetings","","0","S4/DSA overall tasks 2013. Meeting and updating time sheets","07:00","16:00","3","60",
"27.09.13","5","130127","35","120","Codierung","","0","10-1101: ZBRO32: ODX: Job: Monitoring/IOControl exe F1.8/pa10. 10-1101: ZBRO32: ODX: Job: Monitoring/IOControl exe F1.8/pa10","","","5","0",
