"11.03.13","1","100369","8673","101","PM/Mod/Meetings","","0","8501: OBD/WWH: Meetings A1.4/ae10. Meeting with mario","07:00","16:00","1","60",
"11.03.13","1","100369","8688","102","Spez: LH/PH/Design","","0","4102: OBD/WWH: ODX-Sequ. Integr.: Spec F4.1/ae10. Creating Specs for OBD/WWH","","","7","0",
"12.03.13","2","100369","8688","102","Spez: LH/PH/Design","","0","4102: OBD/WWH: ODX-Sequ. Integr.: Spec F4.1/ae10. Creating Specs for OBD/WWH","07:00","16:00","8","60",
"13.03.13","3","120600","561","110","Engineering","","0","8102: P.Lib R8: Konfiguration TestFramework F2.5/ae10. From: s65 Worked on test framework, Fixed DTM testcases after DTM handle rework","07:00","16:00","8","60",
"14.03.13","4","100369","8688","102","Spez: LH/PH/Design","","0","4102: OBD/WWH: ODX-Sequ. Integr.: Spec F4.1/ae10. Creating Specs for OBD/WWH","07:00","16:00","8","60",
"15.03.13","5","130051","10","101","PM/Mod/Meetings","","0","S4/DSA overall tasks 2013. Meeting and TimeSheets","07:00","16:00","1","60",
"15.03.13","5","100369","8688","102","Spez: LH/PH/Design","","0","OBD/WWH: ODX-Sequ. Integr.: Spec F4.1/ae10. Creating Specs for OBD/WWH","","","7","0",
