"29.09.14","1","140501","253","120","Codierung","","0","10-1002: PIDT 14.8: CR434my2-281_StabFuerSlaves: Implementierung. Working on implementation of feature","07:00","16:00","8","60",
"30.09.14","2","140111","0","160","Dokumentation","","0","PIDT 14.4: Feature documentation. Capturing feature screenshots for documentation","07:00","16:00","1,5","60",
"30.09.14","2","140501","0","110","Engineering","","0","PIDT 14.8.0 Setting up development environment. Setting up development environment","","","5","0",
"30.09.14","2","140501","253","120","Codierung","","0","10-1002: PIDT 14.8: CR434my2-281_StabFuerSlaves: Implementierung. Working on implementation of feature","","","1,5","0",
"01.10.14","3","140051","1","101","PM/Mod/Meetings","","0","S4/DSA overall tasks 2014. Weekly general tasks","07:00","16:00","0,5","60",
"01.10.14","3","140501","253","120","Codierung","","0","10-1002: PIDT 14.8: CR434my2-281_StabFuerSlaves: Implementierung. Working on implementation of feature","","","7,5","0",
"01.10.14","3","140111","120","181","Fehlerbes. vor Ausl. (Bugzilla)","","100","20-1000: PIDT 14.4_DiPAS: Bugfixing vor CF. Closing old task","","","0","0",
"01.10.14","3","140111","143","181","Fehlerbes. vor Ausl. (Bugzilla)","","100","20-9340: PIDT 14.4_DiPAS: Bugfixing nach CF. Closing old task","","","0","0",
"02.10.14","4","140023","2159","910","Urlaub","","0","Urlaub 02.10.-06.10.2014. Time off","07:00","16:00","8","60",
"03.10.14","5","140023","2159","910","Urlaub","","0","Urlaub 02.10.-06.10.2014. Time off","07:00","16:00","8","60",
