"01.09.14","1","140051","53","101","PM/Mod/Meetings","","0","Training Test-CTSs for Performance-/Function-Testing. Training Test-CTSs for Performance-/Function-Testing","07:00","16:00","8","60",
"02.09.14","2","140051","53","101","PM/Mod/Meetings","","0","Training Statistics. Training Statistics","07:00","16:00","4","60",
"02.09.14","2","130769","68","120","Codierung","","0","10-1005: Release 10: ECU DSI coding + test. 10-1005: Release 10: ECU DSI coding + test","","","4","0",
"03.09.14","3","140051","53","101","PM/Mod/Meetings","","0","Training Simulations. Training Simulations","07:00","16:00","4","60",
"03.09.14","3","140051","54","101","PM/Mod/Meetings","","0","Weekly tasks AES 2014. Weekly tasks AES 2014","","","1,5","0",
"03.09.14","3","130769","62","120","Codierung","","0","10-1019: Release 10: ECU SCCM coding + test. 10-1019: Release 10: ECU SCCM coding + test","","","2,5","0",
"04.09.14","4","140023","0","910","Urlaub","","0","Leave. Leave","07:00","16:00","8","60",
"05.09.14","5","130769","78","120","Codierung","","0","10-1028: Release 10: ECU TGW (Nissan) coding + test. 10-1028: Release 10: ECU TGW (Nissan) coding + test","07:00","16:00","5","60",
"05.09.14","5","140051","53","101","PM/Mod/Meetings","","0","Training Simulations. Training Simulations","","","3","0",
