"17.11.14","1","130769","281","181","Fehlerbes. vor Ausl. (Bugzilla)","","0","10-9340: Release 10: Systemintegration+Test: Bugfixing zu Regressionstest. Bugfixing Nissan Generic Sequences","07:00","16:00","4","60",
"17.11.14","1","140051","35","170","Schulung","","0","Training 2014. Training Nissan Statistics","","","4","0",
"18.11.14","2","130769","281","181","Fehlerbes. vor Ausl. (Bugzilla)","","0","10-9340: Release 10: Systemintegration+Test: Bugfixing zu Regressionstest. Bugfixing Nissan Generic Sequences","07:00","16:00","4","60",
"18.11.14","2","140051","35","170","Schulung","","0","Training 2014. Training Nissan Statistics","","","4","0",
"19.11.14","3","130769","281","181","Fehlerbes. vor Ausl. (Bugzilla)","","0","10-9340: Release 10: Systemintegration+Test: Bugfixing zu Regressionstest. Bugfixing Nissan Generic Sequences","07:00","16:00","8","60",
"20.11.14","4","130769","281","181","Fehlerbes. vor Ausl. (Bugzilla)","","0","10-9340: Release 10: Systemintegration+Test: Bugfixing zu Regressionstest. Bugfixing Nissan Generic Sequences","07:00","16:00","8","60",
"21.11.14","5","130769","281","181","Fehlerbes. vor Ausl. (Bugzilla)","","0","10-9340: Release 10: Systemintegration+Test: Bugfixing zu Regressionstest. Bugfixing Nissan Generic Sequences","07:00","16:00","7","60",
"21.11.14","5","140051","34","101","PM/Mod/Meetings","","0","Weekly tasks AES 2014. Meetings and Timesheet","","","1","0",
