"19.05.14","1","120527","732","110","Engineering","","0","75-5004: GFS: Impl+Test+Verifikation. 75-5004: GFS: Impl+Test+Verifikation","07:00","16:00","8","60",
"20.05.14","2","120527","732","110","Engineering","","0","75-5004: GFS: Impl+Test+Verifikation. 75-5004: GFS: Impl+Test+Verifikation","07:00","16:00","4","60",
"20.05.14","2","140162","58","140","Test","","0","(from wlh)20-9340: CF14: Test on CF14 vehicle. Setup and Test MMC Flash for Bugfix #51053","","","4","0",
"21.05.14","3","120527","732","110","Engineering","","0","75-5004: GFS: Impl+Test+Verifikation. 75-5004: GFS: Impl+Test+Verifikation","07:00","16:00","4","60",
"21.05.14","3","140162","58","140","Test","","0","(from wlh)20-9340: CF14: Test on CF14 vehicle. Setup and Test MMC Flash for Bugfix #51053","","","2","0",
"21.05.14","3","140162","58","140","Test","","100","(from wlh)20-9340: CF14: Test on CF14 vehicle. Bugfixing Bug51053 and Test","","","2","0",
"22.05.14","4","120527","732","110","Engineering","","0","75-5004: GFS: Impl+Test+Verifikation. 75-5004: GFS: Impl+Test+Verifikation","07:00","16:00","5,5","60",
"22.05.14","4","140051","35","170","Schulung","","0","Training and Suport for AEC. Training and Suport for AEC","","","2,5","0",
"23.05.14","5","120527","732","110","Engineering","","0","75-5004: GFS: Impl+Test+Verifikation. 75-5004: GFS: Impl+Test+Verifikation","07:00","16:00","4,5","60",
"23.05.14","5","140051","35","110","Engineering","","0","Training and Suport for AEC. Training and Suport for AEC","","","2,5","0",
"23.05.14","5","140051","34","101","PM/Mod/Meetings","","0","Weekly tasks AES 2014. Weekly tasks AES 2014","","","1","0",
