"14.04.14","1","130867","0","182","Fehlerbes. nach Ausl. (Bugzilla)","","0","Bug fixing. Bug fixing","07:00","16:00","8","60",
"15.04.14","2","130867","0","182","Fehlerbes. nach Ausl. (Bugzilla)","","0","Bug fixing. Bug fixing","07:00","16:00","8","60",
"16.04.14","3","130867","0","182","Fehlerbes. nach Ausl. (Bugzilla)","","0","Bug fixing. Bug fixing","07:00","16:00","8","60",
"17.04.14","4","130867","0","182","Fehlerbes. nach Ausl. (Bugzilla)","","0","Bug fixing. Bug fixing","07:00","16:00","8","60",
"18.04.14","5","140023","0","910","Urlaub","","100","Public Holiday 18.04.2014. Public Holiday 18.04.2014","07:00","16:00","8","60",
