"31.03.14","1","130056","350","185","Service, Telefon-Support","","0","ASCS II: Wartung und Pflege. Harmonization addatives","07:00","16:00","8","60",
"01.04.14","2","130056","350","185","Service, Telefon-Support","","0","ASCS II: Wartung und Pflege. harmonisation finalising","07:00","16:00","8","60",
"02.04.14","3","130056","350","185","Service, Telefon-Support","","0","ASCS II: Wartung und Pflege. harmonisation finalising","07:00","16:00","8","60",
"03.04.14","4","130056","350","185","Service, Telefon-Support","","0","ASCS II: Wartung und Pflege. harmonisation finalising","07:00","16:00","8","60",
"04.04.14","5","130056","350","185","Service, Telefon-Support","","100","ASCS II: Wartung und Pflege. commiting and documentating support","07:00","16:00","6","60",
"04.04.14","5","100369","9125","182","Fehlerbes. nach Ausl. (Bugzilla)","","0","8080: P3 #49348 (normal) Measurement Values not sortable after measurement view exit,MAN Sequences. bigfix","","","2","0",
