"31.03.14","1","140252","0","182","Fehlerbes. nach Ausl. (Bugzilla)","","0","Bugfixing. Bugfixing","07:00","16:00","8","60",
"01.04.14","2","140252","0","182","Fehlerbes. nach Ausl. (Bugzilla)","","0","Bugfixing. Bugfixing","07:00","16:00","9","60",
"02.04.14","3","140023","0","920","Krankheit","","0","Sick Leave. Sick Leave","07:00","16:00","8","60",
"03.04.14","4","140023","0","920","Krankheit","","0","Sick Leave. Sick Leave","07:00","16:00","8","60",
"04.04.14","5","140252","0","181","Fehlerbes. vor Ausl. (Bugzilla)","","0","Bugfixing. Bugfixing","07:00","16:00","8","60",
