"03.11.14","1","140501","343","120","Codierung","","0","20-1107: PIDT 14.8 DiPAS: CR415my7-270_LoggingWatchdog: Implementierung. Implementierung","07:00","16:00","8","60",
"04.11.14","2","140501","343","120","Codierung","","0","20-1107: PIDT 14.8 DiPAS: CR415my7-270_LoggingWatchdog: Implementierung. Implementierung","07:00","16:00","8","60",
"05.11.14","3","140501","343","120","Codierung","","0","20-1107: PIDT 14.8 DiPAS: CR415my7-270_LoggingWatchdog: Implementierung. Implementierung","07:00","16:00","8","60",
"06.11.14","4","140501","343","120","Codierung","","0","20-1107: PIDT 14.8 DiPAS: CR415my7-270_LoggingWatchdog: Implementierung. Implementierung","07:00","16:00","8","60",
"07.11.14","5","140051","6","101","PM/Mod/Meetings","","0","S4/DSA overall tasks 2014. Meeting/Timesheets","07:00","16:00","1,5","60",
"07.11.14","5","140501","343","120","Codierung","","0","20-1107: PIDT 14.8 DiPAS: CR415my7-270_LoggingWatchdog: Implementierung. Implementierung","","","6,5","0",
