"20.10.14","1","140501","264","104","Test-Spezifikation","","0","10-1004: PIDT 14.8: CR431my1-297_APuCOnDemand: Testspec. Working on APuCOnDemand test spec","07:00","16:00","8","60",
"21.10.14","2","140501","283","120","Codierung","","0","11-1007: PIDT 14.8: CR430my1-180_Datensatzdownload2: Implementierung. Working on Datensatzdownload2","07:00","16:00","8","60",
"22.10.14","3","140023","0","910","Urlaub","","0","Leave. Holiday","07:00","16:00","3","60",
"22.10.14","3","140501","283","120","Codierung","","0","11-1007: PIDT 14.8: CR430my1-180_Datensatzdownload2: Implementierung. Working on Datensatzdownload2","","","5","0",
"23.10.14","4","140023","0","920","Krankheit","","0","Sick Leave. Sick Leave","07:00","16:00","8","60",
"24.10.14","5","140051","2","101","PM/Mod/Meetings","","0","S4/DSA overall tasks 2014. Meetings and admin","07:00","16:00","1,5","60",
"24.10.14","5","140501","283","120","Codierung","","0","11-1007: PIDT 14.8: CR430my1-180_Datensatzdownload2: Implementierung. Working on Datensatzdownload2","","","6,5","0",
