"14.07.14","1","140051","4","101","PM/Mod/Meetings","","0","S4/DSA overall tasks 2014. Meeting on CR227my2-203_PrePostScreensRoutinen with Oliver and Daniel","07:00","16:00","0,5","60",
"14.07.14","1","140111","173","120","Codierung","","0","10-1018: PIDT 14.4: CR227my2-203_PrePostScreensRoutinen. Implementation","","","7,5","0",
"15.07.14","2","140111","173","120","Codierung","","0","10-1018: PIDT 14.4: CR227my2-203_PrePostScreensRoutinen: Implementierung. Implementation","07:00","16:00","8","60",
"16.07.14","3","140023","0","920","Krankheit","","0","Sick Leave. Off Sick","07:00","16:00","8","60",
"17.07.14","4","140111","173","120","Codierung","","0","10-1018: PIDT 14.4: CR227my2-203_PrePostScreensRoutinen: Implementierung. Implementation","07:00","16:00","8","60",
"18.07.14","5","140111","173","120","Codierung","","0","10-1018: PIDT 14.4: CR227my2-203_PrePostScreensRoutinen: Implementierung. Implementation","07:00","16:00","6,5","60",
"18.07.14","5","140051","4","101","PM/Mod/Meetings","","0","S4/DSA overall tasks 2014. Weekly meetings and admin","","","1,5","0",
