"12.05.14","1","140111","0","181","Fehlerbes. vor Ausl. (Bugzilla)","","0","Bug fixing. Bug fixing","07:00","16:00","8","60",
"13.05.14","2","140111","0","181","Fehlerbes. vor Ausl. (Bugzilla)","","0","Bug fixing. Bug fixing","07:00","16:00","8","60",
"14.05.14","3","140111","0","181","Fehlerbes. vor Ausl. (Bugzilla)","","0","Bug fixing. Bug fixing","07:00","16:00","8","60",
"15.05.14","4","140111","16","181","Fehlerbes. vor Ausl. (Bugzilla)","","0","Bug fixing. Bug fixing","07:00","16:00","8","60",
"16.05.14","5","140111","0","120","Codierung","","0","CR412da2-271. CR412da2-271","07:00","16:00","6,5","60",
"16.05.14","5","140051","5","101","PM/Mod/Meetings","","0","S4/DSA overall tasks 2014. S4/DSA overall tasks 2014","","","1,5","0",
