"03.03.14","1","140051","23","101","PM/Mod/Meetings","","0","General project management / Teamsupport AES 2014. Supporting colleagues","07:00","16:00","8","60",
"04.03.14","2","140051","22","101","PM/Mod/Meetings","","0","General project management / Teamsupport AES 2014. General admin + Support","07:00","16:00","8","60",
"05.03.14","3","140051","23","170","Schulung","","0","Training 2014. Tranining for new employee","07:00","16:00","8","60",
"06.03.14","4","140051","22","101","PM/Mod/Meetings","","0","General project management / Teamsupport AES 2014. Supporting colleagues","07:00","16:00","8","60",
"07.03.14","5","140051","21","101","PM/Mod/Meetings","","0","Management group AES 2014. Timesheets, meetings","07:00","16:00","1,5","60",
"07.03.14","5","140051","22","101","PM/Mod/Meetings","","0","General project management / Teamsupport AES 2014. Supporting colleagues","","","6,5","0",
