"23.06.14","1","140111","64","120","Codierung","","0","10-1005: PIDT 14.4: CR415my3-266_DynSprachenLadenStart: Implementierung. Working on feature","07:00","16:00","8","60",
"24.06.14","2","140111","64","120","Codierung","","0","10-1005: PIDT 14.4: CR415my3-266_DynSprachenLadenStart: Implementierung. Working on feature","07:00","16:00","8","60",
"25.06.14","3","140111","0","110","Engineering","","0","20-1009: PIDT 14.4_DiPAS: CR415my8-249_PflegeFahrzeugAuftrag: Getting into Subject. Getting into subject for feature","07:00","16:00","8","60",
"26.06.14","4","140111","0","110","Engineering","","100","20-1009: PIDT 14.4_DiPAS: CR415my8-249_PflegeFahrzeugAuftrag: Getting into Subject. Getting into subject for feature and discussing necessary interfaces","07:00","16:00","8","60",
"27.06.14","5","140111","61","120","Codierung","","100","10-1004: PIDT 14.4: CR415my4-266b_F1HilfeTexteNachladen: Implementierung. Working on implementation of feature","07:00","16:00","6,5","60",
"27.06.14","5","140051","1","101","PM/Mod/Meetings","","0","S4/DSA overall tasks 2014. Weekly general tasks","","","1,5","0",
