"29.09.14","1","100369","9225","182","Fehlerbes. nach Ausl. (Bugzilla)","","0","8080: P2 #52778 (major) Stellgliedtests mit Zweigeteilten Screens - das Schliessen funktioniert nich. analyzing + reporting in bug","07:00","16:00","5","60",
"29.09.14","1","100369","9226","182","Fehlerbes. nach Ausl. (Bugzilla)","","0","8080: P2 #52803 (major) Monitoring Seite wird zulangsam aufgebaut (Text ''EPID Name'' bis zum Austau. analyzing + reporting in bug","","","3","0",
"30.09.14","2","100369","9225","182","Fehlerbes. nach Ausl. (Bugzilla)","","0","8080: P2 #52778 (major) Stellgliedtests mit Zweigeteilten Screens - das Schliessen funktioniert nich. Boris wanted more test data - making new cts to give better testing data + nice excel table showing ","07:00","16:00","5","60",
"30.09.14","2","100369","9205","182","Fehlerbes. nach Ausl. (Bugzilla)","","0","8080: P3 #52717 (normal) Der Stellgliedtest der Airtronic bricht mit dem ''neuen Deli'' ab bevor man. reverted previous bug fix that caused this error and analysed why the elegant solution is failing wi","","","2","0",
"30.09.14","2","100369","9153","182","Fehlerbes. nach Ausl. (Bugzilla)","","0","8080: P2 #49437 (major) Beim Stellgliedtest-Start verschwindet IST-Zustand-Anzeige,MAN Sequences . additionally have to do the bugfix for the ZBRO32 ECU(special handling CTS) - analyzing + bugfixing","","","1","0",
"01.10.14","3","100369","9225","182","Fehlerbes. nach Ausl. (Bugzilla)","","100","8080: P2 #52778 (major) Stellgliedtests mit Zweigeteilten Screens - das Schliessen funktioniert nich. Provided addition info and deliverable and odx for reproduction by Boris, also finding problem why h","07:00","16:00","5","60",
"01.10.14","3","100369","9205","182","Fehlerbes. nach Ausl. (Bugzilla)","","100","8080: P3 #52717 (normal) Der Stellgliedtest der Airtronic bricht mit dem ''neuen Deli'' ab bevor man. Found problem and making fix","","","1","0",
"01.10.14","3","100369","9153","182","Fehlerbes. nach Ausl. (Bugzilla)","","100","8080: P2 #49437 (major) Beim Stellgliedtest-Start verschwindet IST-Zustand-Anzeige,MAN Sequences. Found problem area's adding fixes.","","","2","0",
"02.10.14","4","100369","9227","182","Fehlerbes. nach Ausl. (Bugzilla)","","100","8080: P3 #53306 (normal) Stellgliedtest, Schaltflächen austauschen,MAN Sequences. 8080: P3 #53306 (normal) Stellgliedtest, Schaltflächen austauschen,MAN Sequences","07:00","16:00","4","60",
"02.10.14","4","100369","0","182","Fehlerbes. nach Ausl. (Bugzilla)","","100","8080: Retesting all bug fixes of (actuator CTS) workspace before handing over workspace(52717-52257-. 8080: Retesting all bug fixes of (actuator CTS) workspace before handing over workspace(52717-52257-","","","4","0",
"02.10.14","4","100369","9204","182","Fehlerbes. nach Ausl. (Bugzilla)","","100","8080: P1 #52682 (major) Beim Ausführen des Stellglieds wird der IST-Wert nicht aktualisiert,MAN Sequ. Close","","","0","0",
"03.10.14","5","140051","36","101","PM/Mod/Meetings","","0","140051-36-101 : Weekly tasks AES 2014 . Meetings and Time Sheets","07:00","16:00","1","60",
"03.10.14","5","130769","193","120","Codierung","","0","11-9200: Release 11: Flash Framework . Added additional services for changing the baud rate on ECU before flashing. - testing - creating lo","","","7","0",
