"13.01.14","1","130867","30","120","Codierung","","100","CR348my4 KeinFAPVersandImDemoMode. Change Send FAP destination for SIM and VIEW modes.","07:00","16:00","8","60",
"14.01.14","2","130867","30","120","Codierung","","100","CR348my4 KeinFAPVersandImDemoMode. Change Send FAP destination for SIM and VIEW modes.","07:00","16:00","8","60",
"15.01.14","3","130867","30","120","Codierung","","100","CR348my4 KeinFAPVersandImDemoMode. Change Send FAP destination for SIM and VIEW modes.","07:00","16:00","8","60",
"16.01.14","4","130867","30","120","Codierung","","100","CR348my4 KeinFAPVersandImDemoMode. Change Send FAP destination for SIM and VIEW modes.","07:00","16:00","8","60",
"17.01.14","5","140051","6","101","PM/Mod/Meetings","","0","S4/DSA overall tasks 2014. Meeting","07:00","16:00","1","60",
"17.01.14","5","130867","30","120","Codierung","","100","CR348my4 KeinFAPVersandImDemoMode. Change Send FAP destination for SIM and VIEW modes.","","","7","0",
