"19.05.14","1","140023","1040","910","Urlaub","","100","Urlaub 16.05.-19.05.2014. Time off","07:00","16:00","8","60",
"20.05.14","2","140111","8","181","Fehlerbes. vor Ausl. (Bugzilla)","","0","PIDT14.4 Bugfixing aus Vorrelease. PIDT14.4 Bugfixing","07:00","16:00","4,5","60",
"20.05.14","2","140111","0","110","Engineering","","0","CR415my3-266_DynSprachenLadenStart : Getting into Subject. Getting into subject","","","3,5","0",
"21.05.14","3","140111","0","110","Engineering","","100","CR415my3-266_DynSprachenLadenStart : Getting into Subject. Getting into subject","07:00","16:00","4,5","60",
"21.05.14","3","140111","1","102","Spez: LH/PH/Design","","0","CR415my3-266_DynSprachenLadenStart : Module Design. Module Design","","","3,5","0",
"22.05.14","4","140111","1","102","Spez: LH/PH/Design","","0","CR415my3-266_DynSprachenLadenStart : Module Design. Module Design","07:00","16:00","8","60",
"23.05.14","5","140051","1","101","PM/Mod/Meetings","","0","S4/DSA overall tasks 2014. Weekly general tasks","07:00","16:00","1,5","60",
"23.05.14","5","140111","1","102","Spez: LH/PH/Design","","100","CR415my3-266_DynSprachenLadenStart : Module Design. Module Design","","","4","0",
"23.05.14","5","140111","2","104","Test-Spezifikation","","0","CR415my3-266_DynSprachenLadenStart : Test spec. Test spec creation","","","2,5","0",
