"21.04.14","1","140023","0","910","Urlaub","","100","Public Holiday 21.04.2014. Public Holiday 21.04.2014","07:00","16:00","8","60",
"22.04.14","2","140111","0","181","Fehlerbes. vor Ausl. (Bugzilla)","","0","Bug Fixing. Bug Fixing","07:00","16:00","8","60",
"23.04.14","3","140111","0","181","Fehlerbes. vor Ausl. (Bugzilla)","","0","Bug Fixing. Bug Fixing","07:00","16:00","8","60",
"24.04.14","4","140111","0","181","Fehlerbes. vor Ausl. (Bugzilla)","","0","Bug Fixing. Bug Fixing","07:00","16:00","8","60",
"25.04.14","5","140111","0","181","Fehlerbes. vor Ausl. (Bugzilla)","","0","Bug Fixing. Bug Fixing","07:00","16:00","7","60",
"25.04.14","5","140051","6","101","PM/Mod/Meetings","","0","S4/DSA overall tasks 2014. Meeting","","","1","0",
