"15.09.14","1","140111","144","181","Fehlerbes. vor Ausl. (Bugzilla)","","0","20-9340: PIDT 14.4_DiPAS: Bugfixing nach CF. Bug Fixing","07:00","16:00","8","60",
"16.09.14","2","140111","144","181","Fehlerbes. vor Ausl. (Bugzilla)","","0","20-9340: PIDT 14.4_DiPAS: Bugfixing nach CF. Bug Fixing","07:00","16:00","8","60",
"17.09.14","3","140111","144","181","Fehlerbes. vor Ausl. (Bugzilla)","","0","20-9340: PIDT 14.4_DiPAS: Bugfixing nach CF. Bug Fixing","07:00","16:00","8","60",
"18.09.14","4","140111","144","181","Fehlerbes. vor Ausl. (Bugzilla)","","0","20-9340: PIDT 14.4_DiPAS: Bugfixing nach CF. Bug Fixing","07:00","16:00","8","60",
"19.09.14","5","140051","6","101","PM/Mod/Meetings","","0","S4/DSA overall tasks 2014. Meeting/Timesheets","07:00","16:00","1,5","60",
"19.09.14","5","140111","144","181","Fehlerbes. vor Ausl. (Bugzilla)","","0","20-9340: PIDT 14.4_DiPAS: Bugfixing nach CF. Bug Fixing","","","6,5","0",
"19.09.14","5","140111","78","104","Test-Spezifikation","","100","20-1009: PIDT 14.4_DiPAS: CR415my8-249_PflegeFahrzeugAuftrag: MODG + Testspez.. Closing task","","","0","0",
"19.09.14","5","140111","80","120","Codierung","","100","20-1009: PIDT 14.4_DiPAS: CR415my8-249_PflegeFahrzeugAuftrag: Implementierung. Closing task","","","0","0",
