"28.07.14","1","140111","9","182","Fehlerbes. nach Ausl. (Bugzilla)","","0","10-8080:PIDT14.4 Bugfixing aus Vorrelease. Worked on PIDT 14.4 bugs","07:00","16:00","8","60",
"29.07.14","2","140111","9","182","Fehlerbes. nach Ausl. (Bugzilla)","","0","10-8080:PIDT14.4 Bugfixing aus Vorrelease. Worked on PIDT 14.4 bugs","07:00","16:00","8","60",
"30.07.14","3","140023","0","920","Krankheit","","0","Sick Leave. Sick Leave","07:00","16:00","8","60",
"31.07.14","4","140111","188","182","Fehlerbes. nach Ausl. (Bugzilla)","","100","8080: P3 #51370 (normal) Bei der Installation eines PCC werden bis zum Abbruch rekursiv .saved-Verze. Worked on bug 51370","07:00","16:00","8","60",
"01.08.14","5","140051","2","101","PM/Mod/Meetings","","0","S4/DSA overall tasks 2014. Meetings and admin","07:00","16:00","1,5","60",
"01.08.14","5","140111","9","182","Fehlerbes. nach Ausl. (Bugzilla)","","0","10-8080:PIDT14.4 Bugfixing aus Vorrelease. Worked on PIDT 14.4 bugs","","","6,5","0",
