"10.11.14","1","140501","265","120","Codierung","","0","10-1004: PIDT 14.8: CR431my1-297_APuCOnDemand: Implementierung. Fixed APuCOnDemand review points","07:00","16:00","10","60",
"11.11.14","2","140501","265","120","Codierung","","100","10-1004: PIDT 14.8: CR431my1-297_APuCOnDemand: Implementierung. Fixing APuCOnDemand review points","07:00","16:00","10","60",
"12.11.14","3","140501","283","120","Codierung","","0","11-1007: PIDT 14.8: CR430my1-180_Datensatzdownload2: Implementierung. Worked on Datensatzdownload2 Entities","07:00","16:00","8","60",
"13.11.14","4","140501","283","120","Codierung","","100","11-1007: PIDT 14.8: CR430my1-180_Datensatzdownload2: Implementierung. Worked on Datensatzdownload2 Entities","07:00","16:00","11","60",
"14.11.14","5","140051","2","101","PM/Mod/Meetings","","0","S4/DSA overall tasks 2014. Meetings and admin","07:00","16:00","2","60",
"14.11.14","5","140051","282","104","Test-Spezifikation","","100","From s71: 11-1007: PIDT 14.8: CR430my1-180_Datensatzdownload2: Testspec. Working on Datensatzdownload2 test spec","","","3","0",
"14.11.14","5","140051","283","120","Codierung","","100","11-1007: PIDT 14.8: CR430my1-180_Datensatzdownload2: Implementierung. Fixing Datensatzdownload2 review points","","","5","0",
