"03.02.14","1","130867","0","120","Codierung","","0","CR402my1-261_DateiInterfaceGFS. CR402my1-261_DateiInterfaceGFS","07:00","16:00","8","60",
"04.02.14","2","130867","0","120","Codierung","","0","CR402my3-247_CuPRueckDoku. CR402my3-247_CuPRueckDoku","07:00","16:00","8","60",
"05.02.14","3","130867","0","120","Codierung","","0","CR402my3-247_CuPRueckDoku. CR402my3-247_CuPRueckDoku","07:00","16:00","8","60",
"06.02.14","4","130753","37","120","Codierung","","0","10-1030: PIDT 14.0: #261c CR402my2 OTXviaRESTGFS: Implement CTS. 10-1030: PIDT 14.0: #261c CR402my2 OTXviaRESTGFS: Implement CTS","07:00","16:00","8","60",
"07.02.14","5","130867","37","120","Codierung","","0","10-1030: PIDT 14.0: #261c CR402my2 OTXviaRESTGFS: Implement CTS. 10-1030: PIDT 14.0: #261c CR402my2 OTXviaRESTGFS: Implement CTS","07:00","16:00","6,5","60",
"07.02.14","5","140051","5","101","PM/Mod/Meetings","","0","S4/DSA overall tasks 2014. S4/DSA overall tasks 2014","","","1,5","0",
