"14.07.14","1","140111","0","120","Codierung","","0","Investigating MCDProject.loadNewFlashPackage_NSF() method problem. Investigating MCDProject.loadNewFlashPackage_NSF() method problem","07:00","16:00","2","60",
"14.07.14","1","140111","0","120","Codierung","","0","Investigated using SVN with innosetup. Investigated using SVN with innosetup","","","1,5","0",
"14.07.14","1","140111","0","120","Codierung","","0","Merged changes from General 14.40DiPAS dev branch to feature branch. Merged changes from General 14.40DiPAS dev branch to feature branch","","","1,5","0",
"14.07.14","1","140111","0","120","Codierung","","0","Fixed problem with checking of resolved flash sessions. Fixed problem with checking of resolved flash sessions and CTS navigation issue","","","3","0",
"15.07.14","2","140111","0","120","Codierung","","0","Investigating MCDProject.loadNewFlashPackage_NSF() method problem. Investigating MCDProject.loadNewFlashPackage_NSF() method problem","07:00","16:00","4","60",
"15.07.14","2","140111","0","120","Codierung","","0","Investigating installation of odx-f files before and after VWMCD integration. Investigating installation of odx-f files before and after VWMCD integration","","","4","0",
"16.07.14","3","140111","9","182","Fehlerbes. nach Ausl. (Bugzilla)","","0","10-8080:PIDT14.4 Bugfixing aus Vorrelease. Worked on bug 50363","07:00","16:00","7","60",
"16.07.14","3","140051","2","101","PM/Mod/Meetings","","0","S4/DSA overall tasks 2014. Meetings","","","1","0",
"17.07.14","4","140051","8","170","Schulung","","0","S4/DSA Training 2014. Getting error information from VM training","07:00","16:00","1","60",
"17.07.14","4","140111","9","182","Fehlerbes. nach Ausl. (Bugzilla)","","0","10-8080:PIDT14.4 Bugfixing aus Vorrelease. Worked on bug 50363","","","7","0",
"18.07.14","5","140111","9","182","Fehlerbes. nach Ausl. (Bugzilla)","","0","10-8080:PIDT14.4 Bugfixing aus Vorrelease. Working on PIDT 14.4 bugs","07:00","16:00","8","60",
