"23.06.14","1","140111","78","104","Test-Spezifikation","","10","20-1009: PIDT 14.4_DiPAS: CR415my8-249_PflegeFahrzeugAuftrag: MODG + Testspez.. Getting into subject - PPN-API","07:00","16:00","8","60",
"24.06.14","2","140111","78","104","Test-Spezifikation","","15","20-1009: PIDT 14.4_DiPAS: CR415my8-249_PflegeFahrzeugAuftrag: MODG + Testspez.. Getting into subject - PflegeFahrzeugAuftrag","07:00","16:00","8","60",
"25.06.14","3","140111","78","104","Test-Spezifikation","","20","20-1009: PIDT 14.4_DiPAS: CR415my8-249_PflegeFahrzeugAuftrag: MODG + Testspez.. Getting into subject - PflegeFahrzeugAuftrag","07:00","16:00","8","60",
"26.06.14","4","140111","78","104","Test-Spezifikation","","25","20-1009: PIDT 14.4_DiPAS: CR415my8-249_PflegeFahrzeugAuftrag: MODG + Testspez.. Getting into subject - PflegeFahrzeugAuftrag","07:00","16:00","8","60",
"27.06.14","5","140051","6","101","PM/Mod/Meetings","","0","S4/DSA overall tasks 2014. Meeting/Timesheets","07:00","16:00","1","60",
"27.06.14","5","140111","78","104","Test-Spezifikation","","0","20-1009: PIDT 14.4_DiPAS: CR415my8-249_PflegeFahrzeugAuftrag: MODG + Testspez.. Getting into subject - INumbers","","","7","0",
