"22.09.14","1","130056","332","120","Codierung","","0","1106: ASCS II: AP6: UnitTests: Execution F5.2/ae12. 1106: ASCS II: AP6: UnitTests: Execution F5.2/ae12","07:00","16:00","4","60",
"22.09.14","1","130056","389","101","PM/Mod/Meetings","","0","8501: ASCS II: Releasemanagement A2.4/ae20. 8501: ASCS II: Releasemanagement A2.4/ae20","","","4","0",
"23.09.14","2","130056","389","101","PM/Mod/Meetings","","0","8501: ASCS II: Releasemanagement A2.4/ae20. 8501: ASCS II: Releasemanagement A2.4/ae20","07:00","16:00","4","60",
"23.09.14","2","130056","332","120","Codierung","","0","1106: ASCS II: AP6: UnitTests: Execution F5.2/ae12. 1106: ASCS II: AP6: UnitTests: Execution F5.2/ae12","","","4","0",
"24.09.14","3","140023","0","910","Urlaub","","100","Urlaub. Public holiday 24.09.2014","07:00","16:00","8","60",
"25.09.14","4","130056","332","120","Codierung","","100","1106: ASCS II: AP6: UnitTests: Execution F5.2/ae12. 1106: ASCS II: AP6: UnitTests: Execution F5.2/ae12","07:00","16:00","4","60",
"25.09.14","4","130056","389","101","PM/Mod/Meetings","","100","8501: ASCS II: Releasemanagement A2.4/ae20. 8501: ASCS II: Releasemanagement A2.4/ae20","","","4","0",
"26.09.14","5","140051","30","101","PM/Mod/Meetings","","0","Weekly tasks AES 2014. Meetings and updating timesheets","07:00","16:00","1,5","60",
"26.09.14","5","140051","31","170","Schulung","","0","Training 2014. Training 2014","","","3,5","0",
"26.09.14","5","140023","0","920","Krankheit","","100","Krankheit. Sick leave","","","3","0",
