"10.02.14","1","130753","37","120","Codierung","","0","10-1030: PIDT 14.0: #261c CR402my2 OTXviaRESTGFS: Implement CTS. 10-1030: PIDT 14.0: #261c CR402my2 OTXviaRESTGFS: Implement CTS","07:00","16:00","8","60",
"11.02.14","2","130753","37","120","Codierung","","0","10-1030: PIDT 14.0: #261c CR402my2 OTXviaRESTGFS: Implement CTS. 10-1030: PIDT 14.0: #261c CR402my2 OTXviaRESTGFS: Implement CTS","07:00","16:00","5","60",
"11.02.14","2","130023","0","910","Urlaub","","0","Urlaub. Urlaub","","","3","0",
"12.02.14","3","130867","136","104","Test-Spezifikation","","100","10-1024: PIDT 14.0: #258 CR348my6 VIN2ImAktionsscreen: Testspec. 10-1024: PIDT 14.0: #258 CR348my6 VIN2ImAktionsscreen: Testspec`","07:00","16:00","3","60",
"12.02.14","3","130867","0","120","Codierung","","0","CR402my1-261_DateiInterfaceGFS. 130867-0	120	CR402my1-261_DateiInterfaceGFS	CR402my1-261_DateiInterfaceGFS","","","5","0",
"13.02.14","4","130867","37","120","Codierung","","0","10-1030: PIDT 14.0: #261c CR402my2 OTXviaRESTGFS: Implement CTS. 10-1030: PIDT 14.0: #261c CR402my2 OTXviaRESTGFS: Implement CTS","07:00","16:00","8","60",
"14.02.14","5","140051","5","101","PM/Mod/Meetings","","0","S4/DSA overall tasks 2014. S4/DSA overall tasks 2014","07:00","16:00","1,5","60",
"14.02.14","5","130753","37","120","Codierung","","0","10-1030: PIDT 14.0: #261c CR402my2 OTXviaRESTGFS: Implement CTS. 10-1030: PIDT 14.0: #261c CR402my2 OTXviaRESTGFS: Implement CTS","","","6,5","0",
