"03.11.14","1","140051","31","170","Schulung","","0","Training 2014. getting into subject MST ODX","07:00","16:00","8","60",
"04.11.14","2","140051","31","170","Schulung","","0","Training 2014. getting into subject MST ODX","07:00","16:00","8","60",
"05.11.14","3","140073","8","120","Codierung","","100","Erweiterung: ODX-Base Lib um neue Features /BI-Pos. 1. BDNT ODX","07:00","16:00","8","60",
"06.11.14","4","140051","31","170","Schulung","","0","Training 2014. getting into subject MST ODX","07:00","16:00","8","60",
"07.11.14","5","140051","30","101","PM/Mod/Meetings","","0","Weekly tasks AES 2014. Meetings and updating timesheets","07:00","16:00","1,5","60",
"07.11.14","5","140051","0","120","Codierung","","0","ASCS II: Identification/Parameter read/write. The write procedure should be as in the Generic ODX Tester, such that you have Edit, Write (to ECU) ","","","6,5","0",
