"03.11.14","1","140023","0","910","Urlaub","","0","Urlaub. leave","07:00","16:00","8","60",
"04.11.14","2","140023","0","910","Urlaub","","0","Urlaub. leave","07:00","16:00","8","60",
"05.11.14","3","140023","0","910","Urlaub","","0","Urlaub. leave","07:00","16:00","8","60",
"06.11.14","4","140051","41","101","PM/Mod/Meetings","","0","Training AES 2014. Training a collegue on IDT.","07:00","16:00","2,5","60",
"06.11.14","4","140051","41","101","PM/Mod/Meetings","","0","Training AES 2014. Training.","","","5,5","0",
"07.11.14","5","140051","38","101","PM/Mod/Meetings","","0","Weekly tasks AES 2014. timesheets","07:00","16:00","1","60",
"07.11.14","5","140051","41","101","PM/Mod/Meetings","","0","Training AES 2014. training.","","","7","0",
