"14.04.14","1","120527","599","120","Codierung","","0","70-5004: GFS: Example N20 sequence. 70-5004: GFS: Example N20 sequence","07:00","16:00","1","60",
"14.04.14","1","140018","41","101","PM/Mod/Meetings","","0","20: Reise China 13.04.-11.05. 20: Reise China 13.04.-11.05","","","2","0",
"14.04.14","1","120527","452","181","Fehlerbes. vor Ausl. (Bugzilla)","","0","20-1111: Prepare Workspace : Bugfixing zum Integrationstest. 20-1111: Prepare Workspace : Bugfixing zum Integrationstest","","","5","0",
"15.04.14","2","140162","21","120","Codierung","","0","10-0301: Display Coding detail CTS development. 10-0301: Display Coding detail CTS development","07:00","16:00","4","60",
"15.04.14","2","120527","453","181","Fehlerbes. vor Ausl. (Bugzilla)","","0","Testing Brilliance ECOS. Testing Brilliance ECOS","","","4","0",
"16.04.14","3","120527","453","181","Fehlerbes. vor Ausl. (Bugzilla)","","0","20-1111: Prepare Workspace : Bugfixing zum Integrationstest. Testing Brilliance ECOS","07:00","16:00","4","60",
"16.04.14","3","140051","35","170","Schulung","","0","Training lm in ECOS and Testing Brillianace ECOS. Training lm in ECOS and Testing Brillianace ECOS","","","4","0",
"17.04.14","4","140162","21","120","Codierung","","0","Implement and test new changes requested from zyg. Implement and test new changes requested from zyg","07:00","16:00","6","60",
"17.04.14","4","140051","35","170","Schulung","","0","Training lm in ECOS and Testing Brillianace ECOS. Training lm in ECOS and Testing Brillianace ECOS","","","2","0",
"18.04.14","5","120527","497","140","Test","","0","(from yuk) 20-1127: ABS/ESC Specifics : Impl. : (MOTR) + Bugfixing.  20-1127: ABS/ESC Specifics : Impl. : (MOTR) + Bugfixing","07:00","16:00","8","60",
