"02.06.14","1","140111","63","104","Test-Spezifikation","","100","10-1005: PIDT 14.4: CR415my3-266_DynSprachenLadenStart: MODG + Testspez.. Working on module design and test spec for feature","07:00","16:00","2","60",
"02.06.14","1","140111","60","104","Test-Spezifikation","","0","10-1004: PIDT 14.4: CR415my4-266b_F1HilfeTexteNachladen: MODG + Testspez.. Working on module design and test spec for feature","","","6","0",
"03.06.14","2","140111","60","104","Test-Spezifikation","","100","10-1004: PIDT 14.4: CR415my4-266b_F1HilfeTexteNachladen: MODG + Testspez.. Working on module design and test spec for feature","07:00","16:00","7","60",
"03.06.14","2","140111","64","120","Codierung","","0","10-1005: PIDT 14.4: CR415my3-266_DynSprachenLadenStart: Implementierung'. Working on junit test for the comparison of text results before and after feature","","","1","0",
"04.06.14","3","140111","64","120","Codierung","","0","10-1005: PIDT 14.4: CR415my3-266_DynSprachenLadenStart: Implementierung. Working on junit test for the comparison of text results before and after feature","07:00","16:00","4","60",
"04.06.14","3","140111","61","120","Codierung","","0","10-1004: PIDT 14.4: CR415my4-266b_F1HilfeTexteNachladen: Implementierung. Working on junit test for the comparison of text results before and after feature","","","4","0",
"05.06.14","4","140111","64","120","Codierung","","0","10-1005: PIDT 14.4: CR415my3-266_DynSprachenLadenStart: Implementierung. Working on junit test for the comparison of text results before and after feature","07:00","16:00","4","60",
"05.06.14","4","140111","61","120","Codierung","","0","10-1004: PIDT 14.4: CR415my4-266b_F1HilfeTexteNachladen: Implementierung. Working on junit test for the comparison of text results before and after feature","","","4","0",
"06.06.14","5","140051","1","101","PM/Mod/Meetings","","0","S4/DSA overall tasks 2014. Weekly general tasks","07:00","16:00","1,5","60",
"06.06.14","5","140111","61","120","Codierung","","0","10-1004: PIDT 14.4: CR415my4-266b_F1HilfeTexteNachladen: Implementierung. Working on implementation of feature","","","6,5","0",
