"14.07.14","1","140111","79","120","Codierung","","0","20-1009: PIDT 14.4_DiPAS: CR415my8-249_PflegeFahrzeugAuftrag: Implementierung. Working on automation entities for feature","07:00","16:00","8","60",
"15.07.14","2","140111","79","120","Codierung","","0","20-1009: PIDT 14.4_DiPAS: CR415my8-249_PflegeFahrzeugAuftrag: Implementierung. Working on automation entities for feature","07:00","16:00","8","60",
"16.07.14","3","140111","79","120","Codierung","","0","20-1009: PIDT 14.4_DiPAS: CR415my8-249_PflegeFahrzeugAuftrag: Implementierung. Working on automation entities for feature","07:00","18:00","10","60",
"17.07.14","4","140111","79","120","Codierung","","0","20-1009: PIDT 14.4_DiPAS: CR415my8-249_PflegeFahrzeugAuftrag: Implementierung. Working on automation entities for feature","07:00","18:00","10","60",
"18.07.14","5","140051","1","101","PM/Mod/Meetings","","0","S4/DSA overall tasks 2014. Weekly general tasks","07:00","16:00","1,5","60",
"18.07.14","5","140111","79","120","Codierung","","0","20-1009: PIDT 14.4_DiPAS: CR415my8-249_PflegeFahrzeugAuftrag: Implementierung. Working on automation entities and source code for feature","","","6,5","0",
