"13.10.14","1","130769","163","101","PM/Mod/Meetings","","0","Meeting/Telco. Meeting/Telco","07:00","16:00","2","60",
"13.10.14","1","130769","194","120","Codierung","","0","9999: ECU ORC (Nissan) coding + test. 9999: ECU ORC (Nissan) coding + test","","","6","0",
"14.10.14","2","140051","54","101","PM/Mod/Meetings","","0","Weekly tasks AES 2014. Weekly tasks AES 2014","07:00","16:00","1,5","60",
"14.10.14","2","140051","53","101","PM/Mod/Meetings","","0","Training Statistics. Training Statistics","","","3,5","0",
"14.10.14","2","130769","79","120","Codierung","","0","10-1029: Release 10: ECU TPMS (Nissan) coding + test. 10-1029: Release 10: ECU TPMS (Nissan) coding + test","","","3","0",
"15.10.14","3","130769","163","101","PM/Mod/Meetings","","0","Meeting/Telco. Meeting/Telco","07:00","16:00","1,5","60",
"15.10.14","3","130769","54","120","Codierung","","0","Release 10: ECU Cluster instrument coding + test. Release 10: ECU Cluster instrument coding + test","","","6,5","0",
"16.10.14","4","130769","54","120","Codierung","","0","Release 10: ECU Cluster instrument coding + test. Release 10: ECU Cluster instrument coding + test","07:00","16:00","8","60",
"17.10.14","5","130769","163","101","PM/Mod/Meetings","","0","Meeting/Telco. Meeting/Telco","07:00","16:00","2","60",
"17.10.14","5","130769","75","120","Codierung","","0","10-1025: Release 10: ECU CPA (Nissan) coding + test. 10-1025: Release 10: ECU CPA (Nissan) coding + test","","","2","0",
"17.10.14","5","130769","77","120","Codierung","","0","10-1027: Release 10: ECU OCM (Nissan) coding + test. 10-1027: Release 10: ECU OCM (Nissan) coding + test","","","2","0",
"17.10.14","5","130769","78","120","Codierung","","0","10-1028: Release 10: ECU TGW (Nissan) coding + test. 10-1028: Release 10: ECU TGW (Nissan) coding + test","","","2","0",
