"27.10.14","1","140051","40","170","Schulung","","0","Training AES 2014. Getting into Subject Prodis Office and MAN Flashing Documents","07:00","16:00","8","60",
"28.10.14","2","140023","0","910","Urlaub","","0","Urlaub. Urlaub","07:00","16:00","8","60",
"29.10.14","3","140023","0","910","Urlaub","","0","Urlaub. Urlaub","07:00","16:00","4","60",
"29.10.14","3","140830","3","102","Spez: LH/PH/Design","","0","10-1001: Flash ZF 6AS: Create Flash Sequence /eda10. (from s68) Implementing changes to the flash sequence as per new spec document","","","4","0",
"30.10.14","4","140051","40","170","Schulung","","0","Training AES 2014. Prodis Office Training","07:00","16:00","8","60",
"31.10.14","5","140830","3","102","Spez: LH/PH/Design","","0","10-1001: Flash ZF 6AS: Create Flash Sequence /eda10. (from s68) Implementing changes to the flash sequence as per new spec document","07:00","16:00","4","60",
"31.10.14","5","140051","40","170","Schulung","","0","Training AES 2014. Prodis Office Training","","","4","0",
