"03.03.14","1","120328","976","120","Codierung","","0","20-1116: FinalTest ECOS Commisioning (on site) : Impl.. 20-1116: FinalTest ECOS Commisioning (on site) : Impl.","07:00","16:00","3","60",
"03.03.14","1","140051","35","170","Schulung","","0","Training 2014. Training 2014 ECOS","","","4","0",
"03.03.14","1","120714","1384","120","Codierung","","0","P.Authoring: lack of performance (waiting). Waiting for Authoring","","","1","0",
"04.03.14","2","120714","1384","120","Codierung","","0","P.Authoring: lack of performance (waiting). Waiting for Authoring","07:00","16:00","1","60",
"04.03.14","2","120328","976","120","Codierung","","0","20-1116: FinalTest ECOS Commisioning (on site) : Impl.. 20-1116: FinalTest ECOS Commisioning (on site) : Impl.","","","3","0",
"04.03.14","2","140051","35","170","Schulung","","0","Training 2014. Training 2014 ECOS","","","4","0",
"05.03.14","3","140018","37","401","Travel","","0","Travel China for work on Brilliance KW7-KW10. Troubleshooting MFT and ICP with lcl","07:00","16:00","4","60",
"05.03.14","3","140023","0","920","Krankheit","","0","Krankheit. Sick","","","4","0",
"06.03.14","4","140023","0","920","Krankheit","","0","Krankheit. Sick","07:00","16:00","5","60",
"06.03.14","4","120246","225","182","Fehlerbes. nach Ausl. (Bugzilla)","","0","(previosuly closed)Bugfixing after Delivery. Bugfixing after Delivery","","","3","0",
"07.03.14","5","140023","0","920","Krankheit","","0","Krankheit. Sick","07:00","16:00","8","60",
