"14.07.14","1","130769","35","101","PM/Mod/Meetings","","0","9999: FBS4 Sequences, Daimler demonstration. Implementation of demo sequences","07:00","16:00","6","60",
"14.07.14","1","140051","21","101","PM/Mod/Meetings","","0","Management AES 2014. General management, support","","","2","0",
"15.07.14","2","130769","9997","101","PM/Mod/Meetings","","0","Technisches Projektmanagement, Moderation. Overview of EZS + Component Activation sequeces","07:00","16:00","2","60",
"15.07.14","2","140051","21","101","PM/Mod/Meetings","","0","Management AES 2014. General management, support","","","6","0",
"16.07.14","3","130769","9997","101","PM/Mod/Meetings","","0","Technisches Projektmanagement, Moderation. Overview of CBC, Seat sequences","07:00","16:00","3","60",
"16.07.14","3","130769","9997","101","PM/Mod/Meetings","","0","Technisches Projektmanagement, Moderation. Overview of Plant Configurator, Key Test","","","1","0",
"16.07.14","3","140051","21","101","PM/Mod/Meetings","","0","Management AES 2014. General management, support","","","4","0",
"17.07.14","4","140051","22","101","PM/Mod/Meetings","","0","General project management / Teamsupport AES 2014. Interviews for new staff","07:00","16:00","2","60",
"17.07.14","4","140051","21","101","PM/Mod/Meetings","","0","Management AES 2014. General management, support","","","6","0",
"18.07.14","5","140051","21","101","PM/Mod/Meetings","","0","Management AES 2014. Timesheets + Meetings, Support","07:00","16:00","8","60",
