"02.06.14","1","140023","0","910","Urlaub","","0","Urlaub. Urlaub","07:00","16:00","8","60",
"03.06.14","2","140023","0","910","Urlaub","","0","Urlaub. Urlaub","07:00","16:00","8","60",
"04.06.14","3","140023","0","910","Urlaub","","0","Urlaub. Urlaub","07:00","16:00","8","60",
"05.06.14","4","140023","0","910","Urlaub","","0","Urlaub. Urlaub","07:00","16:00","8","60",
"06.06.14","5","140023","0","910","Urlaub","","0","Urlaub. Urlaub","07:00","16:00","8","60",
