"13.10.14","1","120759","420","182","Fehlerbes. nach Ausl. (Bugzilla)","","0","9999: Nabenpruefstand Rework: Reworking Test Setup, Integrate IDT framework. Re-doing machine configuration menu","07:00","16:00","5","60",
"13.10.14","1","140051","23","170","Schulung","","0","Training 2014. Training new colleague on SVG handling, Plant Config, Simulation","","","3","0",
"14.10.14","2","120759","420","120","Codierung","","0","9999: Nabenpruefstand Rework: Reworking Test Setup, Integrate IDT framework. Rework Field Harvest test, Header Sim Connect.","07:00","16:00","8","60",
"15.10.14","3","120759","420","182","Fehlerbes. nach Ausl. (Bugzilla)","","0","9999: Nabenpruefstand Rework: Reworking Test Setup, Integrate IDT framework. Rework configuration menu again","07:00","16:00","5","60",
"15.10.14","3","120759","270","101","PM/Mod/Meetings","","0","40-9110: Nabenpruefstand: Projectmanagement. (task already closed) Telco with dr, rj","","","1,5","0",
"15.10.14","3","140051","21","101","PM/Mod/Meetings","","0","Management AES 2014. Interviews for new staff","","","1,5","0",
"16.10.14","4","120759","420","182","Fehlerbes. nach Ausl. (Bugzilla)","","0","9999: Nabenpruefstand Rework: Reworking Test Setup, Integrate IDT framework. Rework field Chop Test, IDT Service aborts, Init order changeover","07:00","16:00","8","60",
"17.10.14","5","140051","21","101","PM/Mod/Meetings","","0","Management AES 2014. Timesheets","07:00","16:00","0,5","60",
"17.10.14","5","120759","420","182","Fehlerbes. nach Ausl. (Bugzilla)","","0","9999: Nabenpruefstand Rework: Reworking Test Setup, Integrate IDT framework. Integrate Plant Config, Statistics, VErificaiton of sequence","","","7,5","0",
