"03.02.14","1","130867","0","170","Schulung","","0","Worked on CR351da2. Getting into subject","07:00","16:00","8","60",
"04.02.14","2","130867","39","120","Codierung","","0","10-1016: PIDT 14.0: #240 CR351da2 ERInterpreter: Use ER Interpreter. Integrating ERI","07:00","16:00","8","60",
"05.02.14","3","130867","39","120","Codierung","","0","10-1016: PIDT 14.0: #240 CR351da2 ERInterpreter: Use ER Interpreter. Integrating ERI","07:00","16:00","8","60",
"06.02.14","4","130867","39","120","Codierung","","0","10-1016: PIDT 14.0: #240 CR351da2 ERInterpreter: Use ER Interpreter. Integrating ERI","07:00","16:00","8","60",
"07.02.14","5","130867","39","120","Codierung","","0","10-1016: PIDT 14.0: #240 CR351da2 ERInterpreter: Use ER Interpreter. Integrating ERI","07:00","16:00","6,5","60",
"07.02.14","5","140051","2","101","PM/Mod/Meetings","","0","S4/DSA overall tasks 2014. Meetings and admin","","","1,5","0",
