DATE;NAME;START;END;LUNCH;1;2;3;4;5;6;7;8;9;10;11;12;13;14;15;16;17;18;19;20;21;22;23;24;
23.06.14;Andre Esterhuyse;
23.06.14;Nico Claassen;
23.06.14;Thando Katywa;
23.06.14;Paul Helliwell;
23.06.14;Ntombenkosi Yokwana;
23.06.14;Mario Jansen van Vuuren;
23.06.14;Webster Ndlovu;
23.06.14;Ibrahim Arends;
23.06.14;Francois van Vuuren;
23.06.14;Tafadzwa Mvindi;
23.06.14;Tashinga Chivasa;
23.06.14;Muya Mwansa;
23.06.14;Clinton Dewing;07:00:00;17:00:00;60;140111-92;140111-92;140111-92;140111-92;140111-92;140111-92;140111-67;140111-67;140111-67;
23.06.14;FrancoisR Rossouw;
23.06.14;Ian Osolo;
24.06.14;Andre Esterhuyse;
24.06.14;Nico Claassen;
24.06.14;Thando Katywa;
24.06.14;Paul Helliwell;
24.06.14;Ntombenkosi Yokwana;
24.06.14;Mario Jansen van Vuuren;
24.06.14;Webster Ndlovu;
24.06.14;Ibrahim Arends;
24.06.14;Francois van Vuuren;
24.06.14;Tafadzwa Mvindi;
24.06.14;Tashinga Chivasa;
24.06.14;Muya Mwansa;
24.06.14;Clinton Dewing;07:00:00;17:00:00;60;140111-67;140111-67;140111-67;140111-67;140111-67;140111-67;140111-67;140111-67;140111-67;
24.06.14;FrancoisR Rossouw;
24.06.14;Ian Osolo;
25.06.14;Andre Esterhuyse;
25.06.14;Nico Claassen;
25.06.14;Thando Katywa;
25.06.14;Paul Helliwell;
25.06.14;Ntombenkosi Yokwana;
25.06.14;Mario Jansen van Vuuren;
25.06.14;Webster Ndlovu;
25.06.14;Ibrahim Arends;
25.06.14;Francois van Vuuren;
25.06.14;Tafadzwa Mvindi;
25.06.14;Tashinga Chivasa;
25.06.14;Muya Mwansa;
25.06.14;Clinton Dewing;
25.06.14;FrancoisR Rossouw;
25.06.14;Ian Osolo;
26.06.14;Andre Esterhuyse;
26.06.14;Nico Claassen;
26.06.14;Thando Katywa;
26.06.14;Paul Helliwell;
26.06.14;Ntombenkosi Yokwana;
26.06.14;Mario Jansen van Vuuren;
26.06.14;Webster Ndlovu;
26.06.14;Ibrahim Arends;
26.06.14;Francois van Vuuren;
26.06.14;Tafadzwa Mvindi;
26.06.14;Tashinga Chivasa;
26.06.14;Muya Mwansa;
26.06.14;Clinton Dewing;
26.06.14;FrancoisR Rossouw;
26.06.14;Ian Osolo;
27.06.14;Andre Esterhuyse;
27.06.14;Nico Claassen;
27.06.14;Thando Katywa;
27.06.14;Paul Helliwell;
27.06.14;Ntombenkosi Yokwana;
27.06.14;Mario Jansen van Vuuren;
27.06.14;Webster Ndlovu;
27.06.14;Ibrahim Arends;
27.06.14;Francois van Vuuren;
27.06.14;Tafadzwa Mvindi;
27.06.14;Tashinga Chivasa;
27.06.14;Muya Mwansa;
27.06.14;Clinton Dewing;
27.06.14;FrancoisR Rossouw;
27.06.14;Ian Osolo;