"12.05.14","1","140051","22","101","PM/Mod/Meetings","","0","General project management / Teamsupport AES 2014. General organization / support","07:00","16:00","8","60",
"13.05.14","2","140051","22","101","PM/Mod/Meetings","","0","General project management / Teamsupport AES 2014. General organization / support","07:00","16:00","8","60",
"14.05.14","3","140051","22","101","PM/Mod/Meetings","","0","General project management / Teamsupport AES 2014. General organization / support","07:00","16:00","8","60",
"15.05.14","4","140051","22","101","PM/Mod/Meetings","","0","General project management / Teamsupport AES 2014. General organization / support","07:00","16:00","8","60",
"16.05.14","5","140051","21","101","PM/Mod/Meetings","","0","Management AES 2014. Timesheets + Meetings","07:00","16:00","1,5","60",
"16.05.14","5","130127","2785","120","Codierung","","100","20-2001: ODX Merge Prozess /BI-Pos 5. Delivery ZBRO32","","","3","0",
"16.05.14","5","130676","68","102","Spez: LH/PH/Design","","0","50-1010: Demo Datenhandling SAP Kopplung Pflichtenheft. Updating demo files.","","","1","0",
"16.05.14","5","140051","22","101","PM/Mod/Meetings","","0","General project management / Teamsupport AES 2014. General organization / support","","","2,5","0",
