"03.11.14","1","140501","337","120","Codierung","","0","PIDT 14.8 DiPAS: CR421my2-292_Nutzungsstatistik: Implementierung. Implementation","07:00","16:00","7,5","60",
"03.11.14","1","140023","0","910","Urlaub","","0","Leave. Time off","","","0,5","0",
"04.11.14","2","140501","337","120","Codierung","","0","20-1106: PIDT 14.8 DiPAS: CR421my2-292_Nutzungsstatistik: Implementierung. Implementation","07:00","16:00","8","60",
"05.11.14","3","140501","337","120","Codierung","","0","20-1106: PIDT 14.8 DiPAS: CR421my2-292_Nutzungsstatistik: Implementierung. Implementation","07:00","16:00","8","60",
"06.11.14","4","140501","337","120","Codierung","","0","20-1106: PIDT 14.8 DiPAS: CR421my2-292_Nutzungsstatistik: Implementierung. Implementation","07:00","16:00","6,5","60",
"06.11.14","4","140051","0","101","PM/Mod/Meetings","","0","S4/DSA overall tasks 2014. CR421my2-292_Nutzungsstatistik Feature presentation","","","1,5","0",
"07.11.14","5","140501","288","140","Test","","0","10-1000: PIDT 14.8 (Linie): Regressionstest. PIDT 14.8 Regression Testing","07:00","16:00","6,5","60",
"07.11.14","5","140051","4","101","PM/Mod/Meetings","","0","S4/DSA overall tasks 2014. Weekly meetings and admin","","","1,5","0",
