"03.11.14","1","140023","0","910","Urlaub","","0","Urlaub. Holiday","07:00","16:00","8","60",
"04.11.14","2","140023","0","910","Urlaub","","0","Urlaub. Holiday","07:00","16:00","8","60",
"05.11.14","3","140023","0","101","PM/Mod/Meetings","","0","Urlaub. Holiday","07:00","16:00","8","60",
"06.11.14","4","140023","0","101","PM/Mod/Meetings","","0","Urlaub. Holiday","07:00","16:00","8","60",
"07.11.14","5","140051","23","101","PM/Mod/Meetings","","0","Training 2014. Working through Brakefill GDI sequence with s68","07:00","16:00","1","60",
"07.11.14","5","140051","21","101","PM/Mod/Meetings","","0","Management AES 2014. Timesheets","","","0,5","0",
"07.11.14","5","140051","22","101","PM/Mod/Meetings","","0","General project management / Teamsupport AES 2014. General management, support","","","6,5","0",
