"01.09.14","1","130056","424","130","Installation + Konfiguration","","0","1106: ASCS II: AP6: UnitTests: Setup / Testsequences F5.1/ae12. 1106: ASCS II: AP6: UnitTests: Setup / Testsequences F5.1/ae12","07:00","16:00","8","60",
"02.09.14","2","130769","0","120","Codierung","","100","Nissan ODX Build. build ODX","07:00","16:00","7","60",
"02.09.14","2","130056","424","130","Installation + Konfiguration","","0","1106: ASCS II: AP6: UnitTests: Setup / Testsequences F5.1/ae12. 1106: ASCS II: AP6: UnitTests: Setup / Testsequences F5.1/ae12","","","1","0",
"03.09.14","3","130056","424","130","Installation + Konfiguration","","0","1106: ASCS II: AP6: UnitTests: Setup / Testsequences F5.1/ae12. 1106: ASCS II: AP6: UnitTests: Setup / Testsequences F5.1/ae12","07:00","16:00","8","60",
"04.09.14","4","140051","31","170","Schulung","","0","Training 2014. Nissan ODX: investigate reason for failure in variant identification, Test if Nissan ODX can be impo","07:00","16:00","5","60",
"04.09.14","4","130056","424","130","Installation + Konfiguration","","0","1106: ASCS II: AP6: UnitTests: Setup / Testsequences F5.1/ae12. 1106: ASCS II: AP6: UnitTests: Setup / Testsequences F5.1/ae12","","","3","0",
"05.09.14","5","140051","30","101","PM/Mod/Meetings","","0","Weekly tasks AES 2014. Meetings and updating timesheets","07:00","16:00","1,5","60",
"05.09.14","5","130056","424","130","Installation + Konfiguration","","0","1106: ASCS II: AP6: UnitTests: Setup / Testsequences F5.1/ae12. 1106: ASCS II: AP6: UnitTests: Setup / Testsequences F5.1/ae12","","","6,5","0",
