"13.10.14","1","140501","277","120","Codierung","","0","11-1006: PIDT 14.8: CR434my3-295_SingleOptionItem: Implementierung. Implementierung","07:00","17:00","9","60",
"14.10.14","2","140501","277","120","Codierung","","0","11-1006: PIDT 14.8: CR434my3-295_SingleOptionItem: Implementierung. Implementierung","07:00","16:00","8","60",
"15.10.14","3","140501","277","120","Codierung","","0","11-1006: PIDT 14.8: CR434my3-295_SingleOptionItem: Implementierung. Implementierung","07:00","16:00","8","60",
"16.10.14","4","140501","276","104","Test-Spezifikation","","25","11-1006: PIDT 14.8: CR434my3-295_SingleOptionItem: Testspec. Testspec","07:00","16:00","8","60",
"17.10.14","5","140051","6","101","PM/Mod/Meetings","","0","S4/DSA overall tasks 2014. Meeting/Timesheets","07:00","16:00","1,5","60",
"17.10.14","5","140501","276","104","Test-Spezifikation","","50","11-1006: PIDT 14.8: CR434my3-295_SingleOptionItem: Testspec. Testspec","","","6,5","0",
