"24.03.14","1","140162","21","120","Codierung","","0","10-0301: Display Coding detail CTS development. 10-0301: Display Coding detail CTS development","07:00","16:00","7","60",
"24.03.14","1","120714","1384","120","Codierung","","0","P.Authoring: lack of performance (waiting). Waiting for Authoring","","","1","0",
"25.03.14","2","140162","21","120","Codierung","","0","cics_gen.jar updated, changes reflected in CTSes. 10-0301: Display Coding detail CTS development","07:00","16:00","4","60",
"25.03.14","2","120328","0","120","Codierung","","0","P.Authoring: Problem Analysis. Entity set breaking due to private copies","","","1,5","0",
"25.03.14","2","120714","1384","120","Codierung","","0","Checking in elements. P.Authoring: lack of performance (waiting)","","","0,5","0",
"25.03.14","2","140051","35","170","Schulung","","0","Training 2014. Training 2014 ECOS","","","2","0",
"26.03.14","3","100369","9126","182","Fehlerbes. nach Ausl. (Bugzilla)","","0","8080: P3 #49452 (normal) Abtastrateanzeige bei Monitoringaufnahme fehlerhaft,MAN Sequences. 8080: P3 #49452 (normal) Abtastrateanzeige bei Monitoringaufnahme fehlerhaft,MAN Sequences","07:00","16:00","4","60",
"26.03.14","3","120714","1384","120","Codierung","","0","P.Authoring: lack of performance (waiting). Waiting for Authoring","","","1","0",
"26.03.14","3","100369","9126","182","Fehlerbes. nach Ausl. (Bugzilla)","","0","Getting in subject, getting workflow. 8080: P3 #49452 (normal) Abtastrateanzeige bei Monitoringaufnahme fehlerhaft,MAN Sequences","","","2","0",
"26.03.14","3","120714","1384","120","Codierung","","0","User Session Terminated during deliverable creation. User Session Terminated during deliverable creation","","","1","0",
"27.03.14","4","120714","1384","120","Codierung","","0","Downloading new mancats and addons. Waiting for Authoring","07:00","16:00","3","60",
"27.03.14","4","100369","9126","182","Fehlerbes. nach Ausl. (Bugzilla)","","0","8080: P3 #49452 (normal) Abtastrateanzeige bei Monitoringaufnahme fehlerhaft,MAN Seque. 8080: P3 #49452 (normal) Abtastrateanzeige bei Monitoringaufnahme fehlerhaft,MAN Seque","","","3","0",
"27.03.14","4","140051","35","170","Schulung","","0","Training 2014, ICP Connecting, assisting AEC. Training 2014 ECOS","","","2","0",
"28.03.14","5","140051","34","101","PM/Mod/Meetings","","0","Weekly tasks AES 201. Meetings and Timesheet","07:00","16:00","1","60",
"28.03.14","5","120714","1384","120","Codierung","","0","P.Authoring: lack of performance (waiting). Waiting for Authoring","","","1","0",
"28.03.14","5","120328","0","120","Codierung","","0","Creating bug and workflow. Problem Analysis","","","1","0",
"28.03.14","5","140051","35","170","Schulung","","0","Training 2014, ECOS Testing. Training 2014 ECOS","","","2","0",
"28.03.14","5","100369","3126","182","Fehlerbes. nach Ausl. (Bugzilla)","","0","8080: P3 #49452 (normal) Abtastrateanzeige bei Monitoringaufnahme fehlerhaft,MAN Sequences. 8080: P3 #49452 (normal) Abtastrateanzeige bei Monitoringaufnahme fehlerhaft,MAN Sequences","","","2","0",
"28.03.14","5","140162","20","120","Codierung","","0","(from s69)10-0201: Display multiple measurements in linegraph. 10-0201: Display multiple measurements in linegraph","","","1","0",
