"28.07.14","1","140051","31","170","Schulung","","0","Training 2014. Training - VW ODX itegration into MAN and importing, sequences","07:00","16:00","4","60",
"28.07.14","1","130056","370","170","Schulung","","0","15-1112: ASCS II: AP16: Generic ODX: ECU Overview (attach the sequences below + Manual Flashing). 15-1112: ASCS II: AP16: Generic ODX: ECU Overview (attach the sequences below + Manual Flashing)","","","2","0",
"28.07.14","1","130056","371","170","Schulung","","0","15-1112: ASCS II: AP16: Generic ODX: Identification/Parametrization (only differs on the semantic th. 15-1112: ASCS II: AP16: Generic ODX: Identification/Parametrization (only differs on the semantic th","","","2","0",
"29.07.14","2","140051","31","170","Schulung","","0","Training 2014. Training - VW ODX itegration into MAN and importing, sequences","07:00","16:00","4","60",
"29.07.14","2","130056","371","120","Codierung","","0","15-1112: ASCS II: AP16: Generic ODX: Identification/Parametrization (only differs on the semantic th. 15-1112: ASCS II: AP16: Generic ODX: Identification/Parametrization (only differs on the semantic th","","","2","0",
"29.07.14","2","130056","370","120","Codierung","","0","15-1112: ASCS II: AP16: Generic ODX: ECU Overview (attach the sequences below + Manual Flashing). 15-1112: ASCS II: AP16: Generic ODX: ECU Overview (attach the sequences below + Manual Flashing)","","","2","0",
"30.07.14","3","140051","31","170","Schulung","","0","Training 2014. Training - VW ODX itegration into MAN and importing","07:00","16:00","2","60",
"30.07.14","3","130056","370","120","Codierung","","0","15-1112: ASCS II: AP16: Generic ODX: ECU Overview (attach the sequences below + Manual Flashing). 15-1112: ASCS II: AP16: Generic ODX: ECU Overview (attach the sequences below + Manual Flashing)","","","5","0",
"30.07.14","3","130056","371","120","Codierung","","0","15-1112: ASCS II: AP16: Generic ODX: Identification/Parametrization (only differs on the semantic th. 15-1112: ASCS II: AP16: Generic ODX: Identification/Parametrization (only differs on the semantic th","","","1","0",
"31.07.14","4","130056","370","120","Codierung","","0","15-1112: ASCS II: AP16: Generic ODX: ECU Overview (attach the sequences below + Manual Flashing). 15-1112: ASCS II: AP16: Generic ODX: ECU Overview (attach the sequences below + Manual Flashing)","07:00","16:00","5","60",
"31.07.14","4","140051","31","170","Schulung","","0","Training 2014. Training - VW ODX itegration into MAN and importing, sequences","","","3","0",
"01.08.14","5","140051","30","101","PM/Mod/Meetings","","0","Weekly tasks AES 2014. Meetings and updating timesheets","07:00","16:00","1,5","60",
"01.08.14","5","130056","371","120","Codierung","","0","15-1112: ASCS II: AP16: Generic ODX: Identification/Parametrization (only differs on the semantic th. 15-1112: ASCS II: AP16: Generic ODX: Identification/Parametrization (only differs on the semantic th","","","6,5","0",
