"19.05.14","1","140111","0","110","Engineering","","0","CR412da2-271_EingabefeldProtokollDienste. CR412da2-271_EingabefeldProtokollDienste","07:00","16:00","8","60",
"20.05.14","2","140111","0","120","Codierung","","0","CR412da2-271_EingabefeldProtokollDienste. CR412da2-271_EingabefeldProtokollDienste","07:00","16:00","8","60",
"21.05.14","3","14011","0","920","Krankheit","","0","Off sick. Off sick","07:00","16:00","8","60",
"22.05.14","4","14011","0","120","Codierung","","0","CR412da2-271_EingabefeldProtokollDienste. CR412da2-271_EingabefeldProtokollDienste","07:00","16:00","8","60",
"23.05.14","5","140111","0","120","Codierung","","0","CR412da2-271_EingabefeldProtokollDienste. CR412da2-271_EingabefeldProtokollDienste","07:00","16:00","6,5","60",
"23.05.14","5","140051","5","101","PM/Mod/Meetings","","0","S4/DSA overall tasks 2014. S4/DSA overall tasks 2014","","","1,5","0",
