"24.03.14","1","130867","0","182","Fehlerbes. nach Ausl. (Bugzilla)","","50","Bugfixing aus Vorrelease. Bug 49874","07:00","17:00","7","60",
"24.03.14","1","130867","0","182","Fehlerbes. nach Ausl. (Bugzilla)","","0","Bugfixing aus Vorrelease. Bug 49875","","","2","0",
"25.03.14","2","130867","0","182","Fehlerbes. nach Ausl. (Bugzilla)","","50","Bugfixing aus Vorrelease. Bug 49875","07:00","16:00","1","60",
"25.03.14","2","130867","0","182","Fehlerbes. nach Ausl. (Bugzilla)","","50","Bugfixing aus Vorrelease. Bug 49645","","","7","0",
"26.03.14","3","130867","0","182","Fehlerbes. nach Ausl. (Bugzilla)","","50","Bugfixing aus Vorrelease. Bug 49645","07:00","16:00","8","60",
"27.03.14","4","130867","0","182","Fehlerbes. nach Ausl. (Bugzilla)","","50","Bugfixing aus Vorrelease. Bug 49645","07:00","16:00","6","60",
"27.03.14","4","130867","0","182","Fehlerbes. nach Ausl. (Bugzilla)","","50","Bugfixing aus Vorrelease. Bug 49750","","","2","0",
"28.03.14","5","140023","850","910","Urlaub","","100","Holiday 28.03.2014. Urlaub","07:00","16:00","8","60",
"28.03.14","5","130867","210","140","Test","","100","PIDT 14.0: Regressionstest. 24.03.13, hw: Remaining effort?","","","0","0",
