"13.10.14","1","130056","19","120","Codierung","","0","Linde Demo: ASCS extensions /EDA10. Ecu exchange","07:00","16:00","4","60",
"13.10.14","1","140023","0","920","Krankheit","","0","Time Off. Sick leave","","","4","0",
"14.10.14","2","140023","0","920","Krankheit","","0","Time Off. Sick leave","07:00","16:00","8","60",
"15.10.14","3","140023","0","920","Krankheit","","0","Time Off. Sick leave","07:00","16:00","8","60",
"16.10.14","4","140023","0","920","Krankheit","","0","Time Off. Sick leave","07:00","16:00","8","60",
"17.10.14","5","140023","0","920","Krankheit","","0","Time Off. Sick leave","07:00","16:00","8","60",
