"04.05.15","1","150343","46","182","Fehlerbes. nach Ausl. (Bugzilla)","","0","8080: P3 #56748 (normal) right/left buttons are not automatically disabled in filte. Bug fixin. bug fixing","07:00","16:00","8","60",
"05.05.15","2","150343","46","182","Fehlerbes. nach Ausl. (Bugzilla)","","100","8080: P3 #56748 (normal) right/left buttons are not automatically disabled in filte. Bug fixin. Bug fixing","07:00","16:00","8","60",
"06.05.15","3","150343","95","120","Codierung","","0","10-1004: BF vor CF PIDT 15.1: CR444fs1-302_AktionAnzeig. Review and Bug fixes","07:00","16:00","8","60",
"07.05.15","4","150343","95","120","Codierung","","0","10-1004: BF vor CF PIDT 15.1: CR444fs1-302_AktionAnzeig. Bug and review fixes","07:00","16:00","8","60",
"08.05.15","5","150051","26","101","PM/Mod/Meetings","","0","S4/DSA overall tasks 2015. S4/DSA weekly meetings and admin","07:00","16:00","1,5","60",
"08.05.15","5","150121","631","180","Fehlerbes. nach Auslieferung (SA)","","0","PIDT Diagnoseapplikation: 8080: P3 #52577 (normal) SGDOC: Values aus vehicle-definition werden nur b. Bug fixing ","","","6,5","0",
