"04.05.15","1","150051","12","170","Schulung","","0","Training AES 2015. S Record Files","07:00","16:00","8","60",
"05.05.15","2","150023","0","910","Urlaub","","0","Urlaub. Study Leave","07:00","16:00","8","60",
"06.05.15","3","150051","12","170","Schulung","","0","Training AES 2015. Training new Coworker","07:00","16:00","8","60",
"07.05.15","4","150389","6","150","Inbetriebnahme","","0","Creating AVM Callibration CTS. Creating AVM Callibration CTS","07:00","16:00","4","60",
"07.05.15","4","150051","12","170","Schulung","","0","Training AES 2015. Training coworker","","","4","0",
"08.05.15","5","150389","6","150","Inbetriebnahme","","0","Creating AVM Callibration CTS. Creating AVM Callibration CTS","07:00","16:00","4","60",
"08.05.15","5","150051","12","170","Schulung","","0","Training AES 2015. Training Coworker","","","4","0",
