"12.01.15","1","130056","496","120","Codierung","","0","50_FEAT-4910: ASCS 1.8.0: ECU Replacement Support : ECU Replacement Support /eda50. Modification of sequence and simulation. ","07:00","16:00","8","60",
"13.01.15","2","130056","496","120","Codierung","","0","50_FEAT-4910: ASCS 1.8.0: ECU Replacement Support : ECU Replacement Support /eda50. Modification of sequence and simulation.","07:00","16:00","4","60",
"13.01.15","2","130056","498","140","Test","","0","50_FEAT-4910: ASCS 1.8.0: ECU Replacement Support: Test /eda50. Product current progress testing","","","4","0",
"14.01.15","3","130056","465","120","Codierung","","0","50_FEAT-4276: ASCS 1.8.0: Vehicle Config / Autom.Config: Vehicle Config /Auto.Cod.CTS /eda50. Specification analysis, template analysis","07:00","16:00","8","60",
"15.01.15","4","130056","465","120","Codierung","","0","50_FEAT-4276: ASCS 1.8.0: Vehicle Config / Autom.Config: Vehicle Config /Auto.Cod.CTS /eda50. Demo sequence modification simulation update. ODX modification","07:00","16:00","8","60",
"16.01.15","5","150051","15","170","Schulung","","0","Weekly tasks AES 2015. Meetings and timesheets","07:00","16:00","1","60",
"16.01.15","5","100369","0","182","Fehlerbes. nach Ausl. (Bugzilla)","","0","8080: P1 #54857 (major) Globaler Error Handler meldet NullPointerException,MAN Sequences. Bugfix","","","2","0",
"16.01.15","5","100369","0","182","Fehlerbes. nach Ausl. (Bugzilla)","","0","P3 #54069 (major) UDS-ECU meldet Fehler beim Empfang von KWP-Befehlen,MAN Sequences. Bugfix","","","2","0",
"16.01.15","5","100369","0","182","Fehlerbes. nach Ausl. (Bugzilla)","","0","P1 #54921 (blocker)  Actuator Test: GEH meldet MCD-Error mit Referenz auf Short-Name ''none'' ,MAN S. Bugfix","","","2","0",
"16.01.15","5","140702","22","120","Codierung","","0","10-1003: PSA Flash: Entwick. eines generischen Codierabalaufs auf Basis der P-Office Implementierung. Inteface rework","","","1","0",
