"11.05.15","1","150343","94","120","Codierung","","0","10-1004: BF vor CF PIDT 15.1: CR444fs1-302_AktionAnzeig. Working on bugs 57655 & 57657","07:00","16:00","4","60",
"11.05.15","1","150343","0","182","Fehlerbes. nach Ausl. (Bugzilla)","","0","PIDT 15.1 bug-fixing.. Working on bugs 57049 & 56447","","","4","0",
"12.05.15","2","150121","1","182","Fehlerbes. nach Ausl. (Bugzilla)","","0","8080: P3 #52492 (normal) Istwerte mit Fields/Iteratoren werden ungeordnet angezeigt. Working on bug","07:00","16:00","8","60",
"13.05.15","3","150121","1","182","Fehlerbes. nach Ausl. (Bugzilla)","","0","8080: P3 #52492 (normal) Istwerte mit Fields/Iteratoren werden ungeordnet angezeigt. Working on bug","07:00","16:00","8","60",
"14.05.15","4","150343","147","181","Fehlerbes. vor Ausl. (Bugzilla)","","100","8080: P1 #56906 (critical) Wartungsintervall: Ablauf bekommt keine / Helper.getPraegungsTokenFile() . Working on bug","07:00","16:00","2","60",
"14.05.15","4","150343","1","182","Fehlerbes. nach Ausl. (Bugzilla)","","100","8080: P3 #56320 (normal)Kommunikationsprotokoll is started automatically.. Working on bug","","","1","0",
"14.05.15","4","150343","54","120","Codierung","","100","10-1006:Implementierung PIDT 15.1: CR515fs1-317_SubCompHandling. From s72: assisting with filtering out subcomponent values in FAP report","","","1","0",
"14.05.15","4","150121","626","180","Fehlerbes. nach Auslieferung (SA)","","0","PIDT Diagnoseapplikation: 8080: P3 #57480 (normal) Bei Eintrag des Raw-Value fehlt der erste Wert,Fa. Working on bug","","","4","0",
"15.05.15","5","150051","23","101","PM/Mod/Meetings","","0","S4/DSA overall tasks 2015. General weekly tasks","07:00","16:00","1,5","60",
"15.05.15","5","150121","0","182","Fehlerbes. nach Ausl. (Bugzilla)","","0","PIDT 14.8.5 bug-fixing.. Working on 14.8.5 bugs","","","6,5","0",
