"23.03.15","1","150023","0","910","Urlaub","","0","Time Off . Time Off","07:00","16:00","8","60",
"24.03.15","2","100369","9310","180","Fehlerbes. nach Auslieferung (SA)","","100","EDA Development: 8080: P3 #54324 (normal) OBD II Workflows don't work properly during a vehicle test. Bugfixing","07:00","16:00","8","60",
"25.03.15","3","150051","7","170","Schulung","","0","Training AES 2015. Coding using odx-e","07:00","16:00","8","60",
"26.03.15","4","130056","496","120","Codierung","","100","50_FEAT-4910: ASCS 1.8.0: ECU Replacement Support : ECU Replacement Support /eda50. Testing and modifying instruction, changed location of checking for updates. changed screen handling","07:00","16:00","6,5","60",
"26.03.15","4","150051","7","170","Schulung","","0","Training AES 2015. Coding using odx-e","","","1,5","0",
"27.03.15","5","150051","15","170","Schulung","","0","Weekly tasks AES 2015. meeting and timesheets","07:00","16:00","1,5","60",
"27.03.15","5","130056","497","120","Codierung","","0","50_FEAT-4910: ASCS 1.8.0: ECU Replacement Support: Test cases /eda50. Testcase modification and upload to testlink","","","3","0",
"27.03.15","5","150051","7","170","Schulung","","0","Training AES 2015. Coding using odx-e","","","3,5","0",
