"04.05.15","1","150023","843","910","Urlaub","","0","Urlaub 01.05.2015-10.05.2015. Urlaub 01.05.2015-10.05.2015","07:00","16:00","8","60",
"05.05.15","2","150023","843","910","Urlaub","","0","Urlaub 01.05.2015-10.05.2015. Urlaub 01.05.2015-10.05.2015","07:00","16:00","8","60",
"06.05.15","3","150023","843","910","Urlaub","","0","Urlaub 01.05.2015-10.05.2015. Urlaub 01.05.2015-10.05.2015","07:00","16:00","8","60",
"07.05.15","4","150023","843","910","Urlaub","","0","Urlaub 01.05.2015-10.05.2015. Urlaub 01.05.2015-10.05.2015","07:00","16:00","8","60",
"08.05.15","5","150023","843","910","Urlaub","","100","Urlaub 01.05.2015-10.05.2015. Urlaub 01.05.2015-10.05.2015","07:00","16:00","8","60",
