"05.01.15","1","140501","455","120","Codierung","","0","20-1101: PIDT 14.8 DiPAS: CR435my1-293_Filter: Implementierung. implemention","07:00","16:00","8","60",
"06.01.15","2"," 150023","0","910","Urlaub","","0","Leave. Leave","07:00","16:00","8","60",
"07.01.15","3","140501","336","104","Test-Spezifikation","","0","20-1106: PIDT 14.8 DiPAS: CR421my2-292_Nutzungsstatistik: Testspec. implementing review fixes","07:00","16:00","8","60",
"08.01.15","4","140501","455","120","Codierung","","0","20-1101: PIDT 14.8 DiPAS: CR435my1-293_Filter: Implementierung. Implementierung","07:00","16:00","8","60",
"09.01.15","5","150051","26","101","PM/Mod/Meetings","","0","S4/DSA overall tasks 2015. Weekly meetings and admin","07:00","16:00","1,5","60",
"09.01.15","5","140501","455","120","Codierung","","0","20-1101: PIDT 14.8 DiPAS: CR435my1-293_Filter: Implementierung. Implementation","","","6,5","0",
