"11.05.15","1","150343","95","120","Codierung","","0","10-1004: BF vor CF PIDT 15.1: CR444fs1-302_AktionAnzeig. bug fixing","07:00","16:00","0,45","60",
"11.05.15","1","150343","39","120","Codierung","","100","10-1004: Implementierung PIDT 15.1: CR444fs1-302_AktionAnzeig. review fixes","","","1,5","0",
"11.05.15","1","150121","646","180","Fehlerbes. nach Auslieferung (SA)","","0","PIDT Diagnoseapplikation: 8080: P3 #52577 (normal) SGDOC: Values aus vehicle-definition werden nur b. Bug analysis","","","0,75","0",
"11.05.15","1","150165","16","140","Test","","0","10-1005: PIDT 15.0 DiPAS x64: Einbindung 64 Bit Bibliotheken: Integrationstest. Actia vci setup and configuration","","","5,3","0",
"12.05.15","2","150165","16","140","Test","","0","10-1005: PIDT 15.0 DiPAS x64: Einbindung 64 Bit Bibliotheken: Integrationstest. Identifying relevant test cases","07:00","16:00","8","60",
"13.05.15","3","150165","16","140","Test","","0","10-1005: PIDT 15.0 DiPAS x64: Einbindung 64 Bit Bibliotheken: Integrationstest. Testing use cases","07:00","16:00","8","60",
"14.05.15","4","150165","16","140","Test","","0","10-1005: PIDT 15.0 DiPAS x64: Einbindung 64 Bit Bibliotheken: Integrationstest. Testing","07:00","16:00","8","60",
"15.05.15","5","150121","0","182","Fehlerbes. nach Ausl. (Bugzilla)","","0","8080: P3 #52577 (major) Empty ReDoc created after FAP. Bug fixing ","07:00","16:00","7","60",
"15.05.15","5","150051","26","101","PM/Mod/Meetings","","0","S4/DSA overall tasks 2015. S4/DSA weekly meetings and admin","","","1","0",
