"13.04.15","1","150343","0","182","Fehlerbes. nach Ausl. (Bugzilla)","","0","8080: P3 #56748 (normal) right/left buttons are not automatically disabled in filte. Bug fixing","07:00","16:00","8","60",
"14.04.15","2","150343","0","182","Fehlerbes. nach Ausl. (Bugzilla)","","0","8080: P3 #56748 (normal) right/left buttons are not automatically disabled in filte. Bug fixing","07:00","16:00","8","60",
"15.04.15","3","150343","39","120","Codierung","","0","10-1004: Implementierung PIDT 15.1: CR444fs1-302_AktionAnzeig. Getting into subject and Implementaion","07:00","16:00","8","60",
"16.04.15","4","150343","39","120","Codierung","","0","10-1004: Implementierung PIDT 15.1: CR444fs1-302_AktionAnzeig. Implementation","07:00","16:00","7,5","60",
"16.04.15","4","150051","26","101","PM/Mod/Meetings","","0","S4/DSA overall tasks 2015. S4 meetting","","","0,5","0",
"17.04.15","5","150343","39","120","Codierung","","0","10-1004: Implementierung PIDT 15.1: CR444fs1-302_AktionAnzeig. implementation","07:00","16:00","6,5","60",
"17.04.15","5","150051","26","101","PM/Mod/Meetings","","0","S4/DSA overall tasks 2015. S4/DSA weekly meetings and admin","","","1,5","0",
