"16.02.15","1","150051","11","170","Schulung","","0","Training AES 2015. Training a colleague","07:00","16:00","8","60",
"17.02.15","2","150051","11","170","Schulung","","0","Training AES 2015. Training on creating html document references","07:00","16:00","8","60",
"18.02.15","3","150051","11","170","Schulung","","0","Training AES 2015. Training on Vehicle Config Implementation","07:00","16:00","8","60",
"19.02.15","4","150051","11","170","Schulung","","0","Training AES 2015. Training a colleague on automation (loop eval implementation)","07:00","16:00","8","60",
"20.02.15","5","150051","19","170","Schulung","","0","Weekly tasks AES 2015. Timesheets and meetings","07:00","16:00","1,5","60",
"20.02.15","5","150051","11","170","Schulung","","0","Training AES 2015. Training","","","6,5","0",
