"11.05.15","1","150036","84","170","Schulung","","100","PDCS Training (Week 15 - 20). Creating training slides for  Rollerbed. Closing Task","07:00","16:00","0","60",
"11.05.15","1","150051","1","101","PM/Mod/Meetings","","0","General project management / Teamsupport AES 2015. General management + Support","","","8","0",
"12.05.15","2","150051","1","101","PM/Mod/Meetings","","0","General project management / Teamsupport AES 2015. General management + support","07:00","16:00","8","60",
"13.05.15","3","150051","1","101","PM/Mod/Meetings","","0","General project management / Teamsupport AES 2015. General management + support","07:00","16:00","8","60",
"14.05.15","4","150051","4","170","Schulung","","0","Training AES 2015. PDCS Training","07:00","16:00","8","60",
"15.05.15","5","150051","4","170","Schulung","","0","Training AES 2015. PDCS Training","07:00","16:00","2","60",
"15.05.15","5","150051","1","101","PM/Mod/Meetings","","0","General project management / Teamsupport AES 2015. General management + support","","","5","0",
"15.05.15","5","150051","2","101","PM/Mod/Meetings","","0","Management AES 2015. Timesheets + Meetings","","","1","0",
