"30.03.15","1","150051","12","170","Schulung","","0","Training AES 2015. Training AES 2015","07:00","16:00","8","60",
"31.03.15","2","150051","12","170","Schulung","","0","Training AES 2015. Training AES 2015","07:00","16:00","8","60",
"01.04.15","3","150023","0","920","Krankheit","","0","krankheit. Sick leave","07:00","16:00","8","60",
"02.04.15","4","130056","0","120","Codierung","","0","ASCS: Erweterung Testcases. Creating NOK testcases for library elements","07:00","16:00","8","60",
"03.04.15","5","150023","0","910","Urlaub","","0","Urlaub. Public Holiday","07:00","16:00","8","60",
