"29.12.14","1","140702","22","120","Codierung","","0","10-1003: PSA Flash: Entwick. eines generischen Codierabalaufs auf Basis der P-Office Implementierung. odx file reading improvements","07:00","16:00","8","60",
"30.12.14","2","120527","979","120","Codierung","","0","63-4206: FlashJob Gateway. implementation","07:00","16:00","4","60",
"30.12.14","2","140702","22","120","Codierung","","0","10-1003: PSA Flash: Entwick. eines generischen Codierabalaufs auf Basis der P-Office Implementierung. odx file reading improvements after testing","","","4","0",
"31.12.14","3","140023","0","910","Urlaub","","0","Time - Off. Time Off","07:00","16:00","8","60",
"01.01.15","4","150023","0","910","Urlaub","","0","Time - Off. Time Off","07:00","16:00","8","60",
"02.01.15","5","150023","0","910","Urlaub","","0","Time - Off. Time Off","07:00","16:00","8","60",
