"20.04.15","1","150389","0","150","Inbetriebnahme","","0","Bugfixes and support . Bugfixes and support","07:00","20:00","4","60",
"20.04.15","1","150023","0","910","Urlaub","","0","Time Off. Time Off","","","4","0",
"20.04.15","1","150389","0","150","Inbetriebnahme","","0","Bugfixes and support . Bugfixes and support ","","","4","0",
"21.04.15","2","150051","16","170","Schulung","","0","Weekly tasks AES 2015 . Preparing Visa and flights","07:00","16:00","3","60",
"21.04.15","2","150051","16","170","Schulung","","0","Meetings Daniel Nissan ODX. Meetings Daniel Nissan ODX","","","0,5","0",
"21.04.15","2","150389","0","150","Inbetriebnahme","","0","Meeting and Preparation Daimler. Meeting and Preparation Daimler","","","2","0",
"21.04.15","2","150389","0","150","Inbetriebnahme","","0","Bugfixes and Support. Bugfixes and Support","","","2,5","0",
"22.04.15","3","150023","0","920","Krankheit","","0","Sick. Sick","07:00","16:00","8","60",
"23.04.15","4","150051","16","170","Schulung","","0","Weekly tasks AES 2015. Visa Application","07:00","16:00","1,5","60",
"23.04.15","4","150389","0","150","Inbetriebnahme","","0","Bugfixes and Support. Bugfixes and Support","","","5,5","0",
"23.04.15","4","150389","0","150","Inbetriebnahme","","0","Meeting Nissan. Meeting Nissan","","","1","0",
"24.04.15","5","150389","0","150","Inbetriebnahme","","0","Bugfix HVAC Running In. Bugfix HVAC Running In","07:00","16:00","7","60",
"24.04.15","5","150051","16","170","Schulung","","0","Weekly tasks AES 2015. Meetings and Timesheets","","","1","0",
