"13.04.15","1","150023","0","910","Urlaub","","0","Urlaub. leave","07:00","16:00","8","60",
"14.04.15","2","130056","469","120","Codierung","","0","50_FEAT-4276: ASCS 1.8.0: Vehicle Config / Autom.Config: Testcases /eda50. (from s64) Creating Testcases for Vehicle Coding Sequences.","07:00","16:00","4","60",
"14.04.15","2","150051","10","170","Schulung","","0","Training AES 2015. Training.","","","4","0",
"15.04.15","3","130056","469","120","Codierung","","0","50_FEAT-4276: ASCS 1.8.0: Vehicle Config / Autom.Config: Testcases /eda50. (from s64) Creating Testcases for Vehicle Coding Sequences.","07:00","16:00","4","60",
"15.04.15","3","150051","10","170","Schulung","","0","Training AES 2015. Training","","","4","0",
"16.04.15","4","130056","0","140","Test","","0","ASCS: Erweiterung Testcases. Testing ASCS Test Cases.","07:00","16:00","5","60",
"16.04.15","4","150051","10","170","Schulung","","0","Training AES 2015. Training","","","3","0",
"17.04.15","5","130056","0","140","Test","","0","ASCS: Erweiterung Testcases. Testing ASCS Test Cases.","07:00","16:00","6,5","60",
"17.04.15","5","150051","18","170","Schulung","","0","Weekly tasks AES 2015. S4 Meetings and timesheets","","","1,5","0",
