"26.01.15","1","150051","26","101","PM/Mod/Meetings","","0","S4/DSA overall tasks 2015. Sprint planning meetings and general tasks","07:00","16:00","1,5","60",
"26.01.15","1","140685","0","102","Spez: LH/PH/Design","","0","Creating work breakdown structure for 15.0.0DiPAS features. Creating work breakdown structure for 15.0.0DiPAS features","","","3","0",
"26.01.15","1","140501","1","110","Engineering","","0","PIDT 14.8.0 DIPAS Setting up development environment. IDT 14.8.0 DIPAS Setting up development environment","","","3,5","0",
"27.01.15","2","140501","455","120","Codierung","","0","20-1101: PIDT 14.8 DiPAS: CR435my1-293_Filter: Implementierung. Implementation","07:00","16:00","8","60",
"28.01.15","3","140501","455","120","Codierung","","0","20-1101: PIDT 14.8 DiPAS: CR435my1-293_Filter: Implementierung. Implementation","07:00","16:00","8","60",
"29.01.15","4","140501","455","120","Codierung","","0","20-1101: PIDT 14.8 DiPAS: CR435my1-293_Filter: Implementierung. Implementation","07:00","16:00","6","60",
"29.01.15","4","150051","26","101","PM/Mod/Meetings","","0","S4/DSA overall tasks 2015. S4/DSA Weekly meetings and admin","","","2","0",
"30.01.15","5","150051","26","101","PM/Mod/Meetings","","0","S4/DSA overall tasks 2015. S4/DSA Weekly meetings and admin","07:00","16:00","2","60",
"30.01.15","5","140501","455","120","Codierung","","0","20-1101: PIDT 14.8 DiPAS: CR435my1-293_Filter: Implementierung. Implementation","","","6","0",
