"15.12.14","1","140501","0","120","Codierung","","0","20-1105: PIDT 14.8 DiPAS: CR424my1-291_LoggingTrigger: Implementation. 20-1105: PIDT 14.8 DiPAS: CR424my1-291_LoggingTrigger: Implementation","07:00","16:00","8","60",
"16.12.14","2","140023","2872","910","Urlaub","","0","Public Holiday 15.12.14. Public Holiday 15.12.14","07:00","16:00","8","60",
"17.12.14","3","140501","0","120","Codierung","","0","20-1105: PIDT 14.8 DiPAS: CR424my1-291_LoggingTrigger: Implementation. 20-1105: PIDT 14.8 DiPAS: CR424my1-291_LoggingTrigger: Implementation","07:00","16:00","8","60",
"18.12.14","4","140501","0","182","Fehlerbes. nach Ausl. (Bugzilla)","","100","Bug 54898. Bug 54898","07:00","16:00","3","60",
"18.12.14","4","140501","405","182","Fehlerbes. nach Ausl. (Bugzilla)","","100","8080: P4 #54067 (minor) Useless logging of MCDKernelImpl.getMCDDbUnit,Applikation. 8080: P4 #54067 (minor) Useless logging of MCDKernelImpl.getMCDDbUnit,Applikation","","","2","0",
"18.12.14","4","140501","330","104","Test-Spezifikation","","0","20-1105: PIDT 14.8 DiPAS: CR424my1-291_LoggingTrigger: Testspec. 20-1105: PIDT 14.8 DiPAS: CR424my1-291_LoggingTrigger: Testspec","","","3","0",
"19.12.14","5","140051","5","101","PM/Mod/Meetings","","0","S4/DSA overall tasks 2014. S4/DSA overall tasks 2014","07:00","16:00","2","60",
"19.12.14","5","140501","0","182","Fehlerbes. nach Ausl. (Bugzilla)","","0","Bug fixing. Bug fixing","","","6","0",
