DATE;NAME;START;END;LUNCH;1;2;3;4;5;6;7;8;9;10;11;12;13;14;15;16;17;18;19;20;21;22;23;24;
01.03.15;Nico Claassen;
01.03.15;Thando Katywa;
01.03.15;Paul Helliwell;
01.03.15;Ntombenkosi Yokwana;
01.03.15;Mario Jansen van Vuuren;
01.03.15;Webster Ndlovu;
01.03.15;Ibrahim Arends;
01.03.15;Francois van Vuuren;
01.03.15;Tafadzwa Mvindi;
01.03.15;Tashinga Chivasa;
01.03.15;Muya Mwansa;
01.03.15;Clinton Dewing;
01.03.15;FrancoisR Rossouw;
01.03.15;Gaetan Bricel Dzali Dzali;
01.03.15;Derek Hobden;
02.03.15;Nico Claassen;07:00:00;16:00:00;60;150074-13;150074-13;150074-13;150074-13;150074-13;150074-4 / 150051-4;150051-4 / 150051-1;150051-1;
02.03.15;Thando Katywa;07:00:00;16:00:00;60;150023-0;150023-0;150023-0;150023-0;150121-440;150121-440 / 140685-416;140685-416;140685-416;
02.03.15;Paul Helliwell;
02.03.15;Ntombenkosi Yokwana;07:00:00;16:00:00;60;140647-25;140647-25;140647-25;140647-25;140647-25;140647-25;140647-25;140647-25;
02.03.15;Mario Jansen van Vuuren;07:00:00;16:00:00;60;140685-435;140685-435;140685-435;140685-435;140685-435;140685-435;140685-435;140685-435;
02.03.15;Webster Ndlovu;07:00:00;16:00:00;60;150103-34;150103-20;150103-20;150103-20;150103-20;150103-20;150103-20;150103-20;
02.03.15;Ibrahim Arends;09:15:00;17:45:00;30;130769-299;130769-299;130769-299;130769-299;130769-299;130769-299;130769-299;130769-300;
02.03.15;Francois van Vuuren;07:00:00;16:00:00;60;150051-9;140702-20;140702-20;140702-20;140702-20;140702-20;140702-20;140702-20;
02.03.15;Tafadzwa Mvindi;07:00:00;16:00:00;60;150121-483;150121-483;150121-483;150121-483;150121-483;150121-483;150121-483;150121-483;
02.03.15;Tashinga Chivasa;07:00:00;16:00:00;60;150121-484;150121-484;150121-484;150121-484;150121-484;150121-484;150121-484;150121-484;
02.03.15;Muya Mwansa;07:00:00;16:00:00;60;150121-492;140685-417;140685-417;140685-417;140685-417;140685-417;140685-417;140685-417;
02.03.15;Clinton Dewing;07:00:00;16:00:00;60;140685-427;140685-427;140685-427;140685-427;140685-427;140685-427;140685-427;140685-427;
02.03.15;FrancoisR Rossouw;07:00:00;16:00:00;60;140685-413;140685-413;140685-413;140685-413;140685-413;140685-413;140685-413;140685-413;
02.03.15;Gaetan Bricel Dzali Dzali;07:00:00;16:00:00;60;150121-485;150121-485;150121-485;150121-485;150121-485;150121-485;150121-485;150121-485;
02.03.15;Derek Hobden;
03.03.15;Nico Claassen;07:00:00;16:00:00;60;150074-13;150074-13;150074-13;150074-13;150074-13;150051-1;150051-1;150051-1;
03.03.15;Thando Katywa;07:00:00;16:00:00;60;150121-440;140685-416;140685-416;140685-416 / 140685-417;140685-417;140685-417;140685-417;140685-417;
03.03.15;Paul Helliwell;
03.03.15;Ntombenkosi Yokwana;07:00:00;16:00:00;60;140647-29;140647-29;140647-29;140647-29;140647-29;140647-29;140647-29;140647-29;
03.03.15;Mario Jansen van Vuuren;07:00:00;16:00:00;60;140685-435;140685-435;140685-435;140685-435;140685-435;140685-435;140685-435;140685-435;
03.03.15;Webster Ndlovu;07:00:00;16:00:00;60;150103-20;150103-20;150103-20;150103-20;150103-20;150103-20;150103-20;150103-20;
03.03.15;Ibrahim Arends;08:50:00;20:00:00;30;130769-300;130769-300;130769-300;130769-300 / 130769-303;130769-303;130769-303;130769-303;130769-303;130769-303;130769-303;130769-303;
03.03.15;Francois van Vuuren;07:00:00;16:00:00;60;150051-9;140702-20;140702-20;140702-20;140702-20;140702-20;140702-20;140702-20;
03.03.15;Tafadzwa Mvindi;07:00:00;16:00:00;60;150121-483;150121-483;150121-483;150121-483;150121-483;150121-483;150121-483;150051-18;
03.03.15;Tashinga Chivasa;07:00:00;16:00:00;60;150121-484;150121-484;150121-484;150121-484;150121-484;150121-484;150121-484;150121-484;
03.03.15;Muya Mwansa;07:00:00;16:00:00;60;140685-417;140685-417;140685-417;140685-417;140685-417;140685-417;140685-417;150121-492;
03.03.15;Clinton Dewing;07:00:00;16:00:00;60;140685-425;140685-425;140685-425;140685-425;140685-425;140685-425;140685-425;140685-425;
03.03.15;FrancoisR Rossouw;07:00:00;16:00:00;60;140685-413;140685-413;140685-413;140685-413;140685-413;140685-413;140685-413;140685-413;
03.03.15;Gaetan Bricel Dzali Dzali;07:00:00;16:00:00;60;150121-485;150121-485;150121-485;150121-485;150121-485;150121-485;150121-485;150121-485;
03.03.15;Derek Hobden;
04.03.15;Nico Claassen;07:00:00;16:00:00;60;150051-2;150074-13;150074-13;150074-13;150074-13;150051-1;150051-1;150051-1;
04.03.15;Thando Katywa;07:00:00;16:00:00;60;150051-23;150121-0;150121-0;150121-0;150121-0;150121-1;150121-1;150121-1;
04.03.15;Paul Helliwell;
04.03.15;Ntombenkosi Yokwana;07:00:00;16:00:00;60;140647-31;140647-31;140647-31;140647-31;140647-31;140647-31;140647-31;140647-31;
04.03.15;Mario Jansen van Vuuren;07:00:00;16:00:00;60;150051-22;140685-0;140685-0;140685-0;140685-0;140685-0;140685-0;140685-0;
04.03.15;Webster Ndlovu;07:00:00;16:00:00;60;150103-20;150103-20;150103-20;150103-20;150103-20;150103-20;150103-20 / 150051-15;150051-15;
04.03.15;Ibrahim Arends;07:20:00;17:00:00;30;130769-304;130769-304;130769-304;130769-304;130769-307;130769-307;130769-307;130769-307;130769-307;130769-307;
04.03.15;Francois van Vuuren;07:00:00;16:00:00;60;150051-9;150051-17;130056-521;130056-521;130056-521;130056-521;130056-521;130056-521;
04.03.15;Tafadzwa Mvindi;07:00:00;16:00:00;60;150121-483;150121-483;150121-483;150121-483;150121-483;150121-483;150121-483;150121-483;
04.03.15;Tashinga Chivasa;07:00:00;16:00:00;60;150121-484;150121-484;150121-484;150121-484;150121-484;150121-484;150121-484;150121-484;
04.03.15;Muya Mwansa;07:00:00;16:00:00;60;150051-26;150051-26 / 140685-419;140685-419;140685-419 / 150121-495;150121-495;150121-495;140685-417;140685-417;
04.03.15;Clinton Dewing;07:00:00;16:00:00;60;140685-425;140685-425;140685-425;140685-425;150051-24;140685-427;140685-427;140685-427;
04.03.15;FrancoisR Rossouw;07:00:00;16:00:00;60;140685-413;140685-413;140685-413;140685-413;140685-413;140685-413;140685-413;140685-413;
04.03.15;Gaetan Bricel Dzali Dzali;07:00:00;16:00:00;60;150121-485;150121-485;150121-485;150121-485;150121-485;150121-485;150121-485;150121-485;
04.03.15;Derek Hobden;
05.03.15;Nico Claassen;07:00:00;16:00:00;60;150074-13;150074-13;150074-13;150074-5 / 150051-1;150051-1;150051-1;150051-1;150051-1;
05.03.15;Thando Katywa;07:00:00;16:00:00;60;150121-2;150121-2;150121-2;150121-2 / 150121-3;150121-3;150121-3 / 150121-0;150121-0;150121-0;
05.03.15;Paul Helliwell;
05.03.15;Ntombenkosi Yokwana;07:00:00;16:00:00;60;140647-28;140647-28;140647-28;140647-28;140647-34;140647-34;140647-34;140647-34;
05.03.15;Mario Jansen van Vuuren;07:00:00;16:00:00;60;140685-0;140685-0;140685-0;140685-0;140685-0;150121-0;150121-0;150121-0;
05.03.15;Webster Ndlovu;07:00:00;16:00:00;60;150077-0;150077-0;150077-0;150077-0;150077-0;100369-9310;100369-9310;100369-9310;
05.03.15;Ibrahim Arends;08:30:00;21:30:00;30;130769-307;130769-307;130769-307;130769-307;130769-307;130769-307;130769-307;130769-307;130769-307;130769-307;130769-307;130769-307;130769-307;
05.03.15;Francois van Vuuren;07:00:00;16:00:00;60;130056-521;130056-521;130056-521;130056-521;130056-521;130056-521;130056-521;150051-9;
05.03.15;Tafadzwa Mvindi;07:00:00;16:00:00;60;150121-483;150121-483;150121-483;150121-483;150121-483;150121-483;150121-483;150121-483 / 150051-18;
05.03.15;Tashinga Chivasa;07:00:00;16:00:00;60;150121-484;150121-484;150121-484;150121-484;150121-484;150121-484;150121-484;150121-484;
05.03.15;Muya Mwansa;07:00:00;16:00:00;60;150121-492;150121-492;150121-492 / 150121-0;150121-1;150121-1;140685-419;140685-419;140685-419;
05.03.15;Clinton Dewing;07:00:00;16:00:00;60;140685-427;140685-427;140685-425;140685-425;150121-29;150121-29;150121-29;150121-29;
05.03.15;FrancoisR Rossouw;07:00:00;16:00:00;60;140685-414;140685-414;140685-414;140685-414;140685-414;140685-414;140685-414;140685-414;
05.03.15;Gaetan Bricel Dzali Dzali;07:00:00;16:00:00;60;150121-485;150121-485;150121-485;150121-485;150121-485;150121-485;150121-485;150121-485;
05.03.15;Derek Hobden;
06.03.15;Nico Claassen;07:00:00;16:00:00;60;150051-2;150051-2 / 150074-17;150074-17;150074-17 / 150074-6;150074-6 / 150051-1;150051-1;150051-1;150051-1;
06.03.15;Thando Katywa;07:00:00;16:00:00;60;150051-23;150051-23 / 150121-4;150121-4;150121-4;150121-4;150121-4;150121-4;150121-4;
06.03.15;Paul Helliwell;
06.03.15;Ntombenkosi Yokwana;07:00:00;16:00:00;60;150051-14;150051-14 / 150051-3;150051-3;140647-28;140647-28;140647-34;140647-34;150051-6;
06.03.15;Mario Jansen van Vuuren;07:00:00;16:00:00;60;150023-0;150023-0;150023-0;150023-0;150023-0;150023-0;150023-0;150023-0;
06.03.15;Webster Ndlovu;07:00:00;16:00:00;60;150023-0;150023-0;150023-0;150023-0;150023-0;150023-0;150023-0;150023-0;
06.03.15;Ibrahim Arends;08:30:00;17:00:00;30;130769-308;130769-308;130769-308;130769-308;130769-308;130769-308;130769-308;130769-308;
06.03.15;Francois van Vuuren;07:00:00;16:00:00;60;150051-17;140702-20;140702-20;130056-521;130056-521;130056-521;130056-521;130056-521;
06.03.15;Tafadzwa Mvindi;07:00:00;16:00:00;60;150023-0;150023-0;150023-0;150023-0;150023-0;150023-0;150023-0;150023-0;
06.03.15;Tashinga Chivasa;07:00:00;16:00:00;60;150023-0;150023-0;150023-0;150023-0;150023-0;150023-0;150023-0;150023-0;
06.03.15;Muya Mwansa;07:00:00;16:00:00;60;150051-26;150051-26 / 150121-492;150121-0;150121-0 / 140685-427;140685-427;140685-427;140685-427;140685-427;
06.03.15;Clinton Dewing;07:00:00;16:00:00;60;150121-29;150121-29;140685-425;140685-425;140685-425;140685-425;140685-425 / 150051-24;150051-24;
06.03.15;FrancoisR Rossouw;07:00:00;16:00:00;60;140685-414;140685-414;140685-414;140685-414;140685-414;140685-414;140685-414 / 150051-25;150051-25;
06.03.15;Gaetan Bricel Dzali Dzali;07:00:00;16:00:00;60;150051-20;150051-20 / 150121-485;150121-485;150121-485;150121-485;150121-485;150121-485;150121-485;
06.03.15;Derek Hobden;
07.03.15;Nico Claassen;
07.03.15;Thando Katywa;
07.03.15;Paul Helliwell;
07.03.15;Ntombenkosi Yokwana;
07.03.15;Mario Jansen van Vuuren;
07.03.15;Webster Ndlovu;
07.03.15;Ibrahim Arends;
07.03.15;Francois van Vuuren;
07.03.15;Tafadzwa Mvindi;
07.03.15;Tashinga Chivasa;
07.03.15;Muya Mwansa;
07.03.15;Clinton Dewing;
07.03.15;FrancoisR Rossouw;
07.03.15;Gaetan Bricel Dzali Dzali;
07.03.15;Derek Hobden;
08.03.15;Nico Claassen;
08.03.15;Thando Katywa;
08.03.15;Paul Helliwell;
08.03.15;Ntombenkosi Yokwana;
08.03.15;Mario Jansen van Vuuren;
08.03.15;Webster Ndlovu;
08.03.15;Ibrahim Arends;
08.03.15;Francois van Vuuren;
08.03.15;Tafadzwa Mvindi;
08.03.15;Tashinga Chivasa;
08.03.15;Muya Mwansa;
08.03.15;Clinton Dewing;
08.03.15;FrancoisR Rossouw;
08.03.15;Gaetan Bricel Dzali Dzali;
08.03.15;Derek Hobden;
09.03.15;Nico Claassen;07:00:00;16:00:00;60;150074-4;150051-1;150051-1;150051-1;150051-1;150051-1;150051-1;150051-1;
09.03.15;Thando Katywa;07:00:00;16:00:00;60;150121-533;150121-533;150121-533;150121-533;150121-533;150121-533;150121-533;150121-533;
09.03.15;Paul Helliwell;
09.03.15;Ntombenkosi Yokwana;07:00:00;16:00:00;60;140647-25;140647-25;140647-25;140647-25;140647-25;140647-25;140647-25;140647-25;
09.03.15;Mario Jansen van Vuuren;07:00:00;16:00:00;60;140685-582;140685-582;140685-582;140685-582;140685-582;140685-582;140685-582;140685-582;
09.03.15;Webster Ndlovu;07:00:00;16:00:00;60;100369-9310;100369-9310;100369-9310;100369-9310;100369-9310;100369-9310;100369-9310;100369-9310;
09.03.15;Ibrahim Arends;08:00:00;23:30:00;30;150051-16;150051-16;150051-16;150051-16;150051-16;150051-16;150051-16;150051-16;150051-16;150051-16;150051-16;150051-16;150051-16;150051-16;150051-16;
09.03.15;Francois van Vuuren;07:00:00;16:00:00;60;140702-20;140702-20;140702-20;140702-20;140702-20;150051-9;130769-0;130769-0;
09.03.15;Tafadzwa Mvindi;07:00:00;16:00:00;60;150121-483;150121-483;150121-483;150121-483;150121-483;150121-483;150121-483;150121-483;
09.03.15;Tashinga Chivasa;07:00:00;16:00:00;60;150121-484;150121-484;150121-484;150121-484;150121-484;150121-484;150121-484;150121-484;
09.03.15;Muya Mwansa;07:00:00;16:00:00;60;150121-0;150121-0;150121-0;150121-0;150121-0;150121-0;150121-0;150121-0;
09.03.15;Clinton Dewing;07:00:00;16:00:00;60;140685-585;140685-585;140685-585;140685-585;140685-585;140685-585;140685-585;140685-585;
09.03.15;FrancoisR Rossouw;07:00:00;16:00:00;60;140685-568;140685-568;140685-568;140685-568;140685-568;140685-568;140685-568;140685-568;
09.03.15;Gaetan Bricel Dzali Dzali;07:00:00;16:00:00;60;150023-0;150023-0;150023-0;150023-0;150023-0;150023-0;150023-0;150023-0;
09.03.15;Derek Hobden;
10.03.15;Nico Claassen;07:00:00;16:00:00;60;150074-13;150051-4;150051-4;150051-1;150051-1;150051-1;150051-1;150051-1;
10.03.15;Thando Katywa;07:00:00;16:00:00;60;140685-594;140685-594;140685-594;140685-594;140685-594;140685-594;140685-585;140685-585;
10.03.15;Paul Helliwell;
10.03.15;Ntombenkosi Yokwana;07:00:00;16:00:00;60;130056-499;130056-499;130056-499;130056-499;150051-6;150051-6;150051-6;150051-6;
10.03.15;Mario Jansen van Vuuren;07:00:00;16:00:00;60;140685-582;140685-582;140685-582;140685-582;140685-582;140685-582;140685-582;140685-582;
10.03.15;Webster Ndlovu;07:00:00;16:00:00;60;130769-0;130769-0;130769-0;130769-0;130769-0;100369-9310;100369-9310;100369-9310;
10.03.15;Ibrahim Arends;09:00:00;17:30:00;30;130769-0;130769-0;130769-0;130769-0;130769-0;130769-0;130769-0;130769-0;
10.03.15;Francois van Vuuren;07:00:00;16:00:00;60;150051-9;130769-0;130769-0;130769-0;130769-0;130769-0;130769-0;130769-0;
10.03.15;Tafadzwa Mvindi;07:00:00;16:00:00;60;150121-483;150121-483;150121-483;150121-483;150121-483;150121-483;150121-483;150121-483;
10.03.15;Tashinga Chivasa;07:00:00;16:00:00;60;150121-484;150121-484;150121-484;150121-484;150121-484;150121-484;150121-484;150121-484;
10.03.15;Muya Mwansa;07:00:00;16:00:00;60;140685-535 / 140685-576;140685-576;140685-576;140685-576;150121-0;150121-0;150121-0;150121-0;
10.03.15;Clinton Dewing;07:00:00;16:00:00;60;150023-0;150023-0;150023-0;150023-0;150023-0;150023-0;150023-0;150023-0;
10.03.15;FrancoisR Rossouw;07:00:00;16:00:00;60;140685-568;140685-568;140685-568;140685-568;140685-568;140685-568;140685-568;140685-568;
10.03.15;Gaetan Bricel Dzali Dzali;07:00:00;16:00:00;60;130056-482;130056-482;130056-482;130056-482;130056-482;130056-482;130056-482;130056-482;
10.03.15;Derek Hobden;
11.03.15;Nico Claassen;07:00:00;16:00:00;60;150051-1;150051-1;150051-1;150051-1;150051-1;150051-1;150051-1;150051-1;
11.03.15;Thando Katywa;07:00:00;16:00:00;60;140685-573;140685-573;140685-573;140685-573;140685-573;140685-573;140685-590;140685-590;
11.03.15;Paul Helliwell;
11.03.15;Ntombenkosi Yokwana;07:00:00;16:00:00;60;130769-0;130769-0;130769-0;150051-6;150051-6;150051-6;150051-6;150051-6;
11.03.15;Mario Jansen van Vuuren;07:00:00;16:00:00;60;140685-564;140685-564;140685-564;140685-564;140685-564;150023-0;150023-0;150023-0;
11.03.15;Webster Ndlovu;07:00:00;16:00:00;60;100369-9310;100369-9310;100369-9310;100369-9310;100369-9310;100369-9310;100369-9310;100369-9310;
11.03.15;Ibrahim Arends;08:30:00;18:30:00;30;130769-0;130769-0;130769-0;130769-0;130769-0;130769-0;130769-0;130769-0;130769-0;130769-0;
11.03.15;Francois van Vuuren;07:00:00;16:00:00;60;150051-9;130769-0;130769-0;130769-0;130769-0;130769-0;130769-0;130769-0;
11.03.15;Tafadzwa Mvindi;07:00:00;16:00:00;60;150051-10;150051-10;150051-10;150051-10;150051-10;150051-10;150051-10;150051-10;
11.03.15;Tashinga Chivasa;07:00:00;16:00:00;60;150051-11;150051-11;150051-11;150051-11;150051-11;150051-11;150051-11;150051-11;
11.03.15;Muya Mwansa;07:00:00;16:00:00;60;140685-556;140685-556;140685-556;140685-556;140685-567;140685-567;140685-567;140685-567;
11.03.15;Clinton Dewing;07:00:00;16:00:00;60;140685-551;140685-551;140685-551;140685-551;140685-551;140685-529;140685-529;140685-529;
11.03.15;FrancoisR Rossouw;07:00:00;16:00:00;60;140685-568;140685-568;140685-568;140685-541;140685-541;140685-541;140685-541;140685-541;
11.03.15;Gaetan Bricel Dzali Dzali;07:00:00;16:00:00;60;150051-12;150051-12;150051-12;150051-12;150051-12;150051-12;150051-12;150051-12;
11.03.15;Derek Hobden;
12.03.15;Nico Claassen;07:00:00;16:00:00;60;150051-1;150051-1;150051-1;150051-1;150051-1;150051-1;150051-1;150051-1;
12.03.15;Thando Katywa;07:00:00;16:00:00;60;140685-590;140685-590;140685-590;140685-590;140685-590;140685-590;140685-590;140685-590;
12.03.15;Paul Helliwell;
12.03.15;Ntombenkosi Yokwana;07:00:00;16:00:00;60;130769-0;130769-0 / 130056-477;130056-477;150051-6;150051-6;150051-6;150051-6;150051-6;
12.03.15;Mario Jansen van Vuuren;07:00:00;16:00:00;60;150023-0;150023-0;150023-0;150023-0;150023-0;150023-0;150023-0;150023-0;
12.03.15;Webster Ndlovu;07:00:00;16:00:00;60;130769-0;130769-0;100369-9310;100369-9310;100369-9310;100369-9310;100369-9310;100369-9310;
12.03.15;Ibrahim Arends;06:00:00;22:45:00;30;130769-0;130769-0;130769-0;130769-0;130769-0;130769-0;130769-0;130769-0;130769-0;130769-0;130769-0;130769-0;130769-0;130769-0;130769-0;130769-0;130769-0;
12.03.15;Francois van Vuuren;07:00:00;16:00:00;60;150051-9;130769-0;130769-0;130769-0;130769-0;130769-0;130769-0;130769-0;
12.03.15;Tafadzwa Mvindi;07:00:00;16:00:00;60;150051-10;150051-10;150051-10;150051-10;150051-10;150051-10;150051-10;150051-10;
12.03.15;Tashinga Chivasa;07:00:00;16:00:00;60;150051-11;150051-11;150051-11;150051-11;150051-11;150051-11;150051-11;150051-11;
12.03.15;Muya Mwansa;07:00:00;16:00:00;60;140685-556;140685-556;140685-556;140685-556;140685-556;140685-556;140685-556;140685-556 / 150121-0;
12.03.15;Clinton Dewing;07:00:00;16:00:00;60;140685-585;140685-585;140685-585;140685-585;140685-585;140685-585;140685-585;140685-585;
12.03.15;FrancoisR Rossouw;07:00:00;16:00:00;60;150121-531;150121-531;150121-531;140685-548;140685-541;140685-541;140685-541;140685-541;
12.03.15;Gaetan Bricel Dzali Dzali;07:00:00;16:00:00;60;150051-12;150051-12;150051-12;150051-12;150051-12;150051-12;150051-12;150051-12;
12.03.15;Derek Hobden;
13.03.15;Nico Claassen;07:00:00;16:00:00;60;150051-2 / 150051-1;150051-1;150051-1;150051-1;150051-1;150051-1;150051-1;150051-1;
13.03.15;Thando Katywa;07:00:00;16:00:00;60;150051-23;150051-23 / 140685-575;140685-575;140685-575;140685-575;140685-575;140685-575;140685-575;
13.03.15;Paul Helliwell;
13.03.15;Ntombenkosi Yokwana;07:00:00;16:00:00;60;140817-12;140817-12;140817-12 / 150051-14;150051-14;150051-3;150051-6;150051-6;150051-6;
13.03.15;Mario Jansen van Vuuren;07:00:00;16:00:00;60;150051-22;150051-22 / 140685-564;140685-564;140685-564;140685-564;140685-564;140685-564;140685-564;
13.03.15;Webster Ndlovu;07:00:00;16:00:00;60;150051-15;150051-15 / 130769-0;130769-0;130769-0;130769-0;130769-0;130769-0;130769-0;
13.03.15;Ibrahim Arends;09:00:00;19:00:00;30;130769-0;130769-0;130769-0;130769-0;130769-0;130769-0;130769-0;130769-0;130769-0;130769-0;
13.03.15;Francois van Vuuren;07:00:00;16:00:00;60;150051-17;150074-12;150074-12;150074-12;150074-12;150074-12;150074-12;150074-12;
13.03.15;Tafadzwa Mvindi;07:00:00;16:00:00;60;150051-18;150051-18 / 150051-10;150051-10;150051-10;150051-10;150051-10;150051-10;150051-10;
13.03.15;Tashinga Chivasa;07:00:00;16:00:00;60;130056-484;130056-484;130056-484;130056-484;130056-484;130056-484;130056-484 / 150051-19;150051-19;
13.03.15;Muya Mwansa;07:00:00;16:00:00;60;150051-26;150051-26 / 140685-567;140685-567;140685-567;140685-567;140685-567;140685-567;140685-567;
13.03.15;Clinton Dewing;07:00:00;16:00:00;60;150051-24;150051-24 / 140685-536;140685-536;140685-536;140685-536;140685-536;140685-536;140685-536;
13.03.15;FrancoisR Rossouw;07:00:00;16:00:00;60;150051-25;150051-25;150121-531;150121-531;150121-531;150121-531;150121-531;150121-531;
13.03.15;Gaetan Bricel Dzali Dzali;07:00:00;16:00:00;60;150051-12;150051-12;150051-12;150051-12;150051-12;150051-12;150051-12 / 150051-20;150051-20;
13.03.15;Derek Hobden;
14.03.15;Nico Claassen;
14.03.15;Thando Katywa;
14.03.15;Paul Helliwell;
14.03.15;Ntombenkosi Yokwana;
14.03.15;Mario Jansen van Vuuren;
14.03.15;Webster Ndlovu;
14.03.15;Ibrahim Arends;09:00:00;22:30:00;30;150330-99;150330-99;150330-99;150330-99;150330-99;150330-99;150330-99;150330-99;150330-99;150330-99;150330-99;150330-99;150330-99;
14.03.15;Francois van Vuuren;
14.03.15;Tafadzwa Mvindi;
14.03.15;Tashinga Chivasa;
14.03.15;Muya Mwansa;
14.03.15;Clinton Dewing;
14.03.15;FrancoisR Rossouw;
14.03.15;Gaetan Bricel Dzali Dzali;
14.03.15;Derek Hobden;
15.03.15;Nico Claassen;
15.03.15;Thando Katywa;
15.03.15;Paul Helliwell;
15.03.15;Ntombenkosi Yokwana;
15.03.15;Mario Jansen van Vuuren;
15.03.15;Webster Ndlovu;
15.03.15;Ibrahim Arends;05:00:00;23:30:00;30;1550330-99;1550330-99;1550330-99;1550330-99;1550330-99;1550330-99;1550330-99;1550330-99;1550330-99;1550330-99;1550330-99;1550330-99;1550330-99;1550330-99;1550330-99;1550330-99;1550330-99;1550330-99;
15.03.15;Francois van Vuuren;
15.03.15;Tafadzwa Mvindi;
15.03.15;Tashinga Chivasa;
15.03.15;Muya Mwansa;
15.03.15;Clinton Dewing;
15.03.15;FrancoisR Rossouw;
15.03.15;Gaetan Bricel Dzali Dzali;
15.03.15;Derek Hobden;
16.03.15;Nico Claassen;07:00:00;16:00:00;60;150074-20;150074-20;150074-20;150074-20;150074-20;150074-20;150051-1;150051-1;
16.03.15;Thando Katywa;07:00:00;16:00:00;60;140685-527;140685-527;140685-527;140685-527;140685-527;140685-527;140685-527;140685-527;
16.03.15;Paul Helliwell;
16.03.15;Ntombenkosi Yokwana;07:00:00;16:00:00;60;140817-10;140817-10;140817-10 / 140817-14;140817-14;140817-14 / 150051-6;150051-6;150051-6;150051-6;
16.03.15;Mario Jansen van Vuuren;07:00:00;16:00:00;60;140685-569;140685-569;140685-569;140685-569;140685-569;140685-569;140685-569;140685-569;
16.03.15;Webster Ndlovu;07:00:00;16:00:00;60;100369-9310;100369-9310;100369-9310;100369-9310;100369-9310;100369-9310;100369-9310;100369-9310;
16.03.15;Ibrahim Arends;06:00:00;23:30:00;30;150330-99;150330-99;150330-99;150330-99;150330-99;150330-99;150330-99;150330-99;150330-99;150330-99;150330-99;150330-99;150330-99;150330-99;150330-99;150330-99;150330-99;
16.03.15;Francois van Vuuren;07:00:00;16:00:00;60;150074-12;150074-12;150074-12;150074-12;150023-0;150023-0;150023-0;150023-0;
16.03.15;Tafadzwa Mvindi;07:00:00;16:00:00;60;140685-457;140685-457;140685-457;140685-457;140685-457;140685-457;140685-457;140685-457;
16.03.15;Tashinga Chivasa;07:00:00;16:00:00;60;140685-458;140685-458;140685-458;140685-458;140685-458;140685-458;140685-458;140685-458;
16.03.15;Muya Mwansa;07:00:00;16:00:00;60;140685-524;140685-524;140685-524;140685-524;140685-524;140685-524;140685-524;140685-524;
16.03.15;Clinton Dewing;07:00:00;16:00:00;60;140685-523;140685-523;140685-523;140685-523;140685-523;140685-523;140685-523;140685-523;
16.03.15;FrancoisR Rossouw;06:00:00;16:00:00;60;140685-530;140685-530;140685-530;140685-530;140685-530;140685-530;140685-530;140685-530;140685-530;
16.03.15;Gaetan Bricel Dzali Dzali;07:00:00;16:00:00;60;140685-459;140685-459;140685-459;140685-459;140685-459;140685-459;140685-459;140685-459;
16.03.15;Derek Hobden;
17.03.15;Nico Claassen;07:00:00;16:00:00;60;150074-20;150074-20;150074-20;150074-20;150074-20;150074-20;150051-1;150051-1;
17.03.15;Thando Katywa;07:00:00;18:00:00;60;140685-527;140685-527;140685-527;140685-527;140685-527;140685-527;140685-527;140685-527;140685-527;140685-527;
17.03.15;Paul Helliwell;
17.03.15;Ntombenkosi Yokwana;07:00:00;16:00:00;60;150051-6;150051-6;150051-6;150051-6;150051-6;150051-6;150051-6;150051-6;
17.03.15;Mario Jansen van Vuuren;07:00:00;16:00:00;60;140685-569;140685-569;140685-569;140685-569;140685-569;140685-569;140685-569;140685-569;
17.03.15;Webster Ndlovu;07:00:00;16:00:00;60;100369-9310;100369-9310;100369-9310;100369-9310;100369-9310;100369-9310;100369-9310;100369-9310;
17.03.15;Ibrahim Arends;08:30:00;20:00:00;30;150330-99;150330-99;150330-99;150330-99;150330-99;150330-99;150330-99;150330-99;150330-99;150330-99;150330-99;
17.03.15;Francois van Vuuren;07:00:00;16:00:00;60;150051-9;150051-9;150051-9;130056-529;130056-529;130056-529;130056-529;130056-529;
17.03.15;Tafadzwa Mvindi;07:00:00;16:00:00;60;150023-0;150023-0;150023-0;150023-0;150023-0;150023-0;150023-0;150023-0;
17.03.15;Tashinga Chivasa;07:00:00;16:00:00;60;150023-0;150023-0;150023-0;150023-0;150023-0;150023-0;150023-0;150023-0;
17.03.15;Muya Mwansa;07:00:00;16:00:00;60;150023-0;150023-0;150023-0;150023-0;150023-0;150023-0;150023-0;150023-0;
17.03.15;Clinton Dewing;07:00:00;16:00:00;60;140685-523;140685-523;140685-523;140685-523;140685-523;140685-523;140685-523;140685-523;
17.03.15;FrancoisR Rossouw;07:00:00;18:00:00;60;140685-530;140685-530;140685-530;140685-530;140685-530;140685-530;140685-530;140685-530;140685-530;140685-530;
17.03.15;Gaetan Bricel Dzali Dzali;07:00:00;16:00:00;60;140685-459;140685-459;140685-459;140685-459;140685-459;140685-459;140685-459;140685-459;
17.03.15;Derek Hobden;
18.03.15;Nico Claassen;07:00:00;16:00:00;60;150074-20;150074-20;150074-20;150074-20;150051-1;150051-1;150051-1;150051-1;
18.03.15;Thando Katywa;07:00:00;18:00:00;60;140685-527;140685-527;140685-527;140685-527;140685-527;140685-527;140685-527;140685-527;140685-527;140685-527;
18.03.15;Paul Helliwell;
18.03.15;Ntombenkosi Yokwana;07:00:00;16:00:00;60;150051-6;150051-6;150051-6;150051-6;150051-6;150051-6;150051-6;150051-6;
18.03.15;Mario Jansen van Vuuren;07:00:00;16:00:00;60;140685-569;140685-569;140685-569;140685-569;140685-569;140685-569;140685-569;140685-569;
18.03.15;Webster Ndlovu;07:00:00;16:00:00;60;100369-9310;100369-9310;100369-9310;100369-9310;100369-9310;100369-9310;100369-9310;100369-9310;
18.03.15;Ibrahim Arends;08:30:00;20:00:00;60;150330-99;150330-99;150330-99;150330-99;150330-99;150330-99;150330-99;150330-99;150330-99;150330-99;150330-99;
18.03.15;Francois van Vuuren;07:00:00;16:00:00;60;150051-9;150051-9;150051-9;150074-14;150074-14;150074-14;150074-14;150074-14;
18.03.15;Tafadzwa Mvindi;07:00:00;16:00:00;60;140685-457;140685-457;140685-457;140685-457;140685-457;140685-457;140685-457;140685-457;
18.03.15;Tashinga Chivasa;07:00:00;16:00:00;60;140685-458;140685-458;140685-458;140685-458;140685-458;140685-458;140685-458;140685-458;
18.03.15;Muya Mwansa;07:00:00;16:00:00;60;140685-524;140685-524;140685-524;140685-524;140685-524;140685-524;140685-524;140685-524;
18.03.15;Clinton Dewing;07:00:00;16:00:00;60;140685-523;140685-523;140685-523;140685-523;140685-523;140685-523;140685-523;140685-523;
18.03.15;FrancoisR Rossouw;07:00:00;18:00:00;60;140685-530;140685-530;140685-530;140685-530;140685-530;140685-530;140685-530;140685-530;140685-530;140685-530;
18.03.15;Gaetan Bricel Dzali Dzali;07:00:00;16:00:00;60;140685-459;140685-459;140685-459;140685-459;140685-459;140685-459;140685-459;140685-459;
18.03.15;Derek Hobden;
19.03.15;Nico Claassen;07:00:00;16:00:00;60;150074-0;150074-0;150051-1;150051-1;150051-1;150051-1;150051-1;150051-1;
19.03.15;Thando Katywa;07:00:00;18:00:00;60;140685-527;140685-527;140685-527;140685-527;140685-0;140685-0;140685-0;140685-0;140685-0;140685-0;
19.03.15;Paul Helliwell;
19.03.15;Ntombenkosi Yokwana;07:00:00;16:00:00;60;150051-6;150051-6;150051-6;150051-6;150051-6;150051-6;150051-6;150051-6;
19.03.15;Mario Jansen van Vuuren;07:00:00;16:00:00;60;140685-569;140685-569;140685-569;140685-569;140685-0;140685-0;140685-0;140685-0;140685-0;140685-0;
19.03.15;Webster Ndlovu;07:00:00;16:00:00;60;100369-9310;100369-9310;100369-9310;100369-9310;100369-9310;100369-9310;100369-9310;100369-9310;
19.03.15;Ibrahim Arends;08:30:00;20:45:00;30;150330-99;150330-99;150330-99;150330-99;150330-99;150330-99;150330-99;150330-99;150330-99;150330-99;150330-99;150330-99;
19.03.15;Francois van Vuuren;07:00:00;16:00:00;60;150051-9;150051-9;150051-9;150051-17;130056-529;130056-529;150074-14;150074-14;
19.03.15;Tafadzwa Mvindi;07:00:00;16:00:00;60;140685-457;140685-457;140685-457;140685-457;140685-457;140685-457;140685-457;140685-457;
19.03.15;Tashinga Chivasa;07:00:00;16:00:00;60;140685-458;140685-458;140685-458;140685-458;140685-458;140685-458;140685-458;140685-458;
19.03.15;Muya Mwansa;07:00:00;16:00:00;60;140685-524;140685-524;140685-524;140685-524;140685-524;140685-524;140685-524;140685-524;
19.03.15;Clinton Dewing;07:00:00;18:00:00;60;140685-523;140685-523;140685-523;140685-523;150051-24;150051-24 / 140685-0;140685-0;140685-0;140685-0;140685-0;
19.03.15;FrancoisR Rossouw;07:00:00;18:00:00;60;140685-530;140685-530;140685-530;140685-530;140685-530;140685-530;140685-530;140685-530;140685-530;140685-530;
19.03.15;Gaetan Bricel Dzali Dzali;07:00:00;16:00:00;60;140685-459;140685-459;140685-459;140685-459;140685-459;140685-459;140685-459;140685-459;
19.03.15;Derek Hobden;
20.03.15;Nico Claassen;07:00:00;16:00:00;60;150074-0;150074-0;150074-0;150051-1;150051-1;150051-1;150051-1;150051-2;
20.03.15;Thando Katywa;07:00:00;16:00:00;60;150051-23;150051-23 / 140685-0;140685-0;140685-0;140685-0;140685-0;140685-0;140685-0;
20.03.15;Paul Helliwell;
20.03.15;Ntombenkosi Yokwana;07:00:00;16:00:00;60;150074-0;150074-0;150074-0;150074-0;150074-0;150051-14;150051-14 / 150051-3;150051-3;
20.03.15;Mario Jansen van Vuuren;07:00:00;16:00:00;60;140685-0;140685-0;140685-0;140685-0;140685-0 / 150051-22;150051-22;140685-0;140685-0;
20.03.15;Webster Ndlovu;07:00:00;16:00:00;60;150051-15;150051-15 / 100369-9310;100369-9310;100369-9310;100369-9310;100369-9310;100369-9310;100369-9310;
20.03.15;Ibrahim Arends;09:00:00;17:30:00;30;150330-99;150330-99;150330-99;150330-99;150330-99;150330-99;150330-99;150330-99;
20.03.15;Francois van Vuuren;07:00:00;16:00:00;60;150051-17;130769-0;130769-0;130769-0;130769-0;130769-0;130769-0;130769-0;
20.03.15;Tafadzwa Mvindi;07:00:00;16:00:00;60;140685-457;140685-457;140685-457;140685-457;140685-457;140685-457;140685-457 / 150051-18;150051-18;
20.03.15;Tashinga Chivasa;07:00:00;16:00:00;60;140685-458;140685-458;140685-458;140685-458;140685-458;140685-458;140685-458 / 150051-19;150051-19;
20.03.15;Muya Mwansa;07:00:00;16:00:00;60;150051-26;150051-26 / 140685-0;140685-0;140685-0;140685-0;140685-0;140685-0;140685-0;
20.03.15;Clinton Dewing;07:00:00;16:00:00;60;140685-0;140685-0;140685-0;140685-0;140685-0;140685-0;140685-0 / 150051-24;150051-24;
20.03.15;FrancoisR Rossouw;07:00:00;16:00:00;60;140685-0;140685-0;140685-0;140685-0;140685-0;140685-0;140685-0 / 150051-25;150051-25;
20.03.15;Gaetan Bricel Dzali Dzali;07:00:00;16:00:00;60;140685-459;140685-459;140685-459;140685-459;140685-459;140685-459;140685-459 / 150051-20;150051-20;
20.03.15;Derek Hobden;
21.03.15;Nico Claassen;
21.03.15;Thando Katywa;
21.03.15;Paul Helliwell;
21.03.15;Ntombenkosi Yokwana;
21.03.15;Mario Jansen van Vuuren;
21.03.15;Webster Ndlovu;
21.03.15;Ibrahim Arends;
21.03.15;Francois van Vuuren;
21.03.15;Tafadzwa Mvindi;
21.03.15;Tashinga Chivasa;
21.03.15;Muya Mwansa;
21.03.15;Clinton Dewing;
21.03.15;FrancoisR Rossouw;
21.03.15;Gaetan Bricel Dzali Dzali;
21.03.15;Derek Hobden;
22.03.15;Nico Claassen;
22.03.15;Thando Katywa;
22.03.15;Paul Helliwell;
22.03.15;Ntombenkosi Yokwana;
22.03.15;Mario Jansen van Vuuren;
22.03.15;Webster Ndlovu;
22.03.15;Ibrahim Arends;08:00:00;16:30:00;30;150330-99;150330-99;150330-99;150330-99;150330-99;150330-99;150330-99;150330-99;
22.03.15;Francois van Vuuren;
22.03.15;Tafadzwa Mvindi;
22.03.15;Tashinga Chivasa;
22.03.15;Muya Mwansa;
22.03.15;Clinton Dewing;
22.03.15;FrancoisR Rossouw;
22.03.15;Gaetan Bricel Dzali Dzali;
22.03.15;Derek Hobden;
23.03.15;Nico Claassen;07:00:00;16:00:00;60;150074-23;150074-23;150074-23;150074-23;150074-23;150074-23;150051-1;150051-1;
23.03.15;Thando Katywa;07:00:00;16:00:00;60;140685-1;140685-1;140685-1;140685-1;140685-1;140685-1;140685-1;140685-1;
23.03.15;Paul Helliwell;
23.03.15;Ntombenkosi Yokwana;07:00:00;16:00:00;60;150074-20;150074-20;150074-20;150074-20;150074-20;150074-20;150074-20;150074-20;
23.03.15;Mario Jansen van Vuuren;07:00:00;16:00:00;60;140685-0;140685-0;140685-0;140685-0;140685-0;140685-0;140685-0;140685-0;
23.03.15;Webster Ndlovu;07:00:00;16:00:00;60;150023-0;150023-0;150023-0;150023-0;150023-0;150023-0;150023-0;150023-0;
23.03.15;Ibrahim Arends;07:00:00;20:00:00;30;150330-0;150330-0;150330-0;150330-0;150330-0;150330-0;150330-0;150330-0;150330-0;150330-0;150330-0;150330-0;150330-0;
23.03.15;Francois van Vuuren;07:00:00;16:00:00;60;130769-383;130769-383;130769-383;130769-383;130769-383;130769-383;130769-383;130769-383;
23.03.15;Tafadzwa Mvindi;07:00:00;16:00:00;60;150023-0;150023-0;150023-0;150023-0;150023-0;150023-0;150023-0;150023-0;
23.03.15;Tashinga Chivasa;07:00:00;16:00:00;60;150023-0;150023-0;150023-0;150023-0;150023-0;150023-0;150023-0;150023-0;
23.03.15;Muya Mwansa;07:00:00;16:00:00;60;140685-567;140685-567;140685-567;140685-567;140685-567;140685-567;140685-567;140685-567;
23.03.15;Clinton Dewing;07:00:00;16:00:00;60;150023-143;150023-143;150023-143;150023-143;150023-143;150023-143;150023-143;150023-143;
23.03.15;FrancoisR Rossouw;07:00:00;16:00:00;60;140685-640;140685-640;140685-640;140685-640;140685-640;140685-640;140685-640;140685-640;
23.03.15;Gaetan Bricel Dzali Dzali;07:00:00;16:00:00;60;140685-643;140685-643;140685-643;140685-643;140685-643;140685-643;140685-643;140685-643;
23.03.15;Derek Hobden;
24.03.15;Nico Claassen;07:00:00;16:00:00;60;150074-23;150074-23;150074-23;150074-23;150074-23;150074-23;150074-23;150074-23;
24.03.15;Thando Katywa;07:00:00;16:00:00;60;140685-2;140685-2;140685-2;140685-2;140685-2;140685-2;140685-2;140685-2;
24.03.15;Paul Helliwell;
24.03.15;Ntombenkosi Yokwana;07:00:00;16:00:00;60;150074-24;150074-24;150074-24;150074-24;150074-24;150074-24;150074-24;150074-24;
24.03.15;Mario Jansen van Vuuren;07:00:00;16:00:00;60;140685-0;140685-0;140685-0;140685-0;140685-0;140685-0;140685-0;140685-0;
24.03.15;Webster Ndlovu;07:00:00;16:00:00;60;100369-9310;100369-9310;100369-9310;100369-9310;100369-9310;100369-9310;100369-9310;100369-9310;
24.03.15;Ibrahim Arends;07:00:00;17:15:00;30;150330-0;150330-0;150330-0;150330-0;150330-0;150330-0;150330-0;150330-0;150330-0;150330-0;
24.03.15;Francois van Vuuren;07:00:00;16:00:00;60;150051-9;150051-9;1300369-9312;1300369-9312;1300369-9312;1300369-9312;1300369-9312;1300369-9312;
24.03.15;Tafadzwa Mvindi;07:00:00;16:00:00;60;140685-648;140685-648;140685-648;140685-648;140685-648;140685-648;140685-648;140685-648;
24.03.15;Tashinga Chivasa;07:00:00;16:00:00;60;150023-0;150023-0;150023-0;150023-0;150023-0;150023-0;150023-0;150023-0;
24.03.15;Muya Mwansa;07:00:00;16:00:00;60;150051-28;150051-28;140685-0;140685-0;140685-0;140685-0;140685-0;140685-0;
24.03.15;Clinton Dewing;07:00:00;16:00:00;60;150023-143;150023-143;150023-143;150023-143;150023-143;150023-143;150023-143;150023-143;
24.03.15;FrancoisR Rossouw;07:00:00;16:00:00;60;140685-640;140685-640;140685-640;140685-640;140685-640;140685-640;140685-640;140685-640;
24.03.15;Gaetan Bricel Dzali Dzali;07:00:00;16:00:00;60;140685-643;140685-643;140685-643;140685-643;140685-643;140685-643;140685-643;140685-643;
24.03.15;Derek Hobden;
25.03.15;Nico Claassen;07:00:00;16:00:00;60;150074-23;150074-23;150074-23;150074-23;150074-23;150074-23;150051-1;150051-1;
25.03.15;Thando Katywa;07:00:00;16:00:00;60;140685-3;140685-3;140685-3;140685-3;140685-3;140685-3;140685-3;140685-3;
25.03.15;Paul Helliwell;
25.03.15;Ntombenkosi Yokwana;07:00:00;16:00:00;60;130056-492;130056-492;130056-492;130056-492;150051-6;150051-6;150051-6;150051-6;
25.03.15;Mario Jansen van Vuuren;07:00:00;16:00:00;60;140685-0;140685-0;140685-0;140685-0;140685-0;140685-0;140685-0;140685-0;
25.03.15;Webster Ndlovu;07:00:00;16:00:00;60;150051-7;150051-7;150051-7;150051-7;150051-7;150051-7;150051-7;150051-7;
25.03.15;Ibrahim Arends;07:00:00;18:55:00;30;150330-0;150330-0;150330-0;150330-0;150330-0;150330-0;150330-0;150330-0;150330-0;150330-0;150330-0;150330-0;
25.03.15;Francois van Vuuren;07:00:00;16:00:00;60;150051-9;150051-9;100369-9312;100369-9312;100369-9312;100369-9312;100369-9312;100369-9312;
25.03.15;Tafadzwa Mvindi;07:00:00;16:00:00;60;140685-648;140685-648;140685-648;140685-648;140685-648;140685-648;140685-648;140685-648;
25.03.15;Tashinga Chivasa;07:00:00;16:00:00;60;150023-0;150023-0;150023-0;150023-0;150023-0;150023-0;150023-0;150023-0;
25.03.15;Muya Mwansa;07:00:00;16:00:00;60;140685-0;140685-0;140685-0;140685-0;140685-0;140685-0;140685-0;140685-0;
25.03.15;Clinton Dewing;07:00:00;16:00:00;60;150023-143;150023-143;150023-143;150023-143;150023-143;150023-143;150023-143;150023-143;
25.03.15;FrancoisR Rossouw;07:00:00;16:00:00;60;140685-640;140685-640;140685-640;140685-640;140685-640;140685-640;140685-640;140685-640;
25.03.15;Gaetan Bricel Dzali Dzali;07:00:00;16:00:00;60;140685-643;140685-643;140685-643;140685-643;140685-643;140685-643;140685-643;140685-643;
25.03.15;Derek Hobden;
26.03.15;Nico Claassen;07:00:00;16:00:00;60;150051-1;150051-1;150051-1;150051-1;150051-1;150051-1;150051-1;150051-1;
26.03.15;Thando Katywa;07:00:00;16:00:00;60;140685-0;140685-0;140685-0;140685-0;140685-0;140685-0;140685-0;140685-0;
26.03.15;Paul Helliwell;
26.03.15;Ntombenkosi Yokwana;07:00:00;16:00:00;60;150023-0;150023-0;150023-0;150051-14;150051-14 / 150051-3;150051-3 / 130056-492;130056-492;130056-492;
26.03.15;Mario Jansen van Vuuren;07:00:00;16:00:00;60;140685-0;140685-0;140685-0;140685-0;140685-0 / 140685-0;140685-0;140685-0;140685-0;
26.03.15;Webster Ndlovu;07:00:00;16:00:00;60;130056-496;130056-496;130056-496;130056-496;130056-496;130056-496;130056-496 / 150051-7;150051-7;
26.03.15;Ibrahim Arends;07:00:00;17:15:00;30;150330-0;150330-0;150330-0;150330-0;150330-0;150330-0;150330-0;150330-0;150330-0;150330-0;
26.03.15;Francois van Vuuren;07:00:00;16:00:00;60;1300369-9312;1300369-9312;1300369-9312;1300369-9312;1300369-9312;1300369-9312;150051-9;150051-9;
26.03.15;Tafadzwa Mvindi;07:00:00;16:00:00;60;140685-648;140685-648;140685-648;140685-648;140685-648;140685-648;140685-648;140685-648;
26.03.15;Tashinga Chivasa;07:00:00;16:00:00;60;150023-0;150023-0;150023-0;150023-0;150023-0;150023-0;150023-0;150023-0;
26.03.15;Muya Mwansa;07:00:00;16:00:00;60;140685-0;140685-0;140685-0;140685-0;140685-0;140685-0;140685-0;140685-0;
26.03.15;Clinton Dewing;07:00:00;16:00:00;60;150023-143;150023-143;150023-143;150023-143;150023-143;150023-143;150023-143;150023-143;
26.03.15;FrancoisR Rossouw;07:00:00;16:00:00;60;140685-640;140685-640;140685-640;140685-640;140685-640;140685-640;140685-640;140685-640;
26.03.15;Gaetan Bricel Dzali Dzali;07:00:00;16:00:00;60;140685-643;140685-643;140685-643;140685-643;140685-643;140685-643;140685-643;140685-643;
26.03.15;Derek Hobden;
27.03.15;Nico Claassen;07:00:00;16:00:00;60;150051-1;150051-1;150051-1;150051-1;150051-1;150051-1;150051-1;150051-2;
27.03.15;Thando Katywa;07:00:00;16:00:00;60;150051-23;150051-23 / 140685-4;140685-4;140685-4;140685-4;140685-4;140685-4;140685-4;
27.03.15;Paul Helliwell;
27.03.15;Ntombenkosi Yokwana;07:00:00;16:00:00;60;150023-0;150023-0;150023-0;150023-0;150023-0;150023-0;150023-0;150023-0;
27.03.15;Mario Jansen van Vuuren;07:00:00;16:00:00;60;150051-22;150051-22 / 140685-0;140685-0;140685-0;140685-0;140685-0;140685-0;140685-0;
27.03.15;Webster Ndlovu;07:00:00;16:00:00;60;150051-15;150051-15 / 130056-497;130056-497;130056-497;130056-497 / 150051-7;150051-7;150051-7;150051-7;
27.03.15;Ibrahim Arends;07:00:00;18:30:00;30;150330-0;150330-0;150330-0;150330-0;150330-0;150330-0;150330-0;150330-0;150330-0;150330-0;150330-0;
27.03.15;Francois van Vuuren;07:00:00;16:00:00;60;150051-17;150051-17;150051-17 / 100369-9312;100369-9312;100369-9312;100369-9312;100369-9312;100369-9312;
27.03.15;Tafadzwa Mvindi;07:00:00;16:00:00;60;150051-18;150051-18 / 150051-10;150051-10;150051-10;150051-10;150051-10;150051-10;150051-10;
27.03.15;Tashinga Chivasa;07:00:00;16:00:00;60;150023-0;150023-0;150023-0;150023-0;150023-0;150023-0;150023-0;150023-0;
27.03.15;Muya Mwansa;07:00:00;16:00:00;60;150051-26;150051-26 / 140685-0;140685-0;140685-0;140685-0;140685-0;140685-0;140685-0;
27.03.15;Clinton Dewing;07:00:00;16:00:00;60;150023-143;150023-143;150023-143;150023-143;150023-143;150023-143;150023-143;150023-143;
27.03.15;FrancoisR Rossouw;07:00:00;16:00:00;60;140685-640;140685-640;140685-640;140685-640;140685-640;140685-640;140685-640 / 150051-25;150051-25;
27.03.15;Gaetan Bricel Dzali Dzali;07:00:00;16:00:00;60;150051-20;150051-20 / 150051-12;150051-12;150051-12;150051-12;150051-12;150051-12;150051-12;
27.03.15;Derek Hobden;
28.03.15;Nico Claassen;
28.03.15;Thando Katywa;
28.03.15;Paul Helliwell;
28.03.15;Ntombenkosi Yokwana;
28.03.15;Mario Jansen van Vuuren;
28.03.15;Webster Ndlovu;
28.03.15;Ibrahim Arends;07:00:00;19:30:00;30;150330-0;150330-0;150330-0;150330-0;150330-0;150330-0;150330-0;150330-0;150330-0;150330-0;150330-0;150330-0;
28.03.15;Francois van Vuuren;
28.03.15;Tafadzwa Mvindi;
28.03.15;Tashinga Chivasa;
28.03.15;Muya Mwansa;
28.03.15;Clinton Dewing;
28.03.15;FrancoisR Rossouw;
28.03.15;Gaetan Bricel Dzali Dzali;
28.03.15;Derek Hobden;
29.03.15;Nico Claassen;
29.03.15;Thando Katywa;
29.03.15;Paul Helliwell;
29.03.15;Ntombenkosi Yokwana;
29.03.15;Mario Jansen van Vuuren;
29.03.15;Webster Ndlovu;
29.03.15;Ibrahim Arends;07:00:00;13:30:00;30;150330-0;150330-0;150330-0;150330-0;150330-0;150330-0;
29.03.15;Francois van Vuuren;
29.03.15;Tafadzwa Mvindi;
29.03.15;Tashinga Chivasa;
29.03.15;Muya Mwansa;
29.03.15;Clinton Dewing;
29.03.15;FrancoisR Rossouw;
29.03.15;Gaetan Bricel Dzali Dzali;
29.03.15;Derek Hobden;
30.03.15;Nico Claassen;07:00:00;16:00:00;60;150023-0;150023-0;150023-0;150023-0;150023-0;150023-0;150023-0;150023-0;
30.03.15;Thando Katywa;07:00:00;16:00:00;60;140685-0;140685-0;140685-0;140685-0;140685-0;140685-0;140685-0;140685-0;
30.03.15;Paul Helliwell;
30.03.15;Ntombenkosi Yokwana;07:00:00;16:00:00;60;150023-0;150023-0;150023-0;150023-0;150023-0;150023-0;150023-0;150023-0;
30.03.15;Mario Jansen van Vuuren;07:00:00;16:00:00;60;140685-0;140685-0;140685-0;140685-0;140685-0;140685-0;140685-0;140685-0;
30.03.15;Webster Ndlovu;07:00:00;16:00:00;60;150103-11;150103-11;150103-11;130056-465;130056-465;130056-465;130056-465;130056-465;
30.03.15;Ibrahim Arends;07:00:00;17:00:00;60;150330-0;150330-0;150330-0;150330-0;150330-0;150330-0;150330-0;150330-0;150330-0;
30.03.15;Francois van Vuuren;07:00:00;16:00:00;60;100369-9312;100369-9312;100369-9312;100369-9312;150051-9;150051-9;150051-9;150051-17;
30.03.15;Tafadzwa Mvindi;07:00:00;16:00:00;60;130056-493;130056-493;130056-493;130056-493;130056-493;150051-10;150051-10;150051-10;
30.03.15;Tashinga Chivasa;07:00:00;16:00:00;60;150023-0;150023-0;150023-0;150023-0;150023-0;150023-0;150023-0;150023-0;
30.03.15;Muya Mwansa;07:00:00;16:00:00;60;140685-0;140685-0;140685-0;140685-0;140685-0;140685-0;140685-0;140685-0;
30.03.15;Clinton Dewing;07:00:00;16:00:00;60;150023-143;150023-143;150023-143;150023-143;150023-143;150023-143;150023-143;150023-143;
30.03.15;FrancoisR Rossouw;07:00:00;16:00:00;60;150023-0;150023-0;150023-0;150023-0;150023-0;150023-0;150023-0;150023-0;
30.03.15;Gaetan Bricel Dzali Dzali;07:00:00;16:00:00;60;150051-12;150051-12;150051-12;150051-12;150051-12;150051-12;150051-12;150051-12;
30.03.15;Derek Hobden;
31.03.15;Nico Claassen;07:00:00;16:00:00;60;150074-23;150074-23;150074-23;150074-23;150074-23;150074-23;150074-23;150074-23;
31.03.15;Thando Katywa;07:00:00;16:00:00;60;150023-0;150023-0;150023-0;150023-0;150023-0;150023-0;150023-0;150023-0;
31.03.15;Paul Helliwell;
31.03.15;Ntombenkosi Yokwana;07:00:00;16:00:00;60;150051-6;150051-6;150051-6;150051-6;150051-6;150051-6;150051-6;150051-6;
31.03.15;Mario Jansen van Vuuren;07:00:00;16:00:00;60;140343-0;140343-0;140343-0;140343-0;140343-0;150343-4;150343-4;150343-4;
31.03.15;Webster Ndlovu;07:00:00;16:00:00;60;130056-465;130056-465;130056-465;130056-465;130056-465;130056-465;130056-465;130056-465;
31.03.15;Ibrahim Arends;07:00:00;17:00:00;60;150330-0;150330-0;150330-0;150330-0;150330-0;150330-0;150330-0;150330-0;150330-0;
31.03.15;Francois van Vuuren;07:00:00;16:00:00;60;130056-484;130056-484;130056-484;130056-484;130056-484;130056-484;130056-484;130056-484;
31.03.15;Tafadzwa Mvindi;07:00:00;16:00:00;60;130056-493;130056-493;130056-493;130056-493;130056-493;150051-10;150051-10;150051-10;
31.03.15;Tashinga Chivasa;07:00:00;16:00:00;60;150023-0;150023-0;150023-0;150023-0;150023-0;150023-0;150023-0;150023-0;
31.03.15;Muya Mwansa;07:00:00;16:00:00;60;150023-1055;150023-1055;150023-1055;150023-1055;150023-1055;150023-1055;150023-1055;150023-1055;
31.03.15;Clinton Dewing;07:00:00;16:00:00;60;150023-143;150023-143;150023-143;150023-143;150023-143;150023-143;150023-143;150023-143;
31.03.15;FrancoisR Rossouw;07:00:00;16:00:00;60;140685-640;140685-640;140685-640;140685-640;140685-640;140685-640;140685-640;140685-640;
31.03.15;Gaetan Bricel Dzali Dzali;07:00:00;16:00:00;60;150051-12;150051-12;150051-12;150051-12;150051-12;150051-12;150051-12;150051-12;
31.03.15;Derek Hobden;