"16.03.15","1","140817","10","120","Codierung","","0","FEAT-5027: Erweiter. ODX-Daten: EBS2 (Bremse): Review. FEAT-5027: Erweiter. ODX-Daten: EBS2 (Bremse): Review","07:00","16:00","2,4","60",
"16.03.15","1","140817","14","120","Codierung","","100","FEAT-5027: Erweiter. ODX-Daten: EBS5 (Bremse): Review. FEAT-5027: Erweiter. ODX-Daten: EBS5 (Bremse): Review","","","2,4","0",
"16.03.15","1","140817","12","120","Codierung","","100","FEAT-5027: Erweiter. ODX-Daten: KR495 (Klima): Review. closing task","","","0","0",
"16.03.15","1","150051","6","170","Schulung","","0","Training AES 2015. Training AES 2015","","","3,2","0",
"17.03.15","2","150051","6","170","Schulung","","0","Training AES 2015. Training AES 2015","07:00","16:00","8","60",
"18.03.15","3","150051","6","170","Schulung","","0","Training AES 2015. Training AES 2015","07:00","16:00","8","60",
"19.03.15","4","150051","6","170","Schulung","","0","Training AES 2015. Training AES 2015","07:00","16:00","8","60",
"20.03.15","5","150074","0","170","Schulung","","0","PDCS Training (Week 15 - 20). Creating training slides for Roller bench test","07:00","16:00","5","60",
"20.03.15","5","150051","14","170","Schulung","","0","Weekly tasks AES 2015. Meeting and timesheets","","","1,5","0",
"20.03.15","5","150051","3","101","PM/Mod/Meetings","","0","Management AES 2015. Management AES 2015","","","1,5","0",
