"23.02.15","1","130769","294","120","Codierung","","0","10-1048: Release 10: ECU OCM coding + test . 10-1048: Release 10: ECU OCM coding + test ","09:15","19:10","4","30",
"23.02.15","1","130769","295","120","Codierung","","0","10-1049: Release 10: ECU CBC coding + test . 10-1049: Release 10: ECU CBC coding + test ","","","5,42","0",
"24.02.15","2","130769","295","120","Codierung","","0","10-1049: Release 10: ECU CBC coding + test . 10-1049: Release 10: ECU CBC coding + test ","09:00","18:30","2,6","30",
"24.02.15","2","130769","297","120","Codierung","","0","10-1051: Release 10: ECU TPMS coding + test . 10-1051: Release 10: ECU TPMS coding + test ","","","6,4","0",
"25.02.15","3","130769","297","120","Codierung","","0","10-1051: Release 10: ECU TPMS coding + test . 10-1051: Release 10: ECU TPMS coding + test ","07:00","18:00","1,6","30",
"25.02.15","3","130769","298","120","Codierung","","0","10-1052: Release 10: ECU LRR coding + test . 10-1052: Release 10: ECU LRR coding + test ","","","8,9","0",
"26.02.15","4","130769","298","120","Codierung","","0","10-1052: Release 10: ECU LRR coding + test . 10-1052: Release 10: ECU LRR coding + test ","08:00","17:30","7,1","30",
"26.02.15","4","130769","299","120","Codierung","","0","10-1053: Release 10: ECU MPC coding + test . 10-1053: Release 10: ECU MPC coding + test ","","","1,9","0",
"27.02.15","5","130769","299","120","Codierung","","0","10-1053: Release 10: ECU MPC coding + test . 10-1053: Release 10: ECU MPC coding + test ","08:00","16:30","8","30",
