"16.02.15","1","150121","0","181","Fehlerbes. vor Ausl. (Bugzilla)","","100","Bug 55831. Reopened","07:00","16:00","4","60",
"16.02.15","1","150121","0","181","Fehlerbes. vor Ausl. (Bugzilla)","","100","Bug 55673. Reopened","","","4","0",
"17.02.15","2","150121","0","181","Fehlerbes. vor Ausl. (Bugzilla)","","0","Bug 55793 - Tabellegrößen . Bug 55793 - Tabellegrößen ","07:00","16:00","8","60",
"18.02.15","3","150121","0","181","Fehlerbes. vor Ausl. (Bugzilla)","","100","Bug 55793 - Tabellegrößen . Bug 55793 - Tabellegrößen ","07:00","16:00","8","60",
"19.02.15","4","150121","430","181","Fehlerbes. vor Ausl. (Bugzilla)","","100","10-1000: Bugfixing (Puffer). 10-1000: Bugfixing (Puffer)","07:00","16:00","8","60",
"20.02.15","5","150051","24","101","PM/Mod/Meetings","","0","S4/DSA overall tasks 2015. S4/DSA overall tasks 2015","07:00","16:00","1,5","60",
"20.02.15","5","150121","408","120","Codierung","","100","10-1050: CR502fs1-311_Spannung_FAP_Header: Impl. Closing task","","","0","0",
"20.02.15","5","150121","406","104","Test-Spezifikation","","100","10-1050: CR502fs1-311_Spannung_FAP_Header: Testspec SWIS erstellen. Closing task","","","0","0",
"20.02.15","5","150121","430","181","Fehlerbes. vor Ausl. (Bugzilla)","","0","10-1000: Bugfixing (Puffer). 10-1000: Bugfixing (Puffer)","","","6,5","0",
