"02.03.15","1","150074","13","120","Codierung","","0","10-1001: PRODIS.PDCS: Update /eda10. Migrating scripts + BB's to PDCS","07:00","16:00","5","60",
"02.03.15","1","150074","4","120","Codierung","","0","10-1002: PRODIS.PDCS: IDT Roller /eda10. Minor update for Plant Config","","","0,5","0",
"02.03.15","1","150051","4","170","Schulung","","0","Training AES 2015. Training for new empoyee on P.Automation","","","1","0",
"02.03.15","1","150051","1","101","PM/Mod/Meetings","","0","General project management / Teamsupport AES 2015. General management + Support","","","1,5","0",
"03.03.15","2","150074","13","120","Codierung","","0","10-1001: PRODIS.PDCS: Update /eda10. Migrating scripts + BB's to PDCS","07:00","16:00","5","60",
"03.03.15","2","150051","1","101","PM/Mod/Meetings","","0","General project management / Teamsupport AES 2015. General management + support","","","3","0",
"04.03.15","3","150051","2","101","PM/Mod/Meetings","","0","Management AES 2015. Staff Meeting","07:00","16:00","1","60",
"04.03.15","3","150074","13","120","Codierung","","0","Migrating scripts + BB's to PDCS. Creating update sequence","","","4","0",
"04.03.15","3","150051","1","101","PM/Mod/Meetings","","0","General project management / Teamsupport AES 2015. General management + support","","","3","0",
"05.03.15","4","150074","13","120","Codierung","","0","Migrating scripts + BB's to PDCS. Debugging + Configuring RTS","07:00","16:00","3","60",
"05.03.15","4","150074","5","101","PM/Mod/Meetings","","0","00-9120: Kickoff meeting and project meetings. Telco with om","","","0,5","0",
"05.03.15","4","150051","1","101","PM/Mod/Meetings","","0","General project management / Teamsupport AES 2015. General management + support","","","4,5","0",
"06.03.15","5","150051","2","101","PM/Mod/Meetings","","0","Management AES 2015. Timesheets + Meetings","07:00","16:00","1,5","60",
"06.03.15","5","150074","17","120","Codierung","","0","(from s66) 10-1002: PRODIS.PDCS: Appflow /eda10. Installing patches and getting into subject","","","2","0",
"06.03.15","5","150074","6","120","Codierung","","100","10-1001: PRODIS.PDCS: Read Vehicle Data /eda10. Minor adjustement for Plant Config","","","1","0",
"06.03.15","5","150051","1","101","PM/Mod/Meetings","","0","General project management / Teamsupport AES 2015. General management + support","","","3,5","0",
