"29.12.14","1","140702","17","120","Codierung","","0","10-1002: PSA Flash: Entwick.Java Flashablauf auf Basis der P-Office Implementierung /eda10. 10-1002: PSA Flash: Entwick.Java Flashablauf auf Basis der P-Office Implementierung /eda10","07:00","16:00","8","60",
"30.12.14","2","140023","0","910","Urlaub","","0","Urlaub. Urlaub","07:00","16:00","8","60",
"31.12.14","3","140023","0","910","Urlaub","","0","Urlaub. Urlaub","07:00","16:00","8","60",
"01.01.15","4","140023","0","910","Urlaub","","0","Urlaub. Urlaub","07:00","16:00","8","60",
"02.01.15","5","140023","0","910","Urlaub","","0","Urlaub. Urlaub","07:00","16:00","8","60",
