"09.03.15","1","150121","484","140","Test","","0","10-1000: 14.8.1 Regressionstest PIDT 14.8.1 /eda10. PIDT Testing ","07:00","16:00","8","60",
"10.03.15","2","150121","484","140","Test","","0","10-1000: 14.8.1 Regressionstest PIDT 14.8.1 /eda10. PIDT Testing","07:00","16:00","8","60",
"11.03.15","3","150051","11","170","Schulung","","0","Training AES 2015. Training ","07:00","16:00","8","60",
"12.03.15","4","150051","11","170","Schulung","","0","Training AES 2015. Training","07:00","16:00","8","60",
"13.03.15","5","130056","484","120","Codierung","","0","50_FEAT-4957: ASCS 1.8.0: Refactor Actuator Test: Refactor Actuator Test /eda50. Implementing new changes to the Actuator CTS. Rework and Modularising CTS","07:00","16:00","6,5","60",
"13.03.15","5","150051","19","170","Schulung","","0","Weekly tasks AES 2015. Timesheets and Meetings","","","1,5","0",
