"01.08.16","1","160025","0","404","Internal Training, Project Handover","","0","RRO 2016 Update. Create backups of Statistics and Line Server. Contact IT department for access to Server rooms","09:30","18:50","8,83","30",
"02.08.16","2","160025","0","404","Internal Training, Project Handover","","0","RR2016 Server Update. restore B server in RPBE. Work in Server room. Continue back up of Statistics server. Start RR2016","08:15","21:00","12,25","30",
"03.08.16","3","160025","0","404","Internal Training, Project Handover","","0","RR2016 Server Update. Create Clone of Coldstart from MFT3 and flash MFT2d2x. Test testers in RPBE Continue server install","08:15","20:30","11,75","30",
"04.08.16","4","160025","0","404","Internal Training, Project Handover","","0","RR2016 Server Update. Finish Server updates. Install hot patched for server. Install Coldstart of MFT2dx.xtx testers.","08:15","21:30","12,75","30",
"05.08.16","5","160025","0","404","Internal Training, Project Handover","","0","RR2016 Server Update. Bug Fixes. ASV Import bug fix, ProdatData fix, Roller bench tests. Drive back to Aachen","08:15","19:50","11,08","30",
