"07.11.16","1","150076","238","181","Fehlerbes. vor Ausl. (Bugzilla)","","0","FEAT-7841 PRODIS.ASCS R04.10 Bugfixing -SYT Bugs. FEAT-7841 PRODIS.ASCS R04.10 Bugfixing -SYT Bugs","07:00","16:00","8","60",
"08.11.16","2","150076","238","181","Fehlerbes. vor Ausl. (Bugzilla)","","0","FEAT-7841 PRODIS.ASCS R04.10 Bugfixing -SYT Bugs. FEAT-7841 PRODIS.ASCS R04.10 Bugfixing -SYT Bugs","07:00","16:00","8","60",
"09.11.16","3","150076","238","181","Fehlerbes. vor Ausl. (Bugzilla)","","0","FEAT-7841 PRODIS.ASCS R04.10 Bugfixing -SYT Bugs. FEAT-7841 PRODIS.ASCS R04.10 Bugfixing -SYT Bugs","07:00","16:00","8","60",
"10.11.16","4","150076","243","120","Codierung","","0"," 	FEAT-7811 Measurement Sequence Rework.  	FEAT-7811 Measurement Sequence Rework","07:00","16:00","8","60",
"11.11.16","5","160051","2","101","PM/Mod/Meetings","","0","Management AES 2016. Management AES 2016","07:00","16:00","1","60",
"11.11.16","5","160051","11","101","PM/Mod/Meetings","","0","Weekly tasks AES 2016. Meeting and timesheets","","","1","0",
"11.11.16","5","150076","243","120","Codierung","","0"," 	FEAT-7811 Measurement Sequence Rework.  	FEAT-7811 Measurement Sequence Rework","","","2","0",
"11.11.16","5","150577","47","120","Codierung","","0","Diagnostic application customizing. (from s64) Diagnostic application customizing","","","4","0",
