"18.07.16","1","150074","419","140","Test","","0","326_ORG-9120: PDCS: Testmanagement / Testcoverage. CAN Trace Daemon Testing","07:00","16:00","8","60",
"19.07.16","2","150074","436","160","Dokumentation","","0","326_ORG-9120: PDCS: Documentation. PDCS Documentation","07:00","16:00","8","60",
"20.07.16","3","150074","436","160","Dokumentation","","0","326_ORG-9120: PDCS: Documentation. PDCS Documentation","07:00","16:00","5","60",
"20.07.16","3","150074","436","160","Dokumentation","","0","326_ORG-9120: PDCS: Documentation. Requirement, Design and Test Cases for Simulation Mode for Dialogs","","","3","0",
"21.07.16","4","150074","442","120","Codierung","","0","326_FEAT-6714: PDCS: Simulation Mode for Dialogs. Implementation of Simulation Mode for Dialogs","07:00","16:00","8","60",
"22.07.16","5","150074","442","120","Codierung","","0","326_FEAT-6714: PDCS: Simulation Mode for Dialogs. Implementation of Simulation Mode for Dialogs","07:00","16:00","8","60",
