"01.08.16","1","160025","0","404","Internal Training, Project Handover","","0","Training: MAN Documentation. Training: MAN Documentation","07:00","16:00","8","60",
"02.08.16","2","160025","0","404","Internal Training, Project Handover","","0","Training: creating ASCS WTS ''Help'' option. Training: creating ASCS WTS ''Help'' option","07:00","16:00","8","60",
"03.08.16","3","160025","0","910","Urlaub","","0","Public Holiday. Public Holiday","07:00","16:00","8","60",
"04.08.16","4","160025","0","404","Internal Training, Project Handover","","0","Training: Creating ASCS WTS ''Help'' option and creating BB converting bytefield to SRecord. Training: Creating ASCS WTS ''Help'' option and creating BB converting bytefield to SRecord","07:00","16:00","8","60",
"05.08.16","5","160025","0","404","Internal Training, Project Handover","","0","Training: Creating BB converting bytefield to SRecord. Training: Creating BB converting bytefield to SRecord","07:00","16:00","8","60",
