"25.04.16","1","150790","81","120","Codierung","","0","10-1103: PIDT-494: Implementierung CR609my3-356_ZugriSchut (8). Implementierung","07:00","16:00","4","60",
"25.04.16","1","150790","68","104","Test-Spezifikation","","0","10-1103: PIDT-494: Testspec CR609my3-356_ZugriSchut (8). Testspec","","","4","0",
"26.04.16","2","150790","68","104","Test-Spezifikation","","0","10-1103: PIDT-494: Testspec CR609my3-356_ZugriSchut (8). Testspec","07:00","16:00","8","60",
"27.04.16","3","160023","607","910","Urlaub","","0","Urlaubsinfo 27.04.2016-02.05.2016. Urlaub","07:00","16:00","8","60",
"28.04.16","4","160023","607","910","Urlaub","","0","Urlaubsinfo 27.04.2016-02.05.2016. Urlaub","07:00","16:00","8","60",
"29.04.16","5","160023","607","910","Urlaub","","0","Urlaubsinfo 27.04.2016-02.05.2016. Urlaub","07:00","16:00","8","60",
