"03.10.16","1","150751","57","140","Test","","0","10-1109: PIDT-511: Integrationstests CR631my6-378_jRTS326 (20). 10-1109: PIDT-511: Integrationstests CR631my6-378_jRTS326 (20)","07:00","16:00","4","60",
"03.10.16","1","160025","248","170","Schulung","","0","Training 2016. Training 2016","","","4","0",
"04.10.16","2","150791","136","120","Codierung","","0","10-1116: PIDT-519: Implementierung CR634da1-384_MJCodZDC (2). 10-1116: PIDT-519: Implementierung CR634da1-384_MJCodZDC (2)","07:00","16:00","8","60",
"05.10.16","3","150791","136","120","Codierung","","0","10-1116: PIDT-519: Implementierung CR634da1-384_MJCodZDC (2). 10-1116: PIDT-519: Implementierung CR634da1-384_MJCodZDC (2)","07:00","16:00","8","60",
"06.10.16","4","150791","136","120","Codierung","","0","10-1116: PIDT-519: Implementierung CR634da1-384_MJCodZDC (2). 10-1116: PIDT-519: Implementierung CR634da1-384_MJCodZDC (2)","07:00","16:00","8","60",
"07.10.16","5","160022","61","110","Engineering","","0","Weekly tasks DSE 2016. Weekly tasks DSE 2016","07:00","16:00","1,5","60",
"07.10.16","5","150791","0","110","Engineering","","0","Setting up development environment. Setting up development environment","","","4","0",
"07.10.16","5","150791","11","181","Fehlerbes. vor Ausl. (Bugzilla)","","0","10-1099: PIDT 16.4: Bugfixing. 10-1099: PIDT 16.4: Bugfixing","","","2,5","0",
