"12.12.16","1","160025","459","170","Schulung","","0","training . training","07:00","16:00","8","60",
"13.12.16","2","160025","459","170","Schulung","","0","training. training","07:00","16:00","8","60",
"14.12.16","3","160025","459","170","Schulung","","0","training. training","07:00","16:00","8","60",
"15.12.16","4","160025","459","170","Schulung","","0","training. training","07:00","16:00","4","60",
"15.12.16","4","160023","0","910","Urlaub","","0","annual leave. annual leave","","","4","0",
"16.12.16","5","160023","0","910","Urlaub","","0","public holiday. public holiday","07:00","16:00","8","60",
