"27.06.16","1","160018","36","101","PM/Mod/Meetings","","0","Waiting for tasks. Waiting for tasks","07:00","16:00","8","60",
"28.06.16","2","160018","36","101","PM/Mod/Meetings","","0","Waiting for tasks. Waiting for tasks","07:00","16:00","8","60",
"29.06.16","3","160018","36","101","PM/Mod/Meetings","","0","Waiting for tasks. Waiting for tasks","07:00","16:00","5","60",
"29.06.16","3","150074","455","181","Fehlerbes. vor Ausl. (Bugzilla)","","0","326_ORG-9120: PDCS: Bugfixing. Bugfix verification: Bug 65750, 65751, 65806","","","3","0",
"30.06.16","4","160018","36","101","PM/Mod/Meetings","","0","Waiting for tasks. Waiting for tasks","07:00","16:00","8","60",
"01.07.16","5","160051","16","101","PM/Mod/Meetings","","0","Weekly tasks AES 2016. S4 Meetings and Timesheets","07:00","16:00","1","60",
"01.07.16","5","160018","36","101","PM/Mod/Meetings","","0","Waiting for tasks. Waiting for tasks","","","2","0",
"01.07.16","5","150074","455","181","Fehlerbes. vor Ausl. (Bugzilla)","","0","326_ORG-9120: PDCS: Bugfixing. Replacing the demo key learning sequence with an Immobilizer ODX one and updating the documentation","","","5","0",
