"19.09.16","1","130890","375","150","Inbetriebnahme","","0","9999: Wrzesnia Support. VW support","07:00","20:00","12","60",
"20.09.16","2","130890","375","150","Inbetriebnahme","","0","9999: Wrzesnia Support. VW support","07:00","20:00","12","60",
"21.09.16","3","130890","375","150","Inbetriebnahme","","0","9999: Wrzesnia Support. VW Support","06:00","23:00","17","0",
"22.09.16","4","130890","375","150","Inbetriebnahme","","0","9999: Wrzesnia Support. VW Support","07:00","23:00","16","0",
"23.09.16","5","130890","375","150","Inbetriebnahme","","0","9999: Wrzesnia Support. VW Support","07:00","18:00","10","60",
"24.09.16","6","130890","375","150","Inbetriebnahme","","0","9999: Wrzesnia Support. VW Support","07:00","16:00","8","60",
"25.09.16","7","130890","375","150","Inbetriebnahme","","0","9999: Wrzesnia Support. VW Support","07:00","23:00","15","60",
