"22.08.16","1","150076","201","120","Codierung","","0","FEAT-6203 - Navigation Variant Support. implementation","07:00","16:00","8","60",
"23.08.16","2","150076","201","120","Codierung","","0","FEAT-6203 - Navigation Variant Support. Implementation","07:00","16:00","8","60",
"24.08.16","3","150076","201","120","Codierung","","0","FEAT-6203 - Navigation Variant Support. Implementation","07:00","16:00","8","60",
"25.08.16","4","150076","201","120","Codierung","","0","FEAT-6203 - Navigation Variant Support. Implementation","07:00","16:00","8","60",
"26.08.16","5","160051","11","101","PM/Mod/Meetings","","0","Weekly tasks AES 2016. Meeting and timesheets","07:00","16:00","1","60",
"26.08.16","5","160051","2","101","PM/Mod/Meetings","","0","Management AES 2016. Management AES 2016","","","1","0",
"26.08.16","5","150076","217","101","PM/Mod/Meetings","","0"," FEAT-6744 - PRODIS.ASCS R04.08 Project Management.  FEAT-6744 - PRODIS.ASCS R04.08 Project Management","","","2","0",
"26.08.16","5","150076","201","101","PM/Mod/Meetings","","0","FEAT-6203 - Navigation Variant Support. Implementation","","","4","0",
