"12.12.16","1","130890","512","120","Entwicklung: Codierung, Schaltplanerstellung, PCB-Layout","","0","MS3 IPBs: Implementierung: 003C Spurwechselassistent. Creating NOK Tests","07:00","16:00","8","60",
"13.12.16","2","130890","470","120","Entwicklung: Codierung, Schaltplanerstellung, PCB-Layout","","0","MS3 IPBs: Implementierung: 00BC Tuer Beifahrerseite hinten. Creating NOK Tests","07:00","16:00","8","60",
"14.12.16","3","130890","480","120","Entwicklung: Codierung, Schaltplanerstellung, PCB-Layout","","0","MS3 IPBs: Implementierung: 00BB Tuer Fahrerseite hinten. Creating NOK Tests","07:00","16:00","8","60",
"15.12.16","4","130890","481","120","Entwicklung: Codierung, Schaltplanerstellung, PCB-Layout","","0","MS3 IPBs: Implementierung: 0052 Tuerelektronik Beifahrer. Creating NOK Tests","07:00","16:00","8","60",
"16.12.16","5","160023","0","910","Urlaub","","0","Urlaub. Urlaub","07:00","16:00","8","60",
