"23.05.16","1","150790","169","182","Fehlerbes. nach Ausl. (Bugzilla)","","0","9999: PIDT 16.2: Bugfixing aus Vorrelease. Bug Fixing","07:00","16:00","7","60",
"23.05.16","1","160051","27","101","PM/Mod/Meetings","","0","S4/DSA overall tasks 2016. Meeting","","","1","0",
"24.05.16","2","150790","169","182","Fehlerbes. nach Ausl. (Bugzilla)","","0","9999: PIDT 16.2: Bugfixing aus Vorrelease. Bug Fixing","07:00","16:00","4","60",
"24.05.16","2","150790","97","120","Codierung","","0","10-1103: PIDT-494: Review and test issues before CF CR609my3-356_ZugriSchut (8). Review Fixes","","","4","0",
"25.05.16","3","150790","97","120","Codierung","","0","10-1103: PIDT-494: Review and test issues before CF CR609my3-356_ZugriSchut (8). Review Fixes","07:00","16:00","7,5","60",
"25.05.16","3","160051","27","101","PM/Mod/Meetings","","0","S4/DSA overall tasks 2016. Timesheets","","","0,5","0",
"26.05.16","4","150790","169","182","Fehlerbes. nach Ausl. (Bugzilla)","","0","9999: PIDT 16.2: Bugfixing aus Vorrelease. Bug Fixing","07:00","16:00","8","60",
"27.05.16","5","150790","169","182","Fehlerbes. nach Ausl. (Bugzilla)","","0","9999: PIDT 16.2: Bugfixing aus Vorrelease. Bug Fixing","07:00","16:00","8","60",
