"19.09.16","1","150751","17","120","Codierung","","0","10-1109: PIDT-511: Implementierung CR631my6-378_jRTS326 (20). Supporting JRTS merge and fixing bugs","07:00","16:00","8","60",
"20.09.16","2","150791","28","120","Codierung","","0","10-1107: PIDT-509: Implementierung CR631my4-370_StatuDSDLJobMCR (5). Fixing SingleEcuJobs for coding the door ECUs","07:00","16:00","8","60",
"21.09.16","3","150791","28","120","Codierung","","0","10-1107: PIDT-509: Implementierung CR631my4-370_StatuDSDLJobMCR (5). Working on feature","07:00","16:00","8","60",
"22.09.16","4","150791","28","120","Codierung","","0","10-1107: PIDT-509: Implementierung CR631my4-370_StatuDSDLJobMCR (5). Working on feature","07:00","16:00","8","60",
"23.09.16","5","150791","28","120","Codierung","","0","10-1107: PIDT-509: Implementierung CR631my4-370_StatuDSDLJobMCR (5). Working on feature","07:00","16:00","6,5","60",
"23.09.16","5","160051","21","101","PM/Mod/Meetings","","0","S4/DSA overall tasks 2016. Meetings and admin","","","1,5","0",
