"25.07.16","1","160051","27","101","PM/Mod/Meetings","","0","S4/DSA overall tasks 2016. Meeting","07:00","16:00","1","60",
"25.07.16","1","150791","0","181","Fehlerbes. vor Ausl. (Bugzilla)","","0","PIDT 16.4 Bugfixing. Bugfixing","","","7","0",
"26.07.16","2","160023","0","910","Urlaub","","0","Installing Win 8.1, required software.. Installing Win 8.1, required software.","07:00","16:00","8","60",
"27.07.16","3","150791","0","101","PM/Mod/Meetings","","0","PIDT 16.4 meetings.. Introduction of 3.16 -> 3.26 Merge, PIDT 16.4 features.","07:00","16:00","3","60",
"27.07.16","3","150791","0","110","Engineering","","0","Meeting preperation.. Getting into subject with PIDT 16.4 and merge. ","","","5","0",
"28.07.16","4","150791","0","181","Fehlerbes. vor Ausl. (Bugzilla)","","0","PIDT 16.4 Bugfixing. Bugfixing","07:00","16:00","2","60",
"28.07.16","4","150791","0","110","Engineering","","0","PIDT 16.4 workspace setup.. Setting up workspace.","","","6","0",
"29.07.16","5","160051","27","101","PM/Mod/Meetings","","0","S4/DSA overall tasks 2016. Meeting/Timesheet","07:00","16:00","1,5","60",
"29.07.16","5","150791","0","181","Fehlerbes. vor Ausl. (Bugzilla)","","0","PIDT 16.4 Bugfixing. Bugfixing","","","6,5","0",
