"11.07.16","1","150076","211","181","Fehlerbes. vor Ausl. (Bugzilla)","","0","FEAT-6746 - PRODIS.ASCS R04.08 Bugfixing. FEAT-6746 - PRODIS.ASCS R04.08 Bugfixing","07:00","16:00","8","60",
"12.07.16","2","150076","211","181","Fehlerbes. vor Ausl. (Bugzilla)","","0","FEAT-6746 - PRODIS.ASCS R04.08 Bugfixing.. FEAT-6746 - PRODIS.ASCS R04.08 Bugfixing","07:00","16:00","8","60",
"13.07.16","3","150076","211","181","Fehlerbes. vor Ausl. (Bugzilla)","","0","FEAT-6746 - PRODIS.ASCS R04.08 Bugfixing.. FEAT-6746 - PRODIS.ASCS R04.08 Bugfixing","07:00","16:00","8","60",
"14.07.16","4","150076","211","181","Fehlerbes. vor Ausl. (Bugzilla)","","0","FEAT-6746 - PRODIS.ASCS R04.08 Bugfixing. FEAT-6746 - PRODIS.ASCS R04.08 Bugfixing","07:00","16:00","8","60",
"15.07.16","5","160051","11","101","PM/Mod/Meetings","","0","Weekly tasks AES 2016. Meeting and timesheets","07:00","16:00","1","60",
"15.07.16","5","160051","2","101","PM/Mod/Meetings","","0","Management AES 2016. Management AES 2016","","","1","0",
"15.07.16","5","150076","194","120","Codierung","","0","FEAT-6436 - Integrate LL-Pool (in ConvLib). FEAT-6436 - Integrate LL-Pool (in ConvLib)","","","6","0",
