"28.03.16","1","160023","0","910","Urlaub","","100","Public Holiday. Public Holiday","07:00","16:00","8","60",
"29.03.16","2","160051","20","101","PM/Mod/Meetings","","0","General project management / Teamsupport AES 2016. General management + support","07:00","16:00","8","60",
"30.03.16","3","160051","20","101","PM/Mod/Meetings","","0","General project management / Teamsupport AES 2016. General management + support","07:00","16:00","8","60",
"31.03.16","4","160051","20","101","PM/Mod/Meetings","","0","General project management / Teamsupport AES 2016. General management + support","07:00","16:00","8","60",
"01.04.16","5","160051","20","101","PM/Mod/Meetings","","0","General project management / Teamsupport AES 2016. General management + support","07:00","16:00","7","60",
"01.04.16","5","160051","15","101","PM/Mod/Meetings","","0","Management AES 2016. Timesheets + Meetings","","","1","0",
