"05.09.16","1","160025","0","404","Internal Training, Project Handover","","50","LIEBHERR Authoring. Modifying Liebherr Parametrization execute","07:00","16:00","8","60",
"06.09.16","2","160025","0","404","Internal Training, Project Handover","","50","LIEBHERR Authoring. Modified loading prarametrization from files","07:00","16:00","8","60",
"07.09.16","3","160025","0","404","Internal Training, Project Handover","","100","Liebherr Authoring. Modified Parametrization execute","07:00","16:00","8","60",
"08.09.16","4","160025","0","404","Internal Training, Project Handover","","80","Liebherr Authoring. Parametrization Loading","07:00","16:00","5","60",
"08.09.16","4","160023","0","910","Urlaub","","100","Annual leave. Annual leave","","","3","0",
"09.09.16","5","160025","0","404","Internal Training, Project Handover","","100","Liebherr Authoring. Parametrization Loading","07:00","16:00","5","60",
"09.09.16","5","160025","0","404","Internal Training, Project Handover","","10","PDU App Modified. Modified application to update PDU SImulations","","","3","0",
