"05.12.16","1","160499","11","181","Fehlerbes. vor Ausl. (Bugzilla)","","0","10-1099: PIDT 17.0: Bugfixing. 10-1099: PIDT 17.0: Bugfixing","07:00","16:00","8","60",
"06.12.16","2","160499","11","181","Fehlerbes. vor Ausl. (Bugzilla)","","0","10-1099: PIDT 17.0: Bugfixing. 10-1099: PIDT 17.0: Bugfixing","07:00","16:00","8","60",
"07.12.16","3","160499","11","181","Fehlerbes. vor Ausl. (Bugzilla)","","0","10-1099: PIDT 17.0: Bugfixing. 10-1099: PIDT 17.0: Bugfixing","07:00","16:00","4","60",
"07.12.16","3","160499","11","120","Codierung","","0","working on CR648my5-375_Entfa32Bit. working on CR648my5-375_Entfa32Bit","","","4","0",
"08.12.16","4","160955","2","140","Test","","0","10-1000: PIDT 16.4LS8: Tests. 10-1000: PIDT 16.4LS8: Tests","07:00","16:00","2","60",
"08.12.16","4","160499","11","181","Fehlerbes. vor Ausl. (Bugzilla)","","0","10-1099: PIDT 17.0: Bugfixing. 10-1099: PIDT 17.0: Bugfixing","","","2","0",
"08.12.16","4","160499","0","120","Codierung","","0","working on CR648my5-375_Entfa32Bit. working on CR648my5-375_Entfa32Bit","","","4","0",
"09.12.16","5","160955","2","140","Test","","0","10-1000: PIDT 16.4LS8: Tests. 10-1000: PIDT 16.4LS8: Tests","07:00","16:00","5","60",
"09.12.16","5","160022","61","110","Engineering","","0","Weekly tasks DSE 2016. Weekly tasks DSE 2016","","","1,5","0",
"09.12.16","5","160499","0","120","Codierung","","0","working on CR648my5-375_Entfa32Bit. working on CR648my5-375_Entfa32Bit","","","1,5","0",
