"16.05.16","1","150076","183","181","Fehlerbes. vor Ausl. (Bugzilla)","","0","FEAT-6746 - PRODIS.ASCS R04.08 Bugfixing.. testing and bugfixing","07:00","16:00","8","60",
"17.05.16","2","150076","183","181","Fehlerbes. vor Ausl. (Bugzilla)","","0","FEAT-6746 - PRODIS.ASCS R04.08 Bugfixing.. testing and bugfixing","07:00","16:00","8","60",
"18.05.16","3","150076","183","181","Fehlerbes. vor Ausl. (Bugzilla)","","0","FEAT-6746 - PRODIS.ASCS R04.08 Bugfixing.. importing PRODIS.Lib Aftersales","07:00","16:00","8","60",
"19.05.16","4","0","0","100","SOFTWARE-ENTWICKLUNG (SWE)","","100","0. 0","07:00","16:00","8","60",
"20.05.16","5","160051","11","101","PM/Mod/Meetings","","0","Weekly tasks AES 2016. Meeting and timesheets","07:00","16:00","1","60",
"20.05.16","5","160051","2","101","PM/Mod/Meetings","","0","Management AES 2016. Management AES 2016","","","1","0",
"20.05.16","5","150076","183","181","Fehlerbes. vor Ausl. (Bugzilla)","","100","FEAT-6746 - PRODIS.ASCS R04.08 Bugfixing.. FEAT-6746 - PRODIS.ASCS R04.08 Bugfixing.","","","6","0",
