"15.08.16","1","150751","17","120","Codierung","","0","10-1109: PIDT-511: Implementierung CR631my6-378_jRTS326 (20). Merging Lazy TreeWidget","07:00","16:00","8","60",
"16.08.16","2","150791","51","101","PM/Mod/Meetings","","0","10-9120: PIDT 16.4 Meetings and Preparation. PIDT 16.4 meeting and preparation","07:00","16:00","6","60",
"16.08.16","2","150751","17","120","Codierung","","0","10-1109: PIDT-511: Implementierung CR631my6-378_jRTS326 (20). Merging lazy tree widget changes","","","2","0",
"17.08.16","3","150751","17","120","Codierung","","0","10-1109: PIDT-511: Implementierung CR631my6-378_jRTS326 (20). Creating test CTS for tree widget","07:00","16:00","4","60",
"17.08.16","3","150791","28","120","Codierung","","0","10-1107: PIDT-509: Implementierung CR631my4-370_StatuDSDLJobMCR (5). 10-1107: PIDT-509: Implementierung CR631my4-370_StatuDSDLJobMCR (5)","","","4","0",
"18.08.16","4","150791","28","120","Codierung","","0","10-1107: PIDT-509: Implementierung CR631my4-370_StatuDSDLJobMCR (5). 10-1107: PIDT-509: Implementierung CR631my4-370_StatuDSDLJobMCR (5)","07:00","16:00","8","60",
"19.08.16","5","160051","21","101","PM/Mod/Meetings","","0","S4/DSA overall tasks 2016. Meetings and admin","07:00","16:00","1,5","60",
"19.08.16","5","150791","28","120","Codierung","","0","10-1107: PIDT-509: Implementierung CR631my4-370_StatuDSDLJobMCR (5). 10-1107: PIDT-509: Implementierung CR631my4-370_StatuDSDLJobMCR (5)","","","6,5","0",
