"17.10.16","1","150791","125","120","Codierung","","0","10-1105: PIDT-505: Implementierung CR631my1-366_Windo10 (8). Implementtaion","07:00","16:00","6,5","60",
"17.10.16","1","160051","29","101","PM/Mod/Meetings","","0","S4/DSA overall tasks 2016. S4/DSA Weekly meetings and admin","","","1,5","0",
"18.10.16","2","150791","125","120","Codierung","","0","10-1105: PIDT-505: Implementierung CR631my1-366_Windo10 (8). Implementation","07:00","16:00","8","60",
"19.10.16","3","150791","125","120","Codierung","","0","10-1105: PIDT-505: Implementierung CR631my1-366_Windo10 (8). Implementation","07:00","16:00","8","60",
"20.10.16","4","150791","125","120","Codierung","","0","10-1105: PIDT-505: Implementierung CR631my1-366_Windo10 (8). Implementation","07:00","16:00","8","60",
"21.10.16","5","16002","0","920","Krankheit","","0","21.10.2016-21.102016. Sick Leave","07:00","16:00","8","60",
