"04.07.16","1","150074","422","120","Codierung","","0","326_FEAT-6858: PDCS: Rework: DataLogicistcs SDTs. Tests for Data Logistics SDTs","07:00","16:00","8","60",
"05.07.16","2","150074","422","120","Codierung","","0","326_FEAT-6858: PDCS: Rework: DataLogicistcs SDTs. Tests for Data Logistics SDTs","07:00","16:00","8","60",
"06.07.16","3","150074","434","181","Fehlerbes. vor Ausl. (Bugzilla)","","0","326_ORG-9120: PDCS: Bugfixing. SDT bug fixing","07:00","16:00","2","60",
"06.07.16","3","150074","436","160","Dokumentation","","0","326_ORG-9120: PDCS: Documentation. PDCS Documentation","","","6","0",
"07.07.16","4","150074","436","160","Dokumentation","","0","326_ORG-9120: PDCS: Documentation. PDCS Documentation","07:00","16:00","4","60",
"07.07.16","4","150074","419","140","Test","","0","326_ORG-9120: PDCS: Testmanagement / Testcoverage. SDT Testing","","","4","0",
"08.07.16","5","150074","419","140","Test","","0","326_ORG-9120: PDCS: Testmanagement / Testcoverage. Data Logistics Testing","07:00","16:00","8","60",
