"19.09.16","1","150751","21","120","Codierung","","0","10-1109: PIDT-511: Implementierung CR631my6-378_jRTS326 (20). 10-1109: PIDT-511: Implementierung CR631my6-378_jRTS326 (20)","07:00","16:00","8","60",
"20.09.16","2","150751","21","120","Codierung","","0","10-1109: PIDT-511: Implementierung CR631my6-378_jRTS326 (20). 10-1109: PIDT-511: Implementierung CR631my6-378_jRTS326 (20)","07:00","16:00","8","60",
"21.09.16","3","150751","21","120","Codierung","","0","10-1109: PIDT-511: Implementierung CR631my6-378_jRTS326 (20). 10-1109: PIDT-511: Implementierung CR631my6-378_jRTS326 (20)","07:00","16:00","8","60",
"22.09.16","4","150751","21","120","Codierung","","0","10-1109: PIDT-511: Implementierung CR631my6-378_jRTS326 (20). 10-1109: PIDT-511: Implementierung CR631my6-378_jRTS326 (20)","07:00","16:00","8","60",
"23.09.16","5","160022","61","110","Engineering","","0","Weekly tasks DSE 2016. Weekly tasks DSE 2016","07:00","16:00","1,5","60",
"23.09.16","5","150751","21","120","Codierung","","0","10-1109: PIDT-511: Implementierung CR631my6-378_jRTS326 (20). 10-1109: PIDT-511: Implementierung CR631my6-378_jRTS326 (20)","","","6,5","0",
