"31.10.16","1","150080","410","120","Codierung","","0","9999: Pinsight: Data Grid Prototype. DevExtreme proof of concept. Pentaho CDE integration","07:00","16:00","8","60",
"01.11.16","2","150080","410","120","Codierung","","0","9999: Pinsight: Data Grid Prototype. DevExtreme proof of concept. Pentaho CDE integration","07:00","16:00","8","60",
"02.11.16","3","150080","410","120","Codierung","","0","9999: Pinsight: Data Grid Prototype. DevExtreme proof of concept. Pentaho CDE integration","07:00","16:00","8","60",
"03.11.16","4","150080","410","120","Codierung","","0","9999: Pinsight: Data Grid Prototype. DevExtreme proof of concept. Pentaho CDE integration","07:00","16:00","8","60",
"04.11.16","5","150080","410","120","Codierung","","0","9999: Pinsight: Data Grid Prototype. DevExtreme proof of concept. Pentaho CDE integration","07:00","16:00","8","60",
