"15.08.16","1","150751","21","120","Codierung","","0","10-1109: PIDT-511: Implementierung CR631my6-378_jRTS326 (20). 10-1109: PIDT-511: Implementierung CR631my6-378_jRTS326 (20)","07:00","16:00","8","60",
"16.08.16","2","150791","16","101","PM/Mod/Meetings","","0","10-9120: PIDT 16.4 Meetings and Preparation. 10-9120: PIDT 16.4 Meetings and Preparation","07:00","16:00","3","60",
"16.08.16","2","150751","21","120","Codierung","","0","10-1109: PIDT-511: Implementierung CR631my6-378_jRTS326 (20). 10-1109: PIDT-511: Implementierung CR631my6-378_jRTS326 (20)","","","5","0",
"17.08.16","3","150751","21","120","Codierung","","0","10-1109: PIDT-511: Implementierung CR631my6-378_jRTS326 (20). 10-1109: PIDT-511: Implementierung CR631my6-378_jRTS326 (20)","07:00","16:00","6","60",
"17.08.16","3","150791","0","110","Engineering","","0","PIDT 16.4 Setting up development environment . PIDT 16.4 Setting up development environment ","","","2","0",
"18.08.16","4","150791","0","110","Engineering","","0","PIDT 16.4 Setting up development environment . PIDT 16.4 Setting up development environment ","07:00","16:00","1","60",
"18.08.16","4","150751","21","120","Codierung","","0","10-1109: PIDT-511: Implementierung CR631my6-378_jRTS326 (20). 10-1109: PIDT-511: Implementierung CR631my6-378_jRTS326 (20)","","","1","0",
"18.08.16","4","150751","0","120","Codierung","","0","Implementierung CR631my5-371_MerkePDXAuswa. Implementierung CR631my5-371_MerkePDXAuswa","","","3","0",
"18.08.16","4","160025","248","170","Schulung","","0","Training 2016 on ODX-Project/Vehicle-info/Application-property handling. Training 2016 on ODX-Project/Vehicle-info/Application-property handling","","","3","0",
"19.08.16","5","160022","61","110","Engineering","","0","Weekly tasks DSE 2016. Weekly tasks DSE 2016","07:00","16:00","1,5","60",
"19.08.16","5","150751","21","120","Codierung","","0","10-1109: PIDT-511: Implementierung CR631my6-378_jRTS326 (20). 10-1109: PIDT-511: Implementierung CR631my6-378_jRTS326 (20)","","","1","0",
"19.08.16","5","150751","0","120","Codierung","","0","Implementierung CR631my5-371_MerkePDXAuswa. Implementierung CR631my5-371_MerkePDXAuswa","","","5,5","0",
