"02.01.17","1","170023","0","910","Urlaub","","0","Urlaub. Urlaub","07:00","16:00","8","60",
"03.01.17","2","170023","0","910","Urlaub","","0","Urlaub. Urlaub","07:00","16:00","8","60",
"04.01.17","3","170023","0","910","Urlaub","","0","Urlaub. Urlaub","07:00","16:00","8","60",
