"07.11.16","1","0","0","120","Codierung","","0","DSA Systems. DSA Systems","07:00","16:00","8","60",
"08.11.16","2","0","0","120","Codierung","","0","DSA Systems. DSA Systems","07:00","16:00","8","60",
"09.11.16","3","0","0","120","Codierung","","0","DSA Systems. DSA Systems","07:00","16:00","8","60",
"10.11.16","4","0","0","120","Codierung","","0","DSA Systems. DSA Systems","07:00","16:00","8","60",
"11.11.16","5","0","0","120","Codierung","","0","DSA Systems. DSA Systems","07:00","16:00","8","60",
