"25.07.16","1","140565","0","120","Codierung","","0","WAM cycle time improvement. Creating Sequence","07:00","16:00","8","60",
"26.07.16","2","140565","0","120","Codierung","","0","WAM cycle time improvement. Creating Sequence","07:00","16:00","8","60",
"27.07.16","3","140565","0","140","Test","","0","WAM cycle time improvement. Testing Support","07:00","16:00","8","60",
"28.07.16","4","140565","0","140","Test","","0","WAM cycle time improvement. Testing Support","07:00","16:00","5","60",
"28.07.16","4","160051","25","101","PM/Mod/Meetings","","0","Weekly tasks AES 2016. UK Visa","","","3","0",
"29.07.16","5","140565","0","140","Test","","0","WAM cycle time improvement. Testing Support","07:00","16:00","7","60",
"29.07.16","5","160051","25","101","PM/Mod/Meetings","","0","Weekly tasks AES 2016. Meetings and Timesheets","","","1","0",
