"10.10.16","1","150791","128","120","Codierung","","0","10-1117: PIDT-514: Implementierung CR632da3-372_ModulAblauf (5). Setting up workspace","07:00","16:00","8","60",
"11.10.16","2","150791","128","120","Codierung","","0","10-1117: PIDT-514: Implementierung CR632da3-372_ModulAblauf (5). Updating TextFieldEventWidget to handle passwords","07:00","16:00","8","60",
"12.10.16","3","150791","128","120","Codierung","","0","10-1117: PIDT-514: Implementierung CR632da3-372_ModulAblauf (5). Updating TextFieldEventWidget to handle passwords","07:00","16:00","8","60",
"13.10.16","4","160789","0","181","Fehlerbes. vor Ausl. (Bugzilla)","","0","Investigating bug 68026. Investigating bug 68026","07:00","16:00","8","60",
"14.10.16","5","160051","19","101","PM/Mod/Meetings","","0","S4/DSA Training 2016. Meetings and admin","07:00","16:00","1,5","60",
"14.10.16","5","160789","5","120","Codierung","","0","10-1000: PIDT16.2.2: Integrate ER-Interpreter 1.4.1 (Bug 67992). Integrating ERI","","","4","0",
"14.10.16","5","160789","0","181","Fehlerbes. vor Ausl. (Bugzilla)","","0","Investigating bug 68026. Investigating bug 68026","","","2,5","0",
