"03.10.16","1","160023","0","910","Urlaub","","0","03.10.2016 - 07.10.2016. Annual Leave","07:00","16:00","8","60",
"04.10.16","2","160023","0","910","Urlaub","","0","03.10.2016 - 07.10.2016. Annual Leave","07:00","16:00","8","60",
"05.10.16","3","160023","0","910","Urlaub","","0","03.10.2016 - 07.10.2016. Annual leave","07:00","16:00","8","60",
"06.10.16","4","160023","0","910","Urlaub","","0","03.10.2016 - 07.10.2016. Annual leave","07:00","16:00","8","60",
"07.10.16","5","160023","0","910","Urlaub","","0","03.10.2016 - 07.10.2016. Annual leave`","07:00","16:00","8","60",
