"30.05.16","1","160051","10","170","Schulung","","0","S4/DSA Training 2016. Project training and discussion","07:00","16:00","8","60",
"31.05.16","2","150080","325","120","Codierung","","0","10_FEAT-6582: Table Styling (Background Color). DataTables fixes and updates","07:00","16:00","8","60",
"01.06.16","3","150080","266","120","Codierung","","0","10_FEAT-5616: Pinsight: Internationalization. Insight framework i18n","07:00","16:00","8","60",
"02.06.16","4","150080","266","120","Codierung","","0","10_FEAT-5616: Pinsight: Internationalization. Insight framework i18n","07:00","16:00","8","60",
"03.06.16","5","160051","22","101","PM/Mod/Meetings","","0","S4/DSA overall tasks 2016. Update development environment","07:00","16:00","4","60",
"03.06.16","5","150080","266","120","Codierung","","0","10_FEAT-5616: Pinsight: Internationalization. Insight framework i18n","","","4","0",
