"16.05.16","1","150074","999","160","Dokumentation","","0","Polarion Documentation. Documentation","07:00","16:00","8","60",
"17.05.16","2","150074","0","140","Test","","0","Test Specifications. Documentation of Test Specs","07:00","16:00","8","60",
"18.05.16","3","150074","0","140","Test","","0","Test Specifications. Documentation of Test Specs","07:00","16:00","8","60",
"19.05.16","4","150074","0","140","Test","","0","Test Specifications. Documentation of Test Specs","07:00","16:00","8","60",
"20.05.16","5","150074","0","140","Test","","0","Test Specifications. Documentation of Test Specs","07:00","16:00","8","60",
