"21.03.16","1","160023","0","910","Urlaub","","0","Time Off. Public holiday","07:00","16:00","8","60",
"22.03.16","2","160023","0","910","Urlaub","","0","Time Off. Time Off","07:00","16:00","8","60",
"23.03.16","3","160023","0","910","Urlaub","","0","Time Off. Time Off","07:00","16:00","8","60",
"24.03.16","4","160023","0","910","Urlaub","","0","Time Off. Time Off","07:00","16:00","8","60",
"25.03.16","5","160023","0","910","Urlaub","","0","Time Off. Public Holiday","07:00","16:00","8","60",
