"07.11.16","1","160025","473","170","Schulung","","0","Training. Training","07:00","16:00","8","60",
"08.11.16","2","160025","473","170","Schulung","","0","Training. Training","07:00","11:00","4","0",
"09.11.16","3","160025","473","170","Schulung","","0","Training. Training","07:00","16:00","8","60",
"10.11.16","4","160025","473","170","Schulung","","0","Training. Training","07:00","16:00","8","60",
"11.11.16","5","160025","473","170","Schulung","","0","Training. Training","07:00","16:00","8","60",
