"25.07.16","1","160025","0","404","Internal Training, Project Handover","","0","Training: SVG tasks and ASCS Branding. Training: SVG tasks and ASCS Branding","07:00","16:00","8","60",
"26.07.16","2","160025","0","404","Internal Training, Project Handover","","0","Training: SVG tasks and ASCS branding. Training: SVG tasks and ASCS branding","07:00","16:00","8","60",
"27.07.16","3","160025","0","404","Internal Training, Project Handover","","0","Training: MAN Documentation . Training: MAN Documentation ","07:00","16:00","8","60",
"28.07.16","4","160025","0","404","Internal Training, Project Handover","","0","Training: MAN Documentation. Training: MAN Documentation","07:00","16:00","8","60",
"29.07.16","5","160025","0","404","Internal Training, Project Handover","","0","Training: MAN Documentation. Training: MAN Documentation","07:00","16:00","8","60",
