"26.09.16","1","150074","464","120","Codierung","","100","PDCS: Asynchronous Errors (VCI Disconnect, etc). From s41","07:00","16:00","8","60",
"27.09.16","2","150074","413","120","Codierung","","100","PDCS: NON-ODX Handling / Communication. From s41","07:00","16:00","8","60",
"28.09.16","3","160025","0","404","Internal Training, Project Handover","","0","training. training","07:00","16:00","8","60",
"29.09.16","4","160025","0","404","Internal Training, Project Handover","","0","training. training","07:00","16:00","8","60",
"30.09.16","5","160025","0","404","Internal Training, Project Handover","","0","training. training","07:00","16:00","8","60",
