"28.03.16","1","160036","132","170","Schulung","","0","Einarbeitung (sae). Training sae","07:00","16:00","8","60",
"29.03.16","2","160036","132","170","Schulung","","0","Einarbeitung (sae). Einarbeitung (sae)","07:00","16:00","8","60",
"30.03.16","3","160036","136","170","Schulung","","0","Einarbeitung (smm). Einarbeitung (smm)","07:00","16:00","8","60",
"31.03.16","4","160036","136","170","Schulung","","0","Einarbeitung (smm). Einarbeitung (smm)","07:00","16:00","8","60",
"01.04.16","5","160051","21","101","PM/Mod/Meetings","","0","S4/DSA overall tasks 2016. Meetings and admin","07:00","16:00","1,5","60",
"01.04.16","5","160036","130","170","Schulung","","0","Einarbeitung (sww). Einarbeitung (sww)","","","6,5","0",
