"24.10.16","1","150791","11","181","Fehlerbes. vor Ausl. (Bugzilla)","","0","10-1099: PIDT 16.4: Bugfixing. 10-1099: PIDT 16.4: Bugfixing","07:00","16:00","8","60",
"25.10.16","2","150791","11","181","Fehlerbes. vor Ausl. (Bugzilla)","","0","10-1099: PIDT 16.4: Bugfixing. 10-1099: PIDT 16.4: Bugfixing","07:00","16:00","8","60",
"26.10.16","3","150791","11","181","Fehlerbes. vor Ausl. (Bugzilla)","","0","10-1099: PIDT 16.4: Bugfixing. 10-1099: PIDT 16.4: Bugfixing","07:00","16:00","8","60",
"27.10.16","4","150791","11","181","Fehlerbes. vor Ausl. (Bugzilla)","","0","10-1099: PIDT 16.4: Bugfixing. 10-1099: PIDT 16.4: Bugfixing","07:00","16:00","8","60",
"28.10.16","5","160022","61","110","Engineering","","0","Weekly tasks DSE 2016. Weekly tasks DSE 2016","07:00","16:00","1,5","60",
"28.10.16","5","150791","11","181","Fehlerbes. vor Ausl. (Bugzilla)","","0","10-1099: PIDT 16.4: Bugfixing. 10-1099: PIDT 16.4: Bugfixing","","","6,5","0",
