"25.04.16","1","150080","325","120","Codierung","","0","10_FEAT-6582: Table Styling (Background Color). DataTables column search filters","07:00","16:00","8","60",
"26.04.16","2","150080","325","120","Codierung","","0","10_FEAT-6582: Table Styling (Background Color). DataTables column search filters","07:00","16:00","8","60",
"27.04.16","3","160023","0","910","Urlaub","","0","SA National holiday. SA National holiday","07:00","16:00","8","60",
"28.04.16","4","150080","325","120","Codierung","","0","10_FEAT-6582: Table Styling (Background Color). DataTables column resizing","07:00","16:00","8","60",
"29.04.16","5","150080","325","120","Codierung","","0","10_FEAT-6582: Table Styling (Background Color). DataTables column resizing","07:00","16:00","8","60",
