"05.09.16","1","150751","0","120","Codierung","","0","CR632da4-368_TableRowNames. CR632da4-368_TableRowNames Implementation","07:00","16:00","8","60",
"06.09.16","2","150751","12","104","Test-Spezifikation","","0","10-1109: PIDT-511: Testspec & UnitTests CR631my6-378_jRTS326 (20). Tests for CR631my6-378_jRTS326 (20)  (Scaling)","07:00","16:00","8","60",
"07.09.16","3","150751","11","120","Codierung","","0","From smm: 10-1109: PIDT-511: Implementierung CR631my6-378_jRTS326 (20). Supporting Mas'ood with upmerge from trunk to PIDT branch","07:00","16:00","7","60",
"07.09.16","3","160051","29","101","PM/Mod/Meetings","","0","S4/DSA overall tasks 2016. PIDT 16.4 estimation meeting and preparation","","","1","0",
"08.09.16","4","150751","11","120","Codierung","","0","From smm: 10-1109: PIDT-511: Implementierung CR631my6-378_jRTS326 (20). Supporting Mas'ood with upmerge from trunk to PIDT branch","07:00","16:00","8","60",
"09.09.16","5","160051","29","101","PM/Mod/Meetings","","0","S4/DSA overall tasks 2016. S4/DSA Weekly meetings and admin 1.4","07:00","16:00","1,5","60",
"09.09.16","5","150751","0","120","Codierung","","0","CR632da4-368_TableRowNames. test and review issues","","","6,5","0",
