"01.08.16","1","150791","29","110","Engineering","","100","10-9310: Getting into subject: PIDT 16.4 features. Getting into subject of CR623my1-377_WarnHinweFAP and creating feature task list","07:00","16:00","8","60",
"02.08.16","2","150791","27","120","Codierung","","0","10-1106: PIDT-499: Implementierung CR623my1-377_WarnHinweFAP (5). 10-1106: PIDT-499: Implementierung CR623my1-377_WarnHinweFAP (5)","07:00","16:00","7","60",
"02.08.16","2","150791","31","101","PM/Mod/Meetings","","0","10-9120: PIDT 16.4 Meetings and Preparation. PIDT 16.4.0 Kickoff meeting","","","1","0",
"03.08.16","3","160023","0","910","Urlaub","","0","Public Holiday. Public Holiday","07:00","16:00","8","60",
"04.08.16","4","150791","27","120","Codierung","","0","10-1106: PIDT-499: Implementierung CR623my1-377_WarnHinweFAP (5). 10-1106: PIDT-499: Implementierung CR623my1-377_WarnHinweFAP (5)","07:00","16:00","8","60",
"05.08.16","5","160051","18","101","PM/Mod/Meetings","","0","S4/DSA overall tasks 2016. Weekly general tasks","07:00","16:00","2","60",
"05.08.16","5","150791","27","120","Codierung","","0","10-1106: PIDT-499: Implementierung CR623my1-377_WarnHinweFAP (5). 10-1106: PIDT-499: Implementierung CR623my1-377_WarnHinweFAP (5)","","","6","0",
