"31.10.16","1","160051","25","101","PM/Mod/Meetings","","0","Weekly tasks AES 2016. Travel to Bratislava","07:00","16:00","8","60",
"01.11.16","2","160023","0","910","Urlaub","","0","Urlaub. Holiday","07:00","16:00","8","60",
"02.11.16","3","160375","0","120","Codierung","","0","VW BRA. VW BRA FAS Implementation","07:00","16:00","8","60",
"03.11.16","4","160375","0","120","Codierung","","0","VW BRA. VW BRA FAS Implementation","07:00","16:00","8","60",
"04.11.16","5","160375","0","120","Codierung","","0","VW BRA. VW BRA FAS Implementation","07:00","16:00","4","60",
"04.11.16","5","160051","25","101","PM/Mod/Meetings","","0","Weekly tasks AES 2016. Setting up mobile","","","4","0",
