"16.05.16","1","130216","73","120","Codierung","","0","Wbaco ODX Implementation. Wabco ODX Implementation","07:00","16:00","8","60",
"17.05.16","2","130216","73","120","Codierung","","0","Wabco ODX Implementation. Implementation","07:00","16:00","8","60",
"18.05.16","3","130216","0","120","Codierung","","0","Wabco Test Sequences from training. Wabco Test Sequences from training","07:00","16:00","8","60",
"19.05.16","4","130216","0","120","Codierung","","0","Wabco Test Sequences from training. Wabco Test Sequences from training","07:00","16:00","8","60",
"20.05.16","5","130216","0","120","Codierung","","0","Wabco Test Sequences from training. Wabco Test Sequences from training","07:00","16:00","7","60",
"20.05.16","5","160051","8","101","PM/Mod/Meetings","","0","Weekly tasks AES 2016. Weekly tasks AES 2016","","","1","0",
