"26.09.16","1","150074","464","120","Codierung","","100","326_FEAT-6721: PDCS: Asynchronous Errors (VCI Disconnect, etc). Closing Tasks","07:00","16:00","0","60",
"26.09.16","1","150074","409","120","Codierung","","100","326_FEAT-6842: PDCS: Demo Usage CAN Trace Daemon. Closing Tasks","","","0","0",
"26.09.16","1","150074","413","120","Codierung","","100","326_FEAT-6712: PDCS: NON-ODX Handling / Communication. Closing Tasks","","","0","0",
"26.09.16","1","150074","423","120","Codierung","","100","326_FEAT-6693: PDCS: Aufbauende Strommessung für RCPS2. Closing Tasks","","","0","0",
"26.09.16","1","150074","443","110","Engineering","","100","326_ORG-9120: PDCS: Concept / Reviews. Review on implementations","","","4","0",
"26.09.16","1","150074","441","101","PM/Mod/Meetings","","0","326_ORG-9120: PDCS: Project Managmeent / Meetings. Project meetings / Assistance","","","4","0",
"27.09.16","2","150074","441","101","PM/Mod/Meetings","","0","326_ORG-9120: PDCS: Project Managmeent / Meetings. General Support","07:00","16:00","8","60",
"28.09.16","3","150074","441","101","PM/Mod/Meetings","","0","326_ORG-9120: PDCS: Project Managmeent / Meetings. General Support","07:00","16:00","8","60",
"29.09.16","4","150074","441","101","PM/Mod/Meetings","","0","326_ORG-9120: PDCS: Project Managmeent / Meetings. General Support","07:00","16:00","8","60",
"30.09.16","5","150074","438","120","Codierung","","0","s41 : 150074-438-120 : 326_FEAT-6713: PDCS: Simulation Setup Documentation. Simulation documentation","07:00","16:00","8","60",
