"18.07.16","1","150076","194","120","Codierung","","0","FEAT-6436 - Integrate LL-Pool (in ConvLib). FEAT-6436 - Integrate LL-Pool (in ConvLib)","07:00","16:00","8","60",
"19.07.16","2","150076","194","120","Codierung","","0","FEAT-6436 - Integrate LL-Pool (in ConvLib). FEAT-6436 - Integrate LL-Pool (in ConvLib)","07:00","16:00","8","60",
"20.07.16","3","150076","194","120","Codierung","","0","FEAT-6436 - Integrate LL-Pool (in ConvLib). FEAT-6436 - Integrate LL-Pool (in ConvLib)","07:00","16:00","8","60",
"21.07.16","4","150076","194","120","Codierung","","0","FEAT-6436 - Integrate LL-Pool (in ConvLib). FEAT-6436 - Integrate LL-Pool (in ConvLib)","07:00","16:00","8","60",
"22.07.16","5","150076","194","120","Codierung","","0","FEAT-6436 - Integrate LL-Pool (in ConvLib). FEAT-6436 - Integrate LL-Pool (in ConvLib)","07:00","16:00","6","60",
"22.07.16","5","160051","11","101","PM/Mod/Meetings","","0","Weekly tasks AES 2016. Meeting and timesheets","","","1","0",
"22.07.16","5","160051","2","101","PM/Mod/Meetings","","0","Management AES 2016. Management AES 2016","","","1","0",
