"15.08.16","1","160025","0","404","Internal Training, Project Handover","","100","PRODIS.Authoring. Created services and test on WTS","07:00","16:00","8","60",
"16.08.16","2","160023","0","920","Krankheit","","0","Sick Leave. Went to the Doctor.","07:00","16:00","8","60",
"17.08.16","3","160025","0","404","Internal Training, Project Handover","","100","PRODIS.Authroring. WTS Branding and more training tasks for services","07:00","16:00","8","60",
"18.08.16","4","160025","0","404","Internal Training, Project Handover","","90","PRODIS.Authoring & WTS. WTS Branding manipulations","07:00","16:00","8","60",
"19.08.16","5","160025","0","404","Internal Training, Project Handover","","3","PRODIS.Authoring. WTS branding training & WABCO VCS2","07:00","16:00","8","60",
