"17.10.16","1","160789","0","181","Fehlerbes. vor Ausl. (Bugzilla)","","0","PIDT 16.2.2: Bugfixing. Investigating and working on PIDT 16.2.2 bugs","07:00","17:00","9,5","0",
"17.10.16","1","160051","18","101","PM/Mod/Meetings","","0","S4/DSA overall tasks 2016. Teleconference meeting","","","0,5","0",
"18.10.16","2","160789","0","140","Test","","0","Regressionstests PIDT 16.2.2. Regressionstests PIDT 16.2.2","07:00","16:00","5","60",
"18.10.16","2","160023","0","910","Urlaub","","0","S4 Meeting. S4 Meeting","","","3","0",
"19.10.16","3","160025","248","170","Schulung","","100","Training 2016. From sae: giving training on I-Numbers and the ZDC-Coding process for creation of test cases","07:00","16:00","4","60",
"19.10.16","3","160789","0","140","Test","","0","Regressionstests PIDT 16.2.2. Regressionstests PIDT 16.2.2","","","4","0",
"20.10.16","4","150791","39","120","Codierung","","100","10-1106: PIDT-499: Review and test issues before CF CR623my1-377_WarnHinweFAP (5). Closing old task","07:00","16:00","0","60",
"20.10.16","4","160789","0","140","Test","","100","Regressionstests PIDT 16.2.2. Supporting regressionstests and bug-fixing for PIDT 16.2.2","","","8","0",
"21.10.16","5","160051","18","101","PM/Mod/Meetings","","0","S4/DSA overall tasks 2016. Weekly general tasks","07:00","16:00","1,5","60",
"21.10.16","5","150791","131","120","Codierung","","0","10-1113: PIDT-524: Implementierung CR637my4-391_SkipServiExecFAP (5). Implementing feature","","","6,5","0",
