"18.04.16","1","150790","96","120","Codierung","","100","10-1113: PIDT-495: Review and test issues before CF CR609my1-316_VerscVehicPlatf (3). 10-1113: PIDT-495: Review and test issues before CF CR609my1-316_VerscVehicPlatf (3)","07:00","16:00","4","60",
"18.04.16","1","160036","133","170","Schulung","","0","Training: Introduction to PIDT Software /sww_anlrn. Training (OTX Testing and bug-fixing)","","","4","0",
"18.04.16","1","150790","64","120","Codierung","","100","10-1113: PIDT-495: Implementierung CR609my1-316_VerscVehicPlatf (3). 10-1113: PIDT-495: Implementierung CR609my1-316_VerscVehicPlatf (3)","","","0","0",
"18.04.16","1","150790","72","104","Test-Spezifikation","","100","10-1113: PIDT-495: Testspec CR609my1-316_VerscVehicPlatf (3). 10-1113: PIDT-495: Testspec CR609my1-316_VerscVehicPlatf (3)","","","0","0",
"19.04.16","2","160036","133","170","Schulung","","0","Training: Introduction to PIDT Software /sww_anlrn. Training (PIDT bug-fixing)","07:00","16:00","8","60",
"20.04.16","3","160036","133","170","Schulung","","0","Training: Introduction to PIDT Software /sww_anlrn. Training (PIDT bug-fixing)","07:00","16:00","2","60",
"20.04.16","3","160036","133","170","Schulung","","0","Training: Introduction to PIDT Software /sww_anlrn. Training (OTX Testing and bug-fixing)","","","6","0",
"21.04.16","4","160036","133","170","Schulung","","0","Training: Introduction to PIDT Software /sww_anlrn. Training (OTX Testing and bug-fixing)","07:00","16:00","8","60",
"22.04.16","5","160036","133","170","Schulung","","0","Training: Introduction to PIDT Software /sww_anlrn. Training (OTX Testing and bug-fixing)","07:00","16:00","6,5","60",
"22.04.16","5","160022","59","110","Engineering","","0","Weekly tasks DSE 2016. Weekly tasks DSE 2016","","","1,5","0",
