"30.05.16","1","160051","27","101","PM/Mod/Meetings","","0","S4/DSA overall tasks 2016. Moving/Setup.","07:00","16:00","2","60",
"30.05.16","1","150790","97","120","Codierung","","0","10-1103: PIDT-494: Review and test issues before CF CR609my3-356_ZugriSchut (8). Review Fixes","","","6","0",
"31.05.16","2","150790","97","120","Codierung","","0","10-1103: PIDT-494: Review and test issues before CF CR609my3-356_ZugriSchut (8). Review Fixes","07:00","16:00","8","60",
"01.06.16","3","160023","1621","920","Krankheit","","0","krank 01.06.2016-02.06.2016. Krankheit","07:00","16:00","8","60",
"02.06.16","4","160023","1621","920","Krankheit","","100","krank 01.06.2016-02.06.2016. Krankheit","07:00","16:00","8","60",
"03.06.16","5","160051","27","101","PM/Mod/Meetings","","0","S4/DSA overall tasks 2016. Meeting/Timesheets","07:00","16:00","1,5","60",
"03.06.16","5","150790","169","182","Fehlerbes. nach Ausl. (Bugzilla)","","0","9999: PIDT 16.2: Bugfixing aus Vorrelease. Bug Fixing","","","6,5","0",
