"10.10.16","1","150074","430","101","PM/Mod/Meetings","","0","326_ORG-9120: PDCS: Delivery. Release preparation","07:00","16:00","8","60",
"11.10.16","2","150074","430","101","PM/Mod/Meetings","","100","326_ORG-9120: PDCS: Delivery. Release preparation","07:00","16:00","8","60",
"12.10.16","3","150074","453","160","Dokumentation","","100","326_ORG-9120: PDCS: Documentation. Documentation for 3.26","07:00","16:00","8","60",
"13.10.16","4","160051","15","101","PM/Mod/Meetings","","0","Management AES 2016. General admin + support","07:00","16:00","8","60",
"14.10.16","5","160051","20","101","PM/Mod/Meetings","","0","General project management / Teamsupport AES 2016. General admin + support","07:00","16:00","8","60",
