"12.09.16","1","160025","0","404","Internal Training, Project Handover","","20","Creation PDU Sim application. Coding","07:00","16:00","8","60",
"13.09.16","2","160025","0","404","Internal Training, Project Handover","","40","Creation PDU Sim application. Coding","07:00","16:00","8","60",
"14.09.16","3","160025","0","404","Internal Training, Project Handover","","50","Creation PDU Sim application. Coding","07:00","16:00","4","60",
"14.09.16","3","160025","0","404","Internal Training, Project Handover","","100","Liebherr Authoring. Editing, testing few CTS","","","4","0",
"15.09.16","4","160025","0","404","Internal Training, Project Handover","","100","liebherr authoring . Editing, testing few CTS","07:00","16:00","5","60",
"15.09.16","4","160025","0","404","Internal Training, Project Handover","","65","Creation, PDU Sim application.. Coding ","","","3","0",
"16.09.16","5","160025","0","404","Internal Training, Project Handover","","70","PDU Sim Application. Creating an automatic PDU Sim ","07:00","16:00","4","60",
"16.09.16","5","160025","0","404","Internal Training, Project Handover","","20","Liebherr Testing. Testing","","","4","0",
