"21.11.16","1","150791","127","181","Fehlerbes. vor Ausl. (Bugzilla)","","0","10-1098: PIDT 16.4: Bugfixing nach Codefreeze. 10-1098: PIDT 16.4: Bugfixing nach Codefreeze","07:00","16:00","8","60",
"22.11.16","2","150791","127","181","Fehlerbes. vor Ausl. (Bugzilla)","","0","10-1098: PIDT 16.4: Bugfixing nach Codefreeze. 10-1098: PIDT 16.4: Bugfixing nach Codefreeze","07:00","16:00","8","60",
"23.11.16","3","150791","127","181","Fehlerbes. vor Ausl. (Bugzilla)","","0","10-1098: PIDT 16.4: Bugfixing nach Codefreeze. 10-1098: PIDT 16.4: Bugfixing nach Codefreeze","07:00","16:00","8","60",
"24.11.16","4","150791","0","140","Test","","0","10-1080: Verifikation Bugfixes PIDT 16.4. 10-1080: Verifikation Bugfixes PIDT 16.4","07:00","16:00","8","60",
"25.11.16","5","160022","59","110","Engineering","","0","Weekly tasks DSE 2016. Weekly tasks DSE 2016","07:00","16:00","1,5","60",
"25.11.16","5","150791","0","140","Test","","0","10-1080: Verifikation Bugfixes PIDT 16.4. 10-1080: Verifikation Bugfixes PIDT 16.4","","","3,5","0",
"25.11.16","5","160023","0","910","Urlaub","","0","Time off. Time off","","","3","0",
