"10.10.16","1","150074","450","140","Test","","100","326_ORG-9120: PDCS: Testmanagement / Testcoverage. Compeleted","07:00","16:00","5","60",
"10.10.16","1","150074","408","120","Codierung","","0","326_FEAT-6724: PDCS: Testsequence Execution Progress Monitoring. Worked on this.","","","3","0",
"11.10.16","2","150074","408","120","Codierung","","0","326_FEAT-6724: PDCS: Testsequence Execution Progress Monitoring. Worked on this.","07:00","16:00","8","60",
"12.10.16","3","150074","408","120","Codierung","","0","326_FEAT-6724: PDCS: Testsequence Execution Progress Monitoring. Worked on this.","07:00","16:00","8","60",
"13.10.16","4","150074","408","120","Codierung","","100","326_FEAT-6724: PDCS: Testsequence Execution Progress Monitoring. Worked on this.","07:00","16:00","5","60",
"13.10.16","4","150074","446","101","PM/Mod/Meetings","","0","326_ORG-9120: PDCS: Delivery. Worked on this.","","","3","0",
"14.10.16","5","150074","420","160","Dokumentation","","100","326_ORG-9120: PDCS: Documentation. Completed","07:00","16:00","1","60",
"14.10.16","5","150074","457","101","PM/Mod/Meetings","","100","326_ORG-9120: PDCS: Project Managmeent / Meetings. Completed","","","7","0",
"14.10.16","5","150074","446","101","PM/Mod/Meetings","","100","326_ORG-9120: PDCS: Delivery. Completed","","","0","0",
