"20.06.16","1","130216","0","110","Engineering","","0","Wabco training support. Wabco training support","07:00","16:00","8","60",
"21.06.16","2","130216","0","110","Engineering","","0","Wabco training support. Wabco training support","07:00","16:00","8","60",
"22.06.16","3","130216","0","110","Engineering","","0","Wabco training support. Wabco training support","07:00","16:00","8","60",
"23.06.16","4","130216","0","110","Engineering","","0","Wabco training support. Wabco training support","07:00","16:00","8","60",
"24.06.16","5","150577","44","120","Codierung","","0","Create Flashjob. Create Flashjob","07:00","16:00","8","60",
