"23.05.16","1","160036","133","170","Schulung","","0","Training: Introduction to PIDT Software /sww_anlrn. Training (OTX Testing and bug-fixing)","07:00","16:00","8","60",
"24.05.16","2","160036","133","170","Schulung","","0","Training: Introduction to PIDT Software /sww_anlrn. Training (OTX Testing and bug-fixing)","07:00","16:00","8","60",
"25.05.16","3","160036","133","170","Schulung","","0","Training: Introduction to PIDT Software /sww_anlrn. Training (OTX Testing and bug-fixing)","07:00","16:00","8","60",
"26.05.16","4","160036","133","170","Schulung","","0","Training: Introduction to PIDT Software /sww_anlrn. Training (OTX Testing and bug-fixing)","07:00","16:00","8","60",
"27.05.16","5","160036","133","170","Schulung","","0","Training: Introduction to PIDT Software /sww_anlrn. Training (OTX Testing and bug-fixing)","07:00","16:00","8","60",
