"01.08.16","1","150076","210","120","Codierung","","0","FEAT-6742 - Graphical Customer Actuators S.2. FEAT-6742 - Graphical Customer Actuators S.2","07:00","16:00","8","60",
"02.08.16","2","100369","9578","182","Fehlerbes. nach Ausl. (Bugzilla)","","0","#58543 WWHOBD Diagnosespeicher. bugfixing","07:00","16:00","8","60",
"03.08.16","3","160023","0","910","Urlaub","","100","Urlaub. Public Holiday","07:00","16:00","8","60",
"04.08.16","4","150076","194","120","Codierung","","0","FEAT-6436 - Integrate LL-Pool (in ConvLib). FEAT-6436 - Integrate LL-Pool (in ConvLib)","07:00","16:00","8","60",
"05.08.16","5","160051","11","101","PM/Mod/Meetings","","0","Weekly tasks AES 2016. Meeting and timesheets","07:00","16:00","1","60",
"05.08.16","5","160051","2","101","PM/Mod/Meetings","","0","Management AES 2016. Management AES 2016","","","1","0",
"05.08.16","5","150076","211","181","Fehlerbes. vor Ausl. (Bugzilla)","","0","FEAT-6746 - PRODIS.ASCS R04.08 Bugfixing. FEAT-6746 - PRODIS.ASCS R04.08 Bugfixing.","","","6","0",
