"29.08.16","1","160051","0","401","Travel","","0","Travel. Traveling to Poland","07:00","16:00","8","60",
"30.08.16","2","160051","0","401","Travel","","0","Travel. Traveling to Poland","07:00","16:00","8","60",
"31.08.16","3","130890","0","150","Inbetriebnahme","","0","Wrzesnia Support . Support","07:00","16:00","8","60",
"01.09.16","4","130890","0","150","Inbetriebnahme","","0","Wrzesnia Support . Support","07:00","16:00","8","60",
"02.09.16","5","130890","0","150","Inbetriebnahme","","0","Wrzesnia Support . Support","07:00","16:00","8","60",
