"07.11.16","1","150791","20","181","Fehlerbes. vor Ausl. (Bugzilla)","","0","10-1099: PIDT 16.4: Bugfixing. 10-1099: PIDT 16.4: Bugfixing","07:00","18:00","2","60",
"07.11.16","1","150791","127","181","Fehlerbes. vor Ausl. (Bugzilla)","","0","10-1098: PIDT 16.4: Bugfixing nach Codefreeze. 10-1098: PIDT 16.4: Bugfixing nach Codefreeze","","","8","0",
"08.11.16","2","150791","0","140","Test","","0","10-1100: CETEM Regressionstests PIDT 16.4. 10-1100: CETEM Regressionstests PIDT 16.4","07:00","16:00","8","60",
"09.11.16","3","150791","0","140","Test","","0","10-1100: CETEM Regressionstests PIDT 16.4. 10-1100: CETEM Regressionstests PIDT 16.4","07:00","16:00","8","60",
"10.11.16","4","150791","0","140","Test","","0","10-1100: CETEM Regressionstests PIDT 16.4. 10-1100: CETEM Regressionstests PIDT 16.4","07:00","16:00","8","60",
"11.11.16","5","150791","0","140","Test","","0","10-1100: CETEM Regressionstests PIDT 16.4. 10-1100: CETEM Regressionstests PIDT 16.4","07:00","16:00","6,5","60",
"11.11.16","5","160022","59","110","Engineering","","0","Weekly tasks DSE 2016. Weekly tasks DSE 2016","","","1,5","0",
