"30.05.16","1","150790","0","182","Fehlerbes. nach Ausl. (Bugzilla)","","0","OTX Support. Fixed IdentifyAndSelectVariant logic. Read through ISO Standards.","07:00","16:00","6","60",
"30.05.16","1","160051","0","101","PM/Mod/Meetings","","0","S4/DSA overall tasks 2016. Set up workstation in new office","","","2","0",
"31.05.16","2","150790","0","182","Fehlerbes. nach Ausl. (Bugzilla)","","0","OTX Support. Finished IdentifyAndSelectVariant work. Investigated PDU timeout Errors.","07:00","16:00","8","60",
"01.06.16","3","150790","0","182","Fehlerbes. nach Ausl. (Bugzilla)","","0","OTX Support. Supported testing OTX sequences (sae & smm)","07:00","16:00","8","60",
"02.06.16","4","150790","0","182","Fehlerbes. nach Ausl. (Bugzilla)","","0","OTX Support. Investigated EPS_Pilot_Zuff OTX sequence.","07:00","16:00","8","60",
"03.06.16","5","150790","0","182","Fehlerbes. nach Ausl. (Bugzilla)","","0","OTX Support. Investigated Entlueftung OTX Sequence","07:00","16:00","6,5","60",
"03.06.16","5","160022","59","110","Engineering","","0","Weekly tasks DSE 2016. Weekly tasks DSE 2016","","","1,5","0",
