"26.09.16","1","150074","447","120","Codierung","","100","326_FEAT-6266: PDCS: Hierarchical Statistics in P.PDCS. Completed Implementation","07:00","16:00","0","60",
"26.09.16","1","150074","448","120","Codierung","","0","326_FEAT-6841: PDCS: Dialogs: Browser Widget, HTML. Finalizing Implementation","","","8","0",
"27.09.16","2","150074","448","120","Codierung","","0","326_FEAT-6841: PDCS: Dialogs: Browser Widget, HTML. Finalizing Implementation","07:00","16:00","8","60",
"28.09.16","3","150074","448","120","Codierung","","0","326_FEAT-6841: PDCS: Dialogs: Browser Widget, HTML. Finalizing Implementation","07:00","16:00","8","60",
"29.09.16","4","160051","34","101","PM/Mod/Meetings","","0","Weekly tasks AES 2016. Teleconference Call & Meeting","07:00","16:00","1,5","60",
"29.09.16","4","150074","434","181","Fehlerbes. vor Ausl. (Bugzilla)","","0","326_ORG-9120: PDCS: Bugfixing. Bugfixing","","","6,5","0",
"30.09.16","5","150074","448","120","Codierung","","100","326_FEAT-6841: PDCS: Dialogs: Browser Widget, HTML. Completed Implementation","07:00","16:00","8","60",
"30.09.16","5","160025","398","170","Schulung","","100","Internal Training, Project Handover. Completed a while ago.","","","0","0",
