"18.04.16","1","150074","340","120","Codierung","","100","324_FEAT-6152: PDCS: Rework Area /pa30. Rework area implementation","07:00","16:00","6","60",
"18.04.16","1","150074","341","102","Spez: LH/PH/Design","","100","324_FEAT-6152: PDCS: Specification Rework area /pa30. Creating Polarion requirements","","","2","0",
"19.04.16","2","150074","339","181","Fehlerbes. vor Ausl. (Bugzilla)","","0","324_FEAT-6269: PDCS: PRODIS.PDCS R3.24 Bugfixing /pa30. Fixing 3.22 to 3.24 workspace errors","07:00","16:00","8","60",
"20.04.16","3","150074","339","181","Fehlerbes. vor Ausl. (Bugzilla)","","0","324_FEAT-6269: PDCS: PRODIS.PDCS R3.24 Bugfixing /pa30. Fixing 3.22 to 3.24 workspace errors","07:00","16:00","8","60",
"21.04.16","4","150074","332","130","Installation + Konfiguration","","0","324_ORG-9120: PDCS: Delivery /pa30. Delivery Documentation","07:00","16:00","3","60",
"21.04.16","4","160051","20","101","PM/Mod/Meetings","","0","Management AES 2016. General management + support","","","5","0",
"22.04.16","5","160051","15","101","PM/Mod/Meetings","","0","Management AES 2016. Timesheets + Meetings","07:00","16:00","2","60",
"22.04.16","5","160051","20","101","PM/Mod/Meetings","","0","General project management / Teamsupport AES 2016. General management + support","","","6","0",
