"05.12.16","1","150577","104","140","Test","","0","Integrationstest mit WTS 4.8.18 -eml(lz). Integrating and testing Liebherr on Prodis.Share","07:00","16:00","8","60",
"06.12.16","2","150577","104","140","Test","","0","Integrationstest mit WTS 4.8.18 -eml(lz). Integrating and testing Liebherr on Prodis.Share","07:00","16:00","8","60",
"07.12.16","3","150577","104","140","Test","","0","Integrationstest mit WTS 4.8.18 -eml(lz). Testing and Fixing reported issues","07:00","16:00","8","60",
"08.12.16","4","150577","104","140","Test","","0","Integrationstest mit WTS 4.8.18 -eml(lz). Testing and Fixing reported issues","07:00","16:00","8","60",
"09.12.16","5","160051","5","101","PM/Mod/Meetings","","0","Weekly tasks AES 2016. Timesheet and Meetings","07:00","16:00","2","60",
"09.12.16","5","150577","104","140","Test","","0","Integrationstest mit WTS 4.8.18 -eml(lz). Testing and Fixing reported issues","","","6","0",
