"11.04.16","1","150080","184","182","Fehlerbes. nach Ausl. (Bugzilla)","","0","10_ORG-9340: Bugfixing (Buffer). Dashboard state","07:00","16:00","8","60",
"12.04.16","2","150080","184","182","Fehlerbes. nach Ausl. (Bugzilla)","","0","10_ORG-9340: Bugfixing (Buffer). Dashboard state actions","07:00","16:00","8","60",
"13.04.16","3","150080","184","182","Fehlerbes. nach Ausl. (Bugzilla)","","0","10_ORG-9340: Bugfixing (Buffer). Dashboard state actions","07:00","16:00","4","60",
"13.04.16","3","150080","325","120","Codierung","","0","10_FEAT-6582: Table Styling (Background Color). Pentaho DataTables","","","4","0",
"14.04.16","4","150080","325","120","Codierung","","0","10_FEAT-6582: Table Styling (Background Color). Pentaho DataTables","07:00","16:00","8","60",
"15.04.16","5","150080","325","120","Codierung","","0","10_FEAT-6582: Table Styling (Background Color). Pentaho DataTables","07:00","16:00","8","60",
