"26.09.16","1","160023","0","920","Krankheit","","0","Off Sick 26.09.2016 - 26.09.2016. Off Sick 26.09.2016 - 26.09.2016","07:00","16:00","8","60",
"27.09.16","2","150751","60","140","Test","","0","10-1109: PIDT-511: Integrationstests CR631my6-378_jRTS326 (20). 10-1109: PIDT-511: Integrationstests CR631my6-378_jRTS326 (20)","07:00","16:00","8","60",
"28.09.16","3","150751","60","140","Test","","0","10-1109: PIDT-511: Integrationstests CR631my6-378_jRTS326 (20). 10-1109: PIDT-511: Integrationstests CR631my6-378_jRTS326 (20)","07:00","16:00","8","60",
"29.09.16","4","150751","60","140","Test","","0","10-1109: PIDT-511: Integrationstests CR631my6-378_jRTS326 (20). 10-1109: PIDT-511: Integrationstests CR631my6-378_jRTS326 (20)","07:00","16:00","4","60",
"29.09.16","4","160025","249","170","Schulung","","0","Transfer Knowledge . Transfer Knowledge","","","4","0",
"30.09.16","5","160025","249","170","Schulung","","0","Transfer Knowledge . Transfer Knowledge ","07:00","16:00","6,5","60",
"30.09.16","5","160022","60","110","Engineering","","0","Weekly tasks DSE 2016. Weekly general tasks","","","1,5","0",
