"14.11.16","1","150076","240","181","Fehlerbes. vor Ausl. (Bugzilla)","","0","FEAT-7841 PRODIS.ASCS R04.10 Bugfixing -SYT Bugs. Enhancement pdf document implementation","07:00","16:00","8","60",
"15.11.16","2","150076","240","181","Fehlerbes. vor Ausl. (Bugzilla)","","0","FEAT-7841 PRODIS.ASCS R04.10 Bugfixing -SYT Bugs. Enhancement of pdf document implementation and specification document","07:00","16:00","5","60",
"15.11.16","2","150076","256","120","Codierung","","0","FEAT-7814 Workflow Examples. Getting into the subject","","","3","0",
"16.11.16","3","150076","256","120","Codierung","","0","FEAT-7814 Workflow Examples. Getting into the subject and compiling specification document","07:00","16:00","8","60",
"17.11.16","4","150076","256","120","Codierung","","0","FEAT-7814 Workflow Examples. FEAT-7814 Workflow Examples","07:00","16:00","8","60",
"18.11.16","5","150076","256","120","Codierung","","0","FEAT-7814 Workflow Examples. FEAT-7814 Workflow Examples","07:00","16:00","7","60",
"18.11.16","5","160051","5","101","PM/Mod/Meetings","","0","Weekly tasks AES 2016. Timesheet and Meetings","","","1","0",
