"02.01.17","1","160499","9","181","Fehlerbes. vor Ausl. (Bugzilla)","","0","10-1099: PIDT 17.0: Bugfixing. 10-1099: PIDT 17.0: Bugfixing","07:00","16:00","8","60",
"03.01.17","2","160499","9","181","Fehlerbes. vor Ausl. (Bugzilla)","","0","10-1099: PIDT 17.0: Bugfixing. 10-1099: PIDT 17.0: Bugfixing","07:00","16:00","8","60",
"04.01.17","3","160499","9","181","Fehlerbes. vor Ausl. (Bugzilla)","","0","10-1099: PIDT 17.0: Bugfixing. 10-1099: PIDT 17.0: Bugfixing","07:00","16:00","8","60",
"05.01.17","4","160023","2940","910","Urlaub","","0","Urlaubsinfo 07.01.2017-22.01.2017. Urlaubsinfo 07.01.2017-22.01.2017","07:00","16:00","8","60",
"06.01.17","5","160023","2940","910","Urlaub","","0","Urlaubsinfo 07.01.2017-22.01.2017. Urlaubsinfo 07.01.2017-22.01.2017","07:00","16:00","8","60",
