"29.08.16","1","160025","0","404","Internal Training, Project Handover","","70","liebherr authoring. created save display parameters","07:00","16:00","8","60",
"30.08.16","2","160025","0","404","Internal Training, Project Handover","","100","liebherr authoring . finished display parameters","07:00","16:00","8","60",
"31.08.16","3","160025","0","404","Internal Training, Project Handover","","40","liebherr authoring. Helped with training and started doing saving parametrization","07:00","16:00","8","60",
"01.09.16","4","160025","0","404","Internal Training, Project Handover","","90","liebherr authoring . continued with saving parametrization","07:00","16:00","8","60",
"02.09.16","5","160025","0","404","Internal Training, Project Handover","","100","Liebherr authoring. Finished paramtrization","07:00","16:00","8","60",
