"23.05.16","1","0","0","100","SOFTWARE-ENTWICKLUNG (SWE)","","0","ODX Training with Rodney. ODX Training with Rodney","07:00","16:00","8","60",
"24.05.16","2","0","0","100","SOFTWARE-ENTWICKLUNG (SWE)","","0","ODX Training with Rodney. ODX Training with Rodney","07:00","16:00","8","60",
"25.05.16","3","0","0","100","SOFTWARE-ENTWICKLUNG (SWE)","","0","ODX Training with Rodney. ODX Training with Rodney","07:00","16:00","8","60",
"26.05.16","4","150076","0","120","Codierung","","0","Export/Import from Cluster 14 to Cluster 15. Export/Import from Cluster 14 to Cluster 15","07:00","16:00","8","60",
"27.05.16","5","160051","11","101","PM/Mod/Meetings","","0","Weekly tasks AES 2016. Meeting and timesheets","07:00","16:00","1","60",
"27.05.16","5","160051","2","101","PM/Mod/Meetings","","0","Management AES 2016. Management AES 2016","","","1","0",
"27.05.16","5","150076","0","120","Codierung","","0","Export/Import from Cluster 14 to Cluster 15. Export/Import from Cluster 14 to Cluster 15","","","6","0",
