"30.05.16","1","150076","208","181","Fehlerbes. vor Ausl. (Bugzilla)","","0","FEAT-6746 - PRODIS.ASCS R04.08 Bugfixing. FEAT-6746 - PRODIS.ASCS R04.08 Bugfixing","07:00","16:00","8","60",
"31.05.16","2","150076","208","181","Fehlerbes. vor Ausl. (Bugzilla)","","0","FEAT-6746 - PRODIS.ASCS R04.08 Bugfixing. FEAT-6746 - PRODIS.ASCS R04.08 Bugfixing","07:00","16:00","8","60",
"01.06.16","3","100369","9999","182","Fehlerbes. nach Ausl. (Bugzilla)","","0","MAN OBD II Bug Fixing. MAN OBD II Bug Fixing","07:00","16:00","8","60",
"02.06.16","4","100369","9999","182","Fehlerbes. nach Ausl. (Bugzilla)","","0","MAN OBD II Bug Fixing. MAN OBD II Bug Fixing","07:00","16:00","8","60",
"03.06.16","5","100369","9999","182","Fehlerbes. nach Ausl. (Bugzilla)","","0","MAN OBD II Bug Fixing. MAN OBD II Bug Fixing","07:00","16:00","7,5","60",
"03.06.16","5","160051","5","101","PM/Mod/Meetings","","0","Weekly tasks AES 2016. Timesheet and Meetings","","","0,5","0",
