"11.07.16","1","160025","0","404","Internal Training, Project Handover","","0","PRODIS Authoring Training. PRODIS Authoring Training","07:00","16:00","8","60",
"12.07.16","2","160025","0","404","Internal Training, Project Handover","","0","PRODIS Authoring Training. PRODIS Authoring Training","07:00","16:00","8","60",
"13.07.16","3","160025","0","404","Internal Training, Project Handover","","0","PRODIS Authoring Training. PRODIS Authoring Training","07:00","16:00","8","60",
"14.07.16","4","160025","0","404","Internal Training, Project Handover","","0","PRODIS Authoring Training. PRODIS Authoring Training","07:00","16:00","8","60",
"15.07.16","5","160025","0","404","Internal Training, Project Handover","","0","PRODIS Authoring Training. PRODIS Authoring Training","07:00","16:00","8","60",
