"16.05.16","1","160036","139","170","Schulung","","0","Training: Introduction to PIDT Software /smm_anlrn. Training (OTX Testing and bug-fixing)","07:00","16:00","8","60",
"17.05.16","2","160036","139","170","Schulung","","0","Training: Introduction to PIDT Software /smm_anlrn. Training (OTX Testing and bug-fixing)","07:00","16:00","8","60",
"18.05.16","3","160036","139","170","Schulung","","0","Training: Introduction to PIDT Software /smm_anlrn. Training (OTX Testing and bug-fixing)","07:00","16:00","8","60",
"19.05.16","4","160036","139","170","Schulung","","0","Training: Introduction to PIDT Software /smm_anlrn. Training (OTX Testing and bug-fixing)","07:00","16:00","8","60",
"20.05.16","5","160036","139","170","Schulung","","0","Training: Introduction to PIDT Software /smm_anlrn. Training (OTX Testing and bug-fixing)","07:00","16:00","6,5","60",
"20.05.16","5","160022","60","110","Engineering","","0","Weekly tasks DSE 2016. Weekly general tasks","","","1,5","0",
