"02.05.16","1","160023","607","910","Urlaub","","0","Urlaubsinfo 27.04.2016-02.05.2016. Urlaub","07:00","16:00","8","60",
"03.05.16","2","150790","0","110","Engineering","","0","PIDT workspace and SVN issues.. PIDT workspace and SVN issues.","07:00","16:00","8","60",
"04.05.16","3","150790","81","120","Codierung","","0","10-1103: PIDT-494: Implementierung CR609my3-356_ZugriSchut (8). Implementierung","07:00","16:00","8","60",
"05.05.16","4","150790","81","120","Codierung","","0","10-1103: PIDT-494: Implementierung CR609my3-356_ZugriSchut (8). Implementierung","07:00","16:00","8","60",
"06.05.16","5","160051","27","101","PM/Mod/Meetings","","0","S4/DSA overall tasks 2016. Timesheets","07:00","16:00","1","60",
"06.05.16","5","150790","81","120","Codierung","","0","10-1103: PIDT-494: Implementierung CR609my3-356_ZugriSchut (8). Implementierung","","","7","0",
