"19.09.16","1","130890","343","150","Inbetriebnahme","","0","Wrzesnia Support . Support. Support","09:00","21:30","12","30",
"20.09.16","2","130890","343","150","Inbetriebnahme","","0","Wrzesnia Support . Support. Support","09:00","21:30","12","30",
"21.09.16","3","130890","343","150","Inbetriebnahme","","0","Wrzesnia Support . Support. Support","06:00","23:30","17","30",
"22.09.16","4","130890","343","150","Inbetriebnahme","","0","Wrzesnia Support . Support. Support","07:30","23:30","15,5","30",
"23.09.16","5","130890","343","150","Inbetriebnahme","","0","Wrzesnia Support . Support. Support","07:00","16:30","8,5","60",
"24.09.16","6","130890","343","150","Inbetriebnahme","","0","Wrzesnia Support . Support. Support","07:00","16:00","8","60",
"25.09.16","7","130890","343","150","Inbetriebnahme","","0","Wrzesnia Support . Support. Support","07:00","23:00","15","60",
