"23.05.16","1","160036","141","170","Schulung","","0","Training: Introduction to PIDT Software /sae_anlrn. Training: Introduction to PIDT Software /sae_anlrn","07:00","16:00","8","60",
"24.05.16","2","160036","141","170","Schulung","","0","Training: Introduction to PIDT Software /sae_anlrn. Training: Introduction to PIDT Software /sae_anlrn","07:00","17:00","9","60",
"25.05.16","3","160036","141","170","Schulung","","0","Training: Introduction to PIDT Software /sae_anlrn. Training: Introduction to PIDT Software /sae_anlrn","07:00","16:00","8","60",
"26.05.16","4","160036","141","170","Schulung","","0","Training: Introduction to PIDT Software /sae_anlrn. Training: Introduction to PIDT Software /sae_anlrn","07:00","16:00","8","60",
"27.05.16","5","160036","141","170","Schulung","","0","Training: Introduction to PIDT Software /sae_anlrn. Training: Introduction to PIDT Software /sae_anlrn","07:00","16:00","7","60",
"27.05.16","5","160022","61","110","Engineering","","0","Weekly tasks DSE 2016. Weekly tasks DSE 2016","","","1","0",
