"27.06.16","1","150080","345","120","Codierung","","0","10_FEAT-7024: Remove PDF Export button. DataTables features","07:00","16:00","8","60",
"28.06.16","2","150080","345","120","Codierung","","0","10_FEAT-7024: Remove PDF Export button. DataTables features","07:00","16:00","8","60",
"29.06.16","3","150080","345","120","Codierung","","0","10_FEAT-7024: Remove PDF Export button. DataTables features","07:00","16:00","4","60",
"29.06.16","3","150080","355","120","Codierung","","0","10_FEAT-7024: Resize and Reorder Datatable columns. DataTables features","","","4","0",
"30.06.16","4","150080","355","120","Codierung","","0","10_FEAT-7024: Resize and Reorder Datatable columns. DataTables features","07:00","16:00","8","60",
"01.07.16","5","150080","355","120","Codierung","","0","10_FEAT-7024: Resize and Reorder Datatable columns. DataTables features","07:00","16:00","8","60",
