"29.02.16","1","150789","90","140","Test","","0","10-1100: CETEM Regressionstests PIDT 16.0. PIDT 16.0 Regression testsing","07:00","16:00","8","60",
"01.03.16","2","150789","86","181","Fehlerbes. vor Ausl. (Bugzilla)","","100","10-1104: PIDT-481: Bugfixing CR602my4-352_AuswDMLEModu (5). PIDT 16.0 Bug fixing (Closing task)","07:00","16:00","3,2","60",
"01.03.16","2","150789","69","181","Fehlerbes. vor Ausl. (Bugzilla)","","0","10-1108: PIDT-471: Bugfixing CR539my1-322_BackUpFzgDaten (13). PIDT 16.0 Bug fixing (Closing task)","","","3,2","0",
"01.03.16","2","150789","6","182","Fehlerbes. nach Ausl. (Bugzilla)","","0","PIDT 16.0: Bugfixing aus Vorrelease. PIDT 16.0 Bug fixing","","","1,6","0",
"02.03.16","3","150789","6","182","Fehlerbes. nach Ausl. (Bugzilla)","","0","PIDT 16.0: Bugfixing aus Vorrelease. PIDT 16.0 Bug fixing and verification","07:00","16:00","8","60",
"03.03.16","4","150790","0","110","Engineering","","0","9999: Getting into subject with PIDT 16.2 features. Reading 16.2 feature requirements and getting into subject for 16.2 features","07:00","16:00","8","60",
"04.03.16","5","150790","0","110","Engineering","","0","9999: Getting into subject with PIDT 16.2 features. Reading 16.2 feature requirements and getting into subject for 16.2 features","07:00","16:00","7","60",
"04.03.16","5","160051","29","101","PM/Mod/Meetings","","0","S4/DSA overall tasks 2016. S4/DSA Weekly meetings and admin","","","1","0",
