"12.12.16","1","160051","20","101","PM: Meetings, Orga, Personalführung","","0","General project management / Teamsupport AES 2016. General Admin / Support","07:00","16:00","8","60",
"13.12.16","2","160051","20","101","PM: Meetings, Orga, Personalführung","","0","General project management / Teamsupport AES 2016. General Admin / Support","07:00","16:00","8","60",
"14.12.16","3","160051","20","101","PM: Meetings, Orga, Personalführung","","0","General project management / Teamsupport AES 2016. General Admin / Support","07:00","16:00","8","60",
"15.12.16","4","160051","20","101","PM: Meetings, Orga, Personalführung","","100","General project management / Teamsupport AES 2016. General Admin / Support","07:00","16:00","8","60",
"15.12.16","4","160051","20","101","PM: Meetings, Orga, Personalführung","","100","Management AES 2016. Closing Task","","","0","0",
"15.12.16","4","160051","12","170","Schulung","","100","Training AES 2016. Closing Task","","","0","0",
"16.12.16","5","160023","0","910","Urlaub","","0","Urlaub. Day off","07:00","16:00","8","60",
