"19.12.16","1","160217","31","110","Engineering, Projektierung","","0","WB / automatisch. Vehicle dataset issues","07:00","16:00","8","60",
"20.12.16","2","160217","31","110","Engineering, Projektierung","","0","WB / automatisch. Vehicle dataset issues","07:00","16:00","8","60",
"21.12.16","3","160023","0","910","Urlaub","","0","Urlaub. Annual Leave","07:00","16:00","8","60",
"22.12.16","4","160023","0","910","Urlaub","","0","Urlaub. Annual Leave","07:00","16:00","8","60",
"23.12.16","5","160023","0","910","Urlaub","","0","Urlaub. Leave","07:00","16:00","8","60",
