"18.07.16","1","150080","0","120","Codierung","","0","PInsight: Auth system with URL redirects. URL redirects for deeplinking","07:00","16:00","8","60",
"19.07.16","2","150080","0","120","Codierung","","0","PInsight: Auth system with URL redirects. URL redirects for deeplinking","07:00","16:00","8","60",
"20.07.16","3","150080","1","181","Fehlerbes. vor Ausl. (Bugzilla)","","0","PInsight: Bugfixing: DataTable. Fixed table header","07:00","16:00","8","60",
"21.07.16","4","150080","1","181","Fehlerbes. vor Ausl. (Bugzilla)","","0","PInsight: Bugfixing: DataTable. Fixed table header","07:00","16:00","8","60",
"22.07.16","5","150080","1","181","Fehlerbes. vor Ausl. (Bugzilla)","","0","PInsight: Bugfixing: DataTable. Fixed table header","07:00","16:00","8","60",
