"06.03.17","1","150075","483","120","Entwicklung: Codierung, Schaltplanerstellung, PCB-Layout","","0","328_FEAT-7829 - Visualization. Visualization - rework elements.","07:00","16:00","10","60",
"07.03.17","2","150075","483","120","Entwicklung: Codierung, Schaltplanerstellung, PCB-Layout","","0","328_FEAT-7829 - Visualization. Visualization Rework & Testing","07:00","16:00","9","60",
"08.03.17","3","150075","483","120","Entwicklung: Codierung, Schaltplanerstellung, PCB-Layout","","0","328_FEAT-7829 - Visualization. Documentation for Visualization","07:00","16:00","7","60",
"08.03.17","3","150074","584","124","Design, Entwicklung und Test","","0","328_FEAT-7916: Dialogs/Overviews Rework (AP16). Development","","","1","0",
"09.03.17","4","150075","483","120","Entwicklung: Codierung, Schaltplanerstellung, PCB-Layout","","0","328_FEAT-7829 - Visualization. Training Slides: Visualization","07:00","16:00","5","60",
"09.03.17","4","160023","0","910","Urlaub","","0","Time off - Overtime Leave. Overtime used.","","","3","0",
"10.03.17","5","150075","483","120","Entwicklung: Codierung, Schaltplanerstellung, PCB-Layout","","0","328_FEAT-7829 - Visualization. Training Slides & Tests: Visualization","07:00","16:00","6","60",
"10.03.17","5","160023","0","910","Urlaub","","0","Time off - Annual Leave. Leave","","","2","0",
