"09.01.17","1","170051","0","170","Schulung","","0","Training AES 2017. MAN training","07:00","16:00","8","60",
"10.01.17","2","170051","0","170","Schulung","","0","Training AES 2017. MAN training","07:00","16:00","8","60",
"11.01.17","3","170051","0","170","Schulung","","0","Training AES 2017. MAN training","07:00","16:00","8","60",
"12.01.17","4","170051","0","170","Schulung","","0","Training AES 2017. MAN training","07:00","16:00","8","60",
"13.01.17","5","170051","0","170","Schulung","","0","Training AES 2017. MAN training","07:00","16:00","8","60",
