"05.06.17","1","170023","0","910","Urlaub","","0","Leave - 05.06.2017. Leave - 05.06.2017","07:00","16:00","8","60",
"05.06.17","1","160500","136","140","Test","","100","10-1014: PIDT-595: Integrationstests CR713my1-379_SchniGFS2 (5). 10-1014: PIDT-595: Integrationstests CR713my1-379_SchniGFS2 (5)","","","0","0",
"05.06.17","1","160862","18","140","Test","","100","9999: PIDT 17.0.1LS9 Integration testing. 9999: PIDT 17.0.1LS9 Integration testing","","","0","0",
"05.06.17","1","160500","19","120","Entwicklung: Codierung, Schaltplanerstellung, PCB-Layout","","100","10-1016: PIDT-526: Implementierung CR648my1-392_EntwiEreig (13). 10-1016: PIDT-526: Implementierung CR648my1-392_EntwiEreig (13)","","","0","0",
"05.06.17","1","160500","23","104","Test-Spezifikation","","100","10-1016: PIDT-526: Testspec CR648my1-392_EntwiEreig (13). 10-1016: PIDT-526: Testspec CR648my1-392_EntwiEreig (13)","","","0","0",
"05.06.17","1","160500","106","140","Test","","100","10-1015: PIDT-593: Integrationstests CR713dma1-395_DiagOhneZuend (5). 10-1015: PIDT-593: Integrationstests CR713dma1-395_DiagOhneZuend (5)","","","0","0",
"06.06.17","2","160862","0","140","Test","","0","PIDT 17.0.1LS9 Regression testing. PIDT 17.0.1LS9 Vergleichstests","07:00","16:00","8","60",
"07.06.17","3","160862","0","140","Test","","0","PIDT 17.0.1LS9 Regression testing. PIDT 17.0.1LS9 Regression testing","07:00","16:00","8","60",
"08.06.17","4","160500","0","120","Entwicklung: Codierung, Schaltplanerstellung, PCB-Layout","","0","PIDT-632: Review and test issues before CF CR720dma1-415_UpdatJava1.8_131 (3). PIDT-632: Review and test issues before CF CR720dma1-415_UpdatJava1.8_131 (3)","07:00","16:00","4","60",
"08.06.17","4","160500","127","182","Fehlerbes. nach Ausl. (Bugzilla)","","0","10-1099: PIDT 17.2: Bugfixing previous Release. 10-1099: PIDT 17.2: Bugfixing previous Release","","","4","0",
"09.06.17","5","170022","49","110","Engineering, Projektierung","","0","Weekly tasks DSE 2017. Weekly tasks DSE 2017","07:00","16:00","1,5","60",
"09.06.17","5","160500","0","104","Test-Spezifikation","","0","PIDT-632: Testspec CR720dma1-415_UpdatJava1.8_131 (3). PIDT-632: Testspec CR720dma1-415_UpdatJava1.8_131 (3)","","","6,5","0",
