"24.04.17","1","150080","534","124","Design, Entwicklung und Test","","0","DSA AAC	14_FEAT-7930-Settings-Import-Export. Upload Dashboard Picture","07:00","16:00","8","60",
"25.04.17","2","150080","534","124","Design, Entwicklung und Test","","0","DSA AAC	14_FEAT-7930-Settings-Import-Export. Worked on Upload Dashboard Picture server code","07:00","16:00","8","60",
"26.04.17","3","150080","534","124","Design, Entwicklung und Test","","0","DSA AAC	14_FEAT-7930-Settings-Import-Export. Worked on Upload Dashboard Picture server code","07:00","16:00","8","60",
"27.04.17","4","170023","0","910","Urlaub","","0","Public Holiday. Public Holiday","07:00","16:00","8","60",
"28.04.17","5","170023","0","910","Urlaub","","0","Personal Leave. Personal Leave","07:00","16:00","8","60",
