"20.03.17","1","150080","519","120","Entwicklung: Codierung, Schaltplanerstellung, PCB-Layout","","0","PRODIS.Insight Introduction. Server code introduction","07:00","16:00","6","60",
"20.03.17","1","150080","501","120","Entwicklung: Codierung, Schaltplanerstellung, PCB-Layout","","0","14_FEAT-8016: Support. Assisting team members","","","2","0",
"21.03.17","2","170023","0","910","Urlaub","","0","SA national holiday. SA national holiday","07:00","16:00","8","60",
"22.03.17","3","150080","488","181","Fehlerbes. vor Ausl. (Bugzilla)","","0","14_FEAT-7855: Bugfixing. Auth system concept","07:00","16:00","2","60",
"22.03.17","3","150080","519","120","Entwicklung: Codierung, Schaltplanerstellung, PCB-Layout","","0","PRODIS.Insight Introduction. Skylyze workshop","","","4","0",
"22.03.17","3","150080","501","120","Entwicklung: Codierung, Schaltplanerstellung, PCB-Layout","","0","14_FEAT-8016: Support. Assisting team members","","","2","0",
"23.03.17","4","150080","488","181","Fehlerbes. vor Ausl. (Bugzilla)","","0","14_FEAT-7855: Bugfixing. Auth system concept","07:00","16:00","8","60",
"24.03.17","5","170023","0","920","Krankheit","","0","Sick leave. Sick leave","07:00","16:00","8","60",
