"30.01.17","1","170156","6","120","Entwicklung: Codierung, Schaltplanerstellung, PCB-Layout","","0"," Development: coding, circuit planning, PCB layout.  Development: coding, circuit planning, PCB layout","07:00","16:00","8","60",
"31.01.17","2","170156","6","120","Entwicklung: Codierung, Schaltplanerstellung, PCB-Layout","","0"," Development: coding, circuit planning, PCB layout.  Development: coding, circuit planning, PCB layout","07:00","16:00","8","60",
"01.02.17","3","170156","6","120","Entwicklung: Codierung, Schaltplanerstellung, PCB-Layout","","0"," Development: coding, circuit planning, PCB layout.  Development: coding, circuit planning, PCB layout","07:00","16:00","8","60",
"02.02.17","4","170156","6","120","Entwicklung: Codierung, Schaltplanerstellung, PCB-Layout","","0"," Development: coding, circuit planning, PCB layout.  Development: coding, circuit planning, PCB layout","07:00","16:00","8","60",
"03.02.17","5","170156","8","120","Entwicklung: Codierung, Schaltplanerstellung, PCB-Layout","","0"," Development: coding, circuit planning, PCB layout.  Development: coding, circuit planning, PCB layout","07:00","16:00","8","60",
