"30.01.17","1","150791","266","140","Test","","0","30-9330: PIDT 16.4.2 Regressionstest. 30-9330: PIDT 16.4.2 Regressionstest","07:00","16:00","8","60",
"31.01.17","2","160499","9","182","Fehlerbes. nach Ausl. (Bugzilla)","","0","10-1099: PIDT 17.0: Bugfixing previous Release. 10-1099: PIDT 17.0: Bugfixing previous Release","07:00","16:00","8","60",
"01.02.17","3","150791","266","140","Test","","0","30-9330: PIDT 16.4.2 Regressionstest. 30-9330: PIDT 16.4.2 Regressionstest - Vergleichstests","07:00","17:00","9","60",
"02.02.17","4","160499","137","140","Test","","0","10-1080: Verifikation Bugfixes PIDT 17.0. 10-1080: Verifikation Bugfixes PIDT 17.0","07:00","16:00","8","60",
"03.02.17","5","170022","49","110","Engineering, Projektierung","","0","Weekly tasks DSE 2017. Weekly tasks DSE 2017","07:00","16:00","1,5","60",
"03.02.17","5","160499","57","120","Entwicklung: Codierung, Schaltplanerstellung, PCB-Layout","","0","10-1012: PIDT-529: Review and test issues before CF CR648my4-396_SchniMesst (3). 10-1012: PIDT-529: Review and test issues before CF CR648my4-396_SchniMesst (3)","","","3,5","0",
"03.02.17","5","170025","93","170","Schulung","","0","Training 2017. Training 2017 (DTC reading and processing)","","","3","0",
