"12.06.17","1","160500","85","120","Entwicklung: Codierung, Schaltplanerstellung, PCB-Layout","","0","10-1012: PIDT-594: Review and test issues before CF CR713dma2-369_ErSollAusAblauf (8). Closing task","07:00","16:00","5","60",
"12.06.17","1","160500","93","120","Entwicklung: Codierung, Schaltplanerstellung, PCB-Layout","","0","10-1013: PIDT-609: Implementierung CR714dma2-413_VerschVonRouti (5). getting into subject","","","3","0",
"13.06.17","2","160500","93","120","Entwicklung: Codierung, Schaltplanerstellung, PCB-Layout","","0","10-1013: PIDT-609: Implementierung CR714dma2-413_VerschVonRouti (5).  Implementierung CR714dma2-413_VerschVonRouti","07:00","16:00","8","60",
"14.06.17","3","160500","93","120","Entwicklung: Codierung, Schaltplanerstellung, PCB-Layout","","0","10-1013: PIDT-609: Implementierung CR714dma2-413_VerschVonRouti (5).  Implementierung CR714dma2-413_VerschVonRouti","07:00","16:00","8","60",
"15.06.17","4","160500","93","120","Entwicklung: Codierung, Schaltplanerstellung, PCB-Layout","","0","10-1013: PIDT-609: Implementierung CR714dma2-413_VerschVonRouti (5).  Implementierung CR714dma2-413_VerschVonRouti","07:00","16:00","8","60",
"16.06.17","5","170023","93","910","Urlaub","","0","Urlaub 16.06.2017 - Urlaub 16.06.2017. Public Holiday","07:00","16:00","8","60",
