"06.02.17","1","170051","16","101","PM: Meetings, Orga, Personalführung","","0","Management AES 2017. Interviews","07:00","16:00","2","60",
"06.02.17","1","170051","13","101","PM: Meetings, Orga, Personalführung","","0","General project management / Teamsupport AES 2017. General Admin / Support","","","6","0",
"07.02.17","2","170051","16","101","PM: Meetings, Orga, Personalführung","","0","Management AES 2017. Interviews","07:00","16:00","2","60",
"07.02.17","2","170051","13","101","PM: Meetings, Orga, Personalführung","","0","General project management / Teamsupport AES 2017. General Admin / Support","","","6","0",
"08.02.17","3","170051","16","101","PM: Meetings, Orga, Personalführung","","0","Management AES 2017. Interviews","07:00","16:00","2","60",
"08.02.17","3","170051","13","101","PM: Meetings, Orga, Personalführung","","0","General project management / Teamsupport AES 2017. General Admin / Support","","","6","0",
"09.02.17","4","170023","0","910","Urlaub","","0","Urlaub. Time Off","07:00","16:00","4","60",
"09.02.17","4","170051","13","101","PM: Meetings, Orga, Personalführung","","0","General project management / Teamsupport AES 2017. General Admin / Support","","","4","0",
"10.02.17","5","170051","13","101","PM: Meetings, Orga, Personalführung","","0","General project management / Teamsupport AES 2017. General Admin / Support","07:00","16:00","8","60",
