"03.04.17","1","160500","22","120","Entwicklung: Codierung, Schaltplanerstellung, PCB-Layout","","0","10-1016: CR648my1-392_EntwiEreig. Implementation. Implementation","07:00","16:00","8","60",
"04.04.17","2","160500","22","120","Entwicklung: Codierung, Schaltplanerstellung, PCB-Layout","","0","10-1016: CR648my1-392_EntwiEreig. Implementation. Implementation","07:00","16:00","6,5","60",
"04.04.17","2","160500","31","101","PM: Meetings, Orga, Personalführung","","0","10-9120: PIDT 17.0: Meetings and Preparation. S4 / DSA Weekly meeting and admin","","","1,5","0",
"05.04.17","3","160500","13","104","Test-Spezifikation","","0","10-1016: PIDT-526: Testspec CR648my1-392_EntwiEreig (13). Test spec","07:00","16:00","8","60",
"06.04.17","4","160500","0","120","Entwicklung: Codierung, Schaltplanerstellung, PCB-Layout","","0","10-1016: CR648my1-392_EntwiEreig. Implementation. Review fixes","07:00","16:00","4","60",
"06.04.17","4","160500","31","101","PM: Meetings, Orga, Personalführung","","0","10-9120: PIDT 17.0: Meetings and Preparation. Feature estimation meeting and preperation","","","2,5","0",
"06.04.17","4","170051","24","170","Schulung","","0","S4/DSA Training 2017 . Training S(ervice)A(nforderung)","","","1,5","0",
"07.04.17","5","160500","0","120","Entwicklung: Codierung, Schaltplanerstellung, PCB-Layout","","0","10-1016: CR648my1-392_EntwiEreig. Implementation. Review fixes","07:00","16:00","8","60",
