"17.04.17","1","170023","0","910","Urlaub","","0","Public holiday. Public Holiday","07:00","16:00","8","60",
"18.04.17","2","170025","145","170","Schulung","","0","Training. Training","07:00","16:00","8","60",
"19.04.17","3","170025","145","170","Schulung","","0","Training. Training","07:00","16:00","8","60",
"20.04.17","4","170025","145","170","Schulung","","0","Training. Training","07:00","16:00","8","60",
"21.04.17","5","170025","145","170","Schulung","","0","Training. Training","07:00","16:00","8","60",
