"01.05.17","1","170023","0","910","Urlaub","","0","SA national holiday. SA national holiday","07:00","16:00","8","60",
"02.05.17","2","150080","488","181","Fehlerbes. vor Ausl. (Bugzilla)","","0","14_FEAT-7855: Bugfixing. Import export feature","07:00","16:00","8","60",
"03.05.17","3","170023","0","910","Urlaub","","0","Annual leave. Annual leave","07:00","16:00","4","60",
"03.05.17","3","150080","488","181","Fehlerbes. vor Ausl. (Bugzilla)","","0","14_FEAT-7855: Bugfixing. Import export feature","","","4","0",
"04.05.17","4","150080","488","181","Fehlerbes. vor Ausl. (Bugzilla)","","0","14_FEAT-7855: Bugfixing. Import export feature","07:00","16:00","6","60",
"04.05.17","4","150080","501","120","Entwicklung: Codierung, Schaltplanerstellung, PCB-Layout","","0","14_FEAT-8016: Support. Assist team members","","","2","0",
"05.05.17","5","150080","488","181","Fehlerbes. vor Ausl. (Bugzilla)","","0","14_FEAT-7855: Bugfixing. Import export feature","07:00","16:00","4","60",
"05.05.17","5","150080","501","120","Entwicklung: Codierung, Schaltplanerstellung, PCB-Layout","","0","14_FEAT-8016: Support. Assist team members","","","4","0",
