"03.04.17","1","160577","9999","182","Fehlerbes. nach Ausl. (Bugzilla)","","0","Onlane2 Bugfixing. Support Bugfixing","07:00","16:00","8","60",
"04.04.17","2","160577","9999","182","Fehlerbes. nach Ausl. (Bugzilla)","","0","Onlane2 Bugfixing. Support Bugfixing","07:00","16:00","8","60",
"05.04.17","3","160577","9999","182","Fehlerbes. nach Ausl. (Bugzilla)","","0","Onlane2 Bugfixing. Support Bugfixing","07:00","16:00","8","60",
"06.04.17","4","160577","9999","182","Fehlerbes. nach Ausl. (Bugzilla)","","0","Onlane2 Bugfixing. Support Bugfixing","07:00","16:00","8","60",
"07.04.17","5","160577","9999","182","Fehlerbes. nach Ausl. (Bugzilla)","","0","Onlane2 Bugfixing. Support Bugfixing","07:00","16:00","2","60",
"07.04.17","5","170051","16","101","PM: Meetings, Orga, Personalführung","","0","Management AES 2017. General Admin / Support","","","6","0",
