"03.04.17","1","170023","0","910","Urlaub","","0","Holiday. Time off","07:00","16:00","4","60",
"03.04.17","1","160500","21","182","Fehlerbes. nach Ausl. (Bugzilla)","","0","10-1099: PIDT 17.2: Bugfixing previous Release. Working on PIDT 17.2 bugs","","","4","0",
"04.04.17","2","160500","0","110","Engineering, Projektierung","","0","Reviewing code cleanup changes. Reviewing code cleanup changes","07:00","16:00","6,5","60",
"04.04.17","2","170051","27","101","PM: Meetings, Orga, Personalführung","","0","S4/DSA overall tasks 2017. Meetings","","","1,5","0",
"05.04.17","3","170023","1261","920","Krankheit","","0","krank 05.04.2017-06.04.2017. Sick Leave","07:00","16:00","8","60",
"06.04.17","4","170023","1261","920","Krankheit","","0","krank 05.04.2017-06.04.2017. Sick Leave","07:00","16:00","8","60",
"07.04.17","5","170051","27","101","PM: Meetings, Orga, Personalführung","","0","S4/DSA overall tasks 2017. Meetings and admin","07:00","16:00","1,5","60",
"07.04.17","5","160500","21","182","Fehlerbes. nach Ausl. (Bugzilla)","","0","10-1099: PIDT 17.2: Bugfixing previous Release. Working on PIDT 17.2 bugs","","","6,5","0",
