"20.02.17","1","170051","6","170","Schulung","","0","Training AES 2017. Learning how to use the SFD and testing.","07:00","16:00","2","60",
"20.02.17","1","150074","535","140","Test","","0","328_ORG-9120: Integration PRODIS.System 3.28. Cleaning up the workspace. All the element changes from the library were causing issues.","","","1","0",
"20.02.17","1","170023","0","910","Urlaub","","0","Leave. Leave","","","1","0",
"20.02.17","1","150074","586","160","Dokumentation","","0","328_FEAT-7880: PDCS R03.28 Documentation. Updated requirements and design documents.","","","2","0",
"20.02.17","1","150074","579","140","Test","","0","328_FEAT-7919: Test Management/Test Coverage. Working on test cases for User Identification","","","2","0",
"21.02.17","2","170023","0","910","Urlaub","","0","Leave. Leave","07:00","16:00","3","60",
"21.02.17","2","170051","6","170","Schulung","","0","Training AES 2017. Learning how to use the SFD and testing.","","","3,5","0",
"21.02.17","2","150074","535","140","Test","","0","328_ORG-9120: Integration PRODIS.System 3.28. Publish, Release, SFD testing.","","","1,5","0",
"22.02.17","3","170023","0","910","Urlaub","","0","Leave. Leave","07:00","16:00","8","60",
"23.02.17","4","170051","6","170","Schulung","","0","Training AES 2017. Learning how to use the SFD and testing.","07:00","16:00","6","60",
"23.02.17","4","150074","535","140","Test","","0","328_ORG-9120: Integration PRODIS.System 3.28. Cleaning up the workspace. All the element changes from the library were causing issues.","","","1,5","0",
"23.02.17","4","170051","7","101","PM: Meetings, Orga, Personalführung","","0","Weekly tasks AES 2017. Meetings, pulling workspaces and helping colleagues.","","","0,5","0",
"24.02.17","5","170051","7","101","PM: Meetings, Orga, Personalführung","","0","Weekly tasks AES 2017. Timesheets, helping colleages, admin and meetings.","07:00","16:00","2,5","60",
"24.02.17","5","150074","579","140","Test","","0","328_FEAT-7919: Test Management/Test Coverage. Creating and testing the User Identification feature","","","5,5","0",
