"01.05.17","1","170023","0","910","Urlaub","","0","Urlaub 27.04.2017-01.05.2017. Public Holiday","07:00","16:00","8","60",
"02.05.17","2","160500","0","120","Entwicklung: Codierung, Schaltplanerstellung, PCB-Layout","","0","CR713dma2-369_ErSollAusAblauf_Implementation. Implementation","07:00","16:00","8","60",
"03.05.17","3","160500","0","120","Entwicklung: Codierung, Schaltplanerstellung, PCB-Layout","","0","CR713dma2-369_ErSollAusAblauf_Implementation. Implementation","07:00","16:00","8","60",
"04.05.17","4","160500","0","120","Entwicklung: Codierung, Schaltplanerstellung, PCB-Layout","","0","CR713dma2-369_ErSollAusAblauf_Implementation. Implementation","07:00","16:00","8","60",
"05.05.17","5","160500","0","120","Entwicklung: Codierung, Schaltplanerstellung, PCB-Layout","","0","CR713dma2-369_ErSollAusAblauf_Implementation. Implementation","07:00","16:00","6,5","60",
"05.05.17","5","170051","25","101","PM: Meetings, Orga, Personalführung","","0","S4/DSA overall tasks 2017. S4 Weekly tasks and admin","","","1,5","0",
