"13.03.17","1","160577","9999","120","Entwicklung: Codierung, Schaltplanerstellung, PCB-Layout","","0","WABCO OnLane2 Dialogs Implementation and testing. WABCO OnLane2 Dialogs Implementation and testing","07:00","16:00","4","60",
"13.03.17","1","170023","0","910","Urlaub","","0","Annual Leave. Annual Leave","","","4","0",
"14.03.17","2","170156","6","120","Entwicklung: Codierung, Schaltplanerstellung, PCB-Layout","","0","WAB HAN, Implementation of Sitemap Mockups. WAB HAN, Implementation of Sitemap Mockups","07:00","16:00","8","60",
"15.03.17","3","170156","6","120","Entwicklung: Codierung, Schaltplanerstellung, PCB-Layout","","0","WAB HAN, Implementation of Sitemap Mockups. WAB HAN, Implementation of Sitemap Mockups","07:00","16:00","8","60",
"16.03.17","4","170025","159","170","Schulung","","0","Training. Training","07:00","16:00","8","60",
"17.03.17","5","170025","159","170","Schulung","","0","Training. Training","07:00","16:00","8","60",
