"20.02.17","1","160577","66","120","Entwicklung: Codierung, Schaltplanerstellung, PCB-Layout","","0","Camera Installation: Camera Installation inkl. ModifyInstParameter. Camera Installation: Camera Installation inkl. ModifyInstParameter","07:00","16:00","7","60",
"20.02.17","1","170051","11","101","PM: Meetings, Orga, Personalführung","","0","Weekly tasks AES 2017. Meeting - Discussion: How to improve overall quality.","","","1","0",
"21.02.17","2","160577","66","120","Entwicklung: Codierung, Schaltplanerstellung, PCB-Layout","","0","Camera Installation: Camera Installation inkl. ModifyInstParameter. Camera Installation: Camera Installation inkl. ModifyInstParameter","07:00","16:00","7","60",
"21.02.17","2","170051","11","101","PM: Meetings, Orga, Personalführung","","0","Weekly tasks AES 2017. Teamleader Meeting","","","1","0",
"22.02.17","3","160577","66","120","Entwicklung: Codierung, Schaltplanerstellung, PCB-Layout","","0","Camera Installation: Camera Installation inkl. ModifyInstParameter. Camera Installation: Camera Installation inkl. ModifyInstParameter","07:00","16:00","7","60",
"22.02.17","3","170051","11","101","PM: Meetings, Orga, Personalführung","","0","Weekly tasks AES 2017. Meeting - Finalizing review points to Improve over all quality","","","1","0",
"23.02.17","4","160577","66","120","Entwicklung: Codierung, Schaltplanerstellung, PCB-Layout","","0","Camera Installation: Camera Installation inkl. ModifyInstParameter. Camera Installation: Camera Installation inkl. ModifyInstParameter","07:00","16:00","8","60",
"24.02.17","5","160577","66","120","Entwicklung: Codierung, Schaltplanerstellung, PCB-Layout","","0","Camera Installation: Camera Installation inkl. ModifyInstParameter. Camera Installation: Camera Installation inkl. ModifyInstParameter","07:00","16:00","7,5","60",
"24.02.17","5","170051","11","101","PM: Meetings, Orga, Personalführung","","0","Weekly tasks AES 2017. Timesheets","","","0,5","0",
