"28.11.16","1","160023","0","910","Urlaub","","0","Urlaub. Leave","07:00","16:00","8","60",
"29.11.16","2","160023","0","910","Urlaub","","0","Urlaub. Leave","07:00","16:00","8","60",
"30.11.16","3","160023","0","910","Urlaub","","0","Urlaub. Leave","07:00","16:00","8","60",
"01.12.16","4","160023","0","910","Urlaub","","0","Urlaub. Leave","07:00","16:00","8","60",
"02.12.16","5","160023","0","910","Urlaub","","0","Urlaub. Leave","07:00","16:00","8","60",
