"05.06.17","1","150080","999","120","Entwicklung: Codierung, Schaltplanerstellung, PCB-Layout","","0","2017_CSA: Insight: Implement Dashboard Categories. Restructuring of the database and creating new category databases","07:00","16:00","8","60",
"06.06.17","2","150080","999","120","Entwicklung: Codierung, Schaltplanerstellung, PCB-Layout","","0","2017_CSA: Insight: Implement Dashboard Categories. Worked on front end code for the categories drop down menu","07:00","16:00","8","60",
"07.06.17","3","150080","999","120","Entwicklung: Codierung, Schaltplanerstellung, PCB-Layout","","0","2017_CSA: Insight: Implement Dashboard Categories. Worked on the server code for categories and category lists","07:00","16:00","8","60",
"08.06.17","4","150080","999","120","Entwicklung: Codierung, Schaltplanerstellung, PCB-Layout","","0","2017_CSA: Insight: Implement Dashboard Categories. Completed the categories drop down and integrated back end and front end code","07:00","16:00","8","60",
"09.06.17","5","150080","999","120","Entwicklung: Codierung, Schaltplanerstellung, PCB-Layout","","0","2017_CSA: Insight: Implement Dashboard Categories. Worked on the delete and edit category server code","07:00","16:00","8","60",
