"03.04.17","1","160217","31","110","Engineering, Projektierung","","0","WB / automatisch. f/u Status VehicleData retrieval issue - 79TW7Z","07:00","16:00","8","60",
"04.04.17","2","160217","31","110","Engineering, Projektierung","","0","WB / automatisch. f/u Status VehicleData retrieval issue - 79TW7Z","07:00","16:00","8","60",
"05.04.17","3","160217","31","110","Engineering, Projektierung","","0","WB / automatisch. f/u Status VehicleData retrieval issue - 79TW7Z","07:00","16:00","8","60",
"06.04.17","4","160217","31","110","Engineering, Projektierung","","0","WB / automatisch. f/u Status VehicleData retrieval issue - 79TW7Z","07:00","16:00","4","60",
"06.04.17","4","170025","0","404","Internal Training, Project Handover","","0","Training . P.Authoring","","","4","0",
"07.04.17","5","170023","0","910","Urlaub","","0","Urlaub. Sick Leave","07:00","16:00","8","60",
