"16.01.17","1","160499","11","181","Fehlerbes. vor Ausl. (Bugzilla)","","0","10-1099: PIDT 17.0: Bugfixing. 10-1099: PIDT 17.0: Bugfixing","07:00","16:00","6","60",
"16.01.17","1","160499","80","120","Entwicklung: Codierung, Schaltplanerstellung, PCB-Layout","","0","10-1011: PIDT-530: Review and test issues before CF CR648my5-375_Entfa32Bit (5). 10-1011: PIDT-530: Review and test issues before CF CR648my5-375_Entfa32Bit (5)","","","2","0",
"17.01.17","2","160499","80","120","Entwicklung: Codierung, Schaltplanerstellung, PCB-Layout","","0","10-1011: PIDT-530: Review and test issues before CF CR648my5-375_Entfa32Bit (5). 10-1011: PIDT-530: Review and test issues before CF CR648my5-375_Entfa32Bit (5)","07:00","16:00","8","60",
"18.01.17","3","160499","11","181","Fehlerbes. vor Ausl. (Bugzilla)","","0","10-1099: PIDT 17.0: Bugfixing. 10-1099: PIDT 17.0: Bugfixing","07:00","16:00","4","60",
"18.01.17","3","160499","80","120","Entwicklung: Codierung, Schaltplanerstellung, PCB-Layout","","0","10-1011: PIDT-530: Review and test issues before CF CR648my5-375_Entfa32Bit (5). 10-1011: PIDT-530: Review and test issues before CF CR648my5-375_Entfa32Bit (5)","","","4","0",
"19.01.17","4","160499","11","181","Fehlerbes. vor Ausl. (Bugzilla)","","0","10-1099: PIDT 17.0: Bugfixing. 10-1099: PIDT 17.0: Bugfixing","07:00","16:00","8","60",
"20.01.17","5","170022","22","110","Engineering, Projektierung","","0","Weekly tasks DSE 2017. Weekly tasks DSE 2017","07:00","16:00","1,5","60",
"20.01.17","5","160499","11","181","Fehlerbes. vor Ausl. (Bugzilla)","","0","10-1099: PIDT 17.0: Bugfixing. 10-1099: PIDT 17.0: Bugfixing","","","6,5","0",
