"20.02.17","1","150080","508","181","Fehlerbes. vor Ausl. (Bugzilla)","","0","14_FEAT-8043: Bugfixing. dxDataGrid date time filter","07:00","16:00","6","60",
"20.02.17","1","150080","501","120","Entwicklung: Codierung, Schaltplanerstellung, PCB-Layout","","0","14_FEAT-8016: Support. Assist team members","","","2","0",
"21.02.17","2","150080","508","181","Fehlerbes. vor Ausl. (Bugzilla)","","0","14_FEAT-8043: Bugfixing. dxDataGrid date time filter","07:00","16:00","6","60",
"21.02.17","2","150080","501","120","Entwicklung: Codierung, Schaltplanerstellung, PCB-Layout","","0","14_FEAT-8016: Support. Assist team members","","","2","0",
"22.02.17","3","150080","508","181","Fehlerbes. vor Ausl. (Bugzilla)","","0","14_FEAT-8043: Bugfixing. dxDataGrid date time filter","07:00","16:00","8","60",
"23.02.17","4","150080","508","181","Fehlerbes. vor Ausl. (Bugzilla)","","0","14_FEAT-8043: Bugfixing. dxDataGrid library refactor","07:00","16:00","8","60",
"24.02.17","5","150080","508","181","Fehlerbes. vor Ausl. (Bugzilla)","","0","14_FEAT-8043: Bugfixing. dxDataGrid library refactor","07:00","16:00","4","60",
"24.02.17","5","170023","0","920","Krankheit","","0","Sick leave. Sick leave","","","4","0",
