"13.02.17","1","160217","31","110","Engineering, Projektierung","","0","WB / automatisch. Statistic Block BSISensorTestFinal evaluation","08:00","17:30","6,5","30",
"13.02.17","1","160217","29","140","Test","","0","WB / automatisch. Visio Park Lane Selection Menu","","","2,5","0",
"14.02.17","2","160217","31","110","Engineering, Projektierung","","0","WB / automatisch. Visio Park Lane Selection Menu","08:30","16:00","3","30",
"14.02.17","2","160217","29","140","Test","","0","WB / automatisch. GBFTT 136; after ECOS Test the Tool was stopped","","","1,5","0",
"14.02.17","2","160217","31","110","Engineering, Projektierung","","0","WB / automatisch. VisioPark DID D680","","","2,5","0",
"15.02.17","3","160217","29","140","Test","","0","WB / automatisch. Visio Park Test Stand Configuration","08:00","18:30","4","30",
"15.02.17","3","160217","31","110","Engineering, Projektierung","","0","WB / automatisch. Operation list update - DVT changes","","","6","0",
"16.02.17","4","160217","31","110","Engineering, Projektierung","","0","WB / automatisch. Workspace Statistics Clean up","08:30","18:00","2,5","30",
"16.02.17","4","160217","29","140","Test","","0","WB / automatisch. 50TQSR - drive curve","","","6,5","0",
"17.02.17","5","160217","31","110","Engineering, Projektierung","","0","WB / automatisch. Reverse gear test","08:00","16:30","2","30",
"17.02.17","5","160217","31","110","Engineering, Projektierung","","0","WB / automatisch. Servicio Impresion Screen","","","6","0",
