"23.01.17","1","170023","0","910","Urlaub","","0","Urlaub. Urlaub","07:00","16:00","8","60",
"24.01.17","2","170023","0","910","Urlaub","","0","Urlaub. Urlaub","07:00","16:00","8","60",
"25.01.17","3","170023","0","910","Urlaub","","0","Urlaub. Urlaub","07:00","16:00","8","60",
"26.01.17","4","170023","0","910","Urlaub","","0","Urlaub. Urlaub","07:00","16:00","8","60",
"27.01.17","5","170023","0","910","Urlaub","","0","Urlaub. Urlaub","07:00","16:00","8","60",
