"13.02.17","1","150080","521","120","Entwicklung: Codierung, Schaltplanerstellung, PCB-Layout","","0","PRODIS.Insight Introduction: Ashley (S4). Dashboard Preview Picture","07:00","16:00","8","60",
"14.02.17","2","150080","521","120","Entwicklung: Codierung, Schaltplanerstellung, PCB-Layout","","0","PRODIS.Insight Introduction: Ashley (S4). Dashboard Preview Picture","07:00","16:00","8","60",
"15.02.17","3","150080","521","120","Entwicklung: Codierung, Schaltplanerstellung, PCB-Layout","","0","PRODIS.Insight Introduction: Ashley (S4). Dashboard Preview Picture","07:00","16:00","8","60",
"16.02.17","4","150080","521","120","Entwicklung: Codierung, Schaltplanerstellung, PCB-Layout","","0","PRODIS.Insight Introduction: Ashley (S4). Dashboard Preview Picture","07:00","16:00","8","60",
"17.02.17","5","150080","521","120","Entwicklung: Codierung, Schaltplanerstellung, PCB-Layout","","0","PRODIS.Insight Introduction: Ashley (S4). Dashboard Preview Picture","07:00","16:00","8","60",
