"01.05.17","1","170023","0","910","Urlaub","","0","Urlaub. Public Holiday","07:00","16:00","8","60",
"02.05.17","2","150577","104","140","Test","","0","Integrationstest mit WTS 4.8.18 -eml(lz). Bug Fixing and testing","07:00","16:00","8","60",
"03.05.17","3","150577","104","140","Test","","0","Integrationstest mit WTS 4.8.18 -eml(lz). Bug Fixing and testing","07:00","16:00","8","60",
"04.05.17","4","150577","104","140","Test","","0","Integrationstest mit WTS 4.8.18 -eml(lz). Bug Fixing and testing","07:00","16:00","8","60",
"05.05.17","5","150577","104","140","Test","","0","Integrationstest mit WTS 4.8.18 -eml(lz). Creating Test report, test protocol and release notes, Testing","07:00","16:00","7","60",
"05.05.17","5","170051","19","101","PM: Meetings, Orga, Personalführung","","0","Weekly tasks AES 2017. Meetings and Timesheets","","","1","0",
