"10.04.17","1","150577","104","140","Test","","0","Integrationstest mit WTS 4.8.18 -eml(lz). Liebherr Bug Fixing","07:00","16:00","8","60",
"11.04.17","2","150577","104","140","Test","","0","Integrationstest mit WTS 4.8.18 -eml(lz). Liebherr Bug Fixing","07:00","16:00","8","60",
"12.04.17","3","150577","104","140","Test","","0","Integrationstest mit WTS 4.8.18 -eml(lz). Liebherr Bug Fixing","07:00","16:00","8","60",
"13.04.17","4","150577","104","140","Test","","0","Integrationstest mit WTS 4.8.18 -eml(lz). Liebherr Bug Fixing","07:00","16:00","7","60",
"13.04.17","4","170051","19","101","PM: Meetings, Orga, Personalführung","","0","Weekly tasks AES 2017. Meetings and Timesheets","","","1","0",
"14.04.17","5","170023","0","910","Urlaub","","0","Public Holiday. Public Holiday","07:00","16:00","8","60",
