"20.03.17","1","170023","0","910","Urlaub","","0","Time off - Annual Leave. Annual Leave","07:00","16:00","8","60",
"21.03.17","2","170023","0","910","Urlaub","","0","Public Holiday. Human Rights Day","07:00","16:00","8","60",
"22.03.17","3","150075","524","182","Fehlerbes. nach Ausl. (Bugzilla)","","0","332_FEAT-7785 - PRODIS.Lib 3.32 - Bugfix. Bugfixing","07:00","16:00","4","60",
"22.03.17","3","150074","579","140","Test","","0","(from sjv) 328_FEAT-7919: Test Management/Test Coverage. Test Cases Review & Fixing","","","2,5","0",
"22.03.17","3","170051","2","101","PM: Meetings, Orga, Personalführung","","0","Weekly tasks AES 2017. TeamViewer Review & Skype call with Edina. Adjustments on feedback done.","","","1,5","0",
"23.03.17","4","150075","524","182","Fehlerbes. nach Ausl. (Bugzilla)","","0","332_FEAT-7785 - PRODIS.Lib 3.32 - Bugfix. Bugfixing","07:00","16:00","4,5","60",
"23.03.17","4","170018","34","101","PM: Meetings, Orga, Personalführung","","0","Waiting for tasks. Waiting for tasks","","","3,5","0",
"24.03.17","5","150075","524","182","Fehlerbes. nach Ausl. (Bugzilla)","","0","332_FEAT-7785 - PRODIS.Lib 3.32 - Bugfix. Closing off bugs.","07:00","16:00","1","60",
"24.03.17","5","170018","34","101","PM: Meetings, Orga, Personalführung","","0","Waiting for tasks. Waiting for tasks","","","1,5","0",
"24.03.17","5","150074","575","181","Fehlerbes. vor Ausl. (Bugzilla)","","0","(from sjv) 328_FEAT-7921: Bugfixing. Bug fixing reviews & Testing","","","5,5","0",
