"02.01.17","1","170023","0","910","Urlaub","","0","Holiday. Time off","07:00","16:00","8","60",
"03.01.17","2","160023","0","920","Krankheit","","0","Sick leave. Sick Leave","07:00","16:00","4","60",
"03.01.17","2","160499","59","120","Entwicklung: Codierung, Schaltplanerstellung, PCB-Layout","","0","10-1015: PIDT-528: Implementierung CR648my3-393_DoIPOptim Basic. 10-1015: PIDT-528: Implementierung CR648my3-393_DoIPOptim Basic","","","4","0",
"04.01.17","3","160499","59","120","Entwicklung: Codierung, Schaltplanerstellung, PCB-Layout","","0","10-1015: PIDT-528: Implementierung CR648my3-393_DoIPOptim Basic. 10-1015: PIDT-528: Implementierung CR648my3-393_DoIPOptim Basic","07:00","16:00","8","60",
"05.01.17","4","160499","59","120","Entwicklung: Codierung, Schaltplanerstellung, PCB-Layout","","0","10-1015: PIDT-528: Implementierung CR648my3-393_DoIPOptim Basic. 10-1015: PIDT-528: Implementierung CR648my3-393_DoIPOptim Basic","07:00","16:00","8","60",
"06.01.17","5","160499","59","120","Entwicklung: Codierung, Schaltplanerstellung, PCB-Layout","","0","10-1015: PIDT-528: Implementierung CR648my3-393_DoIPOptim Basic. 10-1015: PIDT-528: Implementierung CR648my3-393_DoIPOptim Basic","07:00","16:00","8","60",
