"12.06.17","1","150577","126","140","Test","","0","Integrationstest mit WTS 4.8.18 -eml(lz). FD response test","07:00","16:00","8","60",
"13.06.17","2","150577","126","140","Test","","0","Integrationstest mit WTS 4.8.18 -eml(lz). Flashing spec review, forced flashing test","07:00","16:00","8","60",
"14.06.17","3","150076","257","120","Entwicklung: Codierung, Schaltplanerstellung, PCB-Layout","","0","FEAT-6092 Generic ISOBUS Tester S.2. Test Augmented ODX for ISOBUS","07:00","16:00","8","60",
"15.06.17","4","150577","126","140","Test","","0","Integrationstest mit WTS 4.8.18 -eml(lz). SN change test, document review","07:00","16:00","8","60",
"16.06.17","5","170023","0","910","Urlaub","","0","Time Off. Pulbic Holiday","07:00","16:00","8","60",
