"05.06.17","1","170279","13","120","Entwicklung: Codierung, Schaltplanerstellung, PCB-Layout","","0","	9999: 10-1015: PIDT-593: Implementierung CR719dma1-405_PABAusPIDT. 	9999: 10-1015: PIDT-593: Implementierung CR719dma1-405_PABAusPIDT","07:00","16:00","8","60",
"06.06.17","2","160862","0","140","Test","","0","PIDT 17.0.1LS9 Regression testing. PIDT 17.0.1LS9 Regression testing","07:00","16:00","8","60",
"07.06.17","3","160500","17","182","Fehlerbes. nach Ausl. (Bugzilla)","","0","10-1099: PIDT 17.2: Bugfixing previous Release. 10-1099: PIDT 17.2: Bugfixing previous Release","07:00","16:00","8","60",
"08.06.17","4","160500","17","182","Fehlerbes. nach Ausl. (Bugzilla)","","0","10-1099: PIDT 17.2: Bugfixing previous Release. 10-1099: PIDT 17.2: Bugfixing previous Release","07:00","16:00","8","60",
"09.06.17","5","170022","22","110","Engineering, Projektierung","","0","	Weekly tasks DSE 2017. 	Weekly tasks DSE 2017","07:00","16:00","1,5","60",
"09.06.17","5","160500","17","182","Fehlerbes. nach Ausl. (Bugzilla)","","0","10-1099: PIDT 17.2: Bugfixing previous Release. 10-1099: PIDT 17.2: Bugfixing previous Release","","","3","0",
"09.06.17","5","160500","102","140","Test","","0","10-1080: Verifikation Bugfixes PIDT 17.2. 10-1080: Verifikation Bugfixes PIDT 17.2","","","3,5","0",
