"27.03.17","1","160500","18","182","Fehlerbes. nach Ausl. (Bugzilla)","","0","10-1099: PIDT 17.2: Bugfixing previous Release. Working on PIDT 17.2 bugs","07:00","16:00","8","60",
"28.03.17","2","170023","1175","920","Krankheit","","0","krank 28.03.2017-29.03.2017. krank 28.03.2017-29.03.2017","07:00","16:00","4","60",
"28.03.17","2","160500","18","182","Fehlerbes. nach Ausl. (Bugzilla)","","0","10-1099: PIDT 17.2: Bugfixing previous Release. Working on PIDT 17.2 bugs","","","4","0",
"29.03.17","3","170023","1175","920","Krankheit","","0","krank 28.03.2017-29.03.2017. krank 28.03.2017-29.03.2017","07:00","16:00","8","60",
"30.03.17","4","160500","18","182","Fehlerbes. nach Ausl. (Bugzilla)","","0","10-1099: PIDT 17.2: Bugfixing previous Release. Working on PIDT 17.2 bugs","07:00","16:00","8","60",
"31.03.17","5","170051","28","101","PM: Meetings, Orga, Personalführung","","0","S4/DSA overall tasks 2017. Weekly general tasks","07:00","16:00","1,5","60",
"31.03.17","5","160500","18","182","Fehlerbes. nach Ausl. (Bugzilla)","","0","10-1099: PIDT 17.2: Bugfixing previous Release. Working on PIDT 17.2 bugs","","","6,5","0",
