"05.06.17","1","170018","45","101","PM: Meetings, Orga, Personalführung","","0","Waiting for tasks. Waiting for FEAT-7817 requirements","07:00","16:00","8","60",
"06.06.17","2","170018","45","101","PM: Meetings, Orga, Personalführung","","0","Waiting for tasks. Waiting for FEAT-7817 requirements","07:00","16:00","8","60",
"07.06.17","3","170018","45","101","PM: Meetings, Orga, Personalführung","","0","Waiting for tasks. Waiting for FEAT-7817 requirements","07:00","16:00","8","60",
"08.06.17","4","150577","104","140","Test","","0","Integrationstest mit WTS 4.8.18 -eml(lz). Modifying and Fixing Force Download sequence","07:00","16:00","8","60",
"09.06.17","5","150577","104","140","Test","","0","Integrationstest mit WTS 4.8.18 -eml(lz). Modifying and Fixing Force Download sequence","07:00","16:00","7","60",
"09.06.17","5","170051","19","101","PM: Meetings, Orga, Personalführung","","0","Weekly tasks AES 2017. Meetings and Timesheets","","","1","0",
