"08.05.17","1","170025","148","170","Schulung","","0","training. training","07:00","16:00","8","60",
"09.05.17","2","170025","148","170","Schulung","","0","training. training","07:00","16:00","8","60",
"10.05.17","3","170025","148","170","Schulung","","0","training. training","07:00","16:00","8","60",
"11.05.17","4","170025","148","170","Schulung","","0","training. training","07:00","16:00","8","60",
"12.05.17","5","170025","148","170","Schulung","","0","training. training","07:00","16:00","8","60",
