"27.03.17","1","160500","22","120","Entwicklung: Codierung, Schaltplanerstellung, PCB-Layout","","0","10-1016: CR648my1-392_EntwiEreig. Implementation. Implementation","07:00","16:00","8","60",
"28.03.17","2","160500","22","120","Entwicklung: Codierung, Schaltplanerstellung, PCB-Layout","","0","10-1016: CR648my1-392_EntwiEreig. Implementation. Implementation","07:00","16:00","2,5","60",
"28.03.17","2","170051","0","101","PM: Meetings, Orga, Personalführung","","0","PIDT 17.2 Estimation KickOff. PIDT 17.2 Feature Estimation meeting and preparation","","","4","0",
"28.03.17","2","170023","0","910","Urlaub","","0","Urlaub 28.03.2017-28.03.2017. Time Off","","","1,5","0",
"29.03.17","3","160500","22","120","Entwicklung: Codierung, Schaltplanerstellung, PCB-Layout","","0","10-1016: CR648my1-392_EntwiEreig. Implementation. Implementation","07:00","16:00","8","60",
"30.03.17","4","160500","22","120","Entwicklung: Codierung, Schaltplanerstellung, PCB-Layout","","0","10-1016: CR648my1-392_EntwiEreig. Implementation. Implementation","07:00","16:00","8","60",
"31.03.17","5","160500","13","104","Test-Spezifikation","","0","10-1016: PIDT-526: Testspec CR648my1-392_EntwiEreig (13). Test specification","07:00","16:00","6,5","60",
"31.03.17","5","170051","25","101","PM: Meetings, Orga, Personalführung","","0","S4/DSA overall tasks 2017. S4/DSA Meetings and admin","","","1,5","0",
