"09.01.17","1","150074","0","181","Fehlerbes. vor Ausl. (Bugzilla)","","0","9999: PDCS Bugfixing. Fixing Bug 64229","07:00","16:00","8","60",
"10.01.17","2","150074","0","181","Fehlerbes. vor Ausl. (Bugzilla)","","0","9999: PDCS Bugfixing. Fixing Bug 68932","07:00","16:00","8","60",
"11.01.17","3","150074","0","181","Fehlerbes. vor Ausl. (Bugzilla)","","0","9999: PDCS Bugfixing. Fixing Bug 65107","07:00","16:00","8","60",
"12.01.17","4","170023","0","920","Krankheit","","0","Sick leave. Sick leave","07:00","16:00","8","60",
"13.01.17","5","130890","458","150","Inbetriebnahme, Installation","","100","9999: Wrzesnia Support. Closing Task","07:00","16:00","0","60",
"13.01.17","5","130890","375","150","Inbetriebnahme, Installation","","100","9999: Wrzesnia Support. Closing Task","","","0","0",
"13.01.17","5","130890","490","120","Entwicklung: Codierung, Schaltplanerstellung, PCB-Layout","","100","MS3 IPBs: Implementierung: 003D Sonderfunktion(MFG). Closing Task","","","0","0",
"13.01.17","5","130890","512","120","Entwicklung: Codierung, Schaltplanerstellung, PCB-Layout","","100","MS3 IPBs: Implementierung: 003C Spurwechselassistent. Closing Task","","","0","0",
"13.01.17","5","130890","481","120","Entwicklung: Codierung, Schaltplanerstellung, PCB-Layout","","100","MS3 IPBs: Implementierung: 0052 Tuerelektronik Beifahrer. Closing Task","","","0","0",
"13.01.17","5","130890","480","120","Entwicklung: Codierung, Schaltplanerstellung, PCB-Layout","","100","MS3 IPBs: Implementierung: 00BB Tuer Fahrerseite hinten. Closing Task","","","0","0",
"13.01.17","5","130890","477","120","Entwicklung: Codierung, Schaltplanerstellung, PCB-Layout","","100","MS3 IPBs: Implementierung: 0042 Tuerelektronik Fahrer. Closing Task","","","0","0",
"13.01.17","5","130890","470","120","Entwicklung: Codierung, Schaltplanerstellung, PCB-Layout","","100","MS3 IPBs: Implementierung: 00BC Tuer Beifahrerseite hinten. Closing Task","","","0","0",
"13.01.17","5","150074","0","120","Entwicklung: Codierung, Schaltplanerstellung, PCB-Layout","","0","9999: PDCS Dialog Testcases. Creating testcases for PDCS Dialogs","","","8","0",
