"15.05.17","1","150076","258","181","Fehlerbes. vor Ausl. (Bugzilla)","","0","FEAT-7841 PRODIS.ASCS R04.10 Bugfixing. FEAT-7841 PRODIS.ASCS R04.10 Bugfixing","07:00","16:00","8","60",
"16.05.17","2","150076","258","181","Fehlerbes. vor Ausl. (Bugzilla)","","0","FEAT-7841 PRODIS.ASCS R04.10 Bugfixing. FEAT-7841 PRODIS.ASCS R04.10 Bugfixing","07:00","16:00","8","60",
"17.05.17","3","150076","258","181","Fehlerbes. vor Ausl. (Bugzilla)","","0","FEAT-7841 PRODIS.ASCS R04.10 Bugfixing. FEAT-7841 PRODIS.ASCS R04.10 Bugfixing","07:00","16:00","8","60",
"18.05.17","4","150076","0","150","Inbetriebnahme, Installation","","0","PRODIS.ASCS R04.10. VCI Data Logger documentation","07:00","16:00","8","60",
"19.05.17","5","170051","9","101","PM: Meetings, Orga, Personalführung","","0","Weekly tasks AES 2017. Weekly tasks AES 2017","07:00","16:00","1","60",
"19.05.17","5","170051","12","101","PM: Meetings, Orga, Personalführung","","0","Management AES 2017. Management AES 2017","","","1","0",
"19.05.17","5","150076","258","181","Fehlerbes. vor Ausl. (Bugzilla)","","0","FEAT-7841 PRODIS.ASCS R04.10 Bugfixing . FEAT-7841 PRODIS.ASCS R04.10 Bugfixing ","","","6","0",
