"10.04.17","1","170018","34","101","PM: Meetings, Orga, Personalführung","","0","Waiting for tasks. Waiting for tasks","07:00","16:00","4","60",
"10.04.17","1","150075","537","124","Design, Entwicklung und Test","","0","332_FEAT-8153 - UserInfo Dialog rework with RTS Update Functionality. Design of Rework & Test Cases","","","4","0",
"11.04.17","2","150075","537","124","Design, Entwicklung und Test","","0","332_FEAT-8153 - UserInfo Dialog rework with RTS Update Functionality. Rework","07:00","16:00","5","60",
"11.04.17","2","170018","34","101","PM: Meetings, Orga, Personalführung","","0","Waiting for tasks. Waiting for tasks","","","3","0",
"12.04.17","3","150075","537","124","Design, Entwicklung und Test","","0","332_FEAT-8153 - UserInfo Dialog rework with RTS Update Functionality. Rework","07:00","16:00","7","60",
"12.04.17","3","150075","524","182","Fehlerbes. nach Ausl. (Bugzilla)","","0","332_FEAT-7785 - PRODIS.Lib 3.32 - Bugfix. Bug fixing","","","1","0",
"13.04.17","4","150075","537","124","Design, Entwicklung und Test","","0","332_FEAT-8153 - UserInfo Dialog rework with RTS Update Functionality. Rework","07:00","16:00","8","60",
"14.04.17","5","170023","0","910","Urlaub","","0","Public Holiday - Good Friday. Public Holiday","07:00","16:00","8","60",
