"27.03.17","1","170025","145","170","Schulung","","0","Training. Training","07:00","16:00","8","60",
"28.03.17","2","170025","145","170","Schulung","","0","Training. Training","07:00","16:00","8","60",
"29.03.17","3","170025","145","170","Schulung","","0","Training. Training","07:00","16:00","8","60",
"30.03.17","4","170025","145","170","Schulung","","0","Training. Training","07:00","21:30","12,5","120",
"31.03.17","5","170025","145","170","Schulung","","0","Training. Training","07:00","16:00","8","60",
