"27.02.17","1","150080","520","120","Entwicklung: Codierung, Schaltplanerstellung, PCB-Layout","","0","PRODIS.Insight Introduction: Meggan (S4). Modal for help functionality","07:00","16:00","8","60",
"28.02.17","2","150080","520","120","Entwicklung: Codierung, Schaltplanerstellung, PCB-Layout","","0","PRODIS.Insight Introduction: Meggan (S4). Help functionality Converted directive to component ","07:00","16:00","8","60",
"01.03.17","3","150080","520","120","Entwicklung: Codierung, Schaltplanerstellung, PCB-Layout","","0","PRODIS.Insight Introduction: Meggan (S4). completed translate in template ","07:00","16:00","8","60",
"02.03.17","4","150080","520","120","Entwicklung: Codierung, Schaltplanerstellung, PCB-Layout","","0","PRODIS.Insight Introduction: Meggan (S4). Sorting Widget List Task","07:00","16:00","8","60",
"03.03.17","5","150080","520","120","Entwicklung: Codierung, Schaltplanerstellung, PCB-Layout","","0","PRODIS.Insight Introduction: Meggan (S4).  Browser Internet Explorer Support","07:00","16:00","8","60",
