"12.06.17","1","170023","0","910","Urlaub","","0","Urlaub. Leave","07:00","16:00","8","60",
"13.06.17","2","170025","398","170","Schulung","","0","Schulung. Training","07:00","16:00","8","60",
"14.06.17","3","170025","398","170","Schulung","","0","Schulung. Training","07:00","16:00","8","60",
"15.06.17","4","170025","398","170","Schulung","","0","Schulung. Training","07:00","16:00","8","60",
"16.06.17","5","170023","0","910","Urlaub","","0","Urlaub. Public Holiday","07:00","16:00","8","60",
