"29.05.17","1","160577","150","182","Fehlerbes. nach Ausl. (Bugzilla)","","0","9999: OnLane2 Bugfixing. Supporting bugfixing. Supporting OnLane2 bugfixing","07:00","16:00","5","60",
"29.05.17","1","170051","13","101","PM: Meetings, Orga, Personalführung","","0","General project management / Teamsupport AES 2017. Admin + Support","","","3","0",
"30.05.17","2","160577","150","182","Fehlerbes. nach Ausl. (Bugzilla)","","0","9999: OnLane2 Bugfixing. Supporting bugfixing. Supporting OnLane2 bugfixing","07:00","17:00","9","60",
"31.05.17","3","160577","150","182","Fehlerbes. nach Ausl. (Bugzilla)","","0","9999: OnLane2 Bugfixing. Supporting bugfixing. Supporting OnLane2 bugfixing","07:00","16:00","2","60",
"31.05.17","3","170051","13","101","PM: Meetings, Orga, Personalführung","","0","General project management / Teamsupport AES 2017. Admin + Support","","","6","0",
"01.06.17","4","160577","150","182","Fehlerbes. nach Ausl. (Bugzilla)","","0","9999: OnLane2 Bugfixing. Supporting bugfixing. Supporting OnLane2 bugfixing","07:00","16:00","1","60",
"01.06.17","4","170051","13","101","PM: Meetings, Orga, Personalführung","","0","General project management / Teamsupport AES 2017. Admin + Support","","","7","0",
"02.06.17","5","160577","150","182","Fehlerbes. nach Ausl. (Bugzilla)","","0","9999: OnLane2 Bugfixing. Supporting bugfixing. Supporting OnLane2 bugfixing","07:00","16:00","1","60",
"02.06.17","5","170051","13","101","PM: Meetings, Orga, Personalführung","","0","General project management / Teamsupport AES 2017. Admin + Support","","","7","0",
