"22.05.17","1","160500","119","104","Test-Spezifikation","","0","10-1012: PIDT-594: Testspec CR713dma2-369_ErSollAusAblauf (8). Test spec","07:00","16:00","8","60",
"23.05.17","2","160500","119","104","Test-Spezifikation","","0","10-1012: PIDT-594: Testspec CR713dma2-369_ErSollAusAblauf (8). Test spec","07:00","16:00","8","60",
"24.05.17","3","160500","85","120","Entwicklung: Codierung, Schaltplanerstellung, PCB-Layout","","0","10-1012: PIDT-594: Review and test issues before CF CR713dma2-369_ErSollAusAblauf (8). Implementation and review fixes","07:00","16:00","8","60",
"25.05.17","4","160500","85","120","Entwicklung: Codierung, Schaltplanerstellung, PCB-Layout","","0","10-1012: PIDT-594: Review and test issues before CF CR713dma2-369_ErSollAusAblauf (8). Implementation and review fixes","07:00","16:00","8","60",
"26.05.17","5","160500","85","120","Entwicklung: Codierung, Schaltplanerstellung, PCB-Layout","","0","10-1012: PIDT-594: Review and test issues before CF CR713dma2-369_ErSollAusAblauf (8). Implementation and review fixes","07:00","16:00","8","60",
