"23.01.17","1","170025 ","148","170","Schulung","","0","training . training ","07:00","16:00","8","60",
"24.01.17","2","170025","148","170","Schulung","","0","training . training ","07:00","16:00","8","60",
"25.01.17","3","170025","148","170","Schulung","","0","training . training ","07:00","16:00","8","60",
"26.01.17","4","170025","148","170","Schulung","","0","training . training ","07:00","16:00","8","60",
"27.01.17","5","170025","148","170","Schulung","","0","training . training ","07:00","16:00","8","60",
