"22.05.17","1","170025","159","170","Schulung","","0","Training. Training","07:00","16:00","8","60",
"23.05.17","2","170025","159","170","Schulung","","0","Training. Training","07:00","16:00","8","60",
"24.05.17","3","170025","159","170","Schulung","","0","Training. Training","07:00","16:00","5","60",
"24.05.17","3","160577","135","120","Entwicklung: Codierung, Schaltplanerstellung, PCB-Layout","","0","WABCO Onlane2 ECU Report format changed. WABCO Onlane2 ECU Report format changed","","","3","0",
"25.05.17","4","160577","135","120","Entwicklung: Codierung, Schaltplanerstellung, PCB-Layout","","0","WABCO Onlane2 ECU Report format changed. WABCO Onlane2 ECU Report format changed","07:00","16:00","2","60",
"25.05.17","4","160577","135","120","Entwicklung: Codierung, Schaltplanerstellung, PCB-Layout","","0","WABCO Onlane2 Guided Diagnostics changes and bug report. WABCO Onlane2 Guided Diagnostics changes and bug report","","","6","0",
"26.05.17","5","160577","135","120","Entwicklung: Codierung, Schaltplanerstellung, PCB-Layout","","0","WABCO Onlane2 Guided Diagnostics changes and bug report. WABCO Onlane2 Guided Diagnostics changes and bug report","07:00","16:00","8","60",
