"16.01.17","1","170051","17","101","PM: Meetings, Orga, Personalführung","","0","Weekly tasks AES 2017. Travel to Bratislava","07:00","16:00","8","60",
"17.01.17","2","170051","17","101","PM: Meetings, Orga, Personalführung","","0","Weekly tasks AES 2017. Travel to Bratislava","07:00","16:00","4","60",
"17.01.17","2","160375","52","120","Entwicklung: Codierung, Schaltplanerstellung, PCB-Layout","","0","VW BRA. VW BRA Coding","","","4","0",
"18.01.17","3","160375","52","120","Entwicklung: Codierung, Schaltplanerstellung, PCB-Layout","","0","VW BRA. VW BRA Coding","07:00","16:00","8","60",
"19.01.17","4","160375","52","120","Entwicklung: Codierung, Schaltplanerstellung, PCB-Layout","","0","VW BRA. VW BRA Coding","07:00","16:00","8","60",
"20.01.17","5","160375","52","120","Entwicklung: Codierung, Schaltplanerstellung, PCB-Layout","","0","VW BRA. VW BRA Coding","07:00","16:00","8","60",
"21.01.17","6","160375","52","120","Entwicklung: Codierung, Schaltplanerstellung, PCB-Layout","","0","VW BRA. VW BRA Coding","07:00","20:00","12","60",
