"13.03.17","1","160577","80","120","Entwicklung: Codierung, Schaltplanerstellung, PCB-Layout","","0","ECU Programming: Implementierung OnLane2 ECU flashen. Testing Bugfixing Gui Requirements","07:00","20:30","2,5","60",
"13.03.17","1","160577","66","120","Entwicklung: Codierung, Schaltplanerstellung, PCB-Layout","","0","Camera Installation: Camera Installation inkl. ModifyInstParameter. Testing Bugfixing Gui Requirements","","","10","0",
"14.03.17","2","160577","66","120","Entwicklung: Codierung, Schaltplanerstellung, PCB-Layout","","0","Camera Installation: Camera Installation inkl. ModifyInstParameter. Testing Bugfixing Gui Requirements","07:00","16:00","4","60",
"14.03.17","2","160577","80","120","Entwicklung: Codierung, Schaltplanerstellung, PCB-Layout","","0","ECU Programming: Implementierung OnLane2 ECU flashen. Testing Bugfixing Gui Requirements","","","4","0",
"15.03.17","3","160577","66","120","Entwicklung: Codierung, Schaltplanerstellung, PCB-Layout","","0","Camera Installation: Camera Installation inkl. ModifyInstParameter. Testing Bugfixing Gui Requirements","07:00","16:00","4","60",
"15.03.17","3","160577","80","120","Entwicklung: Codierung, Schaltplanerstellung, PCB-Layout","","0","ECU Programming: Implementierung OnLane2 ECU flashen. Testing Bugfixing Gui Requirements","","","4","0",
"16.03.17","4","160577","66","120","Entwicklung: Codierung, Schaltplanerstellung, PCB-Layout","","0","Camera Installation: Camera Installation inkl. ModifyInstParameter. Testing Bugfixing Gui Requirements","07:00","16:00","4","60",
"16.03.17","4","160577","80","120","Entwicklung: Codierung, Schaltplanerstellung, PCB-Layout","","0","ECU Programming: Implementierung OnLane2 ECU flashen. Testing Bugfixing Gui Requirements","","","4","0",
"17.03.17","5","160577","66","120","Entwicklung: Codierung, Schaltplanerstellung, PCB-Layout","","0","Camera Installation: Camera Installation inkl. ModifyInstParameter. Testing Bugfixing Gui Requirements","07:00","16:00","3","60",
"17.03.17","5","160577","80","120","Entwicklung: Codierung, Schaltplanerstellung, PCB-Layout","","0","ECU Programming: Implementierung OnLane2 ECU flashen. Testing Bugfixing Gui Requirements","","","3","0",
"17.03.17","5","170051","11","101","PM: Meetings, Orga, Personalführung","","0","Weekly tasks AES 2017. Meeting and Timesheets","","","2","0",
