"23.01.17","1","170051","13","101","PM: Meetings, Orga, Personalführung","","0","General project management / Teamsupport AES 2017. General Admin / Support","07:00","16:00","8","60",
"24.01.17","2","170051","13","101","PM: Meetings, Orga, Personalführung","","0","General project management / Teamsupport AES 2017. General Admin / Support","07:00","16:00","8","60",
"25.01.17","3","170023","0","920","Krankheit","","0","Krankheit. Off Sick","07:00","16:00","8","60",
"26.01.17","4","170051","13","101","PM: Meetings, Orga, Personalführung","","0","General project management / Teamsupport AES 2017. General Admin / Support","07:00","16:00","8","60",
"27.01.17","5","170023","0","920","Krankheit","","0","Krankheit. Off Sick","07:00","16:00","8","60",
