"17.04.17","1","170023","0","910","Urlaub","","0","Public holiday 17.04.2017. Public holiday 17.04.2017","07:00","16:00","8","60",
"18.04.17","2","160500","0","120","Entwicklung: Codierung, Schaltplanerstellung, PCB-Layout","","0","10-1016: PIDT-526: Review and test issues before CF CR648my1-392_EntwiEreig (13). 10-1016: PIDT-526: Review and test issues before CF CR648my1-392_EntwiEreig (13)","07:00","16:00","8","60",
"19.04.17","3","160500","0","120","Entwicklung: Codierung, Schaltplanerstellung, PCB-Layout","","0","10-1016: PIDT-526: Review and test issues before CF CR648my1-392_EntwiEreig (13). 10-1016: PIDT-526: Review and test issues before CF CR648my1-392_EntwiEreig (13)","07:00","16:00","8","60",
"20.04.17","4","160500","0","120","Entwicklung: Codierung, Schaltplanerstellung, PCB-Layout","","0","10-1016: PIDT-526: Review and test issues before CF CR648my1-392_EntwiEreig (13). 10-1016: PIDT-526: Review and test issues before CF CR648my1-392_EntwiEreig (13)","07:00","16:00","8","60",
"21.04.17","5","170022","49","110","Engineering, Projektierung","","0","Weekly tasks DSE 2017. Weekly tasks DSE 2017","07:00","16:00","1,5","60",
"21.04.17","5","160500","0","120","Entwicklung: Codierung, Schaltplanerstellung, PCB-Layout","","0","10-1016: PIDT-526: Review and test issues before CF CR648my1-392_EntwiEreig (13). 10-1016: PIDT-526: Review and test issues before CF CR648my1-392_EntwiEreig (13)","","","6,5","0",
