"29.05.17","1","0","0","120","Entwicklung: Codierung, Schaltplanerstellung, PCB-Layout","","0","DSA Systems. DSA Systems","07:00","16:00","8","60",
"30.05.17","2","0","0","120","Entwicklung: Codierung, Schaltplanerstellung, PCB-Layout","","0","DSA Systems. DSA Systems","07:00","16:00","5","60",
"30.05.17","2","170023","0","910","Urlaub","","0","Urlaub. Half Day","","","3","0",
"31.05.17","3","0","0","120","Entwicklung: Codierung, Schaltplanerstellung, PCB-Layout","","0","DSA Systems. DSA Systems","07:00","20:30","12,5","60",
"01.06.17","4","0","0","120","Entwicklung: Codierung, Schaltplanerstellung, PCB-Layout","","0","DSA Systems. DSA Systems","10:00","20:30","9,5","60",
"02.06.17","5","0","0","120","Entwicklung: Codierung, Schaltplanerstellung, PCB-Layout","","0","DSA Systems. DSA Systems","07:00","16:00","8","60",
