"09.01.17","1","170025","0","170","Schulung","","0","training. training","07:00","16:00","8","60",
"10.01.17","2","170025","0","170","Schulung","","0","training. training","07:00","16:00","8","60",
"11.01.17","3","170025","0","170","Schulung","","0","training. training","07:00","16:00","8","60",
"12.01.17","4","170025","0","170","Schulung","","0","training. training","07:00","16:00","8","60",
"13.01.17","5","170025","0","170","Schulung","","0","training . training","07:00","16:00","8","60",
