"09.01.17","1","160499","93","130","Konfiguration, Setup, Distribution, Prototypenbau","","0","9330: PIDT 17.0 Review und Merge. Reviewing and merging CR631my2-376_VerbeUsabi implementation","07:00","16:00","8","60",
"10.01.17","2","170051","28","101","PM: Meetings, Orga, Personalführung","","0","S4/DSA overall tasks 2017. S4 meeting","07:00","16:00","1","60",
"10.01.17","2","160499","93","130","Konfiguration, Setup, Distribution, Prototypenbau","","0","9330: PIDT 17.0 Review und Merge. Reviewing and merging CR631my2-376_VerbeUsabi implementation","","","7","0",
"11.01.17","3","170023","0","910","Urlaub","","0","Time off. Time off","07:00","16:00","1,5","60",
"11.01.17","3","160499","93","130","Konfiguration, Setup, Distribution, Prototypenbau","","0","9330: PIDT 17.0 Review und Merge. Reviewing and merging CR631my2-376_VerbeUsabi implementation","","","6,5","0",
"12.01.17","4","160499","93","130","Konfiguration, Setup, Distribution, Prototypenbau","","0","9330: PIDT 17.0 Review und Merge. Reviewing CR631my2-376_VerbeUsabi implementation","07:00","16:00","8","60",
"13.01.17","5","170051","28","101","PM: Meetings, Orga, Personalführung","","0","S4/DSA overall tasks 2017. Weekly general tasks","07:00","16:00","1,5","60",
"13.01.17","5","160499","93","130","Konfiguration, Setup, Distribution, Prototypenbau","","0","9330: PIDT 17.0 Review und Merge. Reviewing CR631my2-376_VerbeUsabi test spec","","","6,5","0",
