"27.02.17","1","150076","260","181","Fehlerbes. vor Ausl. (Bugzilla)","","0","FEAT-7841 PRODIS.ASCS R04.10 Bugfixing. ASCS Bug Fixing","07:00","16:00","8","60",
"28.02.17","2","150076","260","181","Fehlerbes. vor Ausl. (Bugzilla)","","0","FEAT-7841 PRODIS.ASCS R04.10 Bugfixing. ASCS Bug Fixing","07:00","16:00","8","60",
"01.03.17","3","150076","260","181","Fehlerbes. vor Ausl. (Bugzilla)","","0","FEAT-7841 PRODIS.ASCS R04.10 Bugfixing. ASCS Bug Fixing","07:00","16:00","8","60",
"02.03.17","4","150076","260","181","Fehlerbes. vor Ausl. (Bugzilla)","","0","FEAT-7841 PRODIS.ASCS R04.10 Bugfixing. ASCS Bug Fixing","07:00","16:00","8","60",
"03.03.17","5","150076","260","181","Fehlerbes. vor Ausl. (Bugzilla)","","0","FEAT-7841 PRODIS.ASCS R04.10 Bugfixing. ASCS Bug Fixing","07:00","16:00","7","60",
"03.03.17","5","170051","19","101","PM: Meetings, Orga, Personalführung","","0","Weekly tasks AES 2017. Timesheets and Meetings","","","1","0",
