"16.01.17","1","170025","0","170","Schulung","","0","training. training","07:00","16:00","8","60",
"17.01.17","2","170025","0","170","Schulung","","0","training. training","07:00","16:00","8","60",
"18.01.17","3","170025","0","170","Schulung","","0","training. training","07:00","16:00","8","60",
"19.01.17","4","170025","0","170","Schulung","","0","training. training","07:00","16:00","8","60",
"20.01.17","5","170025","0","170","Schulung","","0","training. training","07:00","16:00","8","60",
