"29.05.17","1","160500","93","120","Entwicklung: Codierung, Schaltplanerstellung, PCB-Layout","","0","10-1013: PIDT-609: Implementierung CR714dma2-413_VerschVonRouti (5). Implementation","07:00","16:00","8","60",
"30.05.17","2","160500","93","120","Entwicklung: Codierung, Schaltplanerstellung, PCB-Layout","","0","10-1013: PIDT-609: Implementierung CR714dma2-413_VerschVonRouti (5). Implementation","07:00","16:00","8","60",
"31.05.17","3","160500","93","120","Entwicklung: Codierung, Schaltplanerstellung, PCB-Layout","","0","10-1013: PIDT-609: Implementierung CR714dma2-413_VerschVonRouti (5). Implementation","07:00","16:00","8","60",
"01.06.17","4","160500","104","104","Test-Spezifikation","","0","10-1013: PIDT-609: Testspec CR714dma2-413_VerschVonRouti (5). Testspec","07:00","16:00","4","60",
"01.06.17","4","160500","54","182","Fehlerbes. nach Ausl. (Bugzilla)","","0","10-1099: PIDT 17.2: Bugfixing previous Release. Testspec. Bug Fixing","","","4","0",
"02.06.17","5","160500","54","182","Fehlerbes. nach Ausl. (Bugzilla)","","0","10-1099: PIDT 17.2: Bugfixing previous Release. Testspec. Bug Fixing","07:00","16:00","1,5","60",
"02.06.17","5","170051","31","101","PM: Meetings, Orga, Personalführung","","0","S4/DSA overall tasks 2017. MeetingTimesheet","","","1,5","0",
"02.06.17","5","160500","114","140","Test","","0","10-1080: Verifikation Bugfixes PIDT 17.2. Bug Fixing","","","5","0",
