"08.05.17","1","160577","0","182","Fehlerbes. nach Ausl. (Bugzilla)","","0","Fehlerbes. nach Ausl. (Bugzilla). Fehlerbes. nach Ausl. (Bugzilla)","07:00","16:00","8","60",
"09.05.17","2","160577","0","182","Fehlerbes. nach Ausl. (Bugzilla)","","0","Fehlerbes. nach Ausl. (Bugzilla). Fehlerbes. nach Ausl. (Bugzilla)","07:00","16:00","4","60",
"09.05.17","2","170155","14","185","Service, Telefon-Support","","0","WABCO Support Team HAN + Chennai. WABCO Support Team HAN + Chennai","","","4","0",
"10.05.17","3","160577","0","182","Fehlerbes. nach Ausl. (Bugzilla)","","0","Fehlerbes. nach Ausl. (Bugzilla). Fehlerbes. nach Ausl. (Bugzilla)","07:00","16:00","8","60",
"11.05.17","4","160577","0","182","Fehlerbes. nach Ausl. (Bugzilla)","","0","Fehlerbes. nach Ausl. (Bugzilla). Fehlerbes. nach Ausl. (Bugzilla)","07:00","16:00","8","60",
"12.05.17","5","160577","0","182","Fehlerbes. nach Ausl. (Bugzilla)","","0","Fehlerbes. nach Ausl. (Bugzilla). Fehlerbes. nach Ausl. (Bugzilla)","07:00","16:00","4","60",
"12.05.17","5","170155","14","185","Service, Telefon-Support","","0","WABCO Support Team HAN + Chennai. WABCO Support Team HAN + Chennai","","","3","0",
"12.05.17","5","170051","20","101","PM: Meetings, Orga, Personalführung","","0","Weekly tasks AES 2017. Meetings and timesheets","","","1","0",
