"06.02.17","1","170025","145","170","Schulung","","0","Training. Training","07:00","16:00","8","60",
"07.02.17","2","170025","145","170","Schulung","","0","Training. Training","07:00","16:00","8","60",
"08.02.17","3","170025","145","170","Schulung","","0","Training. Training","07:00","16:00","8","60",
"09.02.17","4","170025","145","170","Schulung","","0","Training. Training","07:00","16:00","8","60",
"10.02.17","5","170025","145","170","Schulung","","0","Training. Training","07:00","16:00","8","60",
