"30.01.17","1","170025","158","170","Schulung","","0","Training. Training","07:00","16:00","8","60",
"31.01.17","2","120544","0","401","Travel","","0","Travel. Travel","07:00","16:00","8","60",
"01.02.17","3","120544","0","120","Entwicklung: Codierung, Schaltplanerstellung, PCB-Layout","","0","CP6 and ECOS. CP6 and ECOS","07:00","16:00","8","60",
"02.02.17","4","120544","0","120","Entwicklung: Codierung, Schaltplanerstellung, PCB-Layout","","0","CP6 and ECOS. CP6 and ECOS","07:00","16:00","8","60",
"03.02.17","5","120544","0","120","Entwicklung: Codierung, Schaltplanerstellung, PCB-Layout","","0","CP6 and ECOS. CP6 and ECOS","07:00","16:00","8","60",
