"23.01.17","1","170025","0","170","Schulung","","0","Training. Training","07:00","16:00","8","60",
"24.01.17","2","170025","0","170","Schulung","","0","Training. Training","07:00","16:00","8","60",
"25.01.17","3","170156","0","120","Entwicklung: Codierung, Schaltplanerstellung, PCB-Layout","","0","WABCO Sitemap Implementation. WABCO Sitemap Implementation","07:00","16:00","8","60",
"26.01.17","4","170156","0","120","Entwicklung: Codierung, Schaltplanerstellung, PCB-Layout","","0","WABCO Sitemap Implementation. WABCO Sitemap Implementation","07:00","16:00","8","60",
"27.01.17","5","170156","0","120","Entwicklung: Codierung, Schaltplanerstellung, PCB-Layout","","0","WABCO Sitemap Implementation. WABCO Sitemap Implementation","07:00","16:00","8","60",
