"03.04.17","1","170036","0","170","Schulung","","0","VW.Pal SVG Getting into subject. Getting into subject on SVG","07:00","16:00","8","60",
"04.04.17","2","170051","14","170","Schulung","","0","Training AES 2017. EDA Training","07:00","16:00","2","60",
"04.04.17","2","170036","0","170","Schulung","","0","VW.Pal SVG Getting into subject. Getting into subject on SVG","","","6","0",
"05.04.17","3","170036","0","170","Schulung","","0","VW.Pal SVG Getting into subject. Getting into subject on SVG","07:00","16:00","8","60",
"06.04.17","4","170036","0","170","Schulung","","0","VW.Pal SVG Getting into subject. Getting into subject on SVG","07:00","16:00","8","60",
"07.04.17","5","170051","10","101","PM: Meetings, Orga, Personalführung","","0","Weekly tasks AES 2017. Timesheets","07:00","16:00","1","60",
"07.04.17","5","160380","83","150","Inbetriebnahme, Installation","","0","10_ORG-9350: Release 10: Vorinbetriebnahme Flashstation. Creating commissioning test sequence","","","7","0",
