"16.01.17","1","130216","160","185","Service, Telefon-Support","","0","WABCO: Support. WABCO: Support","07:00","16:00","8","60",
"17.01.17","2","170023","0","920","Krankheit","","0","Time Off. Off sick","07:00","16:00","8","60",
"18.01.17","3","130216","160","185","Service, Telefon-Support","","0","WABCO: Support. WABCO: Support","07:00","16:00","8","60",
"19.01.17","4","130216","168","101","PM: Meetings, Orga, Personalführung","","0","WABCO: Meetings. WABCO: Meetings","07:00","22:00","1","60",
"19.01.17","4","160577","100","102","Spez: LH/PH/Design","","0","Pattern Calibration: Grobdesign CODG erstellen. Implementation","","","7","0",
"20.01.17","5","160577","70","102","Spez: LH/PH/Design","","0","Workshop Calibration: Grobdesign CODG erstellen. Implementation","07:00","16:00","6,5","60",
"20.01.17","5","170051","20","101","PM: Meetings, Orga, Personalführung","","0","Weekly tasks AES 2017. meetings and timesheets","","","1,5","0",
