"23.01.17","1","170051","0","170","Schulung","","0","AngularJS. practiced feature coding with AngularJS","07:00","16:00","8","60",
"24.01.17","2","170051","0","170","Schulung","","0","AngularJS. Read articles regarding AngularJS","07:00","16:00","8","60",
"25.01.17","3","170051","0","170","Schulung","","0","Set up VM. Virtual Machine Setup and introduction to system","07:00","16:00","8","60",
"26.01.17","4","170051","0","170","Schulung","","0","Worked in system changing menu. Got familiar with system code","07:00","16:00","8","60",
"27.01.17","5","170051","0","170","Schulung","","0","Linking select options and changing menu layout. inbound input parameters to link to target parameters","07:00","16:00","8","60",
