"17.04.17","1","150676","0","150","Inbetriebnahme, Installation","","0","VW Foshan II. Onsite Support","07:00","17:30","9,5","60",
"18.04.17","2","150676","0","150","Inbetriebnahme, Installation","","0","VW Foshan II. Onsite Support","07:00","16:00","8","60",
"19.04.17","3","150676","0","150","Inbetriebnahme, Installation","","0","VW Foshan II. Onsite Support","07:00","16:00","8","60",
"20.04.17","4","170303","0","120","Entwicklung: Codierung, Schaltplanerstellung, PCB-Layout","","0","Additional CTSes VW Foshan	. Additional CTSes P1","07:00","17:30","9,5","60",
"21.04.17","5","170303","0","120","Entwicklung: Codierung, Schaltplanerstellung, PCB-Layout","","0","Additional CTSes VW Foshan	. Additional CTSes P1","07:00","17:30","9,5","60",
